Manual de Procedimentos da Operação
Módulo 5 - Submódulo 5.11
Cadastro de Informações Operacionais.
CADASTRO DE LIMITES OPERACIONAIS DE LINHAS DE TRANSMISSÃO E 
TRANSFORMADORES DA ÁREA 500/230 KV PARÁ
Código Revisão Item Vigência
CD-CT.N.5PA.02 54 2.2.4 10/07/2024
MOTIVO DA REVISÃO
Entrada em operação do novo GMTF6-02 de 230/69/13,8 kV - 150 MVA na SE Guamá, como primeira etapa 
do processo de substituição do GMTF6-01.
LISTA DE DISTRIBUIÇÃO
CELEO CELPA CNOS COSENEL COSR-NCO
COTESA ELETRONORTE ENGIE BRASIL ENERGIA EQUATORIAL ERTE
EVOLTZ STATE GRID Taesa (COS Taesa) VISUS
Manual de Procedimentos da Operação - Módulo 5 - Submódulo 5.11
 Cadastro de Informações Operacionais Código Revisão Item Vigência
CADASTRO DE LIMITES OPERACIONAIS DE LINHAS DE 
TRANSMISSÃO E TRANSFORMADORES DA ÁREA 
500/230 KV PARÁ
CD-CT.N.5PA.02 54 2.2.4 10/07/2024
RT-ONS DPL 0272/2024 - ESTUDOS PRÉ-OPERACIONAIS PARA SUBSTITUIÇÃO DO TRANSFORMADOR GMTF6-01 DA SE GUAMÁ 2 / 55
ÍNDICE
1. OBJETIVO.........................................................................................................................................5
2. CONCEITOS ......................................................................................................................................5
3. CONSIDERAÇÕES GERAIS .................................................................................................................7
4. LIMITES DE CARREGAMENTO DE LINHAS DE TRANSMISSÃO.............................................................8
4.1. LT 500 kV Marituba / Tucuruí........................................................................................................8
4.2. LT 500 kV Marituba / Vila do Conde..............................................................................................8
4.3. LT 500 kV Serra Pelada / Integradora - C1.....................................................................................8
4.4. LT 500 kV Serra Pelada / Integradora - C2.....................................................................................9
4.5. LT 500 kV Tucuruí / Vila do Conde – C1.........................................................................................9
4.6. LT 500 kV Tucuruí / Vila do Conde – C2.......................................................................................10
4.7. LT 500 kV Tucuruí / Vila do Conde – C3.......................................................................................10
4.8. LT 230 kV Carajás / Integradora – C1 ..........................................................................................10
4.9. LT 230 kV Carajás / Integradora – C2 ..........................................................................................11
4.10. LT 230 kV Carajás / Integradora – C3 ..........................................................................................11
4.11. LT 230 kV Castanhal / Marituba ..................................................................................................12
4.12. LT 230 kV Castanhal / Santa Maria – C1......................................................................................12
4.13. LT 230 kV Castanhal / Santa Maria – C2......................................................................................12
4.14. LT 230 kV Guamá / Marituba – C1...............................................................................................13
4.15. LT 230 kV Guamá / Marituba - C2 ...............................................................................................13
4.16. LT 230 kV Integradora / Onça Puma C1.......................................................................................14
4.17. LT 230 kV Integradora / Onça Puma C2.......................................................................................14
4.18. LT 230 kV Integradora / Xinguara 2 C1........................................................................................14
4.19. LT 230 kV Integradora / Xinguara 2 C2........................................................................................15
4.20. LT 230 kV Itacaiúnas / Carajás – C1 .............................................................................................15
4.21. LT 230 kV Itacaiúnas / Carajás – C2 .............................................................................................16
4.22. LT 230 kV Itacaiúnas / Carajás – C3 .............................................................................................16
4.23. LT 230 kV Marabá / Carajás.........................................................................................................16
4.24. LT 230 kV Marituba / Utinga – C1 ...............................................................................................17
4.25. LT 230 kV Marituba / Utinga - C2 ................................................................................................17
4.26. LT 230 kV Marituba / Utinga C3 ..................................................................................................18
4.27. LT 230 kV Marituba / Utinga C4 ..................................................................................................18
4.28. LT 230 kV Santana do Araguaia / Xinguara 2 – C1.......................................................................18
4.29. LT 230 kV Santana do Araguaia / Xinguara 2 – C2.......................................................................19
Manual de Procedimentos da Operação - Módulo 5 - Submódulo 5.11
 Cadastro de Informações Operacionais Código Revisão Item Vigência
CADASTRO DE LIMITES OPERACIONAIS DE LINHAS DE 
TRANSMISSÃO E TRANSFORMADORES DA ÁREA 
500/230 KV PARÁ
CD-CT.N.5PA.02 54 2.2.4 10/07/2024
RT-ONS DPL 0272/2024 - ESTUDOS PRÉ-OPERACIONAIS PARA SUBSTITUIÇÃO DO TRANSFORMADOR GMTF6-01 DA SE GUAMÁ 3 / 55
4.30. LT 230 kV Tomé Açu / Vila do Conde C2......................................................................................19
4.31. LT 230 kV Utinga / Castanhal.......................................................................................................20
4.32. LT 230 kV Utinga / Miramar - C1 .................................................................................................20
4.33. LT 230 kV Utinga / Miramar - C2 .................................................................................................20
4.34. LT 230 kV Vila do Conde / Castanhal ...........................................................................................21
4.35. LT 230 kV Vila do Conde / Guamá – C1 .......................................................................................21
4.36. LT 230 kV Vila do Conde / Guamá – C2 .......................................................................................22
5. LIMITES DE CARREGAMENTO DE TRANSFORMADORES ..................................................................23
5.1. SE Carajás – Autotransformador CJAT6-01 de 230/138/13,8 kV - 100 MVA...............................23
5.2. SE Carajás – Autotransformador CJAT6-02 de 230/138/13,8 kV - 100 MVA...............................23
5.3. SE Castanhal – Autotransformador AT1 de 230/138/13,8 kV - 150 MVA ...................................24
5.4. SE Castanhal – Autotransformador AT2 de 230/138/13,8 kV - 150 MVA ...................................24
5.5. SE Guamá – Transformador GMTF6-01 de 230/69/13,8 kV - 150 MVA ......................................25
5.6. SE Guamá – Transformador GMTF6-02 de 230/69/13,8 kV - 150 MVA ......................................26
5.7. SE Guamá – Transformador GMTF6-03 de 230/69/13,8 kV - 150 MVA ......................................26
5.8. SE Guamá – Transformador GMTF6-04 de 230/69/13,8 kV - 150 MVA ......................................27
5.9. SE Integradora - Autotransformador IGAT7-01 de 500/230/13,8 kV - 750 MVA ........................27
5.10. SE Integradora - Autotransformador IGAT7-02 de 500/230/13,8 kV - 750 MVA ........................28
5.11. SE Itacaiúnas – Autotransformador INAT6-01 de 230/138/13,8 kV - 225 MVA..........................29
5.12. SE Itacaiúnas – Autotransformador INAT6-02 de 230/138/13,8 kV - 225 MVA..........................29
5.13. SE Itacaiúnas – Autotransformador INAT7-01 de 550/230/13,8 kV - 450 MVA..........................30
5.14. SE Itacaiúnas – Autotransformador INAT7-02 de 550/230/13,8 kV - 450 MVA..........................30
5.15. SE Itacaiúnas – Autotransformador INAT7-03 de 550/230/13,8 kV - 450 MVA..........................31
5.16. SE Marabá –  Autotransformador MBAT7-01 de 550/246,8/14,8 kV - 300 MVA........................32
5.17. SE Marabá – Autotransformador MBAT7-02 de 550/242/14,5 kV - 450 MVA............................32
5.18. SE Marabá – Transformador MBTF6-02 de 230/69/13,8 kV - 33 MVA .......................................33
5.19. SE Marabá – Transformador MBTF6-03 de 230/69/13,8 kV - 33 MVA .......................................33
5.20. SE Marabá – Transformador MBTF6-04 de 230/69/13,8 kV - 33 MVA .......................................34
5.21. SE Marabá – Transformador MBTF6-05 de 230/69/13,8 kV - 100 MVA .....................................35
5.22. SE Marituba – Autotransformador MTAT7-01 de 500/230/13,8 kV - 900 MVA..........................35
5.23. SE Marituba – Transformador MTTF6-01 de 230/69/13,8 kV - 200 MVA ...................................36
5.24. SE Marituba – Transformador MTTF6-02 de 230/69/13,8 kV - 200 MVA ...................................36
5.25. SE Miramar - Transformador MMTF6-01 de 230/69/13,8 kV - 150 MVA ...................................37
5.26. SE Miramar - Transformador MMTF6-02 de 230/69/13,8 kV - 150 MVA ...................................38
Manual de Procedimentos da Operação - Módulo 5 - Submódulo 5.11
 Cadastro de Informações Operacionais Código Revisão Item Vigência
CADASTRO DE LIMITES OPERACIONAIS DE LINHAS DE 
TRANSMISSÃO E TRANSFORMADORES DA ÁREA 
500/230 KV PARÁ
CD-CT.N.5PA.02 54 2.2.4 10/07/2024
RT-ONS DPL 0272/2024 - ESTUDOS PRÉ-OPERACIONAIS PARA SUBSTITUIÇÃO DO TRANSFORMADOR GMTF6-01 DA SE GUAMÁ 4 / 55
5.27. SE Miramar - Transformador MMTF6-03 de 230/69/13,8 kV - 150 MVA ...................................38
5.28. SE Onça Puma - Autotransformador ONAT6-01 de 230/138/13,8 kV - 100 MVA .......................39
5.29. SE Onça Puma - Autotransformador ONAT6-02 de 230/138/13,8 kV - 100 MVA .......................39
5.30. SE Santa Maria – Autotransformador SRAT6-01 de 230/138/13,8 kV - 100 MVA ......................40
5.31. SE Santa Maria – Autotransformador SRAT6-02 de 230/138/13,8 kV - 100 MVA ......................41
5.32. SE Santa Maria – Autotransformador SRAT6-03 de 230/138/13,8 kV - 100 MVA ......................41
5.33. SE Santa Maria – Transformador SRTF6-01 de 230/69/13,8 kV - 150 MVA ................................42
5.34. SE Santa Maria – Transformador SRTF6-02 de 230/69/13,8 kV - 150 MVA ................................42
5.35. SE Santana do Araguaia – Autotransformador SAAT6-01 de 230/138/13,8 kV - 150 MVA ........43
5.36. SE Santana do Araguaia – Autotransformador SAAT6-02 de 230/138/13,8 kV - 150 MVA ........44
5.37. SE Santana do Araguaia – Transformador Defasador SATFD5-01 de 138/138 kV - 150 MVA.....44
5.38. SE Santana do Araguaia – Transformador Defasador SATFD5-02 de 138/138 kV - 150 MVA.....45
5.39. SE Serra Pelada - Autotransformador TF01 de 500/138/13,8 kV - 150 MVA ..............................45
5.40. SE Serra Pelada - Autotransformador TF02 de 500/138/13,8 kV - 150 MVA ..............................46
5.41. SE Tomé Açu - Autotransformador TEAT6-01 de 230/138/13,8 kV - 100 MVA...........................46
5.42. SE Tomé Açu - Autotransformador TEAT6-02 de 230/138/13,8 kV - 100 MVA...........................47
5.43. SE Utinga – Transformador UGTF6-01 de 230/69/13,8 kV - 150 MVA........................................48
5.44. SE Utinga – Transformador UGTF6-02 de 230/69/13,8 kV - 150 MVA........................................48
5.45. SE Utinga – Transformador UGTF6-03 de 230/69/13,8 kV - 150 MVA........................................49
5.46. SE Utinga – Transformador UGTF6-04 de 230/69/13,8 kV - 150 MVA........................................49
5.47. SE Vila do Conde – Autotransformador VCAT7-01 de 550/246,8/14,8 kV - 750 MVA ................50
5.48. SE Vila do Conde – Autotransformador VCAT7-02 de 550/246,8/14,8 kV - 750 MVA ................51
5.49. SE Vila do Conde – Autotransformador VCAT7-03 de 550/246,8/14,8 kV - 750 MVA ................51
5.50. SE Vila do Conde – Autotransformador VCAT7-04 de 550/246,8/14,8 kV - 750 MVA ................52
5.51. SE Vila do Conde – Transformador VCTF6-07 de 230/69/13,8 kV - 200 MVA.............................52
5.52. SE Vila do Conde – Transformador VCTF6-08 de 230/69/13,8 kV - 200 MVA.............................53
5.53. SE Xinguara 2 – Autotransformador XGAT6-01 de 230/138/13,8 kV - 150 MVA ........................54
5.54. SE Xinguara 2 – Autotransformador XGAT6-02 de 230/138/13,8 kV - 150 MVA ........................54
Manual de Procedimentos da Operação - Módulo 5 - Submódulo 5.11
 Cadastro de Informações Operacionais Código Revisão Item Vigência
CADASTRO DE LIMITES OPERACIONAIS DE LINHAS DE 
TRANSMISSÃO E TRANSFORMADORES DA ÁREA 
500/230 KV PARÁ
CD-CT.N.5PA.02 54 2.2.4 10/07/2024
RT-ONS DPL 0272/2024 - ESTUDOS PRÉ-OPERACIONAIS PARA SUBSTITUIÇÃO DO TRANSFORMADOR GMTF6-01 DA SE GUAMÁ 5 / 55
1. OBJETIVO
Apresentar os limites operacionais de linhas de transmissão e de transformadores da Rede de Operação a 
serem controlados pelos operadores dos Centros de Operação do ONS e pela Operação dos Agentes 
envolvidos.
2. CONCEITOS
2.1. Limite Operacional: Corresponde ao limite de carregamento do equipamento que deve ser observado 
pelo ONS e pelos Agentes, em condição normal de operação e ou em condição de emergência.
2.2. Alteração dos Limites Operacionais: É a alteração de limite na qual são estabelecidos novos valores, 
decorrentes de eventos que alteraram a capacidade operativa do equipamento, como por exemplo 
recapacitação, substituição de TC, modificação de característica de proteção, indisponibilidade do 
sistema de refrigeração, flexibilização por parte do Agente, etc.
2.3. Fator Limitante: Fator que impede um equipamento de atingir um limite operacional superior ao 
estabelecido de projeto. Um fator limitante ativo provoca aumento no custo de operação ou de 
expansão do SIN.
2.4. Limites de linhas de transmissão
2.4.1. Condição Normal de Operação
Situação de carregamento em que a linha de transmissão conduz continuamente corrente em valor igual ou 
inferior ao seu valor operacional, em sua condição de carregamento nominal, para a qual foi projetada.
2.4.2. Condição de Emergência de Operação
Situação de carregamento em que a linha de transmissão conduz corrente acima do seu valor operacional, 
em sua condição de carregamento superior ao nominal para a qual foi projetada, por um tempo não superior 
a 4 dias (96 horas) contínuos, ou um somatório máximo de 18 dias (432 horas) intermitentes (se somados 
em base anual todos os períodos contínuos inferiores a 4 dias).
As linhas de transmissão que se enquadrarem nessa situação terão o campo duração nas tabelas 
apresentadas neste cadastro preenchido com (*).
2.4.3. Condição Sazonal de Operação
Situação de carregamento em que a linha de transmissão transporta continuamente corrente em valor igual 
ou inferior ao seu valor operacional, em condição normal de operação e ou em condição de emergência, em 
condições de operação temporárias e específicas para diferentes períodos do ano, tais como verão-dia, 
verão-noite, inverno-dia e inverno-noite ou outro período específico do ano (meses ou estações do ano).
2.4.4. Limite Diurno 
Limite operacional a ser considerado para o período diurno. O período diurno é o intervalo entre o horário 
do amanhecer e do crepúsculo, conforme disposto nos Procedimentos de Rede.
Quando o período não for definido pelo agente, deve ser considerado o período entre às 06h00min até às 
17h59, sempre tomando como referência o horário oficial de Brasília.
2.4.5. Limite Noturno 
Limite operacional a ser considerado para o período noturno. O período noturno é o intervalo de tempo 
entre o horário do crepúsculo e do amanhecer, conforme disposto nos Procedimentos de Rede.
Quando o período não for definido pelo agente, deve ser considerado o período das 18h00 até às 05h59, 
sempre tomando como referência o horário oficial de Brasília.
Manual de Procedimentos da Operação - Módulo 5 - Submódulo 5.11
 Cadastro de Informações Operacionais Código Revisão Item Vigência
CADASTRO DE LIMITES OPERACIONAIS DE LINHAS DE 
TRANSMISSÃO E TRANSFORMADORES DA ÁREA 
500/230 KV PARÁ
CD-CT.N.5PA.02 54 2.2.4 10/07/2024
RT-ONS DPL 0272/2024 - ESTUDOS PRÉ-OPERACIONAIS PARA SUBSTITUIÇÃO DO TRANSFORMADOR GMTF6-01 DA SE GUAMÁ 6 / 55
2.5. Limites de Transformadores
2.5.1. Condição Normal de Operação 
Situação de carregamento em que o transformador conduz continuamente até a sua corrente nominal. 
Mesmo que em algum momento seja ultrapassada a sua corrente nominal, não deve ser excedida a 
temperatura máxima do óleo e ou do enrolamento, conforme limites estabelecidos na NBR 5356-7, 
respeitadas as condições, valores e prazos admitidos pelo agente.
2.5.2. Condição de Emergência de Longa Duração 
Situação de carregamento em que o transformador conduz continuamente uma corrente superior à sua 
corrente nominal, com duração não superior a 4 (quatro) horas. Mesmo que em algum momento seja 
ultrapassada a sua corrente de emergência de longa duração, não deve ser excedida a temperatura máxima 
do óleo e ou do enrolamento, conforme limites estabelecidos na NBR 5356-7, respeitadas as condições, 
valores e prazos admitidos pelo agente.
2.5.3. Condição de Emergência de Curta Duração 
Situação de carregamento em que o transformador conduz continuamente uma corrente superior à sua 
corrente de emergência de longa duração, com duração não superior a 30 (trinta) minutos. Após esse 
intervalo de tempo, deve-se retornar à condição de carregamento de longa duração.
Mesmo que em algum momento seja ultrapassada a sua corrente de emergência de curta duração, não deve 
ser excedida a temperatura máxima do óleo e ou do enrolamento, conforme limites estabelecidos na NBR 
5356-7, respeitadas as condições, valores e prazos admitidos pelo agente. Esta condição deve ser utilizada 
como último recurso antes de se efetuar corte de carga.
2.6. Preenchimento das Tabelas de Limites
2.6.1. Linhas de Transmissão
O campo “Valor Operacional” deve ser preenchido com o valor limite do equipamento a ser considerado na 
operação em tempo real.
O campo “Duração (hh:mm)” indica o período admissível para operação da linha de transmissão na condição 
de emergência.
Nas tabelas em que for detalhado o tempo de operação em determinada condição de operação de 
equipamento, deve-se utilizar tantas linhas quanto forem necessárias para o detalhamento de carregamento 
por período de tempo informado pelo Agente.
Os campos “Valor Operacional” e “Duração” das tabelas, cujos valores dependem de informação do Agente 
e não estão disponíveis para o ONS, devem ser preenchidas com “NI” (Não Informado pelo Agente).
O campo “Valor Operacional” das tabelas, referentes a valores de emergência que não são permitidos pelo 
Agente, devem ser preenchidos com “NP” (Não Permitido pelo Agente). Para esse caso, também deve ser 
preenchido o campo “Fator Limitante”.
O campo “Período do Ano” indica, quando for o caso, a sazonalidade anual definida para determinação dos 
valores operacionais em condição normal e de emergência.
O campo “Período do Dia” indica, quando for o caso, a sazonalidade diária definida para determinação dos 
valores operacionais em condição normal e de emergência.
2.6.2. Transformadores
O campo “Enrolamento (kV)” indica o terminal e a tensão de referência ai quais está relacionado o limite 
operacional nas condições normal, emergência de longa duração e emergência de curta duração.
Manual de Procedimentos da Operação - Módulo 5 - Submódulo 5.11
 Cadastro de Informações Operacionais Código Revisão Item Vigência
CADASTRO DE LIMITES OPERACIONAIS DE LINHAS DE 
TRANSMISSÃO E TRANSFORMADORES DA ÁREA 
500/230 KV PARÁ
CD-CT.N.5PA.02 54 2.2.4 10/07/2024
RT-ONS DPL 0272/2024 - ESTUDOS PRÉ-OPERACIONAIS PARA SUBSTITUIÇÃO DO TRANSFORMADOR GMTF6-01 DA SE GUAMÁ 7 / 55
O campo “Valor Operacional (A)” indica o valor de corrente limite do transformador para condição normal, 
emergência de longa duração e de curta duração, considerando como tensão nominal a indicada no campo 
“Enrolamento (kV)”.
O campo “Duração (hh:mm)” indica o período admissível para operação do transformador na condição de 
emergência de longa e emergência de curta duração.
Nas tabelas em que for detalhado o tempo de operação em determinada condição de operação de 
equipamento, deve-se utilizar tantas linhas quanto forem necessárias para o detalhamento de carregamento 
por período de tempo informado pelo Agente.
Os campos “Valor Operacional” e “Duração” das tabelas, cujos valores dependem de informação do Agente 
e não estão disponíveis para o ONS, devem ser preenchidas com “NI” (Não Informado pelo Agente).
O campo “Valor Operacional” das tabelas referentes a valores de emergência, que não são permitidos pelo 
Agente, devem ser preenchidos com “NP” (Não Permitido pelo Agente). Para esse caso, também deve ser 
preenchido o campo “Fator Limitante”.
3. CONSIDERAÇÕES GERAIS
3.1. Este Cadastro de Informações Operacionais apresenta os limites operacionais de carregamento das 
linhas de transmissão e dos transformadores da Rede de Operação, de acordo com as definições 
estabelecidas entre ANEEL, ONS e agentes, cujo processo de atualização é descrito pela RO-CD.BR.01 
- Controle de Limites de Carregamento de Linhas de Transmissão e Transformadores.
3.2. Os operadores dos Centros de Operação do ONS, nas ações de coordenação, supervisão e controle 
devem observar os limites operacionais constantes neste Cadastro de Informações Operacionais.
3.3. A operação dos agentes, em suas ações de comando e execução, deve observar os limites 
operacionais constantes neste Cadastro de Informações Operacionais.
3.4. Cabe ao agente comunicar de imediato ao Centro de Operação com o qual se relaciona qualquer 
alteração de limite que imponha restrições à operação de linha de transmissão ou de transformador.
3.5. Toda e qualquer alteração nos valores de limites operacionais constantes neste Cadastro de 
Informações Operacionais deverá ser solicitada formalmente e devidamente justificada e 
caracterizada pelo agente responsável pelo equipamento ao Centro de Operação do ONS de seu 
relacionamento. 
3.6. Caso a operação em tempo real venha a verificar qualquer possibilidade de violação do limite 
estabelecido para o equipamento, caberá ao Centro de Operação do ONS responsável tomar as 
medidas corretivas cabíveis, para que esse não ultrapasse esses valores, que só podem ser 
ultrapassados com anuência do agente.
3.7. Os valores de Limites Operacionais dos equipamentos da Rede de Operação, constantes neste 
Cadastro de Informações Operacionais, são os valores informados oficialmente e formalmente pelo 
agente.
3.8. Os limites de transformadores que constam neste Cadastro de Informações Operacionais consideram 
todos os estágios de refrigeração disponíveis. Os limites considerando os estágios de refrigeração 
indisponíveis constam nos Cadastros de Informações Operacionais de Dados de Equipamentos.
Manual de Procedimentos da Operação - Módulo 5 - Submódulo 5.11
 Cadastro de Informações Operacionais Código Revisão Item Vigência
CADASTRO DE LIMITES OPERACIONAIS DE LINHAS DE 
TRANSMISSÃO E TRANSFORMADORES DA ÁREA 
500/230 KV PARÁ
CD-CT.N.5PA.02 54 2.2.4 10/07/2024
RT-ONS DPL 0272/2024 - ESTUDOS PRÉ-OPERACIONAIS PARA SUBSTITUIÇÃO DO TRANSFORMADOR GMTF6-01 DA SE GUAMÁ 8 / 55
4. LIMITES DE CARREGAMENTO DE LINHAS DE TRANSMISSÃO
4.1. LT 500 KV MARITUBA / TUCURUÍ
Limites de condição normal de operação (Longa duração)
Período do ano Período 
do dia
Valor
operacional (A) Fator limitante
01/Jan a 31/Dez Diurno / 
Noturno 3.276 -
Limites de condição de emergência (Curta duração)
Período do ano Período 
do dia
Valor
operacional (A)
Duração 
(Hh:mm) Fator limitante
01/Jan a 31/Dez Diurno / 
Noturno 3.966 (*) -
4.2. LT 500 KV MARITUBA / VILA DO CONDE
Limites de condição normal de operação (Longa duração)
Período do ano Período 
do dia
Valor
operacional (A) Fator limitante
01/Jan a 31/Dez Diurno / 
Noturno 3.875 Cabo condutor
Limites de condição de emergência (Curta duração)
Período do ano Período 
do dia
Valor
operacional (A)
Duração 
(Hh:mm) Fator limitante
01/Jan a 31/Dez Diurno / 
Noturno 4.455 (*) Cabo condutor
4.3. LT 500 KV SERRA PELADA / INTEGRADORA - C1
Limites de condição normal de operação (Longa duração)
Período do ano Período 
do dia
Valor
operacional (A) Fator limitante
01/Jan a 31/Dez Diurno / 
Noturno 2.825 Cabo condutor
Manual de Procedimentos da Operação - Módulo 5 - Submódulo 5.11
 Cadastro de Informações Operacionais Código Revisão Item Vigência
CADASTRO DE LIMITES OPERACIONAIS DE LINHAS DE 
TRANSMISSÃO E TRANSFORMADORES DA ÁREA 
500/230 KV PARÁ
CD-CT.N.5PA.02 54 2.2.4 10/07/2024
RT-ONS DPL 0272/2024 - ESTUDOS PRÉ-OPERACIONAIS PARA SUBSTITUIÇÃO DO TRANSFORMADOR GMTF6-01 DA SE GUAMÁ 9 / 55
Limites de condição de emergência (Curta duração)
Período do ano Período 
do dia
Valor
operacional (A)
Duração 
(Hh:mm) Fator limitante
01/Jan a 31/Dez Diurno / 
Noturno 3.530 (*) Cabo condutor
4.4. LT 500 KV SERRA PELADA / INTEGRADORA - C2
Limites de condição normal de operação (Longa duração)
Período do ano Período 
do dia
Valor
operacional (A) Fator limitante
01/Jan a 31/Dez Diurno / 
Noturno 2.825 Cabo condutor
Limites de condição de emergência (Curta duração)
Período do ano Período 
do dia
Valor
operacional (A)
Duração 
(Hh:mm) Fator limitante
01/Jan a 31/Dez Diurno / 
Noturno 3.530 (*) Cabo condutor
4.5. LT 500 KV TUCURUÍ / VILA DO CONDE – C1
Limites de condição normal de operação (Longa duração)
Período do ano Período 
do dia
Valor
operacional (A) Fator limitante
01/Jan a 31/Dez Diurno / 
Noturno 2.344 -
Limites de condição de emergência (Curta duração)
Período do ano Período 
do dia
Valor
operacional (A)
Duração 
(Hh:mm) Fator limitante
01/Jan a 31/Dez Diurno / 
Noturno 2.953 (*) -
Manual de Procedimentos da Operação - Módulo 5 - Submódulo 5.11
 Cadastro de Informações Operacionais Código Revisão Item Vigência
CADASTRO DE LIMITES OPERACIONAIS DE LINHAS DE 
TRANSMISSÃO E TRANSFORMADORES DA ÁREA 
500/230 KV PARÁ
CD-CT.N.5PA.02 54 2.2.4 10/07/2024
RT-ONS DPL 0272/2024 - ESTUDOS PRÉ-OPERACIONAIS PARA SUBSTITUIÇÃO DO TRANSFORMADOR GMTF6-01 DA SE GUAMÁ 10 / 55
4.6. LT 500 KV TUCURUÍ / VILA DO CONDE – C2
Limites de condição normal de operação (Longa duração)
Período do ano Período 
do dia
Valor
operacional (A) Fator limitante
01/Jan a 31/Dez Diurno / 
Noturno 2.300 -
Limites de condição de emergência (Curta duração)
Período do ano Período 
do dia
Valor
operacional (A)
Duração 
(Hh:mm) Fator limitante
01/Jan a 31/Dez Diurno / 
Noturno 2.829 (*) -
4.7. LT 500 KV TUCURUÍ / VILA DO CONDE – C3
Limites de condição normal de operação (Longa duração)
Período do ano Período 
do dia
Valor
operacional (A) Fator limitante
01/Jan a 31/Dez Diurno / 
Noturno 2.800 -
Limites de condição de emergência (Curta duração)
Período do ano Período 
do dia
Valor
operacional (A)
Duração 
(Hh:mm) Fator limitante
01/Jan a 31/Dez Diurno / 
Noturno NP - -
4.8. LT 230 KV CARAJÁS / INTEGRADORA – C1
Limites de condição normal de operação (Longa duração)
Período do ano Período 
do dia
Valor
operacional (A) Fator limitante
01/Jan a 31/Dez Diurno / 
Noturno 549 -
Manual de Procedimentos da Operação - Módulo 5 - Submódulo 5.11
 Cadastro de Informações Operacionais Código Revisão Item Vigência
CADASTRO DE LIMITES OPERACIONAIS DE LINHAS DE 
TRANSMISSÃO E TRANSFORMADORES DA ÁREA 
500/230 KV PARÁ
CD-CT.N.5PA.02 54 2.2.4 10/07/2024
RT-ONS DPL 0272/2024 - ESTUDOS PRÉ-OPERACIONAIS PARA SUBSTITUIÇÃO DO TRANSFORMADOR GMTF6-01 DA SE GUAMÁ 11 / 55
Limites de condição de emergência (Curta duração)
Período do ano Período 
do dia
Valor
operacional (A)
Duração 
(Hh:mm) Fator limitante
01/Jan a 31/Dez Diurno / 
Noturno 692 (*) -
4.9. LT 230 KV CARAJÁS / INTEGRADORA – C2
Limites de condição normal de operação (Longa duração)
Período do ano Período 
do dia
Valor
operacional (A) Fator limitante
01/Jan a 31/Dez Diurno / 
Noturno 692 -
Limites de condição de emergência (Curta duração)
Período do ano Período 
do dia
Valor
operacional (A)
Duração 
(Hh:mm) Fator limitante
01/Jan a 31/Dez Diurno / 
Noturno 872 (*) -
4.10. LT 230 KV CARAJÁS / INTEGRADORA – C3
Limites de condição normal de operação (Longa duração)
Período do ano Período 
do dia
Valor
operacional (A) Fator limitante
01/Jan a 31/Dez Diurno / 
Noturno 692 -
Limites de condição de emergência (Curta duração)
Período do ano Período 
do dia
Valor
operacional (A)
Duração 
(Hh:mm) Fator limitante
01/Jan a 31/Dez Diurno / 
Noturno 872 (*) -
Manual de Procedimentos da Operação - Módulo 5 - Submódulo 5.11
 Cadastro de Informações Operacionais Código Revisão Item Vigência
CADASTRO DE LIMITES OPERACIONAIS DE LINHAS DE 
TRANSMISSÃO E TRANSFORMADORES DA ÁREA 
500/230 KV PARÁ
CD-CT.N.5PA.02 54 2.2.4 10/07/2024
RT-ONS DPL 0272/2024 - ESTUDOS PRÉ-OPERACIONAIS PARA SUBSTITUIÇÃO DO TRANSFORMADOR GMTF6-01 DA SE GUAMÁ 12 / 55
4.11. LT 230 KV CASTANHAL / MARITUBA
Limites de condição normal de operação (Longa duração)
Período do ano Período 
do dia
Valor
operacional (A) Fator limitante
01/Jan a 31/Dez Diurno / 
Noturno 1.735 .
Limites de condição de emergência (Curta duração)
Período do ano Período 
do dia
Valor
operacional (A)
Duração 
(Hh:mm) Fator limitante
01/Jan a 31/Dez Diurno / 
Noturno 1.995 (*) .
4.12. LT 230 KV CASTANHAL / SANTA MARIA – C1
Limites de condição normal de operação (Longa duração)
Período do ano Período 
do dia
Valor
operacional (A) Fator limitante
01/Jan a 31/Dez Diurno / 
Noturno 700 -
Limites de condição de emergência (Curta duração)
Período do ano Período 
do dia
Valor
operacional (A)
Duração 
(Hh:mm) Fator limitante
01/Jan a 31/Dez Diurno / 
Noturno 861 (*) -
4.13. LT 230 KV CASTANHAL / SANTA MARIA – C2
Limites de condição normal de operação (Longa duração)
Período do ano Período 
do dia
Valor
operacional (A) Fator limitante
01/Jan a 31/Dez Diurno / 
Noturno 586 -
Manual de Procedimentos da Operação - Módulo 5 - Submódulo 5.11
 Cadastro de Informações Operacionais Código Revisão Item Vigência
CADASTRO DE LIMITES OPERACIONAIS DE LINHAS DE 
TRANSMISSÃO E TRANSFORMADORES DA ÁREA 
500/230 KV PARÁ
CD-CT.N.5PA.02 54 2.2.4 10/07/2024
RT-ONS DPL 0272/2024 - ESTUDOS PRÉ-OPERACIONAIS PARA SUBSTITUIÇÃO DO TRANSFORMADOR GMTF6-01 DA SE GUAMÁ 13 / 55
Limites de condição de emergência (Curta duração)
Período do ano Período 
do dia
Valor
operacional (A)
Duração 
(Hh:mm) Fator limitante
01/Jan a 31/Dez Diurno / 
Noturno 738 (*) -
4.14. LT 230 KV GUAMÁ / MARITUBA – C1
Limites de condição normal de operação (Longa duração)
Período do ano Período 
do dia
Valor
operacional (A) Fator limitante
01/Jan a 31/Dez Diurno / 
Noturno 1.172 -
Limites de condição de emergência (Curta duração)
Período do ano Período 
do dia
Valor
operacional (A)
Duração 
(Hh:mm) Fator limitante
01/Jan a 31/Dez Diurno / 
Noturno 1.477 (*) -
4.15. LT 230 KV GUAMÁ / MARITUBA - C2
Limites de condição normal de operação (Longa duração)
Período do ano Período 
do dia
Valor
operacional (A) Fator limitante
01/Jan a 31/Dez Diurno / 
Noturno 1.172 -
Limites de condição de emergência (Curta duração)
Período do ano Período 
do dia
Valor
operacional (A)
Duração 
(Hh:mm) Fator limitante
01/Jan a 31/Dez Diurno / 
Noturno 1.477 (*) -
Manual de Procedimentos da Operação - Módulo 5 - Submódulo 5.11
 Cadastro de Informações Operacionais Código Revisão Item Vigência
CADASTRO DE LIMITES OPERACIONAIS DE LINHAS DE 
TRANSMISSÃO E TRANSFORMADORES DA ÁREA 
500/230 KV PARÁ
CD-CT.N.5PA.02 54 2.2.4 10/07/2024
RT-ONS DPL 0272/2024 - ESTUDOS PRÉ-OPERACIONAIS PARA SUBSTITUIÇÃO DO TRANSFORMADOR GMTF6-01 DA SE GUAMÁ 14 / 55
4.16. LT 230 KV INTEGRADORA / ONÇA PUMA C1
Limites de condição normal de operação (Longa duração)
Período do ano Período 
do dia
Valor
operacional (A) Fator limitante
01/Jan a 31/Dez Diurno / 
Noturno 715 ---
Limites de condição de emergência (Curta duração)
Período do ano Período 
do dia
Valor
operacional (A)
Duração 
(Hh:mm) Fator limitante
01/Jan a 31/Dez Diurno / 
Noturno 960 04:00 ---
4.17. LT 230 KV INTEGRADORA / ONÇA PUMA C2
Limites de condição normal de operação (Longa duração)
Período do ano Período 
do dia
Valor
operacional (A) Fator limitante
01/Jan a 31/Dez Diurno / 
Noturno 715 ---
Limites de condição de emergência (Curta duração)
Período do ano Período 
do dia
Valor
operacional (A)
Duração 
(Hh:mm) Fator limitante
01/Jan a 31/Dez Diurno / 
Noturno 960 04:00 ---
4.18. LT 230 KV INTEGRADORA / XINGUARA 2 C1
Limites de condição normal de operação (Longa duração)
Período do ano Período 
do dia
Valor
operacional (A) Fator limitante
01/Jan a 31/Dez Diurno / 
Noturno 695 -
Manual de Procedimentos da Operação - Módulo 5 - Submódulo 5.11
 Cadastro de Informações Operacionais Código Revisão Item Vigência
CADASTRO DE LIMITES OPERACIONAIS DE LINHAS DE 
TRANSMISSÃO E TRANSFORMADORES DA ÁREA 
500/230 KV PARÁ
CD-CT.N.5PA.02 54 2.2.4 10/07/2024
RT-ONS DPL 0272/2024 - ESTUDOS PRÉ-OPERACIONAIS PARA SUBSTITUIÇÃO DO TRANSFORMADOR GMTF6-01 DA SE GUAMÁ 15 / 55
Limites de condição de emergência (Curta duração)
Período do ano Período 
do dia
Valor
operacional (A)
Duração 
(Hh:mm) Fator limitante
01/Jan a 31/Dez Diurno / 
Noturno 930 (*) -
4.19. LT 230 KV INTEGRADORA / XINGUARA 2 C2
Limites de condição normal de operação (Longa duração)
Período do ano Período 
do dia
Valor
operacional (A) Fator limitante
01/Jan a 31/Dez Diurno / 
Noturno 695 -
Limites de condição de emergência (Curta duração)
Período do ano Período 
do dia
Valor
operacional (A)
Duração 
(Hh:mm) Fator limitante
01/Jan a 31/Dez Diurno / 
Noturno 930 (*) -
4.20. LT 230 KV ITACAIÚNAS / CARAJÁS – C1
Limites de condição normal de operação (Longa duração)
Período do ano Período 
do dia
Valor
operacional (A) Fator limitante
01/Jan a 31/Dez Diurno / 
Noturno 1.960 -
Limites de condição de emergência (Curta duração)
Período do ano Período 
do dia
Valor
operacional (A)
Duração 
(Hh:mm) Fator limitante
01/Jan a 31/Dez Diurno / 
Noturno NP - -
Manual de Procedimentos da Operação - Módulo 5 - Submódulo 5.11
 Cadastro de Informações Operacionais Código Revisão Item Vigência
CADASTRO DE LIMITES OPERACIONAIS DE LINHAS DE 
TRANSMISSÃO E TRANSFORMADORES DA ÁREA 
500/230 KV PARÁ
CD-CT.N.5PA.02 54 2.2.4 10/07/2024
RT-ONS DPL 0272/2024 - ESTUDOS PRÉ-OPERACIONAIS PARA SUBSTITUIÇÃO DO TRANSFORMADOR GMTF6-01 DA SE GUAMÁ 16 / 55
4.21. LT 230 KV ITACAIÚNAS / CARAJÁS – C2
Limites de condição normal de operação (Longa duração)
Período do ano Período 
do dia
Valor
operacional (A) Fator limitante
01/Jan a 31/Dez Diurno / 
Noturno 1.960 -
Limites de condição de emergência (Curta duração)
Período do ano Período 
do dia
Valor
operacional (A)
Duração 
(Hh:mm) Fator limitante
01/Jan a 31/Dez Diurno / 
Noturno 1.960 (*) -
4.22. LT 230 KV ITACAIÚNAS / CARAJÁS – C3
Limites de condição normal de operação (Longa duração)
Período do ano Período 
do dia
Valor
operacional (A) Fator limitante
01/Jan a 31/Dez Diurno / 
Noturno 1.630 -
Limites de condição de emergência (Curta duração)
Período do ano Período 
do dia
Valor
operacional (A)
Duração 
(Hh:mm) Fator limitante
01/Jan a 31/Dez Diurno / 
Noturno 1.960 (*) -
4.23. LT 230 KV MARABÁ / CARAJÁS
Limites de condição normal de operação (Longa duração)
Período do ano Período 
do dia
Valor
operacional (A) Fator limitante
01/Jan a 31/Dez Diurno / 
Noturno 417 -
Manual de Procedimentos da Operação - Módulo 5 - Submódulo 5.11
 Cadastro de Informações Operacionais Código Revisão Item Vigência
CADASTRO DE LIMITES OPERACIONAIS DE LINHAS DE 
TRANSMISSÃO E TRANSFORMADORES DA ÁREA 
500/230 KV PARÁ
CD-CT.N.5PA.02 54 2.2.4 10/07/2024
RT-ONS DPL 0272/2024 - ESTUDOS PRÉ-OPERACIONAIS PARA SUBSTITUIÇÃO DO TRANSFORMADOR GMTF6-01 DA SE GUAMÁ 17 / 55
Limites de condição de emergência (Curta duração)
Período do ano Período 
do dia
Valor
operacional (A)
Duração 
(Hh:mm) Fator limitante
01/Jan a 31/Dez Diurno / 
Noturno 525 (*) -
4.24. LT 230 KV MARITUBA / UTINGA – C1
Limites de condição normal de operação (Longa duração)
Período do ano Período 
do dia
Valor
operacional (A) Fator limitante
01/Jan a 31/Dez Diurno / 
Noturno 1.172 -
Limites de condição de emergência (Curta duração)
Período do ano Período 
do dia
Valor
operacional (A)
Duração 
(Hh:mm) Fator limitante
01/Jan a 31/Dez Diurno / 
Noturno 1.477 (*) -
4.25. LT 230 KV MARITUBA / UTINGA - C2
Limites de condição normal de operação (Longa duração)
Período do ano Período 
do dia
Valor
operacional (A) Fator limitante
01/Jan a 31/Dez Diurno / 
Noturno 1.172 -
Limites de condição de emergência (Curta duração)
Período do ano Período 
do dia
Valor
operacional (A)
Duração 
(Hh:mm) Fator limitante
01/Jan a 31/Dez Diurno / 
Noturno 1.477 (*) -
Manual de Procedimentos da Operação - Módulo 5 - Submódulo 5.11
 Cadastro de Informações Operacionais Código Revisão Item Vigência
CADASTRO DE LIMITES OPERACIONAIS DE LINHAS DE 
TRANSMISSÃO E TRANSFORMADORES DA ÁREA 
500/230 KV PARÁ
CD-CT.N.5PA.02 54 2.2.4 10/07/2024
RT-ONS DPL 0272/2024 - ESTUDOS PRÉ-OPERACIONAIS PARA SUBSTITUIÇÃO DO TRANSFORMADOR GMTF6-01 DA SE GUAMÁ 18 / 55
4.26. LT 230 KV MARITUBA / UTINGA C3
Limites de condição normal de operação (Longa duração)
Período do ano Período 
do dia
Valor
operacional (A) Fator limitante
01/Jan a 31/Dez Diurno / 
Noturno 1.535 .
Limites de condição de emergência (Curta duração)
Período do ano Período 
do dia
Valor
operacional (A)
Duração 
(Hh:mm) Fator limitante
01/Jan a 31/Dez Diurno / 
Noturno 1.765 (*) .
4.27. LT 230 KV MARITUBA / UTINGA C4
Limites de condição normal de operação (Longa duração)
Período do ano Período 
do dia
Valor
operacional (A) Fator limitante
01/Jan a 31/Dez Diurno / 
Noturno 1.535 .
Limites de condição de emergência (Curta duração)
Período do ano Período 
do dia
Valor
operacional (A)
Duração 
(Hh:mm) Fator limitante
01/Jan a 31/Dez Diurno / 
Noturno 1.765 (*) .
4.28. LT 230 KV SANTANA DO ARAGUAIA / XINGUARA 2 – C1
Limites de condição normal de operação (Longa duração)
Período do ano Período 
do dia
Valor
operacional (A) Fator limitante
01/Jan a 31/Dez Diurno          827 -
01/Jan a 31/Dez Noturno         973 -
Manual de Procedimentos da Operação - Módulo 5 - Submódulo 5.11
 Cadastro de Informações Operacionais Código Revisão Item Vigência
CADASTRO DE LIMITES OPERACIONAIS DE LINHAS DE 
TRANSMISSÃO E TRANSFORMADORES DA ÁREA 
500/230 KV PARÁ
CD-CT.N.5PA.02 54 2.2.4 10/07/2024
RT-ONS DPL 0272/2024 - ESTUDOS PRÉ-OPERACIONAIS PARA SUBSTITUIÇÃO DO TRANSFORMADOR GMTF6-01 DA SE GUAMÁ 19 / 55
Limites de condição de emergência (Curta duração)
Período do ano Período 
do dia
Valor
operacional (A)
Duração 
(Hh:mm) Fator limitante
01/Jan a 31/Dez Diurno          918 (*) -
01/Jan a 31/Dez Noturno         1.034 (*) -
4.29. LT 230 KV SANTANA DO ARAGUAIA / XINGUARA 2 – C2
Limites de condição normal de operação (Longa duração)
Período do ano Período 
do dia
Valor
operacional (A) Fator limitante
01/Jan a 31/Dez Diurno          827 -
01/Jan a 31/Dez Noturno         973 -
Limites de condição de emergência (Curta duração)
Período do ano Período 
do dia
Valor
operacional (A)
Duração 
(Hh:mm) Fator limitante
01/Jan a 31/Dez Diurno          918 (*) -
01/Jan a 31/Dez Noturno         1.034 (*) -
4.30. LT 230 KV TOMÉ AÇU / VILA DO CONDE C2
Limites de condição normal de operação (Longa duração)
Período do ano Período 
do dia
Valor
operacional (A) Fator limitante
01/Jan a 31/Dez Diurno / 
Noturno 700 -
Limites de condição de emergência (Curta duração)
Período do ano Período 
do dia
Valor
operacional (A)
Duração 
(Hh:mm) Fator limitante
01/Jan a 31/Dez Diurno / 
Noturno 875 (*) -
Manual de Procedimentos da Operação - Módulo 5 - Submódulo 5.11
 Cadastro de Informações Operacionais Código Revisão Item Vigência
CADASTRO DE LIMITES OPERACIONAIS DE LINHAS DE 
TRANSMISSÃO E TRANSFORMADORES DA ÁREA 
500/230 KV PARÁ
CD-CT.N.5PA.02 54 2.2.4 10/07/2024
RT-ONS DPL 0272/2024 - ESTUDOS PRÉ-OPERACIONAIS PARA SUBSTITUIÇÃO DO TRANSFORMADOR GMTF6-01 DA SE GUAMÁ 20 / 55
4.31. LT 230 KV UTINGA / CASTANHAL
Limites de condição normal de operação (Longa duração)
Período do ano Período 
do dia
Valor
operacional (A) Fator limitante
01/Jan a 31/Dez Diurno / 
Noturno 866 -
Limites de condição de emergência (Curta duração)
Período do ano Período 
do dia
Valor
operacional (A)
Duração 
(Hh:mm) Fator limitante
01/Jan a 31/Dez Diurno / 
Noturno 866 (*) -
4.32. LT 230 KV UTINGA / MIRAMAR - C1
Limites de condição normal de operação (Longa duração)
Período do ano Período 
do dia
Valor
operacional (A) Fator limitante
01/Jan a 31/Dez Diurno / 
Noturno 1.532 Cabo condutor
Limites de condição de emergência (Curta duração)
Período do ano Período 
do dia
Valor
operacional (A)
Duração 
(Hh:mm) Fator limitante
01/Jan a 31/Dez Diurno / 
Noturno 1.762 (*) Cabo condutor
4.33. LT 230 KV UTINGA / MIRAMAR - C2
Limites de condição normal de operação (Longa duração)
Período do ano Período 
do dia
Valor
operacional (A) Fator limitante
01/Jan a 31/Dez Diurno / 
Noturno 1.532 Cabo condutor
Manual de Procedimentos da Operação - Módulo 5 - Submódulo 5.11
 Cadastro de Informações Operacionais Código Revisão Item Vigência
CADASTRO DE LIMITES OPERACIONAIS DE LINHAS DE 
TRANSMISSÃO E TRANSFORMADORES DA ÁREA 
500/230 KV PARÁ
CD-CT.N.5PA.02 54 2.2.4 10/07/2024
RT-ONS DPL 0272/2024 - ESTUDOS PRÉ-OPERACIONAIS PARA SUBSTITUIÇÃO DO TRANSFORMADOR GMTF6-01 DA SE GUAMÁ 21 / 55
Limites de condição de emergência (Curta duração)
Período do ano Período 
do dia
Valor
operacional (A)
Duração 
(Hh:mm) Fator limitante
01/Jan a 31/Dez Diurno / 
Noturno 1.762 (*) Cabo condutor
4.34. LT 230 KV VILA DO CONDE / CASTANHAL
Limites de condição normal de operação (Longa duração)
Período do ano Período 
do dia
Valor
operacional (A) Fator limitante
01/Jan a 31/Dez Diurno / 
Noturno 1.400 -
Limites de condição de emergência (Curta duração)
Período do ano Período 
do dia
Valor
operacional (A)
Duração 
(Hh:mm) Fator limitante
01/Jan a 31/Dez Diurno / 
Noturno 1.722 (*) -
4.35. LT 230 KV VILA DO CONDE / GUAMÁ – C1
Limites de condição normal de operação (Longa duração)
Período do ano Período 
do dia
Valor
operacional (A) Fator limitante
01/Jan a 31/Dez Diurno / 
Noturno 1.533 -
Limites de condição de emergência (Curta duração)
Período do ano Período 
do dia
Valor
operacional (A)
Duração 
(Hh:mm) Fator limitante
01/Jan a 31/Dez Diurno / 
Noturno 1.763 (*) -
Manual de Procedimentos da Operação - Módulo 5 - Submódulo 5.11
 Cadastro de Informações Operacionais Código Revisão Item Vigência
CADASTRO DE LIMITES OPERACIONAIS DE LINHAS DE 
TRANSMISSÃO E TRANSFORMADORES DA ÁREA 
500/230 KV PARÁ
CD-CT.N.5PA.02 54 2.2.4 10/07/2024
RT-ONS DPL 0272/2024 - ESTUDOS PRÉ-OPERACIONAIS PARA SUBSTITUIÇÃO DO TRANSFORMADOR GMTF6-01 DA SE GUAMÁ 22 / 55
4.36. LT 230 KV VILA DO CONDE / GUAMÁ – C2
Limites de condição normal de operação (Longa duração)
Período do ano Período 
do dia
Valor
operacional (A) Fator limitante
01/Jan a 31/Dez Diurno / 
Noturno 1.533 -
Limites de condição de emergência (Curta duração)
Período do ano Período 
do dia
Valor
operacional (A)
Duração 
(Hh:mm) Fator limitante
01/Jan a 31/Dez Diurno / 
Noturno 1.763 (*) -
Manual de Procedimentos da Operação - Módulo 5 - Submódulo 5.11
 Cadastro de Informações Operacionais Código Revisão Item Vigência
CADASTRO DE LIMITES OPERACIONAIS DE LINHAS DE 
TRANSMISSÃO E TRANSFORMADORES DA ÁREA 
500/230 KV PARÁ
CD-CT.N.5PA.02 54 2.2.4 10/07/2024
RT-ONS DPL 0272/2024 - ESTUDOS PRÉ-OPERACIONAIS PARA SUBSTITUIÇÃO DO TRANSFORMADOR GMTF6-01 DA SE GUAMÁ 23 / 55
5. LIMITES DE CARREGAMENTO DE TRANSFORMADORES
5.1. SE CARAJÁS – AUTOTRANSFORMADOR CJAT6-01 DE 230/138/13,8 KV - 100 MVA
Limites de Condição Normal de Operação
Enrolamento (kV) Valor
operacional (A) Fator limitante
138 418 -
230 251 -
Limites de Condição de Emergência de Longa Duração
Enrolamento 
(kV)
Valor
operacional (A)
Duração 
(Hh:mm) Fator limitante
138 543 04:00 -
230 326 04:00 -
Limites de Condição de Emergência de Curta Duração
Enrolamento 
(kV)
Valor
operacional (A)
Duração 
(Hh:mm) Fator limitante
138 585 00:30 -
230 351 00:30 -
5.2. SE CARAJÁS – AUTOTRANSFORMADOR CJAT6-02 DE 230/138/13,8 KV - 100 MVA
Limites de Condição Normal de Operação
Enrolamento (kV) Valor
operacional (A) Fator limitante
138 418 -
230 251 -
Limites de Condição de Emergência de Longa Duração
Enrolamento 
(kV)
Valor
operacional (A)
Duração 
(Hh:mm) Fator limitante
138 543 04:00 -
230 326 04:00 -
Manual de Procedimentos da Operação - Módulo 5 - Submódulo 5.11
 Cadastro de Informações Operacionais Código Revisão Item Vigência
CADASTRO DE LIMITES OPERACIONAIS DE LINHAS DE 
TRANSMISSÃO E TRANSFORMADORES DA ÁREA 
500/230 KV PARÁ
CD-CT.N.5PA.02 54 2.2.4 10/07/2024
RT-ONS DPL 0272/2024 - ESTUDOS PRÉ-OPERACIONAIS PARA SUBSTITUIÇÃO DO TRANSFORMADOR GMTF6-01 DA SE GUAMÁ 24 / 55
Limites de Condição de Emergência de Curta Duração
Enrolamento 
(kV)
Valor
operacional (A)
Duração 
(Hh:mm) Fator limitante
138 585 00:30 -
230 351 00:30 -
5.3. SE CASTANHAL – AUTOTRANSFORMADOR AT1 DE 230/138/13,8 KV - 150 MVA
Limites de Condição Normal de Operação
Enrolamento (kV) Valor
operacional (A) Fator limitante
138 627 -
230 376 -
Limites de Condição de Emergência de Longa Duração
Enrolamento 
(kV)
Valor
operacional (A)
Duração 
(Hh:mm) Fator limitante
138 753 04:00 -
230 451 04:00 -
Limites de Condição de Emergência de Curta Duração
Enrolamento 
(kV)
Valor
operacional (A)
Duração 
(Hh:mm) Fator limitante
138 878 00:30 -
230 527 00:30 -
5.4. SE CASTANHAL – AUTOTRANSFORMADOR AT2 DE 230/138/13,8 KV - 150 MVA
Limites de Condição Normal de Operação
Enrolamento (kV) Valor
operacional (A) Fator limitante
138 627 -
230 376 -
Manual de Procedimentos da Operação - Módulo 5 - Submódulo 5.11
 Cadastro de Informações Operacionais Código Revisão Item Vigência
CADASTRO DE LIMITES OPERACIONAIS DE LINHAS DE 
TRANSMISSÃO E TRANSFORMADORES DA ÁREA 
500/230 KV PARÁ
CD-CT.N.5PA.02 54 2.2.4 10/07/2024
RT-ONS DPL 0272/2024 - ESTUDOS PRÉ-OPERACIONAIS PARA SUBSTITUIÇÃO DO TRANSFORMADOR GMTF6-01 DA SE GUAMÁ 25 / 55
Limites de Condição de Emergência de Longa Duração
Enrolamento 
(kV)
Valor
operacional (A)
Duração 
(Hh:mm) Fator limitante
138 753 04:00 -
230 451 04:00 -
Limites de Condição de Emergência de Curta Duração
Enrolamento 
(kV)
Valor
operacional (A)
Duração 
(Hh:mm) Fator limitante
138 878 00:30 -
230 527 00:30 -
5.5. SE GUAMÁ – TRANSFORMADOR GMTF6-01 DE 230/69/13,8 KV - 150 MVA
Limites de Condição Normal de Operação
Enrolamento (kV) Valor
operacional (A) Fator limitante
69 1.255 -
230 377 -
Limites de Condição de Emergência de Longa Duração
Enrolamento 
(kV)
Valor
operacional (A)
Duração 
(Hh:mm) Fator limitante
69 1.317 04:00 -
230 395 04:00 -
Limites de Condição de Emergência de Curta Duração
Enrolamento 
(kV)
Valor
operacional (A)
Duração 
(Hh:mm) Fator limitante
69 1.506 00:30 -
230 452 00:30 -
Manual de Procedimentos da Operação - Módulo 5 - Submódulo 5.11
 Cadastro de Informações Operacionais Código Revisão Item Vigência
CADASTRO DE LIMITES OPERACIONAIS DE LINHAS DE 
TRANSMISSÃO E TRANSFORMADORES DA ÁREA 
500/230 KV PARÁ
CD-CT.N.5PA.02 54 2.2.4 10/07/2024
RT-ONS DPL 0272/2024 - ESTUDOS PRÉ-OPERACIONAIS PARA SUBSTITUIÇÃO DO TRANSFORMADOR GMTF6-01 DA SE GUAMÁ 26 / 55
5.6. SE GUAMÁ – TRANSFORMADOR GMTF6-02 DE 230/69/13,8 KV - 150 MVA
Limites de Condição Normal de Operação
Enrolamento (kV) Valor
operacional (A) Fator limitante
69 1.255 -
230 377 -
Limites de Condição de Emergência de Longa Duração
Enrolamento 
(kV)
Valor
operacional (A)
Duração 
(Hh:mm) Fator limitante
69 1.506 04:00 -
230 452 04:00 -
Limites de Condição de Emergência de Curta Duração
Enrolamento 
(kV)
Valor
operacional (A)
Duração 
(Hh:mm) Fator limitante
69 1.757 00:30 -
230 527 00:30 -
5.7. SE GUAMÁ – TRANSFORMADOR GMTF6-03 DE 230/69/13,8 KV - 150 MVA
Limites de Condição Normal de Operação
Enrolamento (kV) Valor
operacional (A) Fator limitante
69 1.255 -
230 377 -
Limites de Condição de Emergência de Longa Duração
Enrolamento 
(kV)
Valor
operacional (A)
Duração 
(Hh:mm) Fator limitante
69 1.305 04:00 -
230 392 04:00 -
Manual de Procedimentos da Operação - Módulo 5 - Submódulo 5.11
 Cadastro de Informações Operacionais Código Revisão Item Vigência
CADASTRO DE LIMITES OPERACIONAIS DE LINHAS DE 
TRANSMISSÃO E TRANSFORMADORES DA ÁREA 
500/230 KV PARÁ
CD-CT.N.5PA.02 54 2.2.4 10/07/2024
RT-ONS DPL 0272/2024 - ESTUDOS PRÉ-OPERACIONAIS PARA SUBSTITUIÇÃO DO TRANSFORMADOR GMTF6-01 DA SE GUAMÁ 27 / 55
Limites de Condição de Emergência de Curta Duração
Enrolamento 
(kV)
Valor
operacional (A)
Duração 
(Hh:mm) Fator limitante
69 1.506 00:30 -
230 452 00:30 -
5.8. SE GUAMÁ – TRANSFORMADOR GMTF6-04 DE 230/69/13,8 KV - 150 MVA
Limites de Condição Normal de Operação
Enrolamento (kV) Valor
operacional (A) Fator limitante
69 1.255 -
230 377 -
Limites de Condição de Emergência de Longa Duração
Enrolamento 
(kV)
Valor
operacional (A)
Duração 
(Hh:mm) Fator limitante
69 1.506 04:00 -
230 452 04:00 -
Limites de Condição de Emergência de Curta Duração
Enrolamento 
(kV)
Valor
operacional (A)
Duração 
(Hh:mm) Fator limitante
69 1.757 00:30 -
230 527 00:30 -
5.9. SE INTEGRADORA - AUTOTRANSFORMADOR IGAT7-01 DE 500/230/13,8 KV - 750 MVA
Limites de Condição Normal de Operação
Enrolamento (kV) Valor
operacional (A) Fator limitante
230 1.883 .
500 866 .
Manual de Procedimentos da Operação - Módulo 5 - Submódulo 5.11
 Cadastro de Informações Operacionais Código Revisão Item Vigência
CADASTRO DE LIMITES OPERACIONAIS DE LINHAS DE 
TRANSMISSÃO E TRANSFORMADORES DA ÁREA 
500/230 KV PARÁ
CD-CT.N.5PA.02 54 2.2.4 10/07/2024
RT-ONS DPL 0272/2024 - ESTUDOS PRÉ-OPERACIONAIS PARA SUBSTITUIÇÃO DO TRANSFORMADOR GMTF6-01 DA SE GUAMÁ 28 / 55
Limites de Condição de Emergência de Longa Duração
Enrolamento 
(kV)
Valor
operacional (A)
Duração 
(Hh:mm) Fator limitante
230 2.260 04:00 .
500 1.040 04:00 .
Limites de Condição de Emergência de Curta Duração
Enrolamento 
(kV)
Valor
operacional (A)
Duração 
(Hh:mm) Fator limitante
230 2.637 00:30 .
500 1.213 00:30 .
5.10. SE INTEGRADORA - AUTOTRANSFORMADOR IGAT7-02 DE 500/230/13,8 KV - 750 MVA
Limites de Condição Normal de Operação
Enrolamento (kV) Valor
operacional (A) Fator limitante
230 1.883 .
500 866 .
Limites de Condição de Emergência de Longa Duração
Enrolamento 
(kV)
Valor
operacional (A)
Duração 
(Hh:mm) Fator limitante
230 2.260 04:00 .
500 1.040 04:00 .
Limites de Condição de Emergência de Curta Duração
Enrolamento 
(kV)
Valor
operacional (A)
Duração 
(Hh:mm) Fator limitante
230 2.637 00:30 .
500 1.213 00:30 .
Manual de Procedimentos da Operação - Módulo 5 - Submódulo 5.11
 Cadastro de Informações Operacionais Código Revisão Item Vigência
CADASTRO DE LIMITES OPERACIONAIS DE LINHAS DE 
TRANSMISSÃO E TRANSFORMADORES DA ÁREA 
500/230 KV PARÁ
CD-CT.N.5PA.02 54 2.2.4 10/07/2024
RT-ONS DPL 0272/2024 - ESTUDOS PRÉ-OPERACIONAIS PARA SUBSTITUIÇÃO DO TRANSFORMADOR GMTF6-01 DA SE GUAMÁ 29 / 55
5.11. SE ITACAIÚNAS – AUTOTRANSFORMADOR INAT6-01 DE 230/138/13,8 KV - 225 MVA
Limites de Condição Normal de Operação
Enrolamento (kV) Valor
operacional (A) Fator limitante
138 941 -
230 565 -
Limites de Condição de Emergência de Longa Duração
Enrolamento 
(kV)
Valor
operacional (A)
Duração 
(Hh:mm) Fator limitante
138 1.130 04:00 -
230 678 04:00 -
Limites de Condição de Emergência de Curta Duração
Enrolamento 
(kV)
Valor
operacional (A)
Duração 
(Hh:mm) Fator limitante
138 1.318 00:30 -
230 791 00:30 -
5.12. SE ITACAIÚNAS – AUTOTRANSFORMADOR INAT6-02 DE 230/138/13,8 KV - 225 MVA
Limites de Condição Normal de Operação
Enrolamento (kV) Valor
operacional (A) Fator limitante
138 941 -
230 565 -
Limites de Condição de Emergência de Longa Duração
Enrolamento 
(kV)
Valor
operacional (A)
Duração 
(Hh:mm) Fator limitante
138 1.130 04:00 -
230 678 04:00 -
Manual de Procedimentos da Operação - Módulo 5 - Submódulo 5.11
 Cadastro de Informações Operacionais Código Revisão Item Vigência
CADASTRO DE LIMITES OPERACIONAIS DE LINHAS DE 
TRANSMISSÃO E TRANSFORMADORES DA ÁREA 
500/230 KV PARÁ
CD-CT.N.5PA.02 54 2.2.4 10/07/2024
RT-ONS DPL 0272/2024 - ESTUDOS PRÉ-OPERACIONAIS PARA SUBSTITUIÇÃO DO TRANSFORMADOR GMTF6-01 DA SE GUAMÁ 30 / 55
Limites de Condição de Emergência de Curta Duração
Enrolamento 
(kV)
Valor
operacional (A)
Duração 
(Hh:mm) Fator limitante
138 1.318 00:30 -
230 791 00:30 -
5.13. SE ITACAIÚNAS – AUTOTRANSFORMADOR INAT7-01 DE 550/230/13,8 KV - 450 MVA
Limites de Condição Normal de Operação
Enrolamento (kV) Valor
operacional (A) Fator limitante
230 1.130 -
500 520 -
Limites de Condição de Emergência de Longa Duração
Enrolamento 
(kV)
Valor
operacional (A)
Duração 
(Hh:mm) Fator limitante
230 1.470 04:00 .
500 676 04:00 .
Limites de Condição de Emergência de Curta Duração
Enrolamento 
(kV)
Valor
operacional (A)
Duração 
(Hh:mm) Fator limitante
230 1.581 00:30 -
500 727 00:30 -
5.14. SE ITACAIÚNAS – AUTOTRANSFORMADOR INAT7-02 DE 550/230/13,8 KV - 450 MVA
Limites de Condição Normal de Operação
Enrolamento (kV) Valor
operacional (A) Fator limitante
230 1.130 -
500 520 -
Manual de Procedimentos da Operação - Módulo 5 - Submódulo 5.11
 Cadastro de Informações Operacionais Código Revisão Item Vigência
CADASTRO DE LIMITES OPERACIONAIS DE LINHAS DE 
TRANSMISSÃO E TRANSFORMADORES DA ÁREA 
500/230 KV PARÁ
CD-CT.N.5PA.02 54 2.2.4 10/07/2024
RT-ONS DPL 0272/2024 - ESTUDOS PRÉ-OPERACIONAIS PARA SUBSTITUIÇÃO DO TRANSFORMADOR GMTF6-01 DA SE GUAMÁ 31 / 55
Limites de Condição de Emergência de Longa Duração
Enrolamento 
(kV)
Valor
operacional (A)
Duração 
(Hh:mm) Fator limitante
230 1.470 04:00 .
500 676 04:00 .
Limites de Condição de Emergência de Curta Duração
Enrolamento 
(kV)
Valor
operacional (A)
Duração 
(Hh:mm) Fator limitante
230 1.581 00:30 -
500 727 00:30 -
5.15. SE ITACAIÚNAS – AUTOTRANSFORMADOR INAT7-03 DE 550/230/13,8 KV - 450 MVA
Limites de Condição Normal de Operação
Enrolamento (kV) Valor
operacional (A) Fator limitante
230 1.130 -
500 520 -
Limites de Condição de Emergência de Longa Duração
Enrolamento 
(kV)
Valor
operacional (A)
Duração 
(Hh:mm) Fator limitante
230 1.468 04:00 -
500 675 04:00 -
Limites de Condição de Emergência de Curta Duração
Enrolamento 
(kV)
Valor
operacional (A)
Duração 
(Hh:mm) Fator limitante
230 1.581 00:30 -
500 727 00:30 -
Manual de Procedimentos da Operação - Módulo 5 - Submódulo 5.11
 Cadastro de Informações Operacionais Código Revisão Item Vigência
CADASTRO DE LIMITES OPERACIONAIS DE LINHAS DE 
TRANSMISSÃO E TRANSFORMADORES DA ÁREA 
500/230 KV PARÁ
CD-CT.N.5PA.02 54 2.2.4 10/07/2024
RT-ONS DPL 0272/2024 - ESTUDOS PRÉ-OPERACIONAIS PARA SUBSTITUIÇÃO DO TRANSFORMADOR GMTF6-01 DA SE GUAMÁ 32 / 55
5.16. SE MARABÁ –  AUTOTRANSFORMADOR MBAT7-01 DE 550/246,8/14,8 KV - 300 MVA
Limites de Condição Normal de Operação
Enrolamento (kV) Valor
operacional (A) Fator limitante
246,8 702 -
550 315 -
Limites de Condição de Emergência de Longa Duração
Enrolamento 
(kV)
Valor
operacional (A)
Duração 
(Hh:mm) Fator limitante
246,8 723 04:00 -
550 324 04:00 -
Limites de Condição de Emergência de Curta Duração
Enrolamento 
(kV)
Valor
operacional (A)
Duração 
(Hh:mm) Fator limitante
246,8 821 00:30 -
550 368 00:30 -
5.17. SE MARABÁ – AUTOTRANSFORMADOR MBAT7-02 DE 550/242/14,5 KV - 450 MVA
Limites de Condição Normal de Operação
Enrolamento (kV) Valor
operacional (A) Fator limitante
242 1.074 -
550 472 -
Limites de Condição de Emergência de Longa Duração
Enrolamento 
(kV)
Valor
operacional (A)
Duração 
(Hh:mm) Fator limitante
242 1.106 04:00 -
550 487 04:00 -
Manual de Procedimentos da Operação - Módulo 5 - Submódulo 5.11
 Cadastro de Informações Operacionais Código Revisão Item Vigência
CADASTRO DE LIMITES OPERACIONAIS DE LINHAS DE 
TRANSMISSÃO E TRANSFORMADORES DA ÁREA 
500/230 KV PARÁ
CD-CT.N.5PA.02 54 2.2.4 10/07/2024
RT-ONS DPL 0272/2024 - ESTUDOS PRÉ-OPERACIONAIS PARA SUBSTITUIÇÃO DO TRANSFORMADOR GMTF6-01 DA SE GUAMÁ 33 / 55
Limites de Condição de Emergência de Curta Duração
Enrolamento 
(kV)
Valor
operacional (A)
Duração 
(Hh:mm) Fator limitante
242 1.288 00:30 -
550 567 00:30 -
5.18. SE MARABÁ – TRANSFORMADOR MBTF6-02 DE 230/69/13,8 KV - 33 MVA
Limites de Condição Normal de Operação
Enrolamento (kV) Valor
operacional (A) Fator limitante
69 276 -
230 83 -
Limites de Condição de Emergência de Longa Duração
Enrolamento 
(kV)
Valor
operacional (A)
Duração 
(Hh:mm) Fator limitante
69 293 04:00 -
230 88 04:00 -
Limites de Condição de Emergência de Curta Duração
Enrolamento 
(kV)
Valor
operacional (A)
Duração 
(Hh:mm) Fator limitante
69 335 00:30 -
230 99 00:30 -
5.19. SE MARABÁ – TRANSFORMADOR MBTF6-03 DE 230/69/13,8 KV - 33 MVA
Limites de Condição Normal de Operação
Enrolamento (kV) Valor
operacional (A) Fator limitante
69 276 -
230 83 -
Manual de Procedimentos da Operação - Módulo 5 - Submódulo 5.11
 Cadastro de Informações Operacionais Código Revisão Item Vigência
CADASTRO DE LIMITES OPERACIONAIS DE LINHAS DE 
TRANSMISSÃO E TRANSFORMADORES DA ÁREA 
500/230 KV PARÁ
CD-CT.N.5PA.02 54 2.2.4 10/07/2024
RT-ONS DPL 0272/2024 - ESTUDOS PRÉ-OPERACIONAIS PARA SUBSTITUIÇÃO DO TRANSFORMADOR GMTF6-01 DA SE GUAMÁ 34 / 55
Limites de Condição de Emergência de Longa Duração
Enrolamento 
(kV)
Valor
operacional (A)
Duração 
(Hh:mm) Fator limitante
69 293 04:00 -
230 88 04:00 -
Limites de Condição de Emergência de Curta Duração
Enrolamento 
(kV)
Valor
operacional (A)
Duração 
(Hh:mm) Fator limitante
69 335 00:30 -
230 99 00:30 -
5.20. SE MARABÁ – TRANSFORMADOR MBTF6-04 DE 230/69/13,8 KV - 33 MVA
Limites de Condição Normal de Operação
Enrolamento (kV) Valor
operacional (A) Fator limitante
69 276 -
230 83 -
Limites de Condição de Emergência de Longa Duração
Enrolamento 
(kV)
Valor
operacional (A)
Duração 
(Hh:mm) Fator limitante
69 287 04:00 -
230 86 04:00 -
Limites de Condição de Emergência de Curta Duração
Enrolamento 
(kV)
Valor
operacional (A)
Duração 
(Hh:mm) Fator limitante
69 331 00:30 -
230 99 00:30 -
Manual de Procedimentos da Operação - Módulo 5 - Submódulo 5.11
 Cadastro de Informações Operacionais Código Revisão Item Vigência
CADASTRO DE LIMITES OPERACIONAIS DE LINHAS DE 
TRANSMISSÃO E TRANSFORMADORES DA ÁREA 
500/230 KV PARÁ
CD-CT.N.5PA.02 54 2.2.4 10/07/2024
RT-ONS DPL 0272/2024 - ESTUDOS PRÉ-OPERACIONAIS PARA SUBSTITUIÇÃO DO TRANSFORMADOR GMTF6-01 DA SE GUAMÁ 35 / 55
5.21. SE MARABÁ – TRANSFORMADOR MBTF6-05 DE 230/69/13,8 KV - 100 MVA
Limites de Condição Normal de Operação
Enrolamento (kV) Valor
operacional (A) Fator limitante
69 837 -
230 251 -
Limites de Condição de Emergência de Longa Duração
Enrolamento 
(kV)
Valor
operacional (A)
Duração 
(Hh:mm) Fator limitante
69 1.004 04:00 -
230 301 04:00 -
Limites de Condição de Emergência de Curta Duração
Enrolamento 
(kV)
Valor
operacional (A)
Duração 
(Hh:mm) Fator limitante
69 1.171 00:30 -
230 351 00:30 -
5.22. SE MARITUBA – AUTOTRANSFORMADOR MTAT7-01 DE 500/230/13,8 KV - 900 MVA
Limites de Condição Normal de Operação
Enrolamento (kV) Valor
operacional (A) Fator limitante
230 2.259 .
500 1.039 .
Limites de Condição de Emergência de Longa Duração
Enrolamento 
(kV)
Valor
operacional (A)
Duração 
(Hh:mm) Fator limitante
230 2.711 04:00 .
500 1.247 04:00 .
Manual de Procedimentos da Operação - Módulo 5 - Submódulo 5.11
 Cadastro de Informações Operacionais Código Revisão Item Vigência
CADASTRO DE LIMITES OPERACIONAIS DE LINHAS DE 
TRANSMISSÃO E TRANSFORMADORES DA ÁREA 
500/230 KV PARÁ
CD-CT.N.5PA.02 54 2.2.4 10/07/2024
RT-ONS DPL 0272/2024 - ESTUDOS PRÉ-OPERACIONAIS PARA SUBSTITUIÇÃO DO TRANSFORMADOR GMTF6-01 DA SE GUAMÁ 36 / 55
Limites de Condição de Emergência de Curta Duração
Enrolamento 
(kV)
Valor
operacional (A)
Duração 
(Hh:mm) Fator limitante
230 3.162 00:30 .
500 1.454 00:30 .
5.23. SE MARITUBA – TRANSFORMADOR MTTF6-01 DE 230/69/13,8 KV - 200 MVA
Limites de Condição Normal de Operação
Enrolamento (kV) Valor
operacional (A) Fator limitante
69 1.673 -
230 502 -
Limites de Condição de Emergência de Longa Duração
Enrolamento 
(kV)
Valor
operacional (A)
Duração 
(Hh:mm) Fator limitante
69 2.008 04:00 -
230 602 04:00 -
Limites de Condição de Emergência de Curta Duração
Enrolamento 
(kV)
Valor
operacional (A)
Duração 
(Hh:mm) Fator limitante
69 2.343 00:30 -
230 703 00:30 -
5.24. SE MARITUBA – TRANSFORMADOR MTTF6-02 DE 230/69/13,8 KV - 200 MVA
Limites de Condição Normal de Operação
Enrolamento (kV) Valor
operacional (A) Fator limitante
69 1.673 -
230 502 -
Manual de Procedimentos da Operação - Módulo 5 - Submódulo 5.11
 Cadastro de Informações Operacionais Código Revisão Item Vigência
CADASTRO DE LIMITES OPERACIONAIS DE LINHAS DE 
TRANSMISSÃO E TRANSFORMADORES DA ÁREA 
500/230 KV PARÁ
CD-CT.N.5PA.02 54 2.2.4 10/07/2024
RT-ONS DPL 0272/2024 - ESTUDOS PRÉ-OPERACIONAIS PARA SUBSTITUIÇÃO DO TRANSFORMADOR GMTF6-01 DA SE GUAMÁ 37 / 55
Limites de Condição de Emergência de Longa Duração
Enrolamento 
(kV)
Valor
operacional (A)
Duração 
(Hh:mm) Fator limitante
69 2.008 04:00 -
230 602 04:00 -
Limites de Condição de Emergência de Curta Duração
Enrolamento 
(kV)
Valor
operacional (A)
Duração 
(Hh:mm) Fator limitante
69 2.343 00:30 -
230 703 00:30 -
5.25. SE MIRAMAR - TRANSFORMADOR MMTF6-01 DE 230/69/13,8 KV - 150 MVA
Limites de Condição Normal de Operação
Enrolamento (kV) Valor
operacional (A) Fator limitante
69 1.255 -
230 377 -
Limites de Condição de Emergência de Longa Duração
Enrolamento 
(kV)
Valor
operacional (A)
Duração 
(Hh:mm) Fator limitante
69 1.506 04:00 -
230 452 04:00 -
Limites de Condição de Emergência de Curta Duração
Enrolamento 
(kV)
Valor
operacional (A)
Duração 
(Hh:mm) Fator limitante
69 1.757 00:30 -
230 527 00:30 -
Manual de Procedimentos da Operação - Módulo 5 - Submódulo 5.11
 Cadastro de Informações Operacionais Código Revisão Item Vigência
CADASTRO DE LIMITES OPERACIONAIS DE LINHAS DE 
TRANSMISSÃO E TRANSFORMADORES DA ÁREA 
500/230 KV PARÁ
CD-CT.N.5PA.02 54 2.2.4 10/07/2024
RT-ONS DPL 0272/2024 - ESTUDOS PRÉ-OPERACIONAIS PARA SUBSTITUIÇÃO DO TRANSFORMADOR GMTF6-01 DA SE GUAMÁ 38 / 55
5.26. SE MIRAMAR - TRANSFORMADOR MMTF6-02 DE 230/69/13,8 KV - 150 MVA
Limites de Condição Normal de Operação
Enrolamento (kV) Valor
operacional (A) Fator limitante
69 1.255 -
230 377 -
Limites de Condição de Emergência de Longa Duração
Enrolamento 
(kV)
Valor
operacional (A)
Duração 
(Hh:mm) Fator limitante
69 1.506 04:00 -
230 452 04:00 -
Limites de Condição de Emergência de Curta Duração
Enrolamento 
(kV)
Valor
operacional (A)
Duração 
(Hh:mm) Fator limitante
69 1.757 00:30 -
230 527 00:30 -
5.27. SE MIRAMAR - TRANSFORMADOR MMTF6-03 DE 230/69/13,8 KV - 150 MVA
Limites de Condição Normal de Operação
Enrolamento (kV) Valor
operacional (A) Fator limitante
69 1.255 -
230 377 -
Limites de Condição de Emergência de Longa Duração
Enrolamento 
(kV)
Valor
operacional (A)
Duração 
(Hh:mm) Fator limitante
69 1.506 04:00 -
230 452 04:00 -
Manual de Procedimentos da Operação - Módulo 5 - Submódulo 5.11
 Cadastro de Informações Operacionais Código Revisão Item Vigência
CADASTRO DE LIMITES OPERACIONAIS DE LINHAS DE 
TRANSMISSÃO E TRANSFORMADORES DA ÁREA 
500/230 KV PARÁ
CD-CT.N.5PA.02 54 2.2.4 10/07/2024
RT-ONS DPL 0272/2024 - ESTUDOS PRÉ-OPERACIONAIS PARA SUBSTITUIÇÃO DO TRANSFORMADOR GMTF6-01 DA SE GUAMÁ 39 / 55
Limites de Condição de Emergência de Curta Duração
Enrolamento 
(kV)
Valor
operacional (A)
Duração 
(Hh:mm) Fator limitante
69 1.757 00:30 -
230 527 00:30 -
5.28. SE ONÇA PUMA - AUTOTRANSFORMADOR ONAT6-01 DE 230/138/13,8 KV - 100 MVA
Limites de Condição Normal de Operação
Enrolamento (kV) Valor
operacional (A) Fator limitante
138 418 ---
230 251 ---
Limites de Condição de Emergência de Longa Duração
Enrolamento 
(kV)
Valor
operacional (A)
Duração 
(Hh:mm) Fator limitante
138 501 04:00 ---
230 301 04:00 ---
Limites de Condição de Emergência de Curta Duração
Enrolamento 
(kV)
Valor
operacional (A)
Duração 
(Hh:mm) Fator limitante
138 581 00:30 ---
230 351 00:30 ---
5.29. SE ONÇA PUMA - AUTOTRANSFORMADOR ONAT6-02 DE 230/138/13,8 KV - 100 MVA
Limites de Condição Normal de Operação
Enrolamento (kV) Valor
operacional (A) Fator limitante
138 418 ---
230 251 ---
Manual de Procedimentos da Operação - Módulo 5 - Submódulo 5.11
 Cadastro de Informações Operacionais Código Revisão Item Vigência
CADASTRO DE LIMITES OPERACIONAIS DE LINHAS DE 
TRANSMISSÃO E TRANSFORMADORES DA ÁREA 
500/230 KV PARÁ
CD-CT.N.5PA.02 54 2.2.4 10/07/2024
RT-ONS DPL 0272/2024 - ESTUDOS PRÉ-OPERACIONAIS PARA SUBSTITUIÇÃO DO TRANSFORMADOR GMTF6-01 DA SE GUAMÁ 40 / 55
Limites de Condição de Emergência de Longa Duração
Enrolamento 
(kV)
Valor
operacional (A)
Duração 
(Hh:mm) Fator limitante
138 501 04:00 ---
230 301 04:00 ---
Limites de Condição de Emergência de Curta Duração
Enrolamento 
(kV)
Valor
operacional (A)
Duração 
(Hh:mm) Fator limitante
138 585 00:30 ---
230 351 00:30 ---
5.30. SE SANTA MARIA – AUTOTRANSFORMADOR SRAT6-01 DE 230/138/13,8 KV - 100 MVA
Limites de Condição Normal de Operação
Enrolamento (kV) Valor
operacional (A) Fator limitante
138 418 -
230 251 -
Limites de Condição de Emergência de Longa Duração
Enrolamento 
(kV)
Valor
operacional (A)
Duração 
(Hh:mm) Fator limitante
138 439 04:00 -
230 264 04:00 -
Limites de Condição de Emergência de Curta Duração
Enrolamento 
(kV)
Valor
operacional (A)
Duração 
(Hh:mm) Fator limitante
138 502 00:30 -
230 301 00:30 -
Manual de Procedimentos da Operação - Módulo 5 - Submódulo 5.11
 Cadastro de Informações Operacionais Código Revisão Item Vigência
CADASTRO DE LIMITES OPERACIONAIS DE LINHAS DE 
TRANSMISSÃO E TRANSFORMADORES DA ÁREA 
500/230 KV PARÁ
CD-CT.N.5PA.02 54 2.2.4 10/07/2024
RT-ONS DPL 0272/2024 - ESTUDOS PRÉ-OPERACIONAIS PARA SUBSTITUIÇÃO DO TRANSFORMADOR GMTF6-01 DA SE GUAMÁ 41 / 55
5.31. SE SANTA MARIA – AUTOTRANSFORMADOR SRAT6-02 DE 230/138/13,8 KV - 100 MVA
Limites de Condição Normal de Operação
Enrolamento (kV) Valor
operacional (A) Fator limitante
138 418 -
230 251 -
Limites de Condição de Emergência de Longa Duração
Enrolamento 
(kV)
Valor
operacional (A)
Duração 
(Hh:mm) Fator limitante
138 439 04:00 -
230 264 04:00 -
Limites de Condição de Emergência de Curta Duração
Enrolamento 
(kV)
Valor
operacional (A)
Duração 
(Hh:mm) Fator limitante
138 502 00:30 -
230 301 00:30 -
5.32. SE SANTA MARIA – AUTOTRANSFORMADOR SRAT6-03 DE 230/138/13,8 KV - 100 MVA
Limites de Condição Normal de Operação
Enrolamento (kV) Valor
operacional (A) Fator limitante
138 418 -
230 251 -
Limites de Condição de Emergência de Longa Duração
Enrolamento 
(kV)
Valor
operacional (A)
Duração 
(Hh:mm) Fator limitante
138 439 04:00 -
230 264 04:00 -
Manual de Procedimentos da Operação - Módulo 5 - Submódulo 5.11
 Cadastro de Informações Operacionais Código Revisão Item Vigência
CADASTRO DE LIMITES OPERACIONAIS DE LINHAS DE 
TRANSMISSÃO E TRANSFORMADORES DA ÁREA 
500/230 KV PARÁ
CD-CT.N.5PA.02 54 2.2.4 10/07/2024
RT-ONS DPL 0272/2024 - ESTUDOS PRÉ-OPERACIONAIS PARA SUBSTITUIÇÃO DO TRANSFORMADOR GMTF6-01 DA SE GUAMÁ 42 / 55
Limites de Condição de Emergência de Curta Duração
Enrolamento 
(kV)
Valor
operacional (A)
Duração 
(Hh:mm) Fator limitante
138 502 00:30 -
230 301 00:30 -
5.33. SE SANTA MARIA – TRANSFORMADOR SRTF6-01 DE 230/69/13,8 KV - 150 MVA
Limites de Condição Normal de Operação
Enrolamento (kV) Valor
operacional (A) Fator limitante
69 1.255 -
230 377 -
Limites de Condição de Emergência de Longa Duração
Enrolamento 
(kV)
Valor
operacional (A)
Duração 
(Hh:mm) Fator limitante
69 1.305 04:00 -
230 391 04:00 -
Limites de Condição de Emergência de Curta Duração
Enrolamento 
(kV)
Valor
operacional (A)
Duração 
(Hh:mm) Fator limitante
69 1.506 00:30 -
230 452 00:30 -
5.34. SE SANTA MARIA – TRANSFORMADOR SRTF6-02 DE 230/69/13,8 KV - 150 MVA
Limites de Condição Normal de Operação
Enrolamento (kV) Valor
operacional (A) Fator limitante
69 1.255 -
230 377 -
Manual de Procedimentos da Operação - Módulo 5 - Submódulo 5.11
 Cadastro de Informações Operacionais Código Revisão Item Vigência
CADASTRO DE LIMITES OPERACIONAIS DE LINHAS DE 
TRANSMISSÃO E TRANSFORMADORES DA ÁREA 
500/230 KV PARÁ
CD-CT.N.5PA.02 54 2.2.4 10/07/2024
RT-ONS DPL 0272/2024 - ESTUDOS PRÉ-OPERACIONAIS PARA SUBSTITUIÇÃO DO TRANSFORMADOR GMTF6-01 DA SE GUAMÁ 43 / 55
Limites de Condição de Emergência de Longa Duração
Enrolamento 
(kV)
Valor
operacional (A)
Duração 
(Hh:mm) Fator limitante
69 1.305 04:00 -
230 391 04:00 -
Limites de Condição de Emergência de Curta Duração
Enrolamento 
(kV)
Valor
operacional (A)
Duração 
(Hh:mm) Fator limitante
69 1.506 00:30 -
230 452 00:30 -
5.35. SE SANTANA DO ARAGUAIA – AUTOTRANSFORMADOR SAAT6-01 DE 230/138/13,8 KV - 150 MVA
Limites de Condição Normal de Operação
Enrolamento (kV) Valor
operacional (A) Fator limitante
138 628 -
230 377 -
Limites de Condição de Emergência de Longa Duração
Enrolamento 
(kV)
Valor
operacional (A)
Duração 
(Hh:mm) Fator limitante
138 753 04:00 -
230 452 04:00 -
Limites de Condição de Emergência de Curta Duração
Enrolamento 
(kV)
Valor
operacional (A)
Duração 
(Hh:mm) Fator limitante
138 878 00:30 -
230 527 00:30 -
Manual de Procedimentos da Operação - Módulo 5 - Submódulo 5.11
 Cadastro de Informações Operacionais Código Revisão Item Vigência
CADASTRO DE LIMITES OPERACIONAIS DE LINHAS DE 
TRANSMISSÃO E TRANSFORMADORES DA ÁREA 
500/230 KV PARÁ
CD-CT.N.5PA.02 54 2.2.4 10/07/2024
RT-ONS DPL 0272/2024 - ESTUDOS PRÉ-OPERACIONAIS PARA SUBSTITUIÇÃO DO TRANSFORMADOR GMTF6-01 DA SE GUAMÁ 44 / 55
5.36. SE SANTANA DO ARAGUAIA – AUTOTRANSFORMADOR SAAT6-02 DE 230/138/13,8 KV - 150 MVA
Limites de Condição Normal de Operação
Enrolamento (kV) Valor
operacional (A) Fator limitante
138 628 -
230 377 -
Limites de Condição de Emergência de Longa Duração
Enrolamento 
(kV)
Valor
operacional (A)
Duração 
(Hh:mm) Fator limitante
138 753 04:00 -
230 452 04:00 -
Limites de Condição de Emergência de Curta Duração
Enrolamento 
(kV)
Valor
operacional (A)
Duração 
(Hh:mm) Fator limitante
138 878 00:30 -
230 527 00:30 -
5.37. SE SANTANA DO ARAGUAIA – TRANSFORMADOR DEFASADOR SATFD5-01 DE 138/138 KV - 150 MVA
Limites de Condição Normal de Operação
Enrolamento (kV) Valor
operacional (A) Fator limitante
138 628 -
Limites de Condição de Emergência de Longa Duração
Enrolamento 
(kV)
Valor
operacional (A)
Duração 
(Hh:mm) Fator limitante
138 753 04:00 -
Manual de Procedimentos da Operação - Módulo 5 - Submódulo 5.11
 Cadastro de Informações Operacionais Código Revisão Item Vigência
CADASTRO DE LIMITES OPERACIONAIS DE LINHAS DE 
TRANSMISSÃO E TRANSFORMADORES DA ÁREA 
500/230 KV PARÁ
CD-CT.N.5PA.02 54 2.2.4 10/07/2024
RT-ONS DPL 0272/2024 - ESTUDOS PRÉ-OPERACIONAIS PARA SUBSTITUIÇÃO DO TRANSFORMADOR GMTF6-01 DA SE GUAMÁ 45 / 55
Limites de Condição de Emergência de Curta Duração
Enrolamento 
(kV)
Valor
operacional (A)
Duração 
(Hh:mm) Fator limitante
138 878 00:30 -
5.38. SE SANTANA DO ARAGUAIA – TRANSFORMADOR DEFASADOR SATFD5-02 DE 138/138 KV - 150 MVA
Limites de Condição Normal de Operação
Enrolamento (kV) Valor
operacional (A) Fator limitante
138 628 -
Limites de Condição de Emergência de Longa Duração
Enrolamento 
(kV)
Valor
operacional (A)
Duração 
(Hh:mm) Fator limitante
138 753 04:00 -
Limites de Condição de Emergência de Curta Duração
Enrolamento 
(kV)
Valor
operacional (A)
Duração 
(Hh:mm) Fator limitante
138 878 00:30 -
5.39. SE SERRA PELADA - AUTOTRANSFORMADOR TF01 DE 500/138/13,8 KV - 150 MVA
Limites de Condição Normal de Operação
Enrolamento (kV) Valor
operacional (A) Fator limitante
138 628 .
500 174 .
Limites de Condição de Emergência de Longa Duração
Enrolamento 
(kV)
Valor
operacional (A)
Duração 
(Hh:mm) Fator limitante
138 754 04:00 .
500 209 04:00 .
Manual de Procedimentos da Operação - Módulo 5 - Submódulo 5.11
 Cadastro de Informações Operacionais Código Revisão Item Vigência
CADASTRO DE LIMITES OPERACIONAIS DE LINHAS DE 
TRANSMISSÃO E TRANSFORMADORES DA ÁREA 
500/230 KV PARÁ
CD-CT.N.5PA.02 54 2.2.4 10/07/2024
RT-ONS DPL 0272/2024 - ESTUDOS PRÉ-OPERACIONAIS PARA SUBSTITUIÇÃO DO TRANSFORMADOR GMTF6-01 DA SE GUAMÁ 46 / 55
Limites de Condição de Emergência de Curta Duração
Enrolamento 
(kV)
Valor
operacional (A)
Duração 
(Hh:mm) Fator limitante
138 880 00:30 .
500 244 00:30 .
5.40. SE SERRA PELADA - AUTOTRANSFORMADOR TF02 DE 500/138/13,8 KV - 150 MVA
Limites de Condição Normal de Operação
Enrolamento (kV) Valor
operacional (A) Fator limitante
138 628 .
500 174 .
Limites de Condição de Emergência de Longa Duração
Enrolamento 
(kV)
Valor
operacional (A)
Duração 
(Hh:mm) Fator limitante
138 754 04:00 .
500 209 04:00 .
Limites de Condição de Emergência de Curta Duração
Enrolamento 
(kV)
Valor
operacional (A)
Duração 
(Hh:mm) Fator limitante
138 880 00:30 .
500 244 00:30 .
5.41. SE TOMÉ AÇU - AUTOTRANSFORMADOR TEAT6-01 DE 230/138/13,8 KV - 100 MVA
Limites de Condição Normal de Operação
Enrolamento (kV) Valor
operacional (A) Fator limitante
138 418 -
230 251 -
Manual de Procedimentos da Operação - Módulo 5 - Submódulo 5.11
 Cadastro de Informações Operacionais Código Revisão Item Vigência
CADASTRO DE LIMITES OPERACIONAIS DE LINHAS DE 
TRANSMISSÃO E TRANSFORMADORES DA ÁREA 
500/230 KV PARÁ
CD-CT.N.5PA.02 54 2.2.4 10/07/2024
RT-ONS DPL 0272/2024 - ESTUDOS PRÉ-OPERACIONAIS PARA SUBSTITUIÇÃO DO TRANSFORMADOR GMTF6-01 DA SE GUAMÁ 47 / 55
Limites de Condição de Emergência de Longa Duração
Enrolamento 
(kV)
Valor
operacional (A)
Duração 
(Hh:mm) Fator limitante
138 502 04:00 -
230 301 04:00 -
Limites de Condição de Emergência de Curta Duração
Enrolamento 
(kV)
Valor
operacional (A)
Duração 
(Hh:mm) Fator limitante
138 586 00:30 -
230 351 00:30 -
5.42. SE TOMÉ AÇU - AUTOTRANSFORMADOR TEAT6-02 DE 230/138/13,8 KV - 100 MVA
Limites de Condição Normal de Operação
Enrolamento (kV) Valor
operacional (A) Fator limitante
138 418 -
230 251 -
Limites de Condição de Emergência de Longa Duração
Enrolamento 
(kV)
Valor
operacional (A)
Duração 
(Hh:mm) Fator limitante
138 502 04:00 -
230 301 04:00 -
Limites de Condição de Emergência de Curta Duração
Enrolamento 
(kV)
Valor
operacional (A)
Duração 
(Hh:mm) Fator limitante
138 586 00:30 -
230 351 00:30 -
Manual de Procedimentos da Operação - Módulo 5 - Submódulo 5.11
 Cadastro de Informações Operacionais Código Revisão Item Vigência
CADASTRO DE LIMITES OPERACIONAIS DE LINHAS DE 
TRANSMISSÃO E TRANSFORMADORES DA ÁREA 
500/230 KV PARÁ
CD-CT.N.5PA.02 54 2.2.4 10/07/2024
RT-ONS DPL 0272/2024 - ESTUDOS PRÉ-OPERACIONAIS PARA SUBSTITUIÇÃO DO TRANSFORMADOR GMTF6-01 DA SE GUAMÁ 48 / 55
5.43. SE UTINGA – TRANSFORMADOR UGTF6-01 DE 230/69/13,8 KV - 150 MVA
Limites de Condição Normal de Operação
Enrolamento (kV) Valor
operacional (A) Fator limitante
69 1.255 -
230 377 -
Limites de Condição de Emergência de Longa Duração
Enrolamento 
(kV)
Valor
operacional (A)
Duração 
(Hh:mm) Fator limitante
69 1.506 04:00 -
230 452 04:00 -
Limites de Condição de Emergência de Curta Duração
Enrolamento 
(kV)
Valor
operacional (A)
Duração 
(Hh:mm) Fator limitante
69 1.757 00:30 -
230 527 00:30 -
5.44. SE UTINGA – TRANSFORMADOR UGTF6-02 DE 230/69/13,8 KV - 150 MVA
Limites de Condição Normal de Operação
Enrolamento (kV) Valor
operacional (A) Fator limitante
69 1.255 -
230 377 -
Limites de Condição de Emergência de Longa Duração
Enrolamento 
(kV)
Valor
operacional (A)
Duração 
(Hh:mm) Fator limitante
69 1.506 04:00 -
230 452 04:00 -
Manual de Procedimentos da Operação - Módulo 5 - Submódulo 5.11
 Cadastro de Informações Operacionais Código Revisão Item Vigência
CADASTRO DE LIMITES OPERACIONAIS DE LINHAS DE 
TRANSMISSÃO E TRANSFORMADORES DA ÁREA 
500/230 KV PARÁ
CD-CT.N.5PA.02 54 2.2.4 10/07/2024
RT-ONS DPL 0272/2024 - ESTUDOS PRÉ-OPERACIONAIS PARA SUBSTITUIÇÃO DO TRANSFORMADOR GMTF6-01 DA SE GUAMÁ 49 / 55
Limites de Condição de Emergência de Curta Duração
Enrolamento 
(kV)
Valor
operacional (A)
Duração 
(Hh:mm) Fator limitante
69 1.757 00:30 -
230 527 00:30 -
5.45. SE UTINGA – TRANSFORMADOR UGTF6-03 DE 230/69/13,8 KV - 150 MVA
Limites de Condição Normal de Operação
Enrolamento (kV) Valor
operacional (A) Fator limitante
69 1.255 -
230 377 -
Limites de Condição de Emergência de Longa Duração
Enrolamento 
(kV)
Valor
operacional (A)
Duração 
(Hh:mm) Fator limitante
69 1.322 04:00 -
230 395 04:00 -
Limites de Condição de Emergência de Curta Duração
Enrolamento 
(kV)
Valor
operacional (A)
Duração 
(Hh:mm) Fator limitante
69 1.506 00:30 -
230 452 00:30 -
5.46. SE UTINGA – TRANSFORMADOR UGTF6-04 DE 230/69/13,8 KV - 150 MVA
Limites de Condição Normal de Operação
Enrolamento (kV) Valor
operacional (A) Fator limitante
69 1.255 -
230 377 -
Manual de Procedimentos da Operação - Módulo 5 - Submódulo 5.11
 Cadastro de Informações Operacionais Código Revisão Item Vigência
CADASTRO DE LIMITES OPERACIONAIS DE LINHAS DE 
TRANSMISSÃO E TRANSFORMADORES DA ÁREA 
500/230 KV PARÁ
CD-CT.N.5PA.02 54 2.2.4 10/07/2024
RT-ONS DPL 0272/2024 - ESTUDOS PRÉ-OPERACIONAIS PARA SUBSTITUIÇÃO DO TRANSFORMADOR GMTF6-01 DA SE GUAMÁ 50 / 55
Limites de Condição de Emergência de Longa Duração
Enrolamento 
(kV)
Valor
operacional (A)
Duração 
(Hh:mm) Fator limitante
69 1.322 04:00 -
230 395 04:00 -
Limites de Condição de Emergência de Curta Duração
Enrolamento 
(kV)
Valor
operacional (A)
Duração 
(Hh:mm) Fator limitante
69 1.506 00:30 -
230 452 00:30 -
5.47. SE VILA DO CONDE – AUTOTRANSFORMADOR VCAT7-01 DE 550/246,8/14,8 KV - 750 MVA
Limites de Condição Normal de Operação
Enrolamento (kV) Valor
operacional (A) Fator limitante
246,8 1.754 -
550 787 -
Limites de Condição de Emergência de Longa Duração
Enrolamento 
(kV)
Valor
operacional (A)
Duração 
(Hh:mm) Fator limitante
246,8 1.807 04:00 -
550 811 04:00 -
Limites de Condição de Emergência de Curta Duração
Enrolamento 
(kV)
Valor
operacional (A)
Duração 
(Hh:mm) Fator limitante
246,8 2.105 00:30 -
550 945 00:30 -
Manual de Procedimentos da Operação - Módulo 5 - Submódulo 5.11
 Cadastro de Informações Operacionais Código Revisão Item Vigência
CADASTRO DE LIMITES OPERACIONAIS DE LINHAS DE 
TRANSMISSÃO E TRANSFORMADORES DA ÁREA 
500/230 KV PARÁ
CD-CT.N.5PA.02 54 2.2.4 10/07/2024
RT-ONS DPL 0272/2024 - ESTUDOS PRÉ-OPERACIONAIS PARA SUBSTITUIÇÃO DO TRANSFORMADOR GMTF6-01 DA SE GUAMÁ 51 / 55
5.48. SE VILA DO CONDE – AUTOTRANSFORMADOR VCAT7-02 DE 550/246,8/14,8 KV - 750 MVA
Limites de Condição Normal de Operação
Enrolamento (kV) Valor
operacional (A) Fator limitante
246,8 1.754 -
550 787 -
Limites de Condição de Emergência de Longa Duração
Enrolamento 
(kV)
Valor
operacional (A)
Duração 
(Hh:mm) Fator limitante
246,8 1.807 04:00 ---
550 811 04:00 ---
Limites de Condição de Emergência de Curta Duração
Enrolamento 
(kV)
Valor
operacional (A)
Duração 
(Hh:mm) Fator limitante
246,8 2.105 00:30 -
550 945 00:30 -
5.49. SE VILA DO CONDE – AUTOTRANSFORMADOR VCAT7-03 DE 550/246,8/14,8 KV - 750 MVA
Limites de Condição Normal de Operação
Enrolamento (kV) Valor
operacional (A) Fator limitante
246,8 1.754 -
550 787 -
Limites de Condição de Emergência de Longa Duração
Enrolamento 
(kV)
Valor
operacional (A)
Duração 
(Hh:mm) Fator limitante
246,8 1.807 04:00 -
550 811 04:00 -
Manual de Procedimentos da Operação - Módulo 5 - Submódulo 5.11
 Cadastro de Informações Operacionais Código Revisão Item Vigência
CADASTRO DE LIMITES OPERACIONAIS DE LINHAS DE 
TRANSMISSÃO E TRANSFORMADORES DA ÁREA 
500/230 KV PARÁ
CD-CT.N.5PA.02 54 2.2.4 10/07/2024
RT-ONS DPL 0272/2024 - ESTUDOS PRÉ-OPERACIONAIS PARA SUBSTITUIÇÃO DO TRANSFORMADOR GMTF6-01 DA SE GUAMÁ 52 / 55
Limites de Condição de Emergência de Curta Duração
Enrolamento 
(kV)
Valor
operacional (A)
Duração 
(Hh:mm) Fator limitante
246,8 2.105 00:30 -
550 945 00:30 -
5.50. SE VILA DO CONDE – AUTOTRANSFORMADOR VCAT7-04 DE 550/246,8/14,8 KV - 750 MVA
Limites de Condição Normal de Operação
Enrolamento (kV) Valor
operacional (A) Fator limitante
246,8 1.754 -
550 787 -
Limites de Condição de Emergência de Longa Duração
Enrolamento 
(kV)
Valor
operacional (A)
Duração 
(Hh:mm) Fator limitante
246,8 1.807 04:00 -
550 811 04:00 -
Limites de Condição de Emergência de Curta Duração
Enrolamento 
(kV)
Valor
operacional (A)
Duração 
(Hh:mm) Fator limitante
246,8 2.105 00:30 -
550 945 00:30 -
5.51. SE VILA DO CONDE – TRANSFORMADOR VCTF6-07 DE 230/69/13,8 KV - 200 MVA
Limites de Condição Normal de Operação
Enrolamento (kV) Valor
operacional (A) Fator limitante
69 1.673 --
230 502 --
Manual de Procedimentos da Operação - Módulo 5 - Submódulo 5.11
 Cadastro de Informações Operacionais Código Revisão Item Vigência
CADASTRO DE LIMITES OPERACIONAIS DE LINHAS DE 
TRANSMISSÃO E TRANSFORMADORES DA ÁREA 
500/230 KV PARÁ
CD-CT.N.5PA.02 54 2.2.4 10/07/2024
RT-ONS DPL 0272/2024 - ESTUDOS PRÉ-OPERACIONAIS PARA SUBSTITUIÇÃO DO TRANSFORMADOR GMTF6-01 DA SE GUAMÁ 53 / 55
Limites de Condição de Emergência de Longa Duração
Enrolamento 
(kV)
Valor
operacional (A)
Duração 
(Hh:mm) Fator limitante
69 2.008 04:00 -
230 602 04:00 -
Limites de Condição de Emergência de Curta Duração
Enrolamento 
(kV)
Valor
operacional (A)
Duração 
(Hh:mm) Fator limitante
69 2.343 00:30 -
230 703 00:30 -
5.52. SE VILA DO CONDE – TRANSFORMADOR VCTF6-08 DE 230/69/13,8 KV - 200 MVA
Limites de Condição Normal de Operação
Enrolamento (kV) Valor
operacional (A) Fator limitante
69 1.673 -
230 502 -
Limites de Condição de Emergência de Longa Duração
Enrolamento 
(kV)
Valor
operacional (A)
Duração 
(Hh:mm) Fator limitante
69 2.008 04:00 -
230 602 04:00 -
Limites de Condição de Emergência de Curta Duração
Enrolamento 
(kV)
Valor
operacional (A)
Duração 
(Hh:mm) Fator limitante
69 2.343 00:30 -
230 703 00:30 -
Manual de Procedimentos da Operação - Módulo 5 - Submódulo 5.11
 Cadastro de Informações Operacionais Código Revisão Item Vigência
CADASTRO DE LIMITES OPERACIONAIS DE LINHAS DE 
TRANSMISSÃO E TRANSFORMADORES DA ÁREA 
500/230 KV PARÁ
CD-CT.N.5PA.02 54 2.2.4 10/07/2024
RT-ONS DPL 0272/2024 - ESTUDOS PRÉ-OPERACIONAIS PARA SUBSTITUIÇÃO DO TRANSFORMADOR GMTF6-01 DA SE GUAMÁ 54 / 55
5.53. SE XINGUARA 2 – AUTOTRANSFORMADOR XGAT6-01 DE 230/138/13,8 KV - 150 MVA
Limites de Condição Normal de Operação
Enrolamento (kV) Valor
operacional (A) Fator limitante
138 628 -
230 377 -
Limites de Condição de Emergência de Longa Duração
Enrolamento 
(kV)
Valor
operacional (A)
Duração 
(Hh:mm) Fator limitante
138 815 04:00 -
230 490 04:00 -
Limites de Condição de Emergência de Curta Duração
Enrolamento 
(kV)
Valor
operacional (A)
Duração 
(Hh:mm) Fator limitante
138 877 00:30 -
230 527 00:30 -
5.54. SE XINGUARA 2 – AUTOTRANSFORMADOR XGAT6-02 DE 230/138/13,8 KV - 150 MVA
Limites de Condição Normal de Operação
Enrolamento (kV) Valor
operacional (A) Fator limitante
138 628 -
230 377 -
Limites de Condição de Emergência de Longa Duração
Enrolamento 
(kV)
Valor
operacional (A)
Duração 
(Hh:mm) Fator limitante
138 815 04:00 -
230 490 04:00 -
Manual de Procedimentos da Operação - Módulo 5 - Submódulo 5.11
 Cadastro de Informações Operacionais Código Revisão Item Vigência
CADASTRO DE LIMITES OPERACIONAIS DE LINHAS DE 
TRANSMISSÃO E TRANSFORMADORES DA ÁREA 
500/230 KV PARÁ
CD-CT.N.5PA.02 54 2.2.4 10/07/2024
RT-ONS DPL 0272/2024 - ESTUDOS PRÉ-OPERACIONAIS PARA SUBSTITUIÇÃO DO TRANSFORMADOR GMTF6-01 DA SE GUAMÁ 55 / 55
Limites de Condição de Emergência de Curta Duração
Enrolamento 
(kV)
Valor
operacional (A)
Duração 
(Hh:mm) Fator limitante
138 877 00:30 -
230 527 00:30 -
