 
 
Manual de Procedimentos da Operação 
Módulo 5 - Submódulo 5.11 
Cadastro de Informações Operacionais 
Cadastro de Regiões de Segurança Aplicadas ao Tempo Real 
 
 
Código Revisão Item Vigência 
CD-CT.BR.02 22 2.4. 10/10/2024 
. 
 
MOTIVO DA REVISÃO 
• Incorporação do relatório RT -ONS DOP 0451/2024 – “Validação das Regiões de Segurança do 
Organon do 3º Quadrimestre de 2024”, acarretando as seguintes alterações: 
- Atualização da lista de contingência da Área Sul da Bahia e Sergipe, alterando o item 4.3.1.2; 
- Atualização da lista de contingência da Área Oeste da Bahia, alterando o item 4.3.2.2; 
- Atualização da lista de contingência da Área 345/230 kV de São Paulo, alterando o item 4.1.4.; 
- Inclusão da nova Área Piauí, acarretando a adição do item 4.3.5; 
- Ajuste textual nos itens 4.3.2.2, 4.3.3.2, 4.3.4.1, 4.3.4.2; 
- Atualização da lista de contingência da Área 440/230 kV de São Paulo, alterando o item 4.1.1.; 
       - Substituir "UHE Emborcação" por "UHE Theodomiro Carneiro Santiago" na tabela do item 4.1.2.1; 
- Remover "UHE Emborcação" da tabela do item 4.3.3.1, p or já exist ir "UHE Theodomiro Carneiro 
Santiago"; 
- Atualização da lista de contingência da Área 500/345 kV de Goiás/DF, alterando o item 4.4.1.3; 
- Atualização da lista de contingência e dos Esquemas considerados da Área 500/230 kV Mato Grosso, 
alterando o item 4.4.2; 
- Atualização da lista de contingência da Área 230 kV de Acre/Rondônia, alterando o item 4.5.1.3. 
 
 
 
 
LISTA DE DISTRIBUIÇÃO 
CNOS COSR-NCO COSR-NE COSR-S COSR-SE 
Manual de Procedimentos da Operação - Módulo 5 - Submódulo 5.11 
Instrução de Operação Código Revisão Item Vigência 
Cadastro de Regiões de Segurança Aplicadas ao Tempo 
Real CD-CT.BR.02 22 2.4. 10/10/2024 
 
Referência:  RT-ONS DOP 0240/2023 – Revisão 1 - VALIDAÇÃO DAS REGIÕES DE SEGURANÇA DO ORGANON DO 3º 
QUADRIMESTRE DE 2023 
2/51 
 
 
Agentes de 
Geração 
Agentes de 
Transmissão    
Manual de Procedimentos da Operação - Módulo 5 - Submódulo 5.11 
Instrução de Operação Código Revisão Item Vigência 
Cadastro de Regiões de Segurança Aplicadas ao Tempo 
Real CD-CT.BR.02 22 2.4. 10/10/2024 
 
Referência:  RT-ONS DOP 0451/2024 - VALIDAÇÃO DAS REGIÕES DE SEGURANÇA DO ORGANON DO 3º QUADRIMESTRE DE 2024. 
  
 
 
ÍNDICE 
1. OBJETIVO ................................ ................................ ................................ ................................ ..... 4 
2. CONCEITOS ................................ ................................ ................................ ................................ ... 4 
3. CONSIDERAÇÕES GERAIS ................................ ................................ ................................ .............. 4 
4. REGIÕES DE SEGURANÇA ................................ ................................ ................................ .............. 4 
4.1. Região Sudeste .............................................................................................................................. 5 
4.1.1. Região de Segurança da Área 440/230 kV de São Paulo ............................................. 5 
4.1.2. Região de Segurança da Área 345 kV Rio de Janeiro e Espírito Santo ........................ 7 
4.1.3. Região de Segurança da Área 500 kV do Rio de Janeiro ........................................... 11 
4.1.4. Região de Segurança da Área 345/230 kV de São Paulo ........................................... 14 
4.2. Região Sul..................................................................................................................................... 17 
4.2.1. Região de Segurança da Área 525 kV da Região Sul.................................................. 17 
4.2.2. Região de Segurança da Área 230 kV do Mato Grosso do Sul .................................. 20 
4.2.3. Região de Segurança da Área 230 kV de Santa Catarina........................................... 22 
4.2.4. Região de Segurança da Área 230 kV do Paraná ....................................................... 24 
4.2.5. Região de Segurança da Área 230 kV Rio Grande do Sul .......................................... 27 
4.3. Região Nordeste .......................................................................................................................... 30 
4.3.1. Região de Segurança da Área Sul da Bahia e Sergipe................................................ 30 
4.3.2. Região de Segurança da Área Oeste da Bahia ........................................................... 32 
4.3.3. Região de Segurança da Área Metropolitana de João Pessoa .................................. 34 
4.3.4. Região de Segurança da Área Rio Grande do Norte e Ceará .................................... 36 
4.3.5. Região de Segurança da Área Piauí ........................................................................... 38 
4.4. Região Centro-Oeste.................................................................................................................... 41 
4.4.1. Região de Segurança da Área 500/345 kV Goiás / Brasília ....................................... 41 
4.4.2. Região de Segurança da Área 500/230 kV Mato Grosso ........................................... 46 
4.5. Região Norte ................................................................................................................................ 50 
4.5.1. Região de Segurança da Área 230 kV Acre/Rondônia ............................................... 50 
 
  
Manual de Procedimentos da Operação - Módulo 5 - Submódulo 5.11 
Instrução de Operação Código Revisão Item Vigência 
Cadastro de Regiões de Segurança Aplicadas ao Tempo 
Real CD-CT.BR.02 22 2.4. 10/10/2024 
 
Referência:  RT-ONS DOP 0451/2024 - VALIDAÇÃO DAS REGIÕES DE SEGURANÇA DO ORGANON DO 3º QUADRIMESTRE DE 2024. 
  
 
 
1. OBJETIVO 
Apresentar as Regiões de Segurança a serem monitoradas pelos operadores dos Centros de Operação 
do ONS. 
2. CONCEITOS 
Os conceitos e informações necessárias à compreensão das Regiões de Segurança são expostos na 
Referência Técnica RT-CT.BR.01 - Conceitos e entendimento da Região de Segurança para uso em 
Tempo Real. 
3. CONSIDERAÇÕES GERAIS 
3.1. Este Cadastro de Informações Operacionais apresenta as definições das regiões de segurança para as 
Áreas Elétricas da Rede de Operação. 
3.2. Os operadores dos Centros de Operação do ONS, nas ações complementares aos procedimentos de 
controle de tensão e carregamento utilizados para as Áreas Elétricas da Rede de Operação, 
monitoram as Regiões de Segurança definidas neste Cadastro. 
3.3. Por meio da monitoração das regiões de segurança em tempo real, é possível avaliar cenários 
presentes, com suas possíveis variações, em que possa ocorrer violação de limites de carregamento, 
de tensão e de estabilidade eletromecânica.  
3.4. Caso sejam verificadas situações temporárias de restrição operativa ou alteração de topologia na 
Rede de Operação, podem ser elaboradas, em fase de programação de intervenções ou em tempo 
real, novas regiões de segurança a serem monitoradas.  
3.5. Caso a operação em tempo real verifique que o sistema está operando ou se deslocando para um 
ponto de operação indesejado, violando as delimitações de área ou contorno da região de segurança, 
caberá aos Centros de Operação do ONS avaliar os resultados e, caso necessário,  definir 
procedimentos para garantir a operação em condição segura.  
3.6. Limites de natureza dinâmica , monitorados em tempo real e normatizados em instruções de 
operação, não devem ser flexibilizados pelos resultados obtidos por meio de análise da região de 
segurança. 
4. REGIÕES DE SEGURANÇA 
As regiões de segurança são apresentadas a seguir, para cada região da Rede de Operação que essas 
objetivam analisar.  
Estão indicadas as contingências de equipamentos ou linhas de transmissão consideradas, bem como 
os grupos de usina ou fluxos de transmissão monitorados que compõem cada uma destas Regiões. 
Caso as regiões de segurança avaliem atuações de esquemas especiais da Rede de Operação, esses 
também estão indicados no respectivo item. 
Manual de Procedimentos da Operação - Módulo 5 - Submódulo 5.11 
Instrução de Operação Código Revisão Item Vigência 
Cadastro de Regiões de Segurança Aplicadas ao Tempo 
Real CD-CT.BR.02 22 2.4. 10/10/2024 
 
Referência:  RT-ONS DOP 0451/2024 - VALIDAÇÃO DAS REGIÕES DE SEGURANÇA DO ORGANON DO 3º QUADRIMESTRE DE 2024. 
  
 
 
4.1. REGIÃO SUDESTE 
4.1.1. REGIÃO DE SEGURANÇA DA ÁREA 440/230 KV DE SÃO PAULO 
Esta região de segurança visa avaliar, em tempo real, o comportamento da Área 440/230 kV de São 
Paulo, frente a contingências simples e duplas, variando a geração das usinas conectadas nessa área 
elétrica. 
Todos os esquemas especiais constantes na IO-EE.SE.4SP e IO-EE.SE.3SP estão representados nes ta 
região de segurança. 
4.1.1.1. GRUPOS DE GERAÇÃO 
Grupos 
Grupo 1 Grupo 2 Grupo 3 
UHE Ilha Solteira UHE Nova Avanhandava UHE Furnas 
UHE Jupiá 440 kV UHE Promissão UHE Luiz Carlos Barreto 
UHE Porto Primavera UHE Bariri UHE Mascarenhas de 
Moraes 
UHE Capivara UHE Ibitinga UHE Jaguara 
UHE Taquaruçu UHE Barra Bonita UHE Volta Grande 
UHE Três Irmãos UHE Henry Borden 230 kV UHE Marimbondo 
UHE Água Vermelha UHE Henry Borden 88 kV UHE Theodomiro Carneiro 
Santiago 
 UHE Chavantes UHE São Simão 
 UHE Jurumirim UHE Nova Ponte 
 UHE Rosana UHE Miranda 
 UHE Piraju  
 UHE Salto Grande  
 UHE Canoas  
 UHE Euzébio Cunha  
 UHE Limoeiro  
 UHE Ourinhos  
 
Manual de Procedimentos da Operação - Módulo 5 - Submódulo 5.11 
Instrução de Operação Código Revisão Item Vigência 
Cadastro de Regiões de Segurança Aplicadas ao Tempo 
Real CD-CT.BR.02 22 2.4. 10/10/2024 
 
Referência:  RT-ONS DOP 0451/2024 - VALIDAÇÃO DAS REGIÕES DE SEGURANÇA DO ORGANON DO 3º QUADRIMESTRE DE 2024. 
  
 
 
4.1.1.2. CONTINGÊNCIAS CONSIDERADAS 
Contingências Consideradas 
Tranformador TR1 440/138 kV 
da SE Araraquara  LT 440 kV Getulina / Bauru C1 ou C2  LTs 440 kV Bauru / Getulina C1 e C2 
Tranformador TR3 440/138 kV 
da SE Cabreúva  LT 440 kV Araraquara / Piracicaba  
LTs 440 kV Ilha Solteira / Água 
Vermelha e Ilha Solteira / Mirassol 2 
C2  
Tranformador TR3 440/345 kV 
da SE Embu Guaçu  
LT 440 kV Mirassol / Araraquara C1 
ou C2 
LTs 440 kV Ilha Solteira / Baguaçu C1 
e C2  
Tranformador TR10 500/440 kV 
da SE Taubaté  LT 440 kV Araraquara / Araras  LTs 440 kV Ilha Solteira / Baguaçu C1 
e Ilha Solteira / Três Irmãos  
Tranformador TR1 440/345 kV 
da SE Santo Ângelo  LT 440 kV Piracicaba / Santa Barbara  LTs 440 kV Ilha Solteira / Mirassol C1 
e C2  
Tranformador TR1 500/440 kV 
da SE Ribeirão Preto  
LT 440 kV Ribeirão Preto / Santa 
Bárbara D’Oeste 
LTs 440 kV Ilha Solteira / Três 
Irmãos e Jupiá / Três Irmãos  
LT 500 kV Araraquara 2 / 
Araraquara C1 LT 230 kV Andirá Leste / Assis LTs 440 kV Getulina / Jupiá e 
Getulina / Marechal Rondon  
LT 440 kV Água Azul / Bom 
Jardim LT 138 kV Bariri / Bauru C1 LTs 440 kV Jupiá / Marechal Rondon 
C1 e C2  
LT 440 kV Água Vermelha / 
Araraquara  
LT 500 kV Araraquara 2 / Araraquara 
C1 e C2 
LTs 440 kV Araraquara / Mirassol 2 
C1 e C2  
LT 440 kV Água Vermelha / 
Ribeirão Preto  
LTs 440 kV Araraquara 2 / 
Araraquara C1 e C2  
LTs 440 kV Embu Guaçu / Oeste e 
Embu Guaçu / CBA  
LT 440 kV Araraquara 2 / 
Araraquara C1  
LTs 440 kV Araraquara / Mogi Mirim 
3 e Araraquara / Araras  
LTs 440 kV Oeste / Embu Guaçu e 
Oeste / CBA  
LT 440 kV Cabreúva / Bom 
Jardim  
LTs 440 kV Araraquara / Mogi 
Mirim 3 e Mogi Mirim 3 / Santo 
Ângelo  
LTs 440 kV Santo Ângelo / Replan e 
Santo Ângelo / Mogi Mirim  
LT 440 kV Capivara / Assis  LTs 440 kV Araras / Replan e Mogi 
Mirim 3 / Santo Ângelo  LTs 440 kV Baguaçu – Bauru C1 e C2 
LT 440 kV Ilha Solteira / Água 
Vermelha  
LTs 440 kV Bauru /Cabreúva e Bauru 
/ Salto  
LTs 440 kV Ilha Solteira / Mirassol C1 
e Ilha Solteira / Baguaçu C2 
LT 440 kV Santa Bárbara D’Oeste 
/ Sumaré  
LTs 440 kV Bauru / Cabreúva e 
Cabreúva / Salto  
LTs 230 kV Cabreúva / Edgard de 
Sousa C2 e C3 
LT 440 kV Sumaré / Bom Jardim  LTs 440 kV Bauru / Oeste e Bauru / 
Bracell 
LT 230 kV Chavantes / Botucatu C4 e 
Botucatu / Avaré Nova  
LT 440 kV Taquaruçu / Assis  LTs 440 kV Bom Jardim / Fernão 
Dias e Bom Jardim / Sumaré 
LT 230 kV Chavantes / Botucatu C4 e 
Jurumirim / Avaré Nova  
LT 440 kV Taquaruçu / Capivara  Transformador TR15 440/138 da SE 
Jupiá 
Transformador AT01 ou AT02 
440/138 da SE Marechal Rondon 
Manual de Procedimentos da Operação - Módulo 5 - Submódulo 5.11 
Instrução de Operação Código Revisão Item Vigência 
Cadastro de Regiões de Segurança Aplicadas ao Tempo 
Real CD-CT.BR.02 22 2.4. 10/10/2024 
 
Referência:  RT-ONS DOP 0451/2024 - VALIDAÇÃO DAS REGIÕES DE SEGURANÇA DO ORGANON DO 3º QUADRIMESTRE DE 2024. 
  
 
 
Contingências Consideradas 
LT 440 kV Bauru / Cabreúva LT 440 kV Bauru / Salto LT 440 kV Bom Jardim / Fernão Dias 
LT 440 kV Água Azul / Bom 
Jardim e LT 440 kV Cabreúva / 
Bom Jardim 
LT 440 kV Salto / Cabreúva LT 440 kV Bom Jardim / Fernão Dias 
e LT 440 kV Fernão Dias / Taubaté 
LTs 138 kV Água Vermelha / 
Pedranópolis 01 e LT 138 kV 
Água Vermelha / Guariroba 1 
LT 138 kV Água Vermelha / Boa 
Hora C1 ou C2 
LT 138 kv Água vermelha / 
Pedranópolis 01 
LT 138 kv Pedranópolis 01 / 
Votuporanga II LT 440 kV Água Azul / Santo Ângelo LT 138 kV Jales / Boa Hora C1 ou C2 
Transformador TR1 345/138 da 
SEAtibaia II 
LT 138 kV Água Vermelha / 
Pedranópolis 01 e LT 138 kV 
Guariroba 1 / Votuporanga II 
LT 230 kV Edgard Souza / 
Anhangüera C1 ou C2 
LT 138 kV Pedranópolis 01 / 
Votuporanga IIe LT 138 kV 
Guariroba 1 / Votuporanga II 
  
 
4.1.2. REGIÃO DE SEGURANÇA DA ÁREA 345 KV RIO DE JANEIRO E ESPÍRITO SANTO 
Esta região de segurança visa avaliar, em tempo real, o comportamento da Área 500/345 kV Rio de 
Janeiro e Espírito Santo, frente a contingências simples e duplas, variando a geração das usinas 
conectadas nessa área elétrica. 
Todos os esquemas especiais constantes na IO -EE.SE.5RJ estão representados nes ta Região de 
Segurança. 
4.1.2.1. GRUPOS DE GERAÇÃO 
Grupos 
Grupo 1 Grupo 2 Grupo 3 
UHE Ilha dos Pombos UHE Guilman Amorim UHE Furnas  
UHE Simplício UHE Sá Carvalho UHE Mascarenhas de Moraes  
UTE Norte Fluminense UHE Porto Estrela UHE Luis Carlos Barreto  
UTE Termomacaé UHE Baguari UHE Jaguara  
UTE GNA I UHE Santa Clara UHE Igarapava  
UTE Marlim Azul UHE Aimorés UHE Volta Grande  
 UHE Mascarenhas (ES) UHE Porto Colômbia  
 UHE Irapé UHE Marimbondo  
 UHE Retiro Baixo UHE Água Vermelha  
Manual de Procedimentos da Operação - Módulo 5 - Submódulo 5.11 
Instrução de Operação Código Revisão Item Vigência 
Cadastro de Regiões de Segurança Aplicadas ao Tempo 
Real CD-CT.BR.02 22 2.4. 10/10/2024 
 
Referência:  RT-ONS DOP 0451/2024 - VALIDAÇÃO DAS REGIÕES DE SEGURANÇA DO ORGANON DO 3º QUADRIMESTRE DE 2024. 
  
 
 
Grupos 
Grupo 1 Grupo 2 Grupo 3 
 UHE Três Marias UHE Serra do Facão  
 UTE Viana UHE Corumbá IV  
 UTE Luiz Oscar Rodrigues 
De Melo 
UHE Corumbá III  
 UTE Ibirité UHE Corumbá  
 UHE Salto Grande (MG)  UHE Nova Ponte  
  UHE Miranda  
  UHE Amador Aguiar  1 
  UHE Amador Aguiar  2 
  UHE Theodomiro Carneiro Santiago  
   UHE Itumbiara  
  UHE Cachoeira Dourada  
  UHE São Simão  
  UHE Jupiá - 440kV  
  UHE Jupiá - 138kV  
  UHE Porto Primavera  
  UHE Chavantes  
  UHE Capivara  
  UHE Taquaruçu  
  UHE Rosana  
  UHE Jaime Canet Junior (Mauá)  
  UHE Barra Bonita  
  UHE Bariri  
  UHE Ibitinga  
  UHE Promissão  
  UHE Nova Avanhandava  
  UHE Três Irmãos  
 
Manual de Procedimentos da Operação - Módulo 5 - Submódulo 5.11 
Instrução de Operação Código Revisão Item Vigência 
Cadastro de Regiões de Segurança Aplicadas ao Tempo 
Real CD-CT.BR.02 22 2.4. 10/10/2024 
 
Referência:  RT-ONS DOP 0451/2024 - VALIDAÇÃO DAS REGIÕES DE SEGURANÇA DO ORGANON DO 3º QUADRIMESTRE DE 2024. 
  
 
 
4.1.2.2. CONTINGÊNCIAS CONSIDERADAS 
Contingências Consideradas 
Transformador TR1A ou TR1B ou 
TR2A ou TR2B 345/138 kV da SE 
Adrianópolis 
LT 345 kV Lagos / Macaé Merchant 
C1 ou C2 LT 138 kV São José / Magé C1 ou C2 
Transformador TR3 500/345 kV 
da SE João Neiva 2  
Transformador TR2 ou TR4 ou 
TR6 345/138 kV da SE João 
Neiva 2 
LT 345 kVJoão Neiva 2 / Viana 2  
Transformador TR1 ou TR2 ou 
TR3 ou TR4 345/138 kV da SE 
Campos 
LT 345 kV Macaé Merchant / Venda 
das Pedras 
LT 345 kV Adrianópolis / Comperj e 
LT 345 kV Adrianópolis / Venda das 
Pedras 
Transformador TR1 ou TR2 ou 
TR3 345/138 kV da SE Lagos LT 345 kV Vitória / Rio Novo do Sul LT 345 kV Adrianópolis / Venda das 
Pedras e LT 345 kV Comperj / Lagos 
Transformador TR1 230/138 kV 
da SE Linhares LT 345 kV Viana / Rio Novo do Sul 
LT 345 kV Adrianópolis / Venda das 
Pedras e LT 345 kV Macaé Merchant 
/ Venda das Pedras  
Transformador TR2 230/138 kV 
da SE Mascarenhas LT 345 kV Viana / Vitória LT 345 kV Campos / Rio Novo do Sul 
C1 e C2 
Transformador TR3 345/138 kV 
ou defasador TD03 138/138 kV  
da SE Padre Fialho 
LT 345 kV Vitória / Padre Fialho 
LT 345 kV Comperj / Lagos e LT 345 
kV Macaé Merchant / Venda das 
Pedras 
Transformador TR1 ou TR2 
345/138 kV da SE Rio Novo do 
Sul 
LT 345 kV Viana / Viana 2 C1 ou C2 LT 345 kV Lagos / Macaé Merchant 
C1 e C2 
Transformador TR701 500/345 
kV da SE Rio Novo do Sul 
LT 230 kV Aimorés / Conselheiro 
Pena 
LT 345 kV Lagos / Macaé Merchant 
(C1 ou C2) e LT 345 kV Macaé 
Merchant / Venda das Pedras 
Transformador TR1 230/138 kV 
da SE São Mateus 2 
LT 230 kV Aimorés / Mascarenhas 
C1 ou C2 
LT 345 kV Vitória / Rio Novo do Sul e 
LT 345 kV Viana / Rio Novo do Sul 
Transformador TR1 ou TR2 ou 
TR4 ou TR5 345/138 kV da SE 
Venda das Pedras 
LT 230 kV Linhares / 
Mascarenhas 
LT 345 kV Vitória / Rio Novo do Sul e 
LT 345 kV Viana / Vitória 
Transformador TR1 ou TR2 
230/138 kV da SE Verona LT 230 kV Linhares / São Mateus 2 LT 345 kV Viana / Rio Novo do Sul e 
LT 345 kV Viana / Vitória 
Transformador TR1 ou TR2 ou 
TR3 ou TR4 ou TR5 345/138 kV 
da SE Vitória 
LT 230 kV Mascarenhas / Verona LT 345 kV Viana / Viana 2 C1 e C2 
Transformador TR1 ou TR2 ou 
TR3 ou TR4 345/138 kV da SE 
Viana 
LT 230 kV Governador Valadares 6 / 
Conselheiro Pena 
LT 345 KV Campos / Macaé 
Merchant C1 e C2 ou C2 e C3 ou C1 
e C3 
Transformador TR1 ou TR2 
500/345 kV da SE Viana 2 
LT 138 kV Adrianópolis / Magé C1 
ou C2 
LT 138 kV Adrianópolis / Magé C1 e 
C2 
Manual de Procedimentos da Operação - Módulo 5 - Submódulo 5.11 
Instrução de Operação Código Revisão Item Vigência 
Cadastro de Regiões de Segurança Aplicadas ao Tempo 
Real CD-CT.BR.02 22 2.4. 10/10/2024 
 
Referência:  RT-ONS DOP 0451/2024 - VALIDAÇÃO DAS REGIÕES DE SEGURANÇA DO ORGANON DO 3º QUADRIMESTRE DE 2024. 
  
 
 
Contingências Consideradas 
LT 500 kV Mutum / Rio Novo do 
Sul 
LT 138 kV Cachoeiro de Itapemirim / 
Safra 
LT 138 kV Campos / Cachoeiro do 
Itapemirim e LT 138 kV Campos / 
Safra 
LT 500 kV Mutum / Viana 2 LT 138 kV Campos / Iriri 
LT 138 kV Campos / Cachoeiro do 
Itapemirim e LT 138 kV Cachoeiro 
do Itapemirim / Safra 
LT 345 kV Adrianópolis / 
Comperj 
LT 138 kV Campos / Rocha Leão 
(FURNAS) 
LT 138 kV Campos / Iriri e Campos / 
Rocha Leão 
LT 345 kV Adrianópolis / Venda 
das Pedras 
LT 138 kV Campos / Cachoeiro de 
Itapemirim 
LT 138 kV Campos / Rocha Leão e 
Iriri / Rocha Leão 
LT 345 kV Campos / Macaé 
Merchant C1 ou C2 ou C3 LT 138 kV Campos / Safra LT 138 kV São José / Magé C1 e C2 
LT 345 kV Comperj / Lagos LT 345 kV Campos / Rio Novo do Sul 
C1 ou C2 LT 138 kV Iriri / Rocha Leão 
LT 138 kV Rocha Leão (FURNAS) 
/ Magé C1 ou C2   
Manual de Procedimentos da Operação - Módulo 5 - Submódulo 5.11 
Instrução de Operação Código Revisão Item Vigência 
Cadastro de Regiões de Segurança Aplicadas ao Tempo 
Real CD-CT.BR.02 22 2.4. 10/10/2024 
 
Referência:  RT-ONS DOP 0451/2024 - VALIDAÇÃO DAS REGIÕES DE SEGURANÇA DO ORGANON DO 3º QUADRIMESTRE DE 2024. 
  
 
 
4.1.3. REGIÃO DE SEGURANÇA DA ÁREA 500 KV DO RIO DE JANEIRO 
Esta região de segurança visa avaliar, em tempo real, o comportamento da região metropolitana da 
Área 500/345 kV Rio de Janeiro e Espírito Santo  (5RJ), frente a representações dos esquemas 
especiais desta Área Elétrica , explorando a variação de geração de usinas conectadas próximas à 
região metropolitana versus a geração de usinas da região Norte Fluminense e Espírito Santo. 
Os esquemas representados nesta região de segurança são: Perda dupla em Grajaú; Alívio de 
carregamento da transformação da SE Adrianópolis; perda dupla em São José; redução de geração 
na UTE Termorio devido à sobrecarga na LT 138 kV São José / Magé C1 ou C2. 
4.1.3.1. GRUPOS DE GERAÇÃO 
Grupos 
Grupo 1 Grupo 2 Grupo 3 
UHE Funil UHE Ilha dos Pombos UHE Furnas  
UTE Santa Cruz UHE Simplício UHE Mascarenhas de 
Moraes  
UHE Nilo Peçanha UTE Norte Fluminense UHE Luis Carlos Barreto  
UHE Fontes Nova UTE Termomacaé UHE Jaguara  
UHE Pereira Passos UTE GNA 1 UHE Igarapava  
UTE Seropédica UTE Marlim Azul UHE Volta Grande  
UTE Termorio UHE Mascarenhas UHE Porto Colômbia  
UTE do Atlântico UHE Aimorés UHE Marimbondo  
UTE Baixada Fluminense UTE Viana UHE Água Vermelha  
 UTE Luiz Oscar Rodrigues 
de Melo UHE Serra do Facão  
  UHE Corumbá IV  
  UHE Corumbá III  
  UHE Corumbá  
   UHE Nova Ponte 
  UHE Miranda 
  UHE Amador Aguiar  
  UHE Theodomiro Carneiro 
Santiago 
  UHE Cachoeira Dourada  
  UHE São Simão  
Manual de Procedimentos da Operação - Módulo 5 - Submódulo 5.11 
Instrução de Operação Código Revisão Item Vigência 
Cadastro de Regiões de Segurança Aplicadas ao Tempo 
Real CD-CT.BR.02 22 2.4. 10/10/2024 
 
Referência:  RT-ONS DOP 0451/2024 - VALIDAÇÃO DAS REGIÕES DE SEGURANÇA DO ORGANON DO 3º QUADRIMESTRE DE 2024. 
  
 
 
Grupos 
Grupo 1 Grupo 2 Grupo 3 
  UHE Jupiá - 440kV  
  UHE Jupiá - 138kV  
  UHE Porto Primavera  
  UHE Chavantes  
  UHE Capivara 
  UHE Taquaruçu  
  UHE Rosana 
  UHE Jaime Canet Junior 
(Mauá)  
  UHE Barra Bonita  
  UHE Bariri  
  UHE Ibitinga  
  UHE Promissão  
  UHE Nova Avanhandava  
  UHE Três Irmãos  
  UHE Itumbiara  
 
4.1.3.2. CONTINGÊNCIAS CONSIDERADAS 
Contingências Consideradas 
LT 500 kV Adrianópolis / São 
José 
LT 500 kV Cachoeira Paulista / 
Resende 
LT 500 kV Adrianópolis / São José e 
Nova Iguaçu / São José 
LT 500 kV Grajaú / Nova Iguaçu LT 500 kV Adrianópolis / Grajaú 
LT 345 kV Adrianópolis / 
Jacarepaguá 
LT 500 kV São José / Nova Iguaçu 
LT 500 kV Adrianópolis / Terminal 
Rio C1 e C2 LT 345 kV Furnas / Itutinga 
LT 500 kV Angra / Nova Iguaçu 
LT 500 kV Nova Iguaçu / Terminal 
Rio C1 e C2 
LT 345 kV Adrianópolis / Itutinga C1 
ou C2 
LT 500 kV Angra / Zona Oeste 
LT 500 kV Angra / Nova Iguaçu e 
Angra / Zona Oeste LT 345 kV Jacarepaguá / Nova Iguaçu 
LT 500 kV Angra / Cachoeira 
Paulista 
LT 500 kV Adrianópolis / Nova 
Iguaçu 
Transformador AT51 ou AT53 ou 
AT55 500/345 kV da SE Adrianópolis 
Manual de Procedimentos da Operação - Módulo 5 - Submódulo 5.11 
Instrução de Operação Código Revisão Item Vigência 
Cadastro de Regiões de Segurança Aplicadas ao Tempo 
Real CD-CT.BR.02 22 2.4. 10/10/2024 
 
Referência:  RT-ONS DOP 0451/2024 - VALIDAÇÃO DAS REGIÕES DE SEGURANÇA DO ORGANON DO 3º QUADRIMESTRE DE 2024. 
  
 
 
Contingências Consideradas 
LT 500 kV Nova Iguaçu / Taubaté 
LT 500 kV Adrianópolis / Terminal 
Rio C1 ou C2 
Transformador AT57 ou AT59 
500/138 kV da SE Cachoeira Paulista 
LT 500 kV Cachoeira Paulista / 
Terminal Rio LT 500 kV Resende / Terminal Rio 
Transformador B32 230/138 kV da 
UHE Nilo Peçanha 
LT 500 kV Adrianópolis / Baixada 
Fluminense 
LT 500 kV Nova Iguaçu / Terminal 
Rio C1 ou C2 
Transformador T11 ou T12 ou T13 
ou T14 500/138 kV da SE São José 
LT 500 kV Cachoeira Paulista / 
Baixada Fluminense 
LT 500 kV Adrianópolis / São José e 
Adrianópolis / Grajaú 
Transformador TR52 ou TR54 ou 
TR56 ouTR58 500/138 kV da SE 
Grajaú 
LT 500 kV Nova Iguaçu / Zona 
Oeste 
LT 500 kV Grajaú / Nova Iguaçu e 
Adrianópolis / Grajaú 
Transformador AT1A ou AT1B ou 
AT2A ou AT2B ou AT3A 345/138 kV 
da SE Jacarepaguá 
Transformador 9AT04 500/345 
kV da SE Nova Iguaçu 
Transformador TR58 ou TRD1 
500/138 kV da SE Angra dos Reis 
Transformador 9AT06 ou 9AT07 ou 
9AT08 500/138 kV  da SE Nova 
Iguaçu 
Tranformador AT05 500/138 kV 
da SE Resende 
Transformador T11 ou T21 500/138 
da SE Zona Oeste  
 
Manual de Procedimentos da Operação - Módulo 5 - Submódulo 5.11 
Instrução de Operação Código Revisão Item Vigência 
Cadastro de Regiões de Segurança Aplicadas ao Tempo 
Real CD-CT.BR.02 22 2.4. 10/10/2024 
 
Referência:  RT-ONS DOP 0451/2024 - VALIDAÇÃO DAS REGIÕES DE SEGURANÇA DO ORGANON DO 3º QUADRIMESTRE DE 2024. 
  
 
 
4.1.4. REGIÃO DE SEGURANÇA DA ÁREA 345/230 KV DE SÃO PAULO 
Esta região de segurança visa avaliar, em tempo real, o comportamento da Área 345/230 kV de São 
Paulo, frente a contingências simples e duplas, variando a geração das usinas conectadas com 
influência nessa área elétrica. 
Todos os esquemas especiais constantes na IO -EE.SE.3SP e IO-EE.SE.4SP estão representados nesta 
região de segurança. 
4.1.4.1. GRUPOS DE GERAÇÃO 
Grupos 
Grupo 1 Grupo 2 Grupo 3 
UHE Itaipu 60 Hz UHE Theodomiro 
Carneiro Santiago UHE Capivara 
UHE Henry Borden 
230 kV UHE São Simão UHE Taquaruçu 
UTE Cubatão UHE Itumbiara UHE Três Irmãos 
UHE Jaguari UHE Furnas UHE Jupiá 
UHE Paraibuna UHE Luis Carlos Barreto UHE Ilha Solteira 
 UHE Marimbondo UHE Água Vermelha 
 UHE Nova Ponte  
 UHE Volta Grande  
 UHE Mascarenhas de 
Moraes  
 UHE Jaguara  
 
4.1.4.2. CONTINGÊNCIAS CONSIDERADAS 
Contingências Consideradas 
LT 500 kV Araraquara 2 / Itatiba LT 345 kV Guarulhos / Ibiúna C1 e C2 
LT 500 KV Cachoeira Paulista / Tijuco Preto LT 345 kV Guarulhos / Poços de Caldas C1 e C2 
LT 500 kV Campinas / Fernão Dias LT 345 kV Interlagos / Ibiúna C1 e C2 
LT 500 kV Campinas / Itatiba LT 345 kV Interlagos / Piratininga II C3 e C4 
LT 500 kV Estreito / Cachoeira Paulista LT 345 kV Itapeti /Santo Ângelo C1 e C2 
Manual de Procedimentos da Operação - Módulo 5 - Submódulo 5.11 
Instrução de Operação Código Revisão Item Vigência 
Cadastro de Regiões de Segurança Aplicadas ao Tempo 
Real CD-CT.BR.02 22 2.4. 10/10/2024 
 
Referência:  RT-ONS DOP 0451/2024 - VALIDAÇÃO DAS REGIÕES DE SEGURANÇA DO ORGANON DO 3º QUADRIMESTRE DE 2024. 
  
 
 
Contingências Consideradas 
LT 500 KV Ibiúna / Itatiba LT 345 kV Itapeti / Tijuco Preto C3 e C4 
LT 500 kV Ibiúna / Bateias LT 345 kV Leste / Tijuco Preto – C1 e C2 ou C2 e C3 ou 
C1 e C3 
LT 500 kV Itatiba / Bateias LT 345 kV Xavantes / Interlagos C1 e C2 
LT 500 kV Lorena / Cachoeira Paulista LT 345 kV Xavantes / Milton Fornasaro C1 e C2 
LT 500 kV Cachoeira Paulista / Fernão Dias LT 230 kV Aparecida / Lorena C1 ou C2 
LT 500 KV Tijuco Preto / Lorena  LT 230 kV Carbocloro / Baixada Santista 
LT 500 KV Tijuco Preto / Taubaté LT 230 kV Cubatão / Baixada Santista 
LT 500 kV Ibiúna / Bateias C1 e C2 LT 230 kV Henry Borden / Cubatão 
LT 500 kV Estreito / Fernão Dias C1 e C2 LT 230 kV Henry Borden / Carbocloro 
LT 500 kV Cachoeira Paulista / Lorena e LT 500 kV 
Tijuco Preto / Lorena LT 230 kV Piratininga / Henry Borden 
LT 345 kV Baixada Santista / Sul LT 230 kV Piratininga / Interlagos C1 ou C2 
LT 345 kV Baixada Santista / Tijuco Preto C1 ou C2 
ou C3 
LT 230 kV Cubatão / Baixada Santista e LT 230 kV Henry 
Borden / Carbocloro 
LT 345 kV Campinas / Guarulhos LT 230 kV Henry Borden / Cubatão e LT 230 kV Baixada 
Santista / Carbocloro 
LT 345 kV Campinas / Poços de Caldas LT 230 kV Cubatão / Baixada Santista e LT 230 kV 
Baixada Santista / Carbocloro 
LT 345 kV Embu-Guaçu / Baixada Santista LT 230 kV Henry Borden / Cubatão e LT 230 kV Henry 
Borden / Carbocloro 
LT 345 kV Embu-Guaçu / Sul LT 230 kV Piratininga / Interlagos C1 e C2 
LT 345 kV Anhanguera / Guarulhos C1 e C2 Transformadores TR51 e TR54 500/345/13,8 kV da SE 
Campinas 
LT 345 kV Anhanguera / Milton Fornasaro C1 e C2 Transformador TR3 500/230/13,8 kV da SE Lorena 
LT 345 kV Baixada Santista / Sul e LT 345 kV Embu-
Guaçu / Baixada Santista 
Transformador TR1 ou TR2 345/230/13,2 kV da SE 
Interlagos 
LT 345 kV Baixada Santista / Tijuco Preto C1 e C2 Transformador TR1 345/230/13,8 kV da SE Baixada 
Santista  
Manual de Procedimentos da Operação - Módulo 5 - Submódulo 5.11 
Instrução de Operação Código Revisão Item Vigência 
Cadastro de Regiões de Segurança Aplicadas ao Tempo 
Real CD-CT.BR.02 22 2.4. 10/10/2024 
 
Referência:  RT-ONS DOP 0451/2024 - VALIDAÇÃO DAS REGIÕES DE SEGURANÇA DO ORGANON DO 3º QUADRIMESTRE DE 2024. 
  
 
 
Contingências Consideradas 
LT 345 kV Embu-Guaçu / Sul e LT 345 kV Embu-
Guaçu / Baixada Santista 
Transformador TR7 ou TR8 230/138/13,8 kV da SE 
Baixada Santista  
LT 345 kV Embu Guaçu / Interlagos C1 e C2  
Manual de Procedimentos da Operação - Módulo 5 - Submódulo 5.11 
Instrução de Operação Código Revisão Item Vigência 
Cadastro de Regiões de Segurança Aplicadas ao Tempo 
Real CD-CT.BR.02 22 2.4. 10/10/2024 
 
Referência:  RT-ONS DOP 0451/2024 - VALIDAÇÃO DAS REGIÕES DE SEGURANÇA DO ORGANON DO 3º QUADRIMESTRE DE 2024. 
  
 
 
4.2. REGIÃO SUL 
4.2.1. REGIÃO DE SEGURANÇA DA ÁREA 525 KV DA REGIÃO SUL 
Esta Região de Segurança visa avaliar, em tempo real, o comportamento da Área 525 kV da Região Sul, frente 
a contingências de linhas de transmissão dessa área elétrica. 
Todos os esquemas especiais constantes na IO-EE.S.5SU, relacionados a conexão e desconexão de elementos 
shunts na malha de 525 kV, estão representados nes ta Região de Segurança , bem como os esquemas 
mencionados a seguir: 
Esquemas Especiais Considerados 
Controle de Carregamento na LT 525 kV Bateias / Curitiba C1 
Bloqueio das Conversoras de Garabi I e II pelo Desligamento da LT 525 kV Itá / Santo Ângelo C1 e C2 
Run-Back nas Conversoras de Garabi I e II pelo Desligamento da LT 525 kV Itá / Santo Ângelo C1 ou C2 
4.2.1.1. GRUPOS DE GERAÇÃO 
Grupos 
Grupo 1 Grupo 2 Grupo 3 
UHE Gov. Bento Munhoz da Rocha Netto UHE Itá UHE Três Irmãos 
UHE Gov. José Richa UHE Machadinho UHE Jupiá 138 kV 
UHE Gov. Ney Aminthas de Barros Braga UHE Foz do Chapecó UHE Jupiá 440 kV 
UHE Salto Santiago UHE Barra Grande UHE Porto Primavera 
UHE Salto Osório UHE Campos Novos UHE Chavantes 
UHE Baixo Iguaçu UHE Garibaldi UHE Piraju 
UHE Santa Clara UHE Quebra-Queixo UHE Jurumirim 
UHE Fundão UHE São José UHE Rosana 
UHE Gov. Pedro Viriato Parigot de Souza UHE Passo Fundo UHE Taquaruçu 
UHE Gov. Jayme Canet Júnior UHE Monjolinho UHE Capivara 
 UHE Passo São João UHE Luis Carlos Barreto 
 UHE Salto Pilão UHE Marimbondo 
 UHE São Roque UHE Furnas 
  UHE Água Vermelha 
  UHE Itaipu 60 Hz 
4.2.1.2. GRUPOS DE GERAÇÃO 
Considerando cenários de restrição hídrica na Região Sul, poderá ser adotado o grupo de geração a seguir: 
Grupos 
Grupo 1 Grupo 2 Grupo 3 
UHE Gov. Bento Munhoz da Rocha Netto UHE Itaipu 60 Hz UHE Jupiá 138 kV 
UHE Gov. José Richa  UHE Jupiá 440 kV 
UHE Gov. Ney Aminthas de Barros Braga  UHE Porto Primavera 
Manual de Procedimentos da Operação - Módulo 5 - Submódulo 5.11 
Instrução de Operação Código Revisão Item Vigência 
Cadastro de Regiões de Segurança Aplicadas ao Tempo 
Real CD-CT.BR.02 22 2.4. 10/10/2024 
 
Referência:  RT-ONS DOP 0451/2024 - VALIDAÇÃO DAS REGIÕES DE SEGURANÇA DO ORGANON DO 3º QUADRIMESTRE DE 2024. 
  
 
 
Grupos 
Grupo 1 Grupo 2 Grupo 3 
UHE Salto Santiago  UHE Chavantes 
UHE Salto Osório  UHE Piraju 
UHE Baixo Iguaçu  UHE Jurumirim 
UHE Santa Clara  UHE Rosana 
UHE Fundão  UHE Taquaruçu 
UHE Gov. Pedro Viriato Parigot de Souza  UHE Capivara 
UHE Gov. Jayme Canet Júnior  UHE Três Irmãos 
UHE Itá  UHE Luis Carlos Barreto 
UHE Machadinho  UHE Furnas 
UHE Foz do Chapecó  UHE Marimbondo 
UHE Barra Grande  UHE Água Vermelha 
UHE Campos Novos   
UHE Garibaldi   
UHE Quebra-Queixo   
UHE São José   
UHE Passo Fundo   
UHE Monjolinho   
UHE Passo São João   
UHE Salto Pilão   
UHE São Roque   
UTE Jorge Lacerda A, B e C   
UHE Itaúba   
UHE Jacuí   
UHE Passo Real   
UHE Dona Francisca   
UHE Monte Claro   
UHE Castro Alves   
UHE 14 de Julho   
UTE Candiota III   
UTE Pampa Sul   
4.2.1.3. CONTINGÊNCIAS CONSIDERADAS 
Contingências Consideradas 
LT 525 kV Abdon Batista / Biguaçu  LT 525 kV Abdon Batista / Campos Novos C1 ou C2  
LT 525 kV Abdon Batista / Siderópolis 2 C1 ou 
C2  
LT 525 kV Areia / Curitiba 
LT 525 kV Areia / Bateias LT 525 kV Areia / Segredo 
Manual de Procedimentos da Operação - Módulo 5 - Submódulo 5.11 
Instrução de Operação Código Revisão Item Vigência 
Cadastro de Regiões de Segurança Aplicadas ao Tempo 
Real CD-CT.BR.02 22 2.4. 10/10/2024 
 
Referência:  RT-ONS DOP 0451/2024 - VALIDAÇÃO DAS REGIÕES DE SEGURANÇA DO ORGANON DO 3º QUADRIMESTRE DE 2024. 
  
 
 
Contingências Consideradas 
LT 525 kV Areia / Campos Novos  LT 525 kV Assis / Londrina (CGT ELETROSUL) C1 ou C2  
LT 525 kV Areia / Ivaiporã (CGT ELETROSUL) LT 500 kV Bateias / Ibiúna C1 ou C2  
LT 525 kV Bateias / Curitiba C1 ou C2 LT 500 kV Bateias / Itatiba   
LT 525 kV Biguaçu / Gaspar 2 LT 525 kV Biguaçu / Blumenau 
LT 525 kV Bateias / Ponta Grossa C1 ou C2 LT 525 kV Blumenau / Campos Novos 
LT 525 kV Biguaçu / Siderópolis 2 LT 525 kV Blumenau / Curitiba Leste 
LT 525 kV Blumenau / Curitiba LT 525 kV Campos Novos / Machadinho C1 ou C2 
LT 525 kV Campos Novos / Caxias LT 525 kV Candiota 2 / Guaíba 3 C1 ou C2  
LT 525 kV Campos Novos / Nova Santa Rita LT 525 kV Cascavel Oeste / Foz do Iguaçu 
LT 525 kV Cascavel Oeste / Ivaiporã (CGT 
ELETROSUL)  
LT 525 kV Cascavel Oeste / Salto Caxias 
LT 525 kV Capivari do Sul / Gravataí LT 525 kV Capivari do Sul / Guaíba 3 
LT 525 kV Caxias / Gravataí LT 525 kV Caxias / Itá 
LT 525 kV Curitiba / Curitiba Leste LT 525 kV Gravataí / Guaíba 3 
LT 525 kV Gravataí / Nova Santa Rita LT 525 kV Guaíba 3 / Nova Santa Rita C1 ou C2 
LT 525 kV Guaíba 3 / Povo Novo C1 ou C2 ou C3 LT 525 kV Itá / Machadinho 
LT 525 kV Itá / Nova Santa Rita C1 ou C2 LT 525 kV Itá / Salto Santiago C1 ou C2 
LT 525 kV Itá / Santo Ângelo C1 ou C2 LT 525 kV Ivaiporã (CGT ELETROSUL) / Londrina (CGT 
ELETROSUL) C1 ou C2 
LT 525 kV Ivaiporã (CGT ELETROSUL) / Ponta 
Grossa C1 ou C2  
LT 525 kV Ivaiporã (CGT ELETROSUL) / Salto Santiago 
C1 ou C2  
LT 525 kV Marmeleiro 2 / Povo Novo C1 ou C2  LT 525 kV Marmeleiro 2 / Santa Vitória do Palmar 2 C1 
ou C2  
LT 525 kV Salto Santiago / Segredo  LT 525 kV Salto Caxias / Salto Santiago  
LT 525 Guaíra / Sarandi C1 ou C2 LT 525 kV Guaíra / Foz do Iguaçu C1 ou C2 
LT 525 kV Londrina (CGT ELETROSUL) / Sarandi 
C1 ou C2 
LT 525 kV Cascavel Oeste / Guaíra 
LT 525 kV Blumenau / Gaspar 2 C1 ou C2 LT 525 kV Curitiba / Gaspar 2 
LT 500 kV Bateias / Ibiúna C1 ou C2 LT 500 kV Bateias / Ibiúna C1 e C2 
Manual de Procedimentos da Operação - Módulo 5 - Submódulo 5.11 
Instrução de Operação Código Revisão Item Vigência 
Cadastro de Regiões de Segurança Aplicadas ao Tempo 
Real CD-CT.BR.02 22 2.4. 10/10/2024 
 
Referência:  RT-ONS DOP 0451/2024 - VALIDAÇÃO DAS REGIÕES DE SEGURANÇA DO ORGANON DO 3º QUADRIMESTRE DE 2024. 
  
 
 
4.2.2. REGIÃO DE SEGURANÇA DA ÁREA 230 KV DO MATO GROSSO DO SUL 
Esta Região de Segurança visa avaliar, em tempo real, o comportamento da Área 230 kV do Estado do Mato 
Grosso do Sul, frente a contingências de linhas de transmissão dessa área elétrica. 
Todos os esquemas especiais constantes na IO-EE.CO.2MS estão representados nesta Região de Segurança.  
4.2.2.1. GRUPOS DE GERAÇÃO 
Grupos 
Grupo 1 Grupo 2 Grupo 3 
UHE Porto Primavera UHE Gov. Bento Munhoz da 
Rocha Netto UHE Garibaldi 
UHE Taquaruçu UHE Gov. José Richa UHE Barra Grande 
UHE Capivara UHE Gov. Ney Aminthas de 
Barros Braga UHE Campos Novos 
UHE Jurumirim UHE Salto Santiago UHE Itá 
UHE Jupiá 440 kV UHE Salto Osório UHE Machadinho 
UHE Três Irmãos UHE Gov. Jayme Canet 
Júnior UHE Salto Pilão 
UHE Água Vermelha UHE Baixo Iguaçu UHE Quebra Queixo 
UHE Ilha Solteira UHE Santa Clara UHE Foz do Chapecó 
 UHE Fundão UHE Passo Fundo 
 UHE Gov. Pedro Viriato 
Parigot de Souza UHE Passo São João 
 UHE Rosana UHE Monjolinho 
  UHE São José 
  UHE São Roque 
4.2.2.2. CONTINGÊNCIAS CONSIDERADAS 
Contingências Consideradas 
LT 230 kV Anastácio / Corumbá 2 C1 ou C2 LT 230 kV Anastácio / Dourados 
LT 230 kV Anastácio / Sidrolândia 2 LT 230 kV Campo Grande 2 / Campo Grande 
Imbirussú C1 ou C2 
LT 230 kV Campo Grande 2 / Chapadão LT 230 kV Campo Grande 2 / Rio Brilhante 
LT 230 kV Chapadão / Inocência C1, C2 ou C3 LT 230 kV Dourados / Dourados 2 C1 ou C2 
LT 230 kV Dourados / Guaíra LT 230 kV Dourados 2 / Ivinhema 2 
LT 230 kV Dourados 2 / Rio Brilhante LT 230 kV Imbirussu / Rio Brilhante 
LT 230 kV Imbirussu / Sidrolândia 2 LT 440 kV Ilha Solteira 2 / Ilha Solteira C1 ou C2 
LT 230 kV Ilha Solteira 2 / Inocência C1, C2 ou C3 LT 230 kV Ivinhema 2 / Nova Porto Primavera C1 
ou C2 
Manual de Procedimentos da Operação - Módulo 5 - Submódulo 5.11 
Instrução de Operação Código Revisão Item Vigência 
Cadastro de Regiões de Segurança Aplicadas ao Tempo 
Real CD-CT.BR.02 22 2.4. 10/10/2024 
 
Referência:  RT-ONS DOP 0451/2024 - VALIDAÇÃO DAS REGIÕES DE SEGURANÇA DO ORGANON DO 3º QUADRIMESTRE DE 2024. 
  
 
 
Contingências Consideradas 
LT 230 kV Nova Porto Primavera / Rio Brilhante C1 
ou C2 
LT 230 kV Nova Porto Primavera / Rosana C1 ou 
C2 
LT 440 kV Porto Primavera / Nova Porto Primavera 
C1 ou C2 
LT 230 kV Chapadão / Paraíso 2 C2 
LT 230 kV Campo Grande 2 / Paraíso C2  
Manual de Procedimentos da Operação - Módulo 5 - Submódulo 5.11 
Instrução de Operação Código Revisão Item Vigência 
Cadastro de Regiões de Segurança Aplicadas ao Tempo 
Real CD-CT.BR.02 22 2.4. 10/10/2024 
 
Referência:  RT-ONS DOP 0451/2024 - VALIDAÇÃO DAS REGIÕES DE SEGURANÇA DO ORGANON DO 3º QUADRIMESTRE DE 2024. 
  
 
 
4.2.3. REGIÃO DE SEGURANÇA DA ÁREA 230 KV DE SANTA CATARINA 
Esta Região de Segurança visa avaliar, em tempo real, o comportamento da Área 230 kV do Estado de Santa 
Catarina, frente a contingências de linhas de transmissão dessa área elétrica. 
Todos os esquemas especiais constantes na IO-EE.S.2SC, relacionados à conexão e desconexão de elementos 
shunts na malha de 230 kV, estão representados nesta Região de Segurança , bem como os esquemas 
mencionados a seguir: 
Esquemas Especiais Considerados 
Controle de Carregamento na LT 230 kV Blumenau / Itajaí C1 e C2 
Corte de Geração na UHE Campos Novos 
4.2.3.1. GRUPOS DE GERAÇÃO 
Grupos 
Grupo 1 Grupo 2 Grupo 3 
UHE Garibaldi UHE Passo Real UHE Gov. Bento Munhoz da 
Rocha Netto 
UHE Barra Grande UHE Jacuí UHE Gov. Ney Aminthas de 
Barros Braga 
UHE Campos Novos UHE Itaúba UHE Salto Santiago 
UHE Itá UHE Dona Francisca UHE Salto Osório 
UHE Machadinho UHE Castro Alves UHE Gov. José Richa 
UHE Quebra-Queixo UHE Monte Claro UHE Baixo Iguaçu 
UHE Salto Pilão UTE Canoas UHE Gov. Jayme Canet 
Júnior 
UTE Jorge Lacerda A, B e C UHE Passo Fundo UHE Gov. Pedro Viriato 
Parigot de Souza 
UHE São Roque UHE Monjolinho UHE Santa Clara 
 UHE Passo São João UHE Fundão 
 UHE São José UTE Araucária 
 UHE Foz do Chapecó UHE Chavantes 
 UTE Candiota III UHE Porto Primavera 
 UTE Pampa Sul UHE Três Irmãos 
 UHE 14 de Julho UHE Furnas 
4.2.3.2. CONTINGÊNCIAS CONSIDERADAS 
Contingências Consideradas 
LT 230 kV Abdon Batista / Barra Grande C1 ou C2  LT 230 kV Abdon Batista / Lages C1 ou C2  
LT 230 kV Barra Grande / Lagoa Vermelha 2 LT 230 kV Barra Grande / Campos Novos  
LT 230 kV Campos Novos / Videira C1 ou C2 LT 230 kV Biguaçu / Desterro  
LT 230 kV Canoinhas / São Mateus do Sul C1 ou C2 LT 230 kV Blumenau / Gaspar 2 C1 ou C2  
Manual de Procedimentos da Operação - Módulo 5 - Submódulo 5.11 
Instrução de Operação Código Revisão Item Vigência 
Cadastro de Regiões de Segurança Aplicadas ao Tempo 
Real CD-CT.BR.02 22 2.4. 10/10/2024 
 
Referência:  RT-ONS DOP 0451/2024 - VALIDAÇÃO DAS REGIÕES DE SEGURANÇA DO ORGANON DO 3º QUADRIMESTRE DE 2024. 
  
 
 
Contingências Consideradas 
LT 230 kV Curitiba / Joinville Norte C1 ou C2 LT 230 kV Blumenau / Itajaí C1 ou C2  
LT 230 kV Forquilhinha / Siderópolis 2 C1 ou C2 LT 230 kV Blumenau / Joinville  
LT 230 kV Foz do Chapecó / Xanxerê C1 ou C2 LT 230 kV Blumenau / Joinville Norte 
LT 230 kV Joinville / Joinville Norte LT 230 kV Curitiba / Joinville  
LT 230 kV Lages / Rio do Sul C1 ou C2  LT 230 kV Forquilhinha / Lageado Grande 
LT 230 kV Siderópolis / Tubarão Sul LT 230 kV Forquilhinha / Siderópolis 
LT 230 kV Pato Branco / Xanxerê  LT 230 kV Forquilhinha / Torres 2  
LT 230 kV Biguaçu / Jorge Lacerda B LT 230 kV Foz do Chapecó / Pinhalzinho 2 C1 ou C2 
LT 230 kV Biguaçu / Ratones C1 ou C2 LT 230 kV Passo Fundo / Xanxerê C1 ou C2  
LT 230 kV Jorge Lacerda A / Jorge Lacerda B C1 ou 
C2 
LT 230 kV Siderópolis / Siderópolis 2 C1 ou C2 
LT 230 kV Jorge Lacerda B / Palhoça LT 230 kV Salto Osório / Xanxerê  
LT 230 kV Jorge Lacerda B / Tubarão Sul LT 230 kV Biguaçu / Gaspar 2 C1 
LT 230 kV Jorge Lacerda B / Siderópolis C1 ou C2 LT 230 kV Biguaçu / Palhoça 
 LT 230 kV Gaspar 2 / Indaial C1 ou C2 LT 230 kV Gaspar 2 / Palhoça 
LT 230 kV Itá / Pinhalzinho 2 C1 ou C2 LT 230 kV Itá / Xanxerê C1 ou C2 
LT 230 kV Indaial / Rio do Sul C1 ou C2  
 
 
 
 
 
 
 
 
Manual de Procedimentos da Operação - Módulo 5 - Submódulo 5.11 
Instrução de Operação Código Revisão Item Vigência 
Cadastro de Regiões de Segurança Aplicadas ao Tempo 
Real CD-CT.BR.02 22 2.4. 10/10/2024 
 
Referência:  RT-ONS DOP 0451/2024 - VALIDAÇÃO DAS REGIÕES DE SEGURANÇA DO ORGANON DO 3º QUADRIMESTRE DE 2024. 
  
 
 
4.2.4. REGIÃO DE SEGURANÇA DA ÁREA 230 KV DO PARANÁ 
Esta Região de Segurança visa avaliar, em tempo real, o comportamento da Área 230 kV do Estado do Paraná, 
frente a contingências de linhas de transmissão dessa área elétrica. 
Todos os esquemas especiais constantes na IO-EE.S.2PR, relacionados à conexão e desconexão de elementos 
shunts na malha de 230 kV, estão representados nesta Região de Segurança , bem como o s esquemas 
mencionados a seguir: 
Esquemas Especiais Considerados 
Abertura da LT 230 kV Cascavel / Cascavel Oeste C1 por Contingência da LT 230 kV Cascavel / Cascavel 
Oeste C2 e C3 
Esquema para Controle de Carregamento da Transformação 230/138 kV da SE Guaíra 
4.2.4.1. GRUPOS DE GERAÇÃO 
Grupos 
Grupo 1 Grupo 2 Grupo 3 
UHE Gov. Bento Munhoz da Rocha Netto UHE Chavantes UHE São Roque 
UHE Gov. Ney Aminthas de Barros Braga UHE Pirajú UHE Garibaldi I 
UHE Salto Santiago UHE Jurumirim UHE Campos Novos 
UHE Gov. José Richa UHE Jupiá UHE Barra Grande 
UHE Baixo Iguaçu UHE Porto Primavera UHE Machadinho 
UHE Gov. Jayme Canet Júnior UHE Rosana UHE Itá 
UHE Gov. Pedro Viriato Parigot de Souza UHE Taquara UHE Foz do Chapecó 
UHE Santa Clara UHE Capivara UHE Quebra-Queixo 
UHE Fundão UHE Três Irmãos UHE Salto Pilão 
 UHE Salto Grande UHE Passo Fundo 
 UHE Canoas 1 e 2 UHE Monjolinho 
 UHE Ourinhos UHE Passo São João 
 UHE Ilha Solteira UHE São José 
4.2.4.2. CONTINGÊNCIAS CONSIDERADAS 
Contingências Consideradas 
LT 230 kV Andirá Leste / Assis LT 230 kV Gov. Pedro Viriato Parigot Souza / Posto 
Fiscal 
LT 230 kV Andirá Leste / Salto Grande LT 230 kV Gov. Pedro Viriato Parigot Souza / Santa 
Mônica 
LT 230 kV Apucarana / Campo Mourão LT 230 kV Campo Comprido / Gralha Azul 
LT 230 kV Apucarana / Londrina (CGT Eletrosul) C2 LT 230 kV Gralha Azul / REPAR 
LT 230 kV Apucarana / Londrina Sul LT 230 kV Gralha Azul / Umbará 
LT 230 kV Apucarana / Sarandi LT 230 kV Guaíra / Dourados 
Manual de Procedimentos da Operação - Módulo 5 - Submódulo 5.11 
Instrução de Operação Código Revisão Item Vigência 
Cadastro de Regiões de Segurança Aplicadas ao Tempo 
Real CD-CT.BR.02 22 2.4. 10/10/2024 
 
Referência:  RT-ONS DOP 0451/2024 - VALIDAÇÃO DAS REGIÕES DE SEGURANÇA DO ORGANON DO 3º QUADRIMESTRE DE 2024. 
  
 
 
Contingências Consideradas 
LT 230 kV Areia / Guarapuava Oeste C1 ou C2  LT 230 kV Irati Norte / Ponta Grossa C1 ou C2 
LT 230 kV Areia / União da Vitória Norte LT 230 kV Ibiporã / Londrina (CGT Eletrosul) C1 ou 
C2 
LT 230 kV Assis / Londrina (COPEL GT) C1 ou C2 LT 230 kV Figueira / Jaguariaíva 
LT 230 kV Baixo Iguaçu / Cascavel Oeste LT 230 kV Itararé II / Jaguariaíva 
LT 230 kV Baixo Iguaçu / Realeza Sul LT 230 kV Castro Norte / Klabin Celulose 
LT 230 kV Bateias / Campo Comprido C1, C2 ou C3 LT 230 kV Figueira / Londrina (CGT Eletrosul) / C1 
ou C2 
LT 230 kV Bateias / Curitiba Norte LT 230 kV Londrina (CGT Eletrosul) / Londrina 
(COPEL GT) C1 ou C2 
LT 230 kV Bateias / Jaguariaíva LT 230 kV Londrina (CGT Eletrosul) / Maringá C2 
LT 230 kV Bateias / Pilarzinho LT 230 kV Londrina Sul / Londrina (CGT Eletrosul) 
C1 
LT 230 kV Bateias / Ponta Grossa Sul LT 230 kV Maringá / Sarandi C1 ou C2 
LT 230 kV Cidade Industrial de Curitiba / Umbará LT 230 kV Figueira / Mauá 
LT 230 kV Campo Comprido / Cidade Industrial de 
Curitiba LT 230 kV Jaguariaíva / Mauá 
LT 230 kV Campo Comprido / Pilarzinho LT 230 kV Klabin Celulose / Mauá 
LT 230 kV Campo Comprido / Santa Quitéria LT 230 kV Cascavel / Medianeira Norte 
LT 230 kV Campo do Assobio / Umbará LT 230 kV Cascavel Oeste / Medianeira Norte 
LT 230 kV Campo Mourão / Maringá LT 230 kV Ponta Grossa Norte / Ponta Grossa Sul 
LT 230 kV Campo Mourão / Salto Osório C1 ou C2 LT 230 kV Ponta Grossa Norte / Ponta Grossa C1 
ou C2 
LT 230 kV Cascavel / Cascavel Oeste C2 ou C3 LT 230 kV Pato Branco / Salto Osório 
LT 230 kV Cascavel / Foz do Chopim LT 230 kV Pilarzinho / Santa Mônica 
LT 230 kV Cascavel / Salto Osório LT 230 kV Ponta Grossa / Ponta Grossa Sul 
LT 230 kV Cascavel Norte / Cascavel Oeste C1 ou C2 LT 230 kV Ponta Grossa / São Mateus do Sul 
LT 230 kV Cascavel Norte / Umuarama Sul LT 230 kV Foz do Chopim / Realeza Sul 
LT 230 kV Cascavel / Cascavel Oeste LT 230 kV Distrito Industrial de São José dos 
Pinhais / REPAR 
 LT 230 kV Foz do Chopim / Salto Osório C1 ou C2 LT 230 kV Chavantes / Salto Grande 
LT 230 kV Castro Norte / Ponta Grossa LT 230 kV Areia / Salto Osório C1 ou C2 
LT 230 kV Chavantes / Figueira LT 230 kV Santa Quitéria / Umbará 
 LT 230 kV Guarapuava Oeste / Irati Norte LT 230 kV Areia / São Mateus do Sul 
 LT 230 kV Figueira / Klabin Celulose LT 230 kV Curitiba / São Mateus do Sul 
Manual de Procedimentos da Operação - Módulo 5 - Submódulo 5.11 
Instrução de Operação Código Revisão Item Vigência 
Cadastro de Regiões de Segurança Aplicadas ao Tempo 
Real CD-CT.BR.02 22 2.4. 10/10/2024 
 
Referência:  RT-ONS DOP 0451/2024 - VALIDAÇÃO DAS REGIÕES DE SEGURANÇA DO ORGANON DO 3º QUADRIMESTRE DE 2024. 
  
 
 
Contingências Consideradas 
LT 230 kV Curitiba / Umbará C1 ou C2 LT 230 kV São Mateus do Sul / União da Vitória 
Norte 
LT 230 kV Curitiba Leste / Distrito Industrial de São 
José dos Pinhais LT 230 kV Londrina (CGT Eletrosul) / Sarandi 
LT 230 kV Curitiba Leste / Posto Fiscal LT 230 kV Paranavaí Norte / Sarandi C1 ou C2 
LT 230 kV Curitiba Leste / Santa Mônica LT 230 kV Curitiba Centro / Uberaba C1 ou C2 
LT 230 kV Curitiba Leste / Uberaba LT 230 kV Uberaba / Umbará C1 ou C2 
LT 230 kV Curitiba Norte / Pilarzinho LT 230 kV Distrito Industrial de São José dos 
Pinhais / Uberaba 
LT 230 kV Campo do Assobio / Distrito Industrial de 
São José dos Pinhais 
LT 230 kV Foz do Iguaçu Norte / Medianeira Norte 
C1 ou C2 
LT 230 kV Guaíra / Umuarama SulC1 ou C2 Transformador ATF-A, ATF-B ou ATF-C 
230/138/13,8 kV da SE Guaíra 
 
 
 
 
Manual de Procedimentos da Operação - Módulo 5 - Submódulo 5.11 
Instrução de Operação Código Revisão Item Vigência 
Cadastro de Regiões de Segurança Aplicadas ao Tempo 
Real CD-CT.BR.02 22 2.4. 10/10/2024 
 
Referência:  RT-ONS DOP 0451/2024 - VALIDAÇÃO DAS REGIÕES DE SEGURANÇA DO ORGANON DO 3º QUADRIMESTRE DE 2024. 
  
 
 
4.2.5. REGIÃO DE SEGURANÇA DA ÁREA 230 KV RIO GRANDE DO SUL 
Esta Região de Segurança visa avaliar, em tempo real, o comportamento da Área 230 kV do Estado do Rio 
Grande do Sul, frente a contingências de linhas de transmissão dessa área elétrica. 
Os esquemas especiais, conforme IO -EE.S.2RS, representados nesta Região de Segurança, estão 
mencionados a seguir: 
Esquemas Especiais Considerados 
Controle de Carregamento na LT 230 kV Farroupilha / Monte Claro C1 e C2  
Desconexão da Conversora Rivera 
4.2.5.1. GRUPOS DE GERAÇÃO 
Grupos 
Grupo 1 Grupo 2 Grupo 3 
UHE São Roque UHE Passo Real  UHE Gov. Bento Munhoz da 
Rocha Netto 
UHE Garibaldi UHE Jacuí UHE Gov. Ney Aminthas de 
Barros Braga 
UHE Campos Novos UHE Itaúba UHE Salto Santiago 
UHE Barra Grande UHE Dona Francisca UHE Gov. José Richa 
UHE Itá UHE Castro Alves UHE Baixo Iguaçu 
UHE Machadinho UHE Monte Claro UHE Gov. Jayme Canet 
Júnior 
UHE Salto Pilão UHE 14 de Julho UHE Gov. Pedro Viriato 
Parigot de Souza 
UHE São José UTE Canoas UHE Santa Clara 
UHE Passo São João UTE Candiota III UHE Fundão 
UHE Foz do Chapecó UTE Pampa Sul UHE Salto Osório 
UHE Quebra-Queixo UHE Canastra  
UHE Passo Fundo   
UHE Monjolinho   
4.2.5.2. CONTINGÊNCIAS CONSIDERADAS 
Contingências Consideradas 
LT 230 kV Alegrete 2 / Livramento 2 LT 230 kV Gravataí 2 / Gravataí 3 C1 ou C2 
LT 230 kV Alegrete 2 / Livramento 3 LT 230 kV Gravataí 2 / Jardim Botânico 
LT 230 kV Alegrete 2 / Maçambará LT 230 kV Gravataí 2 / Porto Alegre 6 C1 ou C2 
LT 230 kV Alegrete 2 / São Vicente do Sul LT 230 kV Gravataí 2 / Porto Alegre 8 
LT 230 kV Alegrete 2 / Uruguaiana 5 LT 230 kV Gravataí 2 / Viamão 3 
LT 230 kV Alegrete 2 / UTE Uruguaiana LT 230 kV Gravataí 3 / Osório 3 
Manual de Procedimentos da Operação - Módulo 5 - Submódulo 5.11 
Instrução de Operação Código Revisão Item Vigência 
Cadastro de Regiões de Segurança Aplicadas ao Tempo 
Real CD-CT.BR.02 22 2.4. 10/10/2024 
 
Referência:  RT-ONS DOP 0451/2024 - VALIDAÇÃO DAS REGIÕES DE SEGURANÇA DO ORGANON DO 3º QUADRIMESTRE DE 2024. 
  
 
 
Contingências Consideradas 
LT 230 kV Atlântida 2 / Gravataí 3 LT 230 kV Guaíba 2 / Guaíba 3 C1 ou C2 
LT 230 kV Atlântida 2 / Osório 2 LT 230 kV Guarita / Passo Fundo 
LT 230 kV Atlântida 2 / Torres 2 LT 230 kV Guarita / Santa Rosa 1 
LT 230 kV Bagé 2 / Candiota 2 C1 ou C2 LT 230 kV Ijuí 2 / Santo Ângelo 2 
LT 230 kV Bagé 2 / Livramento 2 LT 230 kV Jardim Botânico / Porto Alegre 1 
LT 230 kV Camaquã / Guaíba 2 LT 230 kV Jardim Botânico / Porto Alegre 10 
LT 230 kV Camaquã / Presidente Médici LT 230 kV Lagoa Vermelha 2 / Santa Marta 
LT 230 kV Camaquã 3 / Guaíba 2 LT 230 kV Lajeado 2 / Lajeado 3 
LT 230 kV Camaquã 3 / Nova Santa Rita LT 230 kV Lajeado 2 / Nova Santa Rita 
LT 230 kV Camaquã 3 / Pelotas 3 LT 230 kV Lajeado 2 / UHE Passo Real 
LT 230 kV Camaquã 3 / Povo Novo LT 230 kV Livramento 3 / Maçambará 3 C1 ou C2 
LT 230 kV Campo Bom / Caxias C1 ou C2 LT 230 kV Maçambará / Maçambará 3 C1 ou C2 
LT 230 kV Campo Bom / Gravataí 2 C1 ou C2 LT 230 kV Maçambará / São Borja 2 
LT 230 kV Campo Bom / Taquara LT 230 kV Maçambará / UTE Uruguaiana 
LT 230 kV Candelária 2 / Nova Santa Rita LT 230 kV Maçambará 3 / Santo Ângelo C1 ou C2 
LT 230 kV Candelária 2 / UHE Itaúba LT 230 kV Missões / Santo Ângelo 
LT 230 kV Candiota 2 / Presidente Médici LT 230 kV Missões / São Borja 2 
LT 230 kV Canoas 1 / Cidade Industrial LT 230 kV Monte Claro / Nova Prata 2 C1 ou C2 
LT 230 kV Canoas 1 / Porto Alegre 9 LT 230 kV Monte Claro / Vinhedos 
LT 230 kV Canoas 2 / Cidade Industrial LT 230 kV Nova Petrópolis 2 / Taquara 
LT 230 kV Canoas 2 / Cachoeirinha 3 LT 230 kV Nova Prata 2 / Vila Maria C1 ou C2 
LT 230 kV Cachoeirinha 3  / Cidade Industrial LT 230 kV Cachoeirinha 3 / Gravataí C1 ou C2 
LT 230 kV Castertech / Caxias do Sul 2 LT 230 kV Nova Santa Rita / Porto Alegre 9 
LT 230 kV Castertech / Caxias do Sul 6 LT 230 kV Nova Santa Rita / Scharlau 2 C1 ou C2 
LT 230 kV Caxias / Caxias do Sul 5 LT 230 kV Osório 2 / Osório 3 
LT 230 kV Caxias / Caxias do Sul 6 LT 230 kV Osório 2 / Taquara 
LT 230 kV Caxias / Farroupilha C1 ou C2 LT 230 kV Passo Fundo / Santa Marta 
LT 230 kV Caxias / Nova Petrópolis 2 LT 230 kV Passo Fundo / Vila Maria C1 ou C2 
LT 230 kV Caxias do Sul 2 / Farroupilha LT 230 kV Pelotas 3 / Presidente Médici 
LT 230 kV Caxias do Sul 5 / Farroupilha LT 230 kV Pelotas 3 / Quinta 
LT 230 kV Caxias do Sul 5 / Lajeado Grande LT 230 kV Polo Petroquímico / UHE Itaúba 
LT 230 kV Cerro Chato / Livramento 2 LT 230 kV Porto Alegre 1 / Porto Alegre 8 
LT 230 kV Cerro Chato / Livramento 3 LT 230 kV Porto Alegre 13 / Restinga 
Manual de Procedimentos da Operação - Módulo 5 - Submódulo 5.11 
Instrução de Operação Código Revisão Item Vigência 
Cadastro de Regiões de Segurança Aplicadas ao Tempo 
Real CD-CT.BR.02 22 2.4. 10/10/2024 
 
Referência:  RT-ONS DOP 0451/2024 - VALIDAÇÃO DAS REGIÕES DE SEGURANÇA DO ORGANON DO 3º QUADRIMESTRE DE 2024. 
  
 
 
Contingências Consideradas 
LT 230 kV Charqueadas / Cidade Industrial LT 230 kV Porto Alegre 4 / Porto Alegre 10 
LT 230 kV Charqueadas / Santa Cruz 1 LT 230 kV Porto Alegre 4 / Porto Alegre 6 
LT 230 kV Charqueadas / Scharlau 2 LT 230 kV Porto Alegre 4 / Porto Alegre 9 
LT 230 kV Cidade Industrial / Gravataí 2 C3 ou C4 LT 230 kV Porto Alegre 6 / Porto Alegre 13 
LT 230 kV Cidade Industrial / Guaíba 2 LT 230 kV Porto Alegre 6 / Viamão 3 
LT 230 kV Cidade Industrial / Nova Santa Rita C1, 
C2 ou C3 LT 230 kV Porto Alegre 8 / Porto Alegre 9 
LT 230 kV Cidade Industrial / Polo Petroquímico LT 230 kV Povo Novo / Quinta 
LT 230 kV Cidade Industrial / Porto Alegre 9 LT 230 kV Presidente Médici / Quinta 
LT 230 kV Cidade Industrial / Venâncio Aires LT 230 kV Presidente Médici / Santa Cruz 1 
LT 230 kV Cruz Alta 2 / Ijuí 2 LT 230 kV Restinga / Viamão 3 
LT 230 kV Cruz Alta 2 / UHE Passo Real LT 230 kV Santa Cruz 1 / UHE Itaúba 
LT 230 kV Dona Francisca / Santa Maria 3 C1 ou C2 LT 230 kV Santa Maria 3 / Santo Ângelo 2 
LT 230 kV Dona Francisca / UHE Itaúba C1 ou C2 LT 230 kV Santa Maria 3 / São Vicente do Sul 
LT 230 kV Eldorado do Sul / Guaíba 2 LT 230 kV Santa Marta / Tapera 2 
LT 230 kV Eldorado do Sul / Porto Alegre 9 LT 230 kV Santa Rosa 1 / Santo Ângelo C1 ou C2 
LT 230 kV Farroupilha / Garibaldi 1 LT 230 kV Santo Ângelo / Santo Ângelo 2 
LT 230 kV Farroupilha / Monte Claro C1 ou C2 LT 230 kV Tapera 2 / UHE Passo Real 
LT 230 kV Farroupilha / Scharlau 2 LT 230 kV Uruguaiana 5 / UHE Passo Real 
LT 230 kV Fibraplac / Gravataí 3 LT 230 kV UHE Passo Real / Venâncio Aires 
LT 230 kV Fibraplac / Osório 2 LT 230 kV Capivari do Sul / Viamão 3 
LT 230 kV Foz do Chapecó / Guarita LT 230 kV Livramento 3 / Santa Maria 3 C1 ou C2 
LT 230 kV Garibaldi 1 / Lajeado 3 LT 230 kV Nova Santa Rita / Pólo Petroquímico 
LT 230 kV Garibaldi 1 / Vinhedos LT 230 kV Uruguaiana 5 / UTE Uruguaiana 
LT 230 kV UHE Itaúba / UHE Passo Real LT 230 kV Gravataí 3 / Fibraplac e LT 230 kV 
Fibraplac / Osório 2 
LT 230 kV Charqueadas 3 / Cidade Industrial  
 
Manual de Procedimentos da Operação - Módulo 5 - Submódulo 5.11 
Instrução de Operação Código Revisão Item Vigência 
Cadastro de Regiões de Segurança Aplicadas ao Tempo 
Real CD-CT.BR.02 22 2.4. 10/10/2024 
 
Referência:  RT-ONS DOP 0451/2024 - VALIDAÇÃO DAS REGIÕES DE SEGURANÇA DO ORGANON DO 3º QUADRIMESTRE DE 2024. 
  
 
 
4.3. REGIÃO NORDESTE 
4.3.1. REGIÃO DE SEGURANÇA DA ÁREA SUL DA BAHIA E SERGIPE 
Esta região visa avaliar, em tempo real, o desempenho da área 230 kV Sul da Região Nordeste  frente as 
contingências de linhas de transmissão e transformadores desta região.  
 
Todos os esquemas especiais constantes na IO-EE.NE.2SL estão representados nesta Região de Segurança. 
Todos os esquemas especiais constantes na IO -EE.NE.5NE estão representados nesta Região de Segurança , 
conforme mencionados a seguir: 
Esquemas Especiais Considerados 
Desligamento da LT 500 kV Sapeaçu / Poções III para perda da LT 500 kV Sapeaçu / Camaçari IV 
Obs: estão representados também algumas proteções de sobrecorrente das seguintes LTs 230 kV conforme 
CD-CT.NE.2SL: 
•  LT 230 kV Camaçari II / Governador Mangabeira – C1(C7); 
•  LT 230 kV Feira de Santana III / Governador Mangabeira – C1(F6); 
•  LT 230 kV Catu / Governador Mangabeira – C1(M3); 
•  LT 230 kV Camaçari II / Feira de Santana III – C1(C6); 
•  LT 230 kV Itabaiana / Itabaianinha – C1(C3); 
•  LT 230 kV Cícero Dantas / Olindina / Alagoinhas II – C1(L8); 
•  LT 230 kV Cícero Dantas / Olindina / Catu – C1(L2); 
• LT 230 kV Governador Mangabeira / Sapeaçu – C1(C1); 
• LT 230 kV Paulo Afonso / Cícero Dantas – C1(S2) e C2(S3). 
 
4.3.1.1. GRUPOS DE GERAÇÃO 
Grupos 
Grupo 1 Grupo 2 Grupo 3 
UHE Sobradinho UHE Pedra do Cavalo UHE Furnas  
UHE Luiz Gonzaga UHE Itapebi UHE Mascarenhas de Moraes  
UHE Paulo Afonso IV UTE Global I UHE Luiz Carlos Barreto 
UHE Xingó UTE Global II UHE Jaguara 
Manual de Procedimentos da Operação - Módulo 5 - Submódulo 5.11 
Instrução de Operação Código Revisão Item Vigência 
Cadastro de Regiões de Segurança Aplicadas ao Tempo 
Real CD-CT.BR.02 22 2.4. 10/10/2024 
 
Referência:  RT-ONS DOP 0451/2024 - VALIDAÇÃO DAS REGIÕES DE SEGURANÇA DO ORGANON DO 3º QUADRIMESTRE DE 2024. 
  
 
 
Grupos 
Grupo 1 Grupo 2 Grupo 3 
UHE Paulo Afonso I, II e III UTE Celso Furtado UHE Volta Grande 
UHE Apolônio Sales UTE Prosperidade I UHE Porto Colômbia 
UTE Porto Sergipe I UTE Bahia I UHE Marimbondo 
 UTE ERB Candeias UHE Água Vermelha 
 EOL Cristalândia UHE Nova Ponte 
 EOL Morro do Chapéu Sul UHE Theodomiro Carneiro 
Santiago 
 EOL Gentio do Ouro UHE Itumbiara 
 EOL Ventos da Bahia 2 UHE São Simões 
 EOL Serra Azul UHE Teles Pires 
 EOL Campo Largo UHE São Manoel 
  UHE Jupiá 
  UHE Porto Primavera 
4.3.1.2.  CONTINGÊNCIAS CONSIDERADAS 
Contingências Consideradas 
Contingências simples e duplas de LTs contidas na 
IO-OC.NE.2SL (*) LT 500 kV Sapeaçu / Camaçari II – C1(L7) 
LT 500 kV Camaçari II / Camaçari IV – C1(L6) LT 500 kV Ibicoara / Poções III – C1(L5) 
LT 500 kV Jardim / Camaçari IV – C1(V7) LT 500 kV Paulo Afonso IV / Jeremoabo – C1(S5) 
LT 500 kV Olindina / Camaçari II – C1(L4) ou C2(L5) LT 500 kV Jeremoabo / Olindina – C1(L9) 
LT 500 kV Poções III / Sapeaçu – C1(M1) LT 500 kV Sapeaçu / Morro do Chapéu II – C1(N3) 
LT 500 kV Paulo Afonso IV / Xingó – C1(V6) LT 500 kV Xingó / Jardim – C1(V5) ou C2(V8) 
LT 500 kV Luiz Gonzaga / Olindina – C1(S4) LT 500 kV Poções III / Padre Paraíso 2 – C1(C1) ou 
C2(C2) 
Autotransformador T1 500/230 kV da SE Medeiros 
Neto II LT 500 kV Sapeaçu / Camaçari IV – C1(L9) 
CE (-100 / +200 Mvar) da SE Funil CS (-180 / +300 Mvar) da SE Medeiros Neto II 
 
(*) Todas as contingências duplas contidas na IO-OC.NE.2SL são consideradas, com exceção das contingências 
listadas a seguir: 
Manual de Procedimentos da Operação - Módulo 5 - Submódulo 5.11 
Instrução de Operação Código Revisão Item Vigência 
Cadastro de Regiões de Segurança Aplicadas ao Tempo 
Real CD-CT.BR.02 22 2.4. 10/10/2024 
 
Referência:  RT-ONS DOP 0451/2024 - VALIDAÇÃO DAS REGIÕES DE SEGURANÇA DO ORGANON DO 3º QUADRIMESTRE DE 2024. 
  
 
 
• LTs 230 kV Camaçari IV / Pólo – C1(C1) e C2(C2); 
• LTs 230 kV Sapeaçu / Santo Antonio de Jesus – C1(L2) e C2(F3); 
• LTs 230 kV Funil / Itapebi – C1(F6) e Funil / Itabuna III – C1(F7); 
• LTs 230 kV Funil / Itapebi – C1(F6) e Itabuna III / Itapebi – C1(N4); 
• LTs 230 kV Funil / Itabuna III – C1(F7) e Itabuna III / Itapebi – C1(N4); 
• LTs 230 kV Itapebi / Eunápolis – C1(N1) e C2(N2); 
• LTs 230 kV Jardim / Nossa Senhora do Socorro – C1(S1) e C2(S2); 
• LTs 230 kV Governador Mangabeira / Tomba – C1(S2) e C2(S1). 
4.3.2. REGIÃO DE SEGURANÇA DA ÁREA OESTE DA BAHIA 
Esta região visa avaliar, em tempo real, o desempenho da área 230 kV Sudoeste da Região Nordeste frente 
as contingências de linhas de transmissão e transformadores desta região.  
 
Todos os esquemas especiais constantes na IO-EE.NE.2SO estão representados nesta Região de Segurança. 
Todos os esquemas especiais constantes na IO -EE.NE.5NE estão representados nesta Região de Segurança, 
conforme mencionados a seguir: 
 
Esquemas Especiais Considerados 
Desligamento da LT 500 kV Sapeaçu / Poções III para perda da LT 500 kV Sapeaçu / Camaçari IV 
Obs: estão representados também algumas proteções de sobrecorrente das seguintes LTs 230 kV conforme 
CD-CT.NE.2SL: 
•  LT 230 kV Catu / Governador Mangabeira – C1(M3). 
4.3.2.1. GRUPOS DE GERAÇÃO 
Grupos 
Grupo 1 Grupo 2 Grupo 3 
Geração Eólica e Fotovoltaica 
conectada na Bahia UHE Sobradinho UHE Furnas  
 UHE Luiz Gonzaga UHE Mascarenhas de Moraes  
 UHE Paulo Afonso IV UHE Luiz Carlos Barreto 
 UHE Xingó UHE Jaguara 
 UHE Paulo Afonso I, II e III UHE Volta Grande 
 UHE Apolônio Sales UHE Porto Colômbia 
 UTE Porto Sergipe I UHE Marimbondo 
Manual de Procedimentos da Operação - Módulo 5 - Submódulo 5.11 
Instrução de Operação Código Revisão Item Vigência 
Cadastro de Regiões de Segurança Aplicadas ao Tempo 
Real CD-CT.BR.02 22 2.4. 10/10/2024 
 
Referência:  RT-ONS DOP 0451/2024 - VALIDAÇÃO DAS REGIÕES DE SEGURANÇA DO ORGANON DO 3º QUADRIMESTRE DE 2024. 
  
 
 
Grupos 
Grupo 1 Grupo 2 Grupo 3 
  UHE Água Vermelha 
  UHE Nova Ponte 
  UHE Theodomiro Carneiro 
Santiago 
  UHE Itumbiara 
  UHE São Simões 
  UHE Teles Pires 
  UHE São Manoel 
  UHE Jupiá 
  UHE Porto Primavera 
4.3.2.2.  CONTINGÊNCIAS CONSIDERADAS 
Contingências Consideradas 
Contingências simples e duplas de LTs contidas na IO-
OC.NE.2SO 
LT 500 kV Morro do Chapéu II / Sapeaçu - 
C1(N3) 
LT 500 kV Barreiras II / Buritirama  - C1(N6) LT 500 kV Juazeiro da Bahia III / Luiz Gonzaga 
LT 500 kV Buritirama  / Gilbués II - C1(L6) LT 500 kV Rio da Éguas / Bom Jesus da Lapa II 
LT 500 kV Buritirama  / Gentio do Ouro II - C1(L7) LT 500 kV Barreiras II / Gilbués II 
LT 500 kV Buritirama  / Queimada Nova II - C1(L3) ou 
C2(L2) 
LT 500 kV Queimada Nova II / Curral Novo do 
Piauí II 
LT 500 kV Morro do Chapéu II / Ourolândia II - C1(N4) LT 500 kV Queimada Nova II / Milagres II 
LT 500 kV Ourolândia II / Gentio do Ouro II - C1(C1) LT 500 kV Sobradinho / Futura – C1(C3) 
LT 500 kV Rio da Éguas / Barreiras II - C1(N2) ou 
C2(N5) LT 500 kV Sobradinho / Luiz Gonzaga 
LT 500 kV Juazeiro da Bahia III / Ourolândia II - C1(F1) LT 500 kV Igaporã III / Ibicoara - C1(L4) 
LT 500 kV Sol do Sertão / Bom Jesus da Lapa II - C1 LT 500 kV Igaporã III / Bom Jesus da Lapa II 
LT 500 kV Sol do Sertão / Gentio do Ouro II - C1 LT 500 kV Futura / Juazeiro da Bahia III – C1(N7) 
LT 500 kV Sapeaçu / Camaçari IV – C1 LT 500 kV Morro do Chapéu II / Poções III – C1 
Autotransformador T1 ou T2 500/230 kV da SE 
Juazeiro da Bahia III 
Autotransformador T4 ou T5 ou T6 500/230 kV 
da SE Sobradinho 
Manual de Procedimentos da Operação - Módulo 5 - Submódulo 5.11 
Instrução de Operação Código Revisão Item Vigência 
Cadastro de Regiões de Segurança Aplicadas ao Tempo 
Real CD-CT.BR.02 22 2.4. 10/10/2024 
 
Referência:  RT-ONS DOP 0451/2024 - VALIDAÇÃO DAS REGIÕES DE SEGURANÇA DO ORGANON DO 3º QUADRIMESTRE DE 2024. 
  
 
 
Contingências Consideradas 
Autotransformador T1,ou T2 500/230 kV da SE Gentio 
do Ouro II 
Autotransformador T1 ou T2 500/230 kV da SE 
Bom Jesus da Lapa II 
Transformador T1 ou T2 230/69 kV da SE Pindaí II  
4.3.3. REGIÃO DE SEGURANÇA DA ÁREA METROPOLITANA DE JOÃO PESSOA 
Esta região visa avaliar, em tempo real, o desempenho da área que atende a região metropolitana de João 
Pessoa frente as contingências de linhas de transmissão e transformadores desta região.  
O ECE, associado ao esquema de corte de carga na SE Mussuré II em caso de sobrecarga na LT 230 kV 
Goianinha / Norfil / Mussuré II, conforme descrito na IO -EE.NE.2LE está representado nesta região de 
segurança. 
4.3.3.1. GRUPOS DE GERAÇÃO 
Grupos 
Grupo 1 Grupo 2 Grupo 3 
Geração Eólica e Fotovoltaica 
conectada nos Estados do Rio 
Grande do Norte e Paraíba 
UHE Sobradinho UHE Furnas 
 UTE Vale do Açu UHE Luiz Gonzaga UHE Mascarenhas de Moraes 
 UHE Paulo Afonso IV UHE Luiz Carlos Barreto 
 UHE Xingó UHE Jaguara 
 UHE Paulo Afonso I, II e III UHE Volta Grande 
 UHE Apolônio Sales UHE Porto Colômbia 
 Termopernambuco UHE Marimbondo 
 UTE Pernambuco III UHE Água Vermelha 
 UTE Suape III UHE Nova Ponte 
 Termocabo  UHE Theodomiro Carneiro Santiago 
  UHE Itumbiara 
  UHE São Simão 
  UHE Teles Pires 
  UHE São Manoel 
  UHE Jupiá 
  UHE Porto Primavera 
Manual de Procedimentos da Operação - Módulo 5 - Submódulo 5.11 
Instrução de Operação Código Revisão Item Vigência 
Cadastro de Regiões de Segurança Aplicadas ao Tempo 
Real CD-CT.BR.02 22 2.4. 10/10/2024 
 
Referência:  RT-ONS DOP 0451/2024 - VALIDAÇÃO DAS REGIÕES DE SEGURANÇA DO ORGANON DO 3º QUADRIMESTRE DE 2024. 
  
 
 
Grupos 
Grupo 1 Grupo 2 Grupo 3 
  UHE Itutinga 
  UHE Jurumi 
  UHE Piraju 
  UHE Salto Grande 
4.3.3.2.  CONTINGÊNCIAS CONSIDERADAS 
Contingências Consideradas 
LT 500 kV Garanhuns II / Campina Grande III - C1(Z3) LT 230 kV Pau Ferro / Goianinha – C1(C7) 
LT 500 kV Pau Ferro / Campina Grande III - C1(Z5) LT 230 kV Campina Grande II / Goianinha – 
C1(L3) 
LT 500 kV Campina Grande III / Ceará Mirim II - C1(L2) 
ou C2(L3) 
LT 230 kV Goianinha / João Pessoa II – C1(N3) 
ou C2(N2) 
LT 500 kV Campina Grande III / Santa Luzia II - C1(Z6) LT 230 kV Goianinha / João Pessoa II – C1(N3) e 
C2(N2) 
ATR1 ou ATR2 500/230 kV João Pessoa II LT 230 kV Goianinha / Norfil – C1(N1) 
LT 230 kV Recife II / Goianinha - C1(C8) ou C2(C9) LT 230 kV Norfil / Mussuré II – C1(F3) 
LT 230 kV Recife II / Goianinha - C1(C8) e C2(C9) LT 500 kV Campina Grande III / João Pessoa II – 
C1(Z7) 
LT 230 kV Recife II / Pau Ferro - C1(F6) ou C2(F7) LT 230 kV João Pessoa II / Mussuré II – C1(F2) 
ou C2(F1) 
LT 230 kV Recife II / Pau Ferro - C1(F6) e C2(F7) LT 230 kV João Pessoa II / Mussuré II – C1(F1) e 
C2(F2) 
LT 230 kV Campina Grande II / Pau Ferro – C1(C4) LT 230 kV João Pessoa II / Santa Rita II – C1(F4) 
ou C2(J1) 
LT 230 kV Pau Ferro / Santa Rita II - C1(F9) LT 230 kV João Pessoa II / Santa Rita II – C1(F4) 
e C2(J1) 
LT 230 kV Lagoa do Carro / Coteminas – C1(F9) LT 230 kV Campina Grande II / Coteminas – 
C1(C3) 
LT 230 kV Lagoa do Carro / Pau Ferro – C1(F8) LT 230 kV Pau Ferro / Campina Grande II – 
C2(C4) e LT 230 kV Lagoa do Carro / Pau Ferro – 
C1(F8) 
LT 230 kV Lagoa do Carro / Coteminas – C1(F9) e LT 
230 kV Lagoa do Carro / Pau Ferro – C1(F8)  
Manual de Procedimentos da Operação - Módulo 5 - Submódulo 5.11 
Instrução de Operação Código Revisão Item Vigência 
Cadastro de Regiões de Segurança Aplicadas ao Tempo 
Real CD-CT.BR.02 22 2.4. 10/10/2024 
 
Referência:  RT-ONS DOP 0451/2024 - VALIDAÇÃO DAS REGIÕES DE SEGURANÇA DO ORGANON DO 3º QUADRIMESTRE DE 2024. 
  
 
 
Contingências Consideradas 
LT 230 kV Campina Grande II / Coteminas 
C1(C3) e LT 230 kV Pau Ferro / Campina Grande 
II C2(C4)  
LT 230 kV Pau Ferro / Campina Grande II – C2(C4) e LT 
230 kV Lagoa do Carro / Coteminas – C1(F9)  
 
4.3.4. REGIÃO DE SEGURANÇA DA ÁREA RIO GRANDE DO NORTE E CEARÁ 
Esta região visa avaliar, em tempo real, o desempenho da área que atende a fronteira entre os estados do 
Rio Grande do Norte e Ceará, especificamente no sistema 500 kV e 230 kV entre as SEs Açu III, Milagres e 
Fortaleza II frente as contingências de linhas de transmissão e transformadores desta região.  
O ECE, associado ao esquema de corte de geração na SE Russas II em caso de sobrecarga na LT 230 kV 
Banabuiu / Russas II, conforme descrito na IO-EE.NE.2NO está representado nesta região de segurança. 
4.3.4.1. GRUPOS DE GERAÇÃO 
Grupos 
Grupo 1 Grupo 2 Grupo 3 
Geração Eólica conectada na Área 
Leste da Região Nordeste (230 kV e 
500 kV) 
Geração Eólica conectada na 
Área Norte da Região Nordeste UHE Furnas 
  UHE Mascarenhas de Moraes 
  UHE Luiz Carlos Barreto 
  UHE Jaguara 
  UHE Volta Grande 
  UHE Porto Colômbia 
  UHE Marimbondo 
  UHE Água Vermelha 
  UHE Nova Ponte 
  UHE Theodomiro Carneiro 
Santiago 
  UHE Itumbiara 
  UHE São Simão 
  UHE Itiquira I e II 
  UHE Jauru 
Manual de Procedimentos da Operação - Módulo 5 - Submódulo 5.11 
Instrução de Operação Código Revisão Item Vigência 
Cadastro de Regiões de Segurança Aplicadas ao Tempo 
Real CD-CT.BR.02 22 2.4. 10/10/2024 
 
Referência:  RT-ONS DOP 0451/2024 - VALIDAÇÃO DAS REGIÕES DE SEGURANÇA DO ORGANON DO 3º QUADRIMESTRE DE 2024. 
  
 
 
Grupos 
Grupo 1 Grupo 2 Grupo 3 
  UHE Jupiá 
  UHE Porto Primavera 
  UHE Guaporé 
  UHE Espora 
  UHE Salto Rio Verdinho 
  UHE Taquaruçu 
  UHE Salto 
  UHE Barra dos Coqueiros  
  UHE Cachoeira Dourada 
  UHE Caçu 
  UHE Capivara 
  UHE Corumbá I, III e IV 
  UHE Dardanelos 
  UHE Cana Brava 
  UHE Colíder 
  UHE Irapé 
  UHE José L. M. Godoy Pereira 
  UHE Manso 
  UHE Ponte de Pedra 
  UHE Serra da Mesa 
  UHE Sinop 
  UHE Três Irmãos 
  UHE Três Marias 
4.3.4.2.  CONTINGÊNCIAS CONSIDERADAS 
Contingências Consideradas 
LT 500 kV Milagres / Quixadá - C1(V3) LT 230 kV Russas II / Quixeré - C1(C2) 
LT 500 kV Quixadá / Fortaleza II - C1(V5) LT 230 kV Mossoró II / Banabuiu - C1(C4) 
Manual de Procedimentos da Operação - Módulo 5 - Submódulo 5.11 
Instrução de Operação Código Revisão Item Vigência 
Cadastro de Regiões de Segurança Aplicadas ao Tempo 
Real CD-CT.BR.02 22 2.4. 10/10/2024 
 
Referência:  RT-ONS DOP 0451/2024 - VALIDAÇÃO DAS REGIÕES DE SEGURANÇA DO ORGANON DO 3º QUADRIMESTRE DE 2024. 
  
 
 
Contingências Consideradas 
LT 500 kV Milagres II / Santa Luzia II - C1(C5) LT 230 kV Mossoró II / Quixeré - C1(L1) 
LT 500 kV Quixadá / Açu III - C1(V2) LT 230 kV Mossoró II / Mossoró IV - C1(M1) 
LT 500 kV Milagres II / Açu III - C1(C2) ATR3 ou ATR4 500/230 kV Açu III 
LT 500 kV Milagres II / Milagres - C1(V4) ATR1 ou ATR6 ou ATR7 500/230 kV Milagres 
LT 230 kV Açu II / Açu III - C1(L2) ou C2(L6) ou C3(L1) LT 230 kV Aquiraz II / Fortaleza – C1(F1) e LT 
230 kV Fortaleza II / Fortaleza – C3(Z6) 
LT 230 kV Aquiraz II / Banabuiu - C1(C6), C3(C8) ou 
C2(C7) 
LT 230 kV Aquiraz II / Fortaleza – C1(F1) e LT 
230 kV Aquiraz II / Libra / Banabuiu – C2(C7) 
LT 230 kV Icó / Banabuiú - C1(C2) LT 230 kV Mossoró II / Banabuiu - C1(C4) e LT 
230 kV Alex / Mossoró II - C1(C3) 
LT 230 kV Icó / Milagres - C1(M2) LT 230 kV Alex / Banabuiu - C1(C5) e LT 230 kV 
Alex / Mossoró II - C1(C3) 
LT 230 kV Banabuiu / Russas II - C1(C1) ou C2(C3) LT 230 kV Icó / Banabuiú - C1(C2) e LT 230 kV 
Icó / Milagres - C1(M2) 
LT 230 kV Alex / Banabuiú - C1(C5) LT 230 kV Aquiraz II / Fortaleza - C2(F2) e C3(F3) 
LT 230 kV Mossoró II / Alex - C1(P3) LT 230 kV Aquiraz II / Banabuiu – C1(C8) e LT 
230 kV Aquiraz II / Libra / Banabuiu – C2(C7) 
LT 230 kV Mossoró II / Açu III - C1(Z7) ou C2(Z8) LT 230 kV Milagres / Banabuiu – C2(M3) e LT 
230 kV Milagres / Icó – C1(M2) 
LT 230 kV Aquiraz II / Fortaleza - C1(F1) ou C2(F2) ou 
C3(F3) 
LT 230 kV Milagres / Banabuiu – C2(M3) e LT 
230 kV Icó / Banabuiu – C1(C2) 
LT 230 kV Milagres / Banabuiu - C1(M1) ou C2(M3) LT 230 kV Banabuiu / Mossoró II – C1(C4) e LT 
230 kV Alex / Banabuiu – C1(C5) 
LT 500 kV Jaguaruana II / Açu III – C1(V7) LT 500 kV Jaguaruana II / Mossoró IV – C1(S1) 
ou C2(S2) 
LT 500 kV Santa Luzia II / Campina Grande III – C1(Z6) LT 500 kV Jaguaruana II / Mossoró IV – C1(S1) e 
C2(S2) 
LT 500 kV Campina Grande III / Ceará Mirim II – C1(L2) 
ou C2(L3) 
ATR1 ou ATR2 500/230/13,8 kV da SE 
Jaguaruana II 
 
4.3.5. REGIÃO DE SEGURANÇA DA ÁREA PIAUÍ 
Essa região visa avaliar em tempo realo desempenho, no trecho entre as SE São João do Piauí e Curral Novo 
do Piauí II, quando da maximização da geração da área Oeste (Piauí) em cenário de elevado FNEN, com 
destaque ao carregamento do único autotransformador AT1 500/230 kV – 300 MVA da SE São João do Piauí. 
Todos os esquemas especiais constantes na IO -EE.NE.2OE estão representados nesta Região de Segurança  
Manual de Procedimentos da Operação - Módulo 5 - Submódulo 5.11 
Instrução de Operação Código Revisão Item Vigência 
Cadastro de Regiões de Segurança Aplicadas ao Tempo 
Real CD-CT.BR.02 22 2.4. 10/10/2024 
 
Referência:  RT-ONS DOP 0451/2024 - VALIDAÇÃO DAS REGIÕES DE SEGURANÇA DO ORGANON DO 3º QUADRIMESTRE DE 2024. 
  
 
 
conforme mencionados a seguir: 
Esquemas Especiais Considerados 
Alívio de geração na SE Chapada III para perda da LT 230 kV Chapada I / Curral Novo do Piauí II – C1(L3) 
Alívio de geração na SE Chapada II para perda dupla das LT 230 kV Chapada I / Curral Novo do Piauí II – 
C1(L3) e LT 230 kV Chapada III / Curral Novo do Piauí II – C1(L2) 
 
Todos os esquemas especiais constantes na IO -EE.NNE estão representados nesta Região de Segurança, 
conforme mencionados a seguir: 
Esquemas Especiais Considerados 
Corte de geração na UHE Sobradinho e nas usinas derivadas da se São João do Piauí 500 kv para perda 
dupla de LT 500 kV do trecho Colinas - Ribeiro Gonçalves - São João do Piauí  
 
4.3.5.1. GRUPOS DE GERAÇÃO 
 
Grupos 
Grupo 1 Grupo 2 Grupo 3 
EOL Lagoa do Barro I  UHE Sobradinho UHE São Manoel  
EOL Chapada I, II, III  UHE Luis Gonzaga UHE Teles Pires  
UFV Sol do Piauí  UHE Paulo Afonso IV UHE Itumbiara  
EOL Ventos do Piauí II, III  UHE Xingó  UHE Marimbondo  
EOL Araripe III   UHE São Simão  
EOL Chapadinha I   UHE Água Vermelha  
EOL/UFV São Basílio   UHE Jupiá  
  UHE Porto Primavera  
  UHE Porto Colômbia  
  UHE Volta Grande  
  UHE Luís Carlos Barreto  
  UHE Mascarenhas de Moraes  
  UHE Jaguara  
  UHE Nova Ponte  
  UHE Theodomiro Carneiro 
Santiago  
Manual de Procedimentos da Operação - Módulo 5 - Submódulo 5.11 
Instrução de Operação Código Revisão Item Vigência 
Cadastro de Regiões de Segurança Aplicadas ao Tempo 
Real CD-CT.BR.02 22 2.4. 10/10/2024 
 
Referência:  RT-ONS DOP 0451/2024 - VALIDAÇÃO DAS REGIÕES DE SEGURANÇA DO ORGANON DO 3º QUADRIMESTRE DE 2024. 
  
 
 
Grupos 
Grupo 1 Grupo 2 Grupo 3 
  UHE Furnas  
 
4.3.5.2. CONTINGÊNCIAS CONSIDERADAS 
Contingências Consideradas 
LT 500 kV Curral Novo do Piauí II – Queimada Nova II 
C1  
LT 500 kV Presidente Dutra – Teresina II C1 (C8) 
e C2 (C9)  
LT 500 kV Curral Novo do Piauí II – Milagres II C1 (C6)  LT 230 kV Chapada I – Chapada II C1 (L1)  
LT 500 kV Boa Esperança – Presidente Dutra  LT 230 kV Curral Novo do Piauí II – Chapada I C1 
(L3)  
LT 500 kV São João do Piauí – Curral Novo do Piauí II 
C1  
LT 230 kV Curral Novo do Piauí II – Chapada III 
C1 (L2)  
LT 500 kV São João do Piauí – Gilbués II C1 (L5)  LT 230 kV Chapada III – Chapada II C1 (L3)  
LT 500 kV São João do Piauí – Sobradinho C1 (C5)  LT 230 kV São João do Piauí – Picos C1 (M1)  
LT 500 kV São João do Piauí – Boa Esperança  LT 230 kV São João do Piauí – Eliseu Martins C1 
(M2)  
LT 500 kV Ribeiro Gonçalves – São João do Piauí C2  LT 230 kV Picos – Tauá C1 (M3)  
LT 500 kV Gilbués II – Barreiras C1 (L2)  LT 230 kV Picos – Chapada II C1 (P1)  
LT 500 kV Buritirama – Queimada Nova II C2 (L2)  LT 230 kV Bom Jesus II – Eliseu Martins C1 (M3)  
LT 500 kV Milagres II – Queimada Nova II C1 (C3)  LT 230 kV Gilbués II – Bom Jesus II C1  
LT 500 kV Miracema – Gilbués II C3  LT 230 kV Curral Novo do Piauí II – Chapada I C1 
(L3) e Curral Novo do Piauí II – Chapada III C1 
(L2)  
LT 500 kV Colinas – Ribeiro Gonçalves C1  AT2 500/230 kV 300 MVA SE Ribeiro Gonçalves  
LT 500 kV Buritirama – Gilbués II C1 (L6)  AT1 500/230 kV 300 MVA SE Boa Esperança  
LT 500 kV Presidente Dutra – Teresina II C1 (C8)  AT1 500/230 kV 300 MVA SE São João do Piauí  
LT 500 kV Ribeiro Gonçalves – São João do Piauí C1 e 
C2  
AT4 500/230 kV 600 MVA SE Curral Novo do 
Piauí II  
LT 500 kV São João do Piauí – Sobradinho C1 (C5) e C2 
(C2)  AT1 500/230 kV 250 MVA SE Gilbués II  
 
Manual de Procedimentos da Operação - Módulo 5 - Submódulo 5.11 
Instrução de Operação Código Revisão Item Vigência 
Cadastro de Regiões de Segurança Aplicadas ao Tempo 
Real CD-CT.BR.02 22 2.4. 10/10/2024 
 
Referência:  RT-ONS DOP 0451/2024 - VALIDAÇÃO DAS REGIÕES DE SEGURANÇA DO ORGANON DO 3º QUADRIMESTRE DE 2024. 
  
 
 
4.4. REGIÃO CENTRO-OESTE 
4.4.1. REGIÃO DE SEGURANÇA DA ÁREA 500/345 KV GOIÁS / BRASÍLIA 
Esta região de segurança visa avaliar, em tempo real, o desempenho da área 500/345 kV Goiás/ Brasília frente 
as contingências de linhas de transmissão e transformadores nessa área elétrica.  
Os ECEs, associados a essas contingências, estão descritos na IO-EE.CO.5GB e são representados nesta região 
de segurança. 
4.4.1.1. FLUXOS PARA A REGIÃO DE SEGURANÇA 
Fluxos  
RSECO FMT 
UHE Serra da Mesa LTs 500 kV Rio Verde Norte / Ribeirãozinho C1, 
C2 e C3 
UHE Cana Brava LTs 230 kV Rio Verde / Barra do Peixe C1 e C2 
UHE São Salvador LT 230 kV Rio Verde / Rondonópolis 
LTs 500 kV Serra da Mesa / Gurupi C1 e C2  
LT 500 kV Serra da Mesa 2 / Peixe 2  
LT 500 kV Serra da Mesa 2 / Rio das Éguas  
LT 500 kV Luziânia / Rio das Éguas  
LT 500 kV Arinos 2 / Rio das Éguas  
LT 500 kV Poções III / Padre Paraíso 2 C1 e C2  
LT 500 kV Bom Jesus da Lapa II / Janaúba 3  
LTs 500 kV Igaporã III / Janaúba 3 C1 e C2  
4.4.1.2. GRUPOS DE GERAÇÃO 
Grupos 
Grupo 1 Grupo 2 Grupo 3 
UHE A. Sales UHE Amador Aguiar 1 e 2 UHE Água Vermelha 
UHE Balbina UHE Barra dos Coqueiros UHE Aimorés 
UHE Belo Monte UHE Batalha UHE Baguari 
UHE Boa Esperança UHE Cachoeira Dourada 230 e 138 
kV 
UHE Bariri A e B 
UHE Ferreira Gomes UHE Caçu UHE Barra Bonita 
Manual de Procedimentos da Operação - Módulo 5 - Submódulo 5.11 
Instrução de Operação Código Revisão Item Vigência 
Cadastro de Regiões de Segurança Aplicadas ao Tempo 
Real CD-CT.BR.02 22 2.4. 10/10/2024 
 
Referência:  RT-ONS DOP 0451/2024 - VALIDAÇÃO DAS REGIÕES DE SEGURANÇA DO ORGANON DO 3º QUADRIMESTRE DE 2024. 
  
 
 
Grupos 
Grupo 1 Grupo 2 Grupo 3 
UHE Itapebi UHE Cana Brava UHE Caconde 
UHE Paulo Afonso UHE Colíder UHE Canoas I 
UHE Peixe Angical UHE Corumbá I, III e IV UHE Canoas II 
UHE Pedra do Cavalo UHE Dardanelos UHE Capivara 
UHE Pimental UHE Espora UHE Chavantes 
UHE Santo Antônio 
do Jari 
UHE Foz do Rio Claro UHE Euclides Da Cunha 
UHE Sobradinho UHE Guaporé UHE Fontes 
UHE Tucuruí UHE Itiquira I UHE Funil 1 
UHE Xingó UHE Itiquira II UHE Funil Grande 
 UHE Itumbiara UHE Furnas 
 UHE Jauru UHE Guilman Amorim 
 UHE Manso UHE Ibitinga 
 UHE Miranda UHE Igarapava 
 UHE Nova Ponte UHE Ilhas dos Pombos 
 UHE Ponte de Pedra UHE Irapé 
 UHE Rondon II UHE Itutinga e Camargos 
 UHE Salto UHE Jaguara 
 UHE Salto do Rio Verdinho UHE Jaguari 
 UHE Samuel UHE Jupiá 440 kV e 138 kV 
 UHE Santo Antônio 230 kV UHE Jurumirim 
 UHE São Manoel UHE Limoeiro 
 UHE São Salvador UHE Luís Carlos Barreto 
 UHE São Simão UHE M. de Moraes 
 UHE Serra da Mesa UHE Marimbondo 
 UHE Serra do Facão UHE Mascarenhas de Morais A e B 
 UHE Sinop UHE Nilo Peçanha 
 UHE Teles Pires UHE Nova Avanhandava 
 UHE Theodomiro Carneiro Santiago UHE Ourinhos 
Manual de Procedimentos da Operação - Módulo 5 - Submódulo 5.11 
Instrução de Operação Código Revisão Item Vigência 
Cadastro de Regiões de Segurança Aplicadas ao Tempo 
Real CD-CT.BR.02 22 2.4. 10/10/2024 
 
Referência:  RT-ONS DOP 0451/2024 - VALIDAÇÃO DAS REGIÕES DE SEGURANÇA DO ORGANON DO 3º QUADRIMESTRE DE 2024. 
  
 
 
Grupos 
Grupo 1 Grupo 2 Grupo 3 
  UHE Paraibuna 
  UHE Pereira Passos 
  UHE Picada 
  UHE Pirajú 
  UHE Porto Colômbia 
  UHE Porto Estrela 
  UHE Porto Primavera 
  UHE Promissão 
  UHE Queimado 
  UHE Retiro Baixo 
  UHE Rosal 
  UHE Salto Grande 
  UHE Salto Grande (L. N. Garcez) 
  UHE Sá Carvalho 
  UHE Santa Branca 
  UHE Santa Clara 
  UHE Sobragi 
  UHE Simplício 
  UHE Taquaruçu 
  UHE Três Irmãos 
  UHE Três Marias 
  UHE Volta Grande 
   
Manual de Procedimentos da Operação - Módulo 5 - Submódulo 5.11 
Instrução de Operação Código Revisão Item Vigência 
Cadastro de Regiões de Segurança Aplicadas ao Tempo 
Real CD-CT.BR.02 22 2.4. 10/10/2024 
 
Referência:  RT-ONS DOP 0451/2024 - VALIDAÇÃO DAS REGIÕES DE SEGURANÇA DO ORGANON DO 3º QUADRIMESTRE DE 2024. 
  
 
 
4.4.1.3. CONTINGÊNCIAS CONSIDERADAS 
Contingências Consideradas 
LT 500 kV Serra da Mesa / Samambaia C1 ou C2 ou 
C3 
LT 230 kV Serra da Mesa / Niquelândia C1 e/ou C2 
LTs 230 kV Trindade / Xavantes C1 e/ou C2 LTs 345 kV Bandeirantes / Samambaia  
LTs 500 kV Serra da Mesa / Samambaia C1 e C2 LTs 500 kV Rio Verde Norte / Trindade C1 e/ou C2 
LT 500 kV Luziânia / Paracatu 4 LTs 345 kV Samambaia / Brasília Sul C1 e C2 
LTs 500 kV Serra da Mesa / Samambaia C2 e C3 LT 230 kV Anhanguera / Bandeirantes C1 ou C2 
LTs 230 kV Xavantes / Bandeirantes C1 e/ou C2 LT 230 kV Anhanguera / Carajás C1 e/ou C2 
LT 500 kV Serra da Mesa 2 / Luziânia LT 500 kV Samambaia / Silvânia C1 ou C2 
LT 500 kV Itumbiara / Silvânia LT 500 kV Silvânia / Trindade 
LT 500 kV Emborcação / Silvânia LT 345 kV Corumbá / Itumbiara 
LT 345 kV Corumbá / Brasília Sul LT 230 kV Anhanguera / Goiânia Leste 
LT 230 kV Barro Alto / Niquelândia C1 e/ou C2 LT 230 kV Barro Alto / Águas Lindas 
LT 230 kV Brasília Sul / Brasília Geral C1 ou C2 ou 
C3 
LT 230 kV Brasília Sul / Águas Lindas 
LT 230 kV Cachoeira Dourada / Anhanguera LT 230 kV Brasília Sul / Pirineus 
LT 230 kV Cachoeira Dourada / Planalto LT 230 kV Carajás / Palmeiras 
LT 230 kV Cana Brava / São Salvador LT 230 kV Chapadão / Jataí C1 ou C2 
LT 230 kV Carajás / Trindade LT 230 kV Goiânia Leste / Xavantes 
LT 230 kV Firminópolis / Palmeiras LT 230 kV Jataí / Rio Verde Norte C1 ou C2 
LT 230 kV Itapaci / Barro Alto C1 ou C2 LT 230 kV Paranaíba / Itumbiara C1 ou C2 
LT 230 kV Palmeiras / Édeia LT 230 kV Planalto / Anhanguera 
LT 230 kV Trindade / Firminópolis LT 345 kV Itumbiara / Bandeirantes C1 ou C2 
LT 345 kV Brasília Sul / Samambaia C1 ou C2 ou C3 LT 230 kV Pirineus / Xavantes C1 ou C2 
LT 230 kV Cana Brava / Serra da Mesa C1 ou C2 LT 500 kV Luziânia / Pirapora 
LT 500 kV Luziânia / Samambaia LT 500 kV Serra da Mesa 2 / Serra da Mesa 
LT 500 kV Luziânia / Rio das Éguas LT 500 kV Luziânia / Samambaia C1 e Samambaia / 
Silvânia C1 
LT 500 kV Luziânia / Samambaia C1 e Itumbiara / 
Silvânia 
LT 230 kV Itumbiara / Rio Verde C1 ou C2 
Manual de Procedimentos da Operação - Módulo 5 - Submódulo 5.11 
Instrução de Operação Código Revisão Item Vigência 
Cadastro de Regiões de Segurança Aplicadas ao Tempo 
Real CD-CT.BR.02 22 2.4. 10/10/2024 
 
Referência:  RT-ONS DOP 0451/2024 - VALIDAÇÃO DAS REGIÕES DE SEGURANÇA DO ORGANON DO 3º QUADRIMESTRE DE 2024. 
  
 
 
Contingências Consideradas 
LT 230 kV Itumbiara / Cachoeira Dourada LT 230 kV Cachoeira Dourada / Rio Verde  
LT 345 kV Pirineus / Samambaia LTs 345 KV Bandeirantes / Samambaia e 
Bandeirantes / Pirineus 
LTs 345 kV Bandeirantes / Samambaia e Pirineus / 
Samambaia 
LT 230 kV Cachoeira Dourada / Édeia 
 
Manual de Procedimentos da Operação - Módulo 5 - Submódulo 5.11 
Instrução de Operação Código Revisão Item Vigência 
Cadastro de Regiões de Segurança Aplicadas ao Tempo 
Real CD-CT.BR.02 22 2.4. 10/10/2024 
 
Referência:  RT-ONS DOP 0451/2024 - VALIDAÇÃO DAS REGIÕES DE SEGURANÇA DO ORGANON DO 3º QUADRIMESTRE DE 2024. 
  
 
 
4.4.2. REGIÃO DE SEGURANÇA DA ÁREA 500/230 KV MATO GROSSO 
Esta região de segurança visa avaliar, em tempo real, o desempenho da área 500/230 kV Mato Grosso frente 
as contingências de linhas de transmissão e transformadores nessa área elétrica. 
Os esquemas especiais a seguir, descritos na IO-EE.CO.5MT, são representados nesta região de segurança: 
Esquemas Especiais Considerados 
Esquema de inserção e desligamento automático do reator de barra 230 kV da SE Rondonópolis 
Esquema de inserção automática dos reatores e da retirada automática dos bancos de capacitores da SE 
Rio Verde 
Esquema de corte de geração nas UHE Itiquira, Ponte de Pedra e Manso relacionado à perda dupla das LT 
500 kV Cuiabá / Ribeirãozinho C1 e C2 
Esquema de corte de geração na UHE Dardanelos 
Esquema de perda dupla de LT 500 kV do mesmo trecho entre as SE Paranaíta e Ribeiraãozinho 
Esquema de perda dupla das LTs 230 kV Brasnorte / Juína C1 e C2 
Esquema de perda tripla de LT 500 kV do mesmo trecho entre as SE Paranaíta e Ribeirãozinho 
Esquema de retirada dos reatores e inserção do banco de capacitor da SE Sinop 
Esquema de retirada / inserção do reator de barra 230 kV – 100 Mvar da SE Jauru 
Esquema de retirada / inserção de banco de capacitores da SE Coxipó. 
Esquema de retirada do reator de barra 230 kV da SE Sorriso 
4.4.2.1. FLUXOS PARA A REGIÃO DE SEGURANÇA 
Fluxos  
FCLA FMT 
LT 500 kV Cláudia / Paranatinga C1 e C3 (medido 
na SE Cláudia 
LTs 500 kV Rio Verde Norte / Ribeirãozinho C1, C2 e 
C3 (medido na SE Rio Verde Norte) 
LT 500 kV Cláudia / Sinop (medido na SE Cláudia) LTs 230 kV Rio Verde / Barra do Peixe C1 e C2 
(medido na SE Rio Verde) 
 LT 230 kV Rio Verde / Rondonópolis (medido na SE 
Rio Verde) 
4.4.2.2. GRUPOS DE GERAÇÃO 
Grupos 
Grupo 1 Grupo 2 Grupo 3 
UHE Manso UHE Colíder  UHE Jupiá 
Manual de Procedimentos da Operação - Módulo 5 - Submódulo 5.11 
Instrução de Operação Código Revisão Item Vigência 
Cadastro de Regiões de Segurança Aplicadas ao Tempo 
Real CD-CT.BR.02 22 2.4. 10/10/2024 
 
Referência:  RT-ONS DOP 0451/2024 - VALIDAÇÃO DAS REGIÕES DE SEGURANÇA DO ORGANON DO 3º QUADRIMESTRE DE 2024. 
  
 
 
Grupos 
Grupo 1 Grupo 2 Grupo 3 
UHE Itiquira I e II UHE Teles Pires UHE Porto Primavera 
UHE Ponte de Pedra UHE São Manoel UHE Três Irmãos 
UHE Guaporé UHE Sinop  UHE Taquaruçu 
UHE Dardanelos  UHE Água Vermelha 
UHE Jauru  UHE Capivara 
  UHE Chavantes 
  UHE Furnas 
  UHE Luis Carlos Barreto 
  UHE Itutinga 
  UHE Funil Grande 
  UHE Jaguara 
  UHE Igarapava 
  UHE Volta Grande 
  UHE Porto Colômbia 
  UHE Marimbondo 
  UHE Mascarenhas de Moraes 
  UHE Caconde 
  UHE Euclides da Cunha 
  UHE Limoeiro 
  UHE Jurumirim 
  UHE Pirajú 
  UHE Ourinhos 
  UHE Salto Grande 
  UHE Canoas 
  UHE Rosana 
  UHE Jupiá 
  UHE Porto Primavera 
Manual de Procedimentos da Operação - Módulo 5 - Submódulo 5.11 
Instrução de Operação Código Revisão Item Vigência 
Cadastro de Regiões de Segurança Aplicadas ao Tempo 
Real CD-CT.BR.02 22 2.4. 10/10/2024 
 
Referência:  RT-ONS DOP 0451/2024 - VALIDAÇÃO DAS REGIÕES DE SEGURANÇA DO ORGANON DO 3º QUADRIMESTRE DE 2024. 
  
 
 
4.4.2.3. CONTINGÊNCIAS CONSIDERADAS 
Contingências Consideradas 
LT 500 kV Ribeirãozinho / Rio Verde Norte C1, C2 
ou C3 
LTs 500 kV Rio Verde Norte / Ribeirãozinho C1 e C2 
LT 500 kV Cuiabá / Ribeirãozinho C1 ou C2 LTs 500 kV Cláudia / Paranatinga C1 e C3 
LT 500 kV Cuiabá / Jauru C1 ou C2 LTs 500 kV Paranatinga / Ribeirãozinho C1 e C2 
LT 230 kV Jauru / Várzea Grande 2 C1 ou C2 LTs 500 kV Cláudia / Paranaíta C1 e C2 
LT 230 kV Coxipó / Várzea Grande 2 C1 ou C2 LTs 500 kV Cláudia / Paranatinga C1 e Paranatinga 
/ Sinop 
LT 230 kV Coxipó / Cuiabá C1 ou C2 LTs 230 kV Jauru / Várzea Grande 2 C1 e C2 
LT 230 kV Cuiabá / Rondonópolis LTs 500 kV Cláudia / Paranatinga C1 e Cláudia / 
Sinop 
LT 230 kV B. Peixe / Rondonópolis C1 ou C2 LTs 230 kV Coxipó / Várzea Grande 2 C1 e C2 
LT 230 kV Rio Verde / B. Peixe C1 ou C2 LTs 500 KV Cláudia / Sinop e Sinop / Paranatinga 
 LTs 230 kV Coxipó / Cuiabá C1 e C2 
LT 230 kV Rondonópolis / Coxipó C1 ou C2 LTs 500 kV Cuiabá / Ribeirãozinho C1 e C2 
LT 500 kV Itumbiara / Rio Verde Norte LT 500 kV Paranatinga / Ribeirãozinho C1, C2 ou C3 
LT 230 kV Cuiabá / Nobres LT 230 kV Jauru / Juba C1 e/ou C2 
LT 230 kV Nobres / Nova Mutum C1 ou C2 LT 230 kV Juba / Brasnorte C1 ou C2 
LT 500 kV Marimbondo 2 / Rio Verde Norte C1 ou 
C2 
LT 230 kV Brasnorte / Juína C1 ou C2 
LT 230 kV Nova Mutum / Brasnorte C1 ou C2 LT 230 kV Dardanelos / Juína C1 ou C2 
LT 500 kV Cláudia / Paranaíta C1 ou C2 ou C3 LT 230 kV Coxipó / Nobres 
LT 230 kV Nova Mutum / Sorriso C2 LT 230 kV Sorriso II / Sorriso 
LT 500 kV Cláudia / Paranatinga C1 ou C3 LT 230 kV Sinop / Sorriso II 
LT 230 kV Nova Mutum / Lucas do Rio Verde LTs 500kV Marimbondo 2 / Rio Verde Norte C1 e 
C2 
LT 500 kV Cláudia / Sinop LTs 230 kV Nova Mutum / Brasnorte C1 e C2 
LT 230 kV Lucas do Rio Verde / Sorriso LT 230 kV Ribeirãozinho / B. Peixe C1 ou C2 
LT 500 kV Paranatinga / Sinop LT 500 kV Itumbiara / R. V. Norte e LT 230 kV 
Itumbiara / Rio Verde C2 
LT 230 kV Sorriso / Sinop C2 LT 230 kV Brasnorte / Parecis C1 e C2 
Manual de Procedimentos da Operação - Módulo 5 - Submódulo 5.11 
Instrução de Operação Código Revisão Item Vigência 
Cadastro de Regiões de Segurança Aplicadas ao Tempo 
Real CD-CT.BR.02 22 2.4. 10/10/2024 
 
Referência:  RT-ONS DOP 0451/2024 - VALIDAÇÃO DAS REGIÕES DE SEGURANÇA DO ORGANON DO 3º QUADRIMESTRE DE 2024. 
  
 
 
Contingências Consideradas 
SE Sinop – Autotransformador SPAT7-01 ou 
SPAT7-02 500/230 kV – 400 MVA 
LT 230 kV Jauru / Juba C1 ou  C2 
LT 230 kV Canarana / Paranatinga  LT 230 kV Brasnorte / Juína C1 e C2 
LT 230 kV Dardanelos / Juína C1 e C2 LT 230 kV Juba / Brasnorte C1 e  C2 
LT 230 kV Rio Claro 2 / Rondonópolis LT 230 kV Rio Claro 2 / Rio Verde 
 
Manual de Procedimentos da Operação - Módulo 5 - Submódulo 5.11 
Instrução de Operação Código Revisão Item Vigência 
Cadastro de Regiões de Segurança Aplicadas ao Tempo 
Real CD-CT.BR.02 22 2.4. 10/10/2024 
 
Referência:  RT-ONS DOP 0451/2024 - VALIDAÇÃO DAS REGIÕES DE SEGURANÇA DO ORGANON DO 3º QUADRIMESTRE DE 2024. 
  
 
 
4.5. REGIÃO NORTE 
4.5.1. REGIÃO DE SEGURANÇA DA ÁREA 230 KV ACRE/RONDÔNIA 
Esta região de segurança visa avaliar, em tempo real, o desempenho da área 230 kV Acre/ Rondônia frente 
as contingências de linhas de transmissão e transformadores nessa área elétrica. 
O ECE associado a proteção de perda de sincronismo (PPS) das LTs 230 kV Ji-Paraná / Pimenta Bueno , 
conforme descrito na IO-EE.N.ACRO, está representado nesta região de segurança. 
4.5.1.1. FLUXOS PARA A REGIÃO DE SEGURANÇA 
Fluxos  
FSMAQ FACRO RACRO 
LTs 230 kV Samuel / Ariquemes 
C1, C2, C3 e C4 
LT 230 kV Jauru / Vilhena C1, C2 e 
C3 (Sentido de Vilhena  para 
Jauru) 
LT 230 kV Jauru / Vilhena C1, C2 e 
C3 (Sentido de Jauru  para 
Vilhena) 
4.5.1.2. GRUPOS  DE GERAÇÃO 
Grupos 
Grupo 1 Grupo 2 Grupo 3 
UHE Santo Antônio 500 kV 
(margem direita) UHE Samuel UHE Manso 
UHE Santo Antônio 500 kV  
(leito do rio) UHE Rondon II UHE Itiquira I 
Back-to-back UHE Santo Antônio 230 kV UHE Itiquira II 
  UHE Ponte de Pedra 
  UHE Juba I e II 
  UHE Jauru 
  UHE Guaporé 
  UHE Dardanelos I 
  UHE Dardanelos II 
  UHE Jupiá 
  UHE Porto Primavera 
  UHE Capivara 
  UHE Chavantes 
  UHE Três Irmãos 
Manual de Procedimentos da Operação - Módulo 5 - Submódulo 5.11 
Instrução de Operação Código Revisão Item Vigência 
Cadastro de Regiões de Segurança Aplicadas ao Tempo 
Real CD-CT.BR.02 22 2.4. 10/10/2024 
 
Referência:  RT-ONS DOP 0451/2024 - VALIDAÇÃO DAS REGIÕES DE SEGURANÇA DO ORGANON DO 3º QUADRIMESTRE DE 2024. 
  
 
 
Grupos 
Grupo 1 Grupo 2 Grupo 3 
  UHE Água Vermelha 
  UHE Taquaruçu 
  UHE Furnas 
  UHE Luiz Carlos Barreto  
4.5.1.3. CONTINGÊNCIAS CONSIDERADAS 
Contingências Consideradas 
LTs 230 kV Jauru / Vilhena C1 e C2 LT 230 kV Ariquemes / Ji - Paraná C2, C3 ou C4 
LT 230 kV Samuel / Ariquemes C1, C2, C3 ou C4 LT 230 kV Ji - Paraná / Pimenta Bueno C1, C2 ou C3 
LT 230 kV Coletora Porto Velho / Porto Velho C1 
ou C2 
LT 230 kV Porto Velho / Samuel C1, C2 ou C3 
LT 230 kV Abunã / Rio Branco C1 ou C2 LT 230 kV Pimenta Bueno / Vilhena C1, C2 ou C3 
LT 230 kV Porto Velho / Abunã C1 ou C2 LT 230 kV Jauru / Vilhena C1, C2 ou C3 
LT 230 kV Ariquemes / Jaru LT 230 kV Jaru / Ji-Paraná 
LT 230 kV Santo Antônio / Porto Velho C1 ou C2 LTs 230 kV Abunã / Rio Branco C1 e C2 
LTs 230 kV Coletora Porto Velho / Porto Velho C1 e 
C2 
LTs 230 kV Porto Velho / Abunã C1 e C2 
LTs 230 kV Samuel / Porto Velho C1 e C2 LTs 230 kV Santo Antônio / Porto Velho C1 e C2 
LT 230 kV Feijó / Rio Branco C1 ou C2 LT 230 kV Abunã / Tucumã 
LT 230 kV Rio Branco / Tucumã  
 
