 
 
Manual de Procedimentos da Operação 
Módulo 5 - Submódulo 5.11 
 
Cadastro de Informações Operacionais 
Cadastro de Dados Operacionais de Equipamentos da Área 230 kV do Mato Grosso do Sul 
 
 
Código Revisão Item Vigência 
CD-CT.CO.2MS.01 48 2.1.6. 29/10/2024 
 
. 
 
MOTIVO DA REVISÃO 
Início da operação da LT 230 kV Campo Grande 2 / Paraíso 2 C1 e da LT 230 kV Chapadão / Paraíso 2 C1 
(decorrente do seccionamento da LT 230 kV Campo Grande 2 / Chapadão na SE Paraíso 2), com inclusão dos 
subitens 3.11. e 3.17., com modificação no Subitem 3.9. e com exclusão do antigo subitem "LT 230 kV Campo 
Grande 2 / Chapadão". 
 
LISTA DE DISTRIBUIÇÃO 
CNOS COSR-S COSR-SE BTE CGT Eletrosul 
Copel GeT Cteep Delta Energia EMS Itatim 
LTC Neoenergia Pantanal PPTE TER 
Manual de Procedimentos da Operação - Módulo 5 - Submódulo 5.11 
Cadastro de Informações Operacionais Código Revisão Item Vigência 
Cadastro de Dados Operacionais de Equipamentos da 
Área 230 kV do Mato Grosso do Sul CD-CT.CO.2MS.01 48 2.1.6. 29/10/2024 
 
Referência:  2 / 50 
 
ÍNDICE 
1. OBJETIVO ................................ ................................ ................................ ................................ ..... 5 
2. CONSIDERAÇÕES GERAIS ................................ ................................ ................................ .............. 5 
3. DADOS OPERACIONAIS DE LINHAS DE TRANSMISSÃO ................................ ................................ .... 5 
3.1. LT 440 kV Ilha Solteira / Ilha Solteira 2 C1 ..................................................................................... 6 
3.2. LT 440 kV Ilha Solteira / Ilha Solteira 2 C2 ..................................................................................... 6 
3.3. LT 440 kV Nova Porto Primavera / Porto Primavera C1 ................................................................ 7 
3.4. LT 440 kV Nova Porto Primavera / Porto Primavera C2 ................................................................ 7 
3.5. LT 230 kV Anastácio / Corumbá 2 C1 ............................................................................................. 8 
3.6. LT 230 kV Anastácio / Corumbá 2 C2 ............................................................................................. 8 
3.7. LT 230 kV Anastácio / Dourados .................................................................................................... 8 
3.8. LT 230 kV Anastácio / Sidrolândia 2 .............................................................................................. 9 
3.9. LT 230 kV Campo Grande 2 / Imbirussú C1 ................................................................................... 9 
3.10. LT 230 kV Campo Grande 2 / Imbirussú C2 ................................................................................. 10 
3.11. LT 230 kV Campo Grande 2 / Paraíso 2 C1 .................................................................................. 10 
3.12. LT 230 kV Campo Grande 2 / Paraíso 2 C2 .................................................................................. 11 
3.13. LT 230 kV Campo Grande 2 / Rio Brilhante ................................................................................. 11 
3.14. LT 230 kV Chapadão / Inocência C1 ............................................................................................. 11 
3.15. LT 230 kV Chapadão / Inocência C2 ............................................................................................. 12 
3.16. LT 230 kV Chapadão / Inocência C3 ............................................................................................. 12 
3.17. LT 230 kV Chapadão / Paraíso 2 C1 ............................................................................................. 13 
3.18. LT 230 kV Chapadão / Paraíso 2 C2 ............................................................................................. 13 
3.19. LT 230 kV Dourados / Dourados 2 C1 .......................................................................................... 13 
3.20. LT 230 kV Dourados / Dourados 2 C2 .......................................................................................... 14 
3.21. LT 230 kV Dourados / Guaíra ....................................................................................................... 14 
3.22. LT 230 kV Dourados 2 / Ivinhema 2 ............................................................................................. 15 
3.23. LT 230 kV Dourados 2 / Rio Brilhante .......................................................................................... 15 
3.24. LT 230 kV Ilha Solteira 2 / Inocência C1 ....................................................................................... 15 
3.25. LT 230 kV Ilha Solteira 2 / Inocência C2 ....................................................................................... 16 
3.26. LT 230 kV Ilha Solteira 2 / Inocência C3 ....................................................................................... 16 
3.27. LT 230 kV Imbirussú / Rio Brilhante............................................................................................. 17 
3.28. LT 230 kV Imbirussú / Sidrolândia 2 ............................................................................................ 17 
3.29. LT 230 kV Ivinhema 2 / Nova Porto Primavera C1 ....................................................................... 17 
3.30. LT 230 kV Ivinhema 2 / Nova Porto Primavera C2 ....................................................................... 18 
Manual de Procedimentos da Operação - Módulo 5 - Submódulo 5.11 
Cadastro de Informações Operacionais Código Revisão Item Vigência 
Cadastro de Dados Operacionais de Equipamentos da 
Área 230 kV do Mato Grosso do Sul CD-CT.CO.2MS.01 48 2.1.6. 29/10/2024 
 
Referência:  3 / 50 
 
3.31. LT 230 kV Nova Porto Primavera / Rio Brilhante C1 .................................................................... 18 
3.32. LT 230 kV Nova Porto Primavera / Rio Brilhante C2 .................................................................... 19 
3.33. LT 138 kV Anastácio / Aquidauana C1 ......................................................................................... 19 
3.34. LT 138 kV Anastácio / Aquidauana C2 ......................................................................................... 19 
4. DADOS OPERACIONAIS DE TRANSFORMADORES ................................ ................................ ......... 21 
4.1. SE Anastácio – Transformador TF 1 230/138/13,8 kV – 75 MVA ................................................ 21 
4.2. SE Anastácio – Transformador TF 2 230/138/13,8 kV – 75 MVA ................................................ 22 
4.3. SE Campo Grande 2 – Transformador AT1 230/138/13,8 kV – 150 MVA ................................... 22 
4.4. SE Campo Grande 2 – Transformador AT2 230/138/13,8 kV – 150 MVA ................................... 22 
4.5. SE Campo Grande 2 – Transformador AT3 230/138/13,8 kV – 150 MVA ................................... 23 
4.6. SE Corumbá 2 – Transformador 7AT01 230/138/13,8 kV – 100 MVA ........................................ 23 
4.7. SE Corumbá 2 – Transformador 7AT02 230/138/13,8 kV – 100 MVA ........................................ 23 
4.8. SE Dourados – Transformador TF 1 230/138/13,8 kV – 75 MVA ................................................ 24 
4.9. SE Dourados – Transformador TF 2 230/138/13,8 kV – 75 MVA ................................................ 24 
4.10. SE Dourados – Transformador TF 3 230/138/13,8 – 75 MVA ..................................................... 25 
4.11. SE Dourados – Transformador TF 4 230/138/13,8 kV – 75 MVA ................................................ 25 
4.12. SE Dourados 2 – Transformador 04T1 230/138/13,8 kV – 150 MVA .......................................... 25 
4.13. SE Dourados 2 – Transformador 04T2 230/138/13,8 kV – 150 MVA .......................................... 26 
4.14. SE Ilha Solteira 2 – Transformador 9AT01 440/230/13,8 kV – 450 MVA .................................... 26 
4.15. SE Ilha Solteira 2 – Transformador 9AT02 440/230/13,8 kV – 450 MVA .................................... 27 
4.16. SE Ilha Solteira 2 – Transformador 9AT03 440/230/13,8 kV – 450 MVA .................................... 27 
4.17. SE Imbirussú – Transformador 7AT01 230/130/13,8 kV – 150 MVA .......................................... 27 
4.18. SE Imbirussú – Transformador 7AT02 230/130/13,8 kV – 150 MVA .......................................... 28 
4.19. SE Imbirussú – Transformador 7AT03 230/130/13,8 kV – 150 MVA .......................................... 28 
4.20. SE Ivinhema 2 – Transformador 7AT01 230/138/13,8 kV – 150 MVA ........................................ 28 
4.21. SE Ivinhema 2 – Transformador 7AT02 230/138/13,8 kV – 150 MVA ........................................ 29 
4.22. SE Nova Porto Primavera – Transformador 9AT01 440/230/13,8 kV – 450 MVA ...................... 29 
4.23. SE Nova Porto Primavera – Transformador 9AT02 440/230/13,8 kV – 450 MVA ...................... 30 
4.24. SE Nova Porto Primavera – Transformador 9AT03 440/230/13,8 kV – 450 MVA ...................... 30 
4.25. SE Paraíso 2 – Transformador 04T1 230/138/13,8 kV – 150 MVA .............................................. 30 
4.26. SE Paraíso 2 – Transformador 04T2 230/138/13,8 kV – 150 MVA .............................................. 31 
4.27. SE Sidrolândia 2 – Transformador 7AT01 230/138/13,8 kV – 100 MVA ..................................... 31 
4.28. SE Sidrolândia 2 – Transformador 7AT02 230/138/13,8 kV – 100 MVA ..................................... 31 
Manual de Procedimentos da Operação - Módulo 5 - Submódulo 5.11 
Cadastro de Informações Operacionais Código Revisão Item Vigência 
Cadastro de Dados Operacionais de Equipamentos da 
Área 230 kV do Mato Grosso do Sul CD-CT.CO.2MS.01 48 2.1.6. 29/10/2024 
 
Referência:  4 / 50 
 
5. DADOS OPERACIONAIS DE UNIDADES GERADORAS HIDRÁULICAS ................................ ................ 32 
5.1. Usina Hidrelétrica São Domingos (CEG UHE.PH.MS.028.761-0.01) ............................................ 33 
5.1.1. Dados das Unidades Geradoras da UHE São Domingos ............................................ 33 
5.1.2. Curva de Capabilidade das Unidades Geradoras da UHE São Domingos .................. 34 
6. DADOS OPERACIONAIS DE UNIDADES GERADORAS TÉRMICAS................................ .....................  35 
6.1. Usina Termelétrica William Arjona (CEG UTE.GN.MS.027.075-0.01).......................................... 37 
6.1.1. Dados Principais das Unidades Geradoras da UTE William Arjona ........................... 37 
6.1.2. Dados Relacionados a Configurações de Operação – Combustível Principal – UTE William Arjona
 ................................................................................................................................... 38 
6.1.3. Dados Relacionados a Configurações de Operação – Combustível Secundário – UTE William 
Arjona......................................................................................................................... 39 
6.1.4. Curvas de Capabilidade das Unidades Geradoras da UTE William Arjona ................ 40 
7. DADOS OPERACIONAIS DE COMPENSADORES ................................ ................................ ............. 48 
7.1. Dados de Compensadores Estáticos ............................................................................................ 48 
7.1.1. Dados de Compensador Estático – SE Anastácio ...................................................... 48 
7.1.2. Dados de Compensador Estático – SE Imbirussú ...................................................... 49 
8. DADOS OPERACIONAIS DE BANCOS DE CAPACITORES................................ ................................ .. 50 
8.1. SE Dourados – Bancos de Capacitores BC 1 e BC 2 230 kV / 50 Mvar ......................................... 50 
  
Manual de Procedimentos da Operação - Módulo 5 - Submódulo 5.11 
Cadastro de Informações Operacionais Código Revisão Item Vigência 
Cadastro de Dados Operacionais de Equipamentos da 
Área 230 kV do Mato Grosso do Sul CD-CT.CO.2MS.01 48 2.1.6. 29/10/2024 
 
Referência:  5 / 50 
 
1. OBJETIVO 
Apresentar os Dados Operacionais de Equipamentos da Área 230 kV do Mato Grosso do Sul, a serem 
observados pelos operadores dos Centros de Operação do ONS e pela Operação dos Agentes envolvidos, de 
acordo com os Procedimentos de Rede. 
2. CONSIDERAÇÕES GERAIS 
2.1. Os dados de linhas de transmissão e equipamentos da Rede de Operação constantes neste Cadastro 
de Informações Operacionais devem ser observados pelos Centros de Operação do ONS para as ações 
de coordenação, supervisão e controle da operação, assim como pel os Agentes para as ações de 
comando e execução. 
2.2. As limitações técnicas para tentativas de religamento de equipamentos contidas neste documento têm 
caráter operacional. Poderão ser utilizadas para apuração da qualidade do serviço público de 
transmissão de energia elétrica (apuração de parcela variável) o  valor do “Tempo para energização 
após desligamento” de cada equipamento, desde que sejam atendidos os critérios estabelecidos na 
regulação vigente. 
3. DADOS OPERACIONAIS DE LINHAS DE TRANSMISSÃO 
Orientações sobre os dados operacionais de linhas de transmissão:  
Campo “Religamento Automático”:  
• Campo “Tipo”: indica o tipo de religamento utilizado em operação normal: monopolar, tripolar ou 
monopolar / tripolar; caso não exista religamento instalado, o campo é preenchido com “NE” – não 
existe. 
• Campo “Situação”: indica se o religamento está ligado ou desligado em operação normal; caso não 
exista religamento instalado, o campo é preenchido com “NE” – não existe. 
• Campo “Sentido”: para religamentos tripolares, indica em primeiro lugar a instalação onde se dá o 
fechamento inicial (terminal líder), e após a seta, a instalação de fechamento final (terminal 
seguidor); para religamentos monopolares ou caso não exista religamento insta lado, o campo é 
preenchido com hifens (---). 
• Campo “ Ajustes”: indica os ajustes de tempo morto, diferença de tensão, defasagem angular e 
diferença de frequência instalados para a função de verificação de sincronismo para o religamento 
automático; caso não exista religamento automático instalado, o campo é preenchido com hifens (-
--). 
Campo “LT em Mesma Estrutura ”: apresenta o nome da LT que compartilha estrutura, e quando disponível, 
a informação da extensão do trecho de compartilhamento e da quantidade de torres compartilhadas; caso 
não exista, o campo é preenchido com “NE” – não existe.  
Não deve ser considerado o compartilhamento de estrutura caso esse seja apenas na chegada as subestações 
envolvidas. 
Campo “Religamentos Manuais”:  
• Campo “Quantidade de Tentativas ”: indica quantos religamentos (ou tentativas de religamento) 
manuais são permitidos pelo Agente. 
• Campo “Intervalo entre os Religamentos (min)”: é o intervalo de tempo entre os religamentos, em 
Manual de Procedimentos da Operação - Módulo 5 - Submódulo 5.11 
Cadastro de Informações Operacionais Código Revisão Item Vigência 
Cadastro de Dados Operacionais de Equipamentos da 
Área 230 kV do Mato Grosso do Sul CD-CT.CO.2MS.01 48 2.1.6. 29/10/2024 
 
Referência:  6 / 50 
 
minutos, a ser considerado entre a tentativa de fechamento não-bem-sucedida anterior (incluindo o 
religamento automático) e o novo fechamento do disjuntor. 
• Campo “Dispositivo de Sincronismo”: indica os terminais onde esses estão instalados e em funcionamento. 
Dispositivo de Sincronismo é o equipamento utilizado para verificação das condições de fechamento em 
anel ou paralelo entre dois pontos elétricos; caso não exista, o campo é preenchido com “NE” – não existe. 
Se em algum disjuntor do terminal não houver o dispositivo de sincronismo essa informação deve ser 
destacada. 
• Campo “ Ajustes”: indica os ajustes de diferença de tensão, defasagem angular e diferença de 
frequência instalados para a função de verificação de sincronismo para o religamento manual de 
cada terminal; caso não exista dispositivo de sincronismo, o campo é preenchido com hifens (---). 
Campo “ Notas / Restrições ”: campo opcional que indica informações relevantes a respeito da linha de 
transmissão. 
Caso os dados operacionais não sejam informados pelo Agente, os campos são preenchidos com “NI” – não 
informado. 
3.1. LT 440 KV ILHA SOLTEIRA / ILHA SOLTEIRA 2 C1 
Religamento Automático 
LT em Mesma Estrutura 
Tipo Situação Sentido Ajustes 
Tripolar Ligado ILS → ISO2 
Tempo morto: 5 s 
V   88 kV 
   20°  
f   0,2 Hz 
LT 440 kV Ilha Solteira / Ilha Solteira 2 C2 
 
Religamento Manual 
Sentido Quantidade de 
Tentativas 
Intervalo entre os 
Religamentos (minutos) 
Dispositivo de 
Sincronismo Ajustes 
Somente de ILS → ISO 2  NI Na SE ISO2 e  
na SE ILS 
V   66 kV 
   30° 
f  0,2 Hz 
3.2. LT 440 KV ILHA SOLTEIRA / ILHA SOLTEIRA 2 C2 
Religamento Automático 
LT em Mesma Estrutura 
Tipo Situação Sentido Ajustes 
Tripolar Ligado ILS → ISO2 
Tempo morto: 5 s 
V   88 kV 
   20°  
f   0,2 Hz 
LT 440 kV Ilha Solteira / Ilha Solteira 2 C1 
 
Manual de Procedimentos da Operação - Módulo 5 - Submódulo 5.11 
Cadastro de Informações Operacionais Código Revisão Item Vigência 
Cadastro de Dados Operacionais de Equipamentos da 
Área 230 kV do Mato Grosso do Sul CD-CT.CO.2MS.01 48 2.1.6. 29/10/2024 
 
Referência:  7 / 50 
 
Religamento Manual 
Sentido Quantidade de 
Tentativas 
Intervalo entre os 
Religamentos (minutos) 
Dispositivo de 
Sincronismo Ajustes 
Somente de ILS → ISO2 2  NI Na SE ISO2 e  
na SE ILS 
V   66 kV 
   30° 
f  0,2 Hz 
3.3. LT 440 KV NOVA PORTO PRIMAVERA / PORTO PRIMAVERA C1 
Religamento Automático 
LT em Mesma Estrutura 
Tipo Situação Sentido Ajustes 
Monopolar Ligado --- Tempo morto: 1 s LT 440 kV Porto Primavera / Nova Porto 
Primavera C2 
 
Religamento Manual 
Sentido Quantidade de 
Tentativas 
Intervalo entre os 
Religamentos (minutos) 
Dispositivo de 
Sincronismo Ajustes 
NPP → PPR  
PPR → NPP 2  NI Somente na SE NPP  
Na SE PPR: NE 
 
Na SE NPP: 
V   88 kV 
   10° 
f  0,2 Hz 
3.4. LT 440 KV NOVA PORTO PRIMAVERA / PORTO PRIMAVERA C2 
Religamento Automático 
LT em Mesma Estrutura 
Tipo Situação Sentido Ajustes 
Monopolar Ligado --- Tempo morto: 1 s LT 440 kV Porto Primavera / Nova Porto 
Primavera C1 
 
Religamento Manual 
Sentido Quantidade de 
Tentativas 
Intervalo entre os 
Religamentos (minutos) 
Dispositivo de 
Sincronismo Ajustes 
NPP → PPR  
PPR → NPP 2  NI Somente na SE NPP  
Na SE PPR: NE 
 
Na SE NPP: 
V   88 kV 
   10° 
f  0,2 Hz 
Manual de Procedimentos da Operação - Módulo 5 - Submódulo 5.11 
Cadastro de Informações Operacionais Código Revisão Item Vigência 
Cadastro de Dados Operacionais de Equipamentos da 
Área 230 kV do Mato Grosso do Sul CD-CT.CO.2MS.01 48 2.1.6. 29/10/2024 
 
Referência:  8 / 50 
 
3.5. LT 230 KV ANASTÁCIO / CORUMBÁ 2 C1 
Religamento Automático 
LT em Mesma Estrutura 
Tipo Situação Sentido Ajustes 
Tripolar Ligado ANA → COR2 
Tempo morto: 3 s 
V   46 kV 
   35° 
f   0,2 Hz 
LT 230 kV Anastácio / Corumbá 2 C2 
 
Religamento Manual 
Sentido Quantidade de 
Tentativas 
Intervalo entre os 
Religamentos (minutos) 
Dispositivo de 
Sincronismo Ajustes 
COR2 → ANA  
ANA → COR2 2  NI Na SE ANA e  
na SE COR2 
V   46 kV 
   35° 
f   0,2 Hz 
3.6. LT 230 KV ANASTÁCIO / CORUMBÁ 2 C2 
Religamento Automático 
LT em Mesma Estrutura 
Tipo Situação Sentido Ajustes 
Tripolar Ligado ANA → COR2 
Tempo morto: 4 s 
V   46 kV 
   35° 
f   0,2 Hz 
LT 230 kV Anastácio / Corumbá 2 C1 
 
Religamento Manual 
Sentido Quantidade de 
Tentativas 
Intervalo entre os 
Religamentos (minutos) 
Dispositivo de 
Sincronismo Ajustes 
COR2 → ANA 
ANA → COR2 
 
2  NI Na SE ANA e  
na SE COR2 
V   46 kV 
   35° 
f   0,2 Hz 
3.7. LT 230 KV ANASTÁCIO / DOURADOS 
Religamento Automático 
LT em Mesma Estrutura 
Tipo Situação Sentido Ajustes 
Tripolar Ligado DOU → ANA 
Tempo morto: 3 s 
V   46 kV 
   40°  
f   0,2 Hz 
NE 
 
Manual de Procedimentos da Operação - Módulo 5 - Submódulo 5.11 
Cadastro de Informações Operacionais Código Revisão Item Vigência 
Cadastro de Dados Operacionais de Equipamentos da 
Área 230 kV do Mato Grosso do Sul CD-CT.CO.2MS.01 48 2.1.6. 29/10/2024 
 
Referência:  9 / 50 
 
Religamento Manual 
Sentido Quantidade de 
Tentativas 
Intervalo entre os 
Religamentos (minutos) 
(*) 
Dispositivo de 
Sincronismo Ajustes 
DOU → ANA  
ANA → DOU 1  1 min na SE Ana e  
15 s na SE DOU 
Na SE ANA e  
na SE DOU 
V   46 kV 
   40°  
f   0,2 Hz 
(*) Considera -se como primeira tentativa de religamento aquela realizada pelo esquema de religamento 
automático ou aquela realizada manualmente; neste caso, quando o religamento automático não existir, 
estiver fora de operação ou não tenha atuado. 
3.8. LT 230 KV ANASTÁCIO / SIDROLÂNDIA 2 
Religamento Automático 
LT em Mesma Estrutura 
Tipo Situação Sentido Ajustes 
Tripolar Ligado SIA2 → ANA 
Tempo morto: 5 s 
V   46 kV 
   40°  
f   0,2 Hz 
NE 
 
Religamento Manual 
Sentido Quantidade de 
Tentativas 
Intervalo entre os 
Religamentos (minutos) 
Dispositivo de 
Sincronismo Ajustes 
SIA2 → ANA  
ANA → SIA2 2  NI Na SE ANA e  
na SE SIA2 
V   46 kV 
   40°  
f   0,2 Hz  
3.9. LT 230 KV CAMPO GRANDE 2 / IMBIRUSSÚ C1 
Religamento Automático 
LT em Mesma Estrutura 
Tipo Situação Sentido Ajustes 
Tripolar Ligado IMB → CGT 
Tempo morto: 5 s 
V   46 kV 
   30°  
f   0,2 Hz 
LT 230 kV Campo Grande 2 / Paraíso 2 C1 
(33 estruturas - 12,1 km) 
 
Religamento Manual 
Sentido Quantidade de 
Tentativas 
Intervalo entre os 
Religamentos (minutos) 
Dispositivo de 
Sincronismo Ajustes 
IMB → CGT  
CGT → IMB 2  NI Na SE CGT e  
na SE IMB 
V  46 kV 
  30° 
Manual de Procedimentos da Operação - Módulo 5 - Submódulo 5.11 
Cadastro de Informações Operacionais Código Revisão Item Vigência 
Cadastro de Dados Operacionais de Equipamentos da 
Área 230 kV do Mato Grosso do Sul CD-CT.CO.2MS.01 48 2.1.6. 29/10/2024 
 
Referência:  10 / 50 
 
Religamento Manual 
Sentido Quantidade de 
Tentativas 
Intervalo entre os 
Religamentos (minutos) 
Dispositivo de 
Sincronismo Ajustes 
f   0,2 Hz 
3.10. LT 230 KV CAMPO GRANDE 2 / IMBIRUSSÚ C2 
Religamento Automático 
LT em Mesma Estrutura 
Tipo Situação Sentido Ajustes 
Tripolar Ligado IMB → CGT 
Tempo morto: 5,5 s 
V   46 kV 
   30°  
f   0,2 Hz 
NE 
 
Religamento Manual 
Sentido Quantidade de 
Tentativas 
Intervalo entre os 
Religamentos (minutos) 
Dispositivo de 
Sincronismo Ajustes 
IMB → CGT  
CGT → IMB 2  NI Na SE CGT e  
na SE IMB 
V  46 kV 
  30° 
f   0,2 Hz 
3.11. LT 230 KV CAMPO GRANDE 2 / PARAÍSO 2 C1 
Religamento Automático 
LT em Mesma Estrutura 
Tipo Situação Sentido Ajustes 
Tripolar Ligado CGT → PSO2 
Tempo morto: 6 s 
V   46 kV 
   27°  
f   0,05 Hz 
LT 230 kV Campo Grande 2 / Imbirussú C1 
(33 estruturas - 12,1 km) 
 
LT 230 kV Chapadão / Paraíso 2 C1 (1 km) 
 
Religamento Manual 
Sentido Quantidade de 
Tentativas 
Intervalo entre os 
Religamentos (minutos) 
Dispositivo de 
Sincronismo Ajustes 
CGT → PSO2  
PSO2 → CGT 2  NI Na SE CGT e  
na SE PSO2 
V  46 kV 
  27° 
f   0,2 Hz 
Manual de Procedimentos da Operação - Módulo 5 - Submódulo 5.11 
Cadastro de Informações Operacionais Código Revisão Item Vigência 
Cadastro de Dados Operacionais de Equipamentos da 
Área 230 kV do Mato Grosso do Sul CD-CT.CO.2MS.01 48 2.1.6. 29/10/2024 
 
Referência:  11 / 50 
 
3.12. LT 230 KV CAMPO GRANDE 2 / PARAÍSO 2 C2 
Religamento Automático 
LT em Mesma Estrutura 
Tipo Situação Sentido Ajustes 
Tripolar Ligado CGT → PSO2 
Tempo morto: 6,5 s 
V   46 kV 
   27°  
f   0,05 Hz 
NE 
 
Religamento Manual 
Sentido Quantidade de 
Tentativas 
Intervalo entre os 
Religamentos (minutos) 
Dispositivo de 
Sincronismo Ajustes 
CGT → PSO2  
PSO2 → CGT 2  NI Na SE CGT e  
na SE PSO2 
V  46 kV 
  27° 
f   0,2 Hz 
3.13. LT 230 KV CAMPO GRANDE 2 / RIO BRILHANTE 
Religamento Automático 
LT em Mesma Estrutura 
Tipo Situação Sentido Ajustes 
Tripolar Ligado RBE → CGT 
Tempo morto: 5 s 
V   46 kV 
   25°  
f   0,2 Hz 
NE 
 
Religamento Manual 
Sentido Quantidade de 
Tentativas 
Intervalo entre os 
Religamentos (minutos) 
Dispositivo de 
Sincronismo Ajustes 
RBE → CGT  
CGT → RBE 2  NI Na SE CGT e  
na SE IMB 
V   46 kV 
   25° 
f   0,2 Hz 
3.14. LT 230 KV CHAPADÃO / INOCÊNCIA C1 
Religamento Automático 
LT em Mesma Estrutura 
Tipo Situação Sentido Ajustes 
Tripolar Ligado INO → CAO 
Tempo morto: 5 s 
V   34,5 kV 
   20°  
f   0,2 Hz 
LT 230 kV Chapadão / Inocência C2 
 
Manual de Procedimentos da Operação - Módulo 5 - Submódulo 5.11 
Cadastro de Informações Operacionais Código Revisão Item Vigência 
Cadastro de Dados Operacionais de Equipamentos da 
Área 230 kV do Mato Grosso do Sul CD-CT.CO.2MS.01 48 2.1.6. 29/10/2024 
 
Referência:  12 / 50 
 
Religamento Manual 
Sentido Quantidade de 
Tentativas 
Intervalo entre os 
Religamentos (minutos) 
Dispositivo de 
Sincronismo Ajustes 
INO → CAO  
CAO → INO 2  NI Na SE CAO e  
na SE INO 
V   34,5 kV 
   30°  
f   0,2 Hz  
3.15. LT 230 KV CHAPADÃO / INOCÊNCIA C2 
Religamento Automático 
LT em Mesma Estrutura 
Tipo Situação Sentido Ajustes 
Tripolar Ligado INO → CAO 
Tempo morto: 5 s 
V   34,5 kV 
   20°  
f   0,2 Hz 
LT 230 kV Chapadão / Inocência C1 
 
Religamento Manual 
Sentido Quantidade de 
Tentativas 
Intervalo entre os 
Religamentos (minutos) 
Dispositivo de 
Sincronismo Ajustes 
INO → CAO 
CAO → INO 2  NI Na SE CAO e  
na SE INO 
V   34,5 kV 
   30°  
f   0,2 Hz  
3.16. LT 230 KV CHAPADÃO / INOCÊNCIA C3 
Religamento Automático 
LT em Mesma Estrutura 
Tipo Situação Sentido Ajustes 
Tripolar Ligado INO → CAO 
Tempo morto: 5 s 
V   34,5 kV 
   20°  
f   0,2 Hz 
NE 
 
Religamento Manual 
Sentido Quantidade de 
Tentativas 
Intervalo entre os 
Religamentos (minutos) 
Dispositivo de 
Sincronismo Ajustes 
INO → CAO  
CAO → INO 2  NI Na SE CAO e  
na SE INO 
V   34,5 kV 
   30°  
f   0,2 Hz  
Manual de Procedimentos da Operação - Módulo 5 - Submódulo 5.11 
Cadastro de Informações Operacionais Código Revisão Item Vigência 
Cadastro de Dados Operacionais de Equipamentos da 
Área 230 kV do Mato Grosso do Sul CD-CT.CO.2MS.01 48 2.1.6. 29/10/2024 
 
Referência:  13 / 50 
 
3.17. LT 230 KV CHAPADÃO / PARAÍSO 2 C1 
Religamento Automático 
LT em Mesma Estrutura 
Tipo Situação Sentido Ajustes 
Tripolar Ligado CAO → PSO2 
Tempo morto: 5 s 
V   46 kV 
   20°  
f   0,05 Hz 
LT 230 kV Campo Grande 2 / Paraíso 2 C1 
(1 km) 
 
Religamento Manual 
Sentido Quantidade de 
Tentativas 
Intervalo entre os 
Religamentos (minutos) 
Dispositivo de 
Sincronismo Ajustes 
CAO → PSO2  
PSO2 → CAO 2  NI Na SE CAO e  
na SE PSO2 
V   46 kV 
   20°  
f   0,2 Hz  
3.18. LT 230 KV CHAPADÃO / PARAÍSO 2 C2 
Religamento Automático 
LT em Mesma Estrutura 
Tipo Situação Sentido Ajustes 
Tripolar Ligado CAO → PSO2 
Tempo morto: 5,5 s 
V   46 kV 
   20°  
f   0,05 Hz 
NE 
 
Religamento Manual 
Sentido Quantidade de 
Tentativas 
Intervalo entre os 
Religamentos (minutos) 
Dispositivo de 
Sincronismo Ajustes 
CAO → PSO2  
PSO2 → CAO 2  NI Na SE CAO e  
na SE PSO2 
V   46 kV 
   20°  
f   0,2 Hz  
3.19. LT 230 KV DOURADOS / DOURADOS 2 C1 
Religamento Automático 
LT em Mesma Estrutura 
Tipo Situação Sentido Ajustes 
Tripolar Ligado DOU2 → DOU 
Tempo morto: 5,5 s 
V   46 kV 
   26°  
f   0,2 Hz 
NE 
Manual de Procedimentos da Operação - Módulo 5 - Submódulo 5.11 
Cadastro de Informações Operacionais Código Revisão Item Vigência 
Cadastro de Dados Operacionais de Equipamentos da 
Área 230 kV do Mato Grosso do Sul CD-CT.CO.2MS.01 48 2.1.6. 29/10/2024 
 
Referência:  14 / 50 
 
 
Religamento Manual 
Sentido Quantidade de 
Tentativas 
Intervalo entre os 
Religamentos (minutos) 
Dispositivo de 
Sincronismo Ajustes 
DOU → DOU2  
DOU2 → DOU 2  NI Na SE DOU e  
na SE DOU2 
V   46 kV 
   26° 
f   0,2 Hz 
3.20. LT 230 KV DOURADOS / DOURADOS 2 C2 
Religamento Automático 
LT em Mesma Estrutura 
Tipo Situação Sentido Ajustes 
Tripolar Ligado DOU2 → DOU 
Tempo morto: 6 s 
V   46 kV 
   26°  
f   0,2 Hz 
NE 
 
Religamento Manual 
Sentido Quantidade de 
Tentativas 
Intervalo entre os 
Religamentos (minutos) 
Dispositivo de 
Sincronismo Ajustes 
DOU → DOU2 
DOU2 → DOU 2  NI Na SE DOU e  
na SE DOU2 
V   46 kV 
   26° 
f   0,2 Hz 
3.21. LT 230 KV DOURADOS / GUAÍRA 
Religamento Automático 
LT em Mesma Estrutura 
Tipo Situação Sentido Ajustes 
Tripolar Ligado GUA → DOU NI NE 
 
Religamento Manual 
Sentido Quantidade de 
Tentativas 
Intervalo entre os 
Religamentos (minutos) 
(*) 
Dispositivo de 
Sincronismo Ajustes 
GUA → DOU  
DOU → GUA 2  
1 min na SE GUA e 
15 s na SE DOU 
Na SE DOU e  
na SE GUA NI 
(*) Considera -se como primeira tentativa de religamento aquela realizada pelo esquema de religamento 
automático ou aquela realizada manualmente; neste caso, quando o religamento automático não existir, 
estiver fora de operação ou não tenha atuado. 
Manual de Procedimentos da Operação - Módulo 5 - Submódulo 5.11 
Cadastro de Informações Operacionais Código Revisão Item Vigência 
Cadastro de Dados Operacionais de Equipamentos da 
Área 230 kV do Mato Grosso do Sul CD-CT.CO.2MS.01 48 2.1.6. 29/10/2024 
 
Referência:  15 / 50 
 
3.22. LT 230 KV DOURADOS 2 / IVINHEMA 2 
Religamento Automático 
LT em Mesma Estrutura 
Tipo Situação Sentido Ajustes 
Tripolar Ligado DOU2 → IVI2 
Tempo morto: 4,5 s 
V   46 kV 
   33°  
f   0,2 Hz 
NE 
 
Religamento Manual 
Sentido Quantidade de 
Tentativas 
Intervalo entre os 
Religamentos (minutos) 
Dispositivo de 
Sincronismo Ajustes 
IVI2 → DOU2 
DOU2 → IVI2 2  NI Na SE DOU2 e  
na SE IVI2 
V   46 kV 
   33° 
f   0,2 Hz 
3.23. LT 230 KV DOURADOS 2 / RIO BRILHANTE 
Religamento Automático 
LT em Mesma Estrutura 
Tipo Situação Sentido Ajustes 
Tripolar Ligado RBE → DOU2 
Tempo morto: 5 s 
V   46 kV 
   30°  
f   0,2 Hz 
NE 
 
Religamento Manual 
Sentido Quantidade 
de Tentativas 
Intervalo entre os 
Religamentos (minutos) 
Dispositivo de 
Sincronismo Ajustes 
RBE → DOU2  
DOU2 → RBE 2  NI Na SE DOU2 e  
na SE RBE 
V   46 kV 
   30° 
f   0,2 Hz 
3.24. LT 230 KV ILHA SOLTEIRA 2 / INOCÊNCIA C1 
Religamento Automático 
LT em Mesma Estrutura 
Tipo Situação Sentido Ajustes 
Tripolar Ligado ISO2 → INO 
Tempo morto: 5 s 
V   34,5 kV 
   20°  
LT 230 kV Ilha Solteira 2 / Inocência C2 
Manual de Procedimentos da Operação - Módulo 5 - Submódulo 5.11 
Cadastro de Informações Operacionais Código Revisão Item Vigência 
Cadastro de Dados Operacionais de Equipamentos da 
Área 230 kV do Mato Grosso do Sul CD-CT.CO.2MS.01 48 2.1.6. 29/10/2024 
 
Referência:  16 / 50 
 
Religamento Automático 
LT em Mesma Estrutura 
Tipo Situação Sentido Ajustes 
f   0,2 Hz 
 
Religamento Manual 
Sentido Quantidade de 
Tentativas 
Intervalo entre os 
Religamentos (minutos) 
Dispositivo de 
Sincronismo Ajustes 
Somente de ISO2 → INO 2 NI Na SE INO e  
na SE ISO2 
V   34,5 kV 
   30°  
f   0,2 Hz  
3.25. LT 230 KV ILHA SOLTEIRA 2 / INOCÊNCIA C2 
Religamento Automático 
LT em Mesma Estrutura 
Tipo Situação Sentido Ajustes 
Tripolar Ligado ISO2 → INO 
Tempo morto: 5 s 
V   34,5 kV 
   20°  
f   0,2 Hz 
LT 230 kV Ilha Solteira 2 / Inocência C1 
 
Religamento Manual 
Sentido Quantidade 
de Tentativas 
Intervalo entre os 
Religamentos (minutos) 
Dispositivo de 
Sincronismo Ajustes 
Somente de ISO2 → 
INO 2  NI Na SE INO e  
na SE ISO2 
V   34,5 kV 
   30°  
f   0,2 Hz  
3.26. LT 230 KV ILHA SOLTEIRA 2 / INOCÊNCIA C3 
Religamento Automático 
LT em Mesma Estrutura 
Tipo Situação Sentido Ajustes 
Tripolar Ligado ISO2 → INO 
Tempo morto: 5 s 
V   34,5 kV 
   20°  
f   0,2 Hz 
NE 
 
Manual de Procedimentos da Operação - Módulo 5 - Submódulo 5.11 
Cadastro de Informações Operacionais Código Revisão Item Vigência 
Cadastro de Dados Operacionais de Equipamentos da 
Área 230 kV do Mato Grosso do Sul CD-CT.CO.2MS.01 48 2.1.6. 29/10/2024 
 
Referência:  17 / 50 
 
Religamento Manual 
Sentido Quantidade de 
Tentativas 
Intervalo entre os 
Religamentos (minutos) 
Dispositivo de 
Sincronismo Ajustes 
Somente de ISO2 → INO 2  NI Na SE INO e  
na SE ISO2 
V   34,5 kV 
   30°  
f   0,2 Hz  
3.27. LT 230 KV IMBIRUSSÚ / RIO BRILHANTE 
Religamento Automático 
LT em Mesma Estrutura 
Tipo Situação Sentido Ajustes 
Tripolar Ligado IMB → RBE 
Tempo morto: 5 s 
V   46 kV 
   25°  
f   0,2 Hz 
NE 
 
Religamento Manual 
Sentido Quantidade de 
Tentativas 
Intervalo entre os 
Religamentos (minutos) 
Dispositivo de 
Sincronismo Ajustes 
IMB → RBE  
RBE → IMB 2  NI Na SE RBE e  
na SE IMB 
V   46 kV 
   25°  
f   0,2 Hz  
3.28. LT 230 KV IMBIRUSSÚ / SIDROLÂNDIA 2 
Religamento Automático 
LT em Mesma Estrutura 
Tipo Situação Sentido Ajustes 
Tripolar Ligado IMB → SIA2 
Tempo morto: 5 s 
V   46 kV 
   40°  
f   0,2 Hz 
NE 
 
Religamento Manual 
Sentido Quantidade de 
Tentativas 
Intervalo entre os 
Religamentos (minutos) 
Dispositivo de 
Sincronismo Ajustes 
IMB → SIA2  
SIA2 → IMB 2  NI Na SE IMB e  
na SE SIA2 
V   46 kV 
   40°  
f   0,2 Hz 
3.29. LT 230 KV IVINHEMA 2 / NOVA PORTO PRIMAVERA C1 
Manual de Procedimentos da Operação - Módulo 5 - Submódulo 5.11 
Cadastro de Informações Operacionais Código Revisão Item Vigência 
Cadastro de Dados Operacionais de Equipamentos da 
Área 230 kV do Mato Grosso do Sul CD-CT.CO.2MS.01 48 2.1.6. 29/10/2024 
 
Referência:  18 / 50 
 
Religamento Automático 
LT em Mesma Estrutura 
Tipo Situação Sentido Ajustes 
Tripolar Ligado NPP → IVI2 
Tempo morto: 5 s 
V   46 kV 
   16°  
f   0,2 Hz 
LT Nova Porto Primavera / Rio Brilhante 
C1 
 
Religamento Manual 
Sentido Quantidade de 
Tentativas 
Intervalo entre os 
Religamentos (minutos) 
Dispositivo de 
Sincronismo Ajustes 
NPP → IVI2  
IVI2 → NPP 2 NI Na SE IVI2 e  
na SE NPP 
V   46 kV 
   16° 
f   0,2 Hz 
3.30. LT 230 KV IVINHEMA 2 / NOVA PORTO PRIMAVERA C2 
Religamento Automático 
LT em Mesma Estrutura 
Tipo Situação Sentido Ajustes 
Tripolar Ligado NPP → IVI2 
Tempo morto: 4,5 s 
V   46 kV 
   16°  
f   0,2 Hz 
NE 
 
Religamento Manual 
Sentido Quantidade de 
Tentativas 
Intervalo entre os 
Religamentos (minutos) 
Dispositivo de 
Sincronismo Ajustes 
NPP → IVI2  
IVI2 → NPP 2  NI Na SE IVI2 e  
na SE NPP 
V   46 kV 
   16° 
f   0,2 Hz 
3.31. LT 230 KV NOVA PORTO PRIMAVERA / RIO BRILHANTE C1 
Religamento Automático 
LT em Mesma Estrutura 
Tipo Situação Sentido Ajustes 
Tripolar Ligado NPP → RBE 
Tempo morto: 5 s 
V   46 kV 
   15°  
f   0,2 Hz 
LT 230 kV Ivinhema 2 / Nova Porto 
Primavera C1 
 
Manual de Procedimentos da Operação - Módulo 5 - Submódulo 5.11 
Cadastro de Informações Operacionais Código Revisão Item Vigência 
Cadastro de Dados Operacionais de Equipamentos da 
Área 230 kV do Mato Grosso do Sul CD-CT.CO.2MS.01 48 2.1.6. 29/10/2024 
 
Referência:  19 / 50 
 
Religamento Manual 
Sentido Quantidade de 
Tentativas 
Intervalo entre os 
Religamentos (minutos) 
Dispositivo de 
Sincronismo Ajustes 
NPP → RBE  
RBE → NPP 2  NI Na SE RBE e  
na SE NPP 
V  46 kV 
  15° 
f  0,2 Hz 
3.32. LT 230 KV NOVA PORTO PRIMAVERA / RIO BRILHANTE C2 
Religamento Automático 
LT em Mesma Estrutura 
Tipo Situação Sentido Ajustes 
Tripolar Ligado NPP → RBE 
Tempo morto: 4,5 s 
V   46 kV 
   15°  
f   0,2 Hz 
NE 
 
Religamento Manual 
Sentido Quantidade de 
Tentativas 
Intervalo entre os 
Religamentos (minutos) 
Dispositivo de 
Sincronismo Ajustes 
NPP → RBE  
RBE → NPP 2  NI Na SE RBE e  
na SE NPP 
V  46 kV 
  15° 
f  0,2 Hz 
3.33. LT 138 KV ANASTÁCIO / AQUIDAUANA C1 
Religamento Automático 
LT em Mesma Estrutura 
Tipo Situação Sentido Ajustes 
NI Desligado NI --- LT 138 kV Anastácio / Aquidauana C2 
 
Religamento Manual 
Sentido Quantidade de 
Tentativas 
Intervalo entre os 
Religamentos (minutos) 
Dispositivo de 
Sincronismo Ajustes 
ANA → AQU  
AQU → ANA 1  NI 
Somente na SE AQU, 
pois na SE ANA não há 
DJ 
∆V ≤ 27,6 kV 
∆  ≤ 40° 
∆f ≤ 0,2 Hz 
3.34. LT 138 KV ANASTÁCIO / AQUIDAUANA C2 
Manual de Procedimentos da Operação - Módulo 5 - Submódulo 5.11 
Cadastro de Informações Operacionais Código Revisão Item Vigência 
Cadastro de Dados Operacionais de Equipamentos da 
Área 230 kV do Mato Grosso do Sul CD-CT.CO.2MS.01 48 2.1.6. 29/10/2024 
 
Referência:  20 / 50 
 
Religamento Automático 
LT em Mesma Estrutura 
Tipo Situação Sentido Ajustes 
NI Desligado NI --- LT 138 kV Anastácio / Aquidauana C1 
 
Religamento Manual 
Sentido Quantidade de 
Tentativas 
Intervalo entre os 
Religamentos (minutos) 
Dispositivo de 
Sincronismo Ajustes 
ANA → AQU  
AQU → ANA 1  NI 
Somente na SE AQU, 
pois na SE ANA não há 
DJ 
∆V ≤ 27,6 kV 
∆  ≤ 40° 
∆f ≤ 0,2 Hz  
  
Manual de Procedimentos da Operação - Módulo 5 - Submódulo 5.11 
Cadastro de Informações Operacionais Código Revisão Item Vigência 
Cadastro de Dados Operacionais de Equipamentos da 
Área 230 kV do Mato Grosso do Sul CD-CT.CO.2MS.01 48 2.1.6. 29/10/2024 
 
Referência:  21 / 50 
 
4. DADOS OPERACIONAIS DE TRANSFORMADORES 
Orientações sobre os dados operacionais de transformadores: 
Campo “ Dispositivo de Sincronismo ”: indica os terminais onde estão instalados e em funcionamento. 
Dispositivo de Sincronismo é o equipamento utilizado para verificação das condições de fechamento em anel 
ou paralelo entre dois pontos elétricos, o campo é preenchido com “NE” – não existe. Se em algum disjuntor 
do terminal não houver o dispositivo de sincronismo essa informação deve ser destacada. 
Campo “ Ajustes”: indica os ajustes de diferença de tensão, defasagem angular e diferença de frequência 
instalados para a função de verificação de sincronismo para o religamento manual de cada terminal; caso não 
exista dispositivo de sincronismo, o campo é preenchido com hifens (---). 
Campo “Características dos Comutadores”:  
• Campo “ Comutador sob carga ”: indica o número de posições associando a tensão correspondente à 
identificação das posições mínima, máxima e nominal, bem como a variação de tensão entre cada posição, 
conforme os dados de placa do transformador. Caso os números das posições dos dados d e placa do 
transformador sejam diferentes dos números das posições utilizadas no Sistema de Supervisão e Controle, 
incluir, além das posições dos dados de placa, também as posições utilizadas no SSC. Caso não exista 
comutador sob carga no transformador, o campo é preenchido com “NE” – não existe. 
• Campo “Comutador em Vazio”: indica as posições do comutador em vazio com os respectivos valores de 
tensão e sua posição em serviço. Caso não exista comutador em vazio no transformador, o campo é 
preenchido com “NE” – não existe. 
Campo “Notas / Restrições”: campo opcional que indica informações relevantes a respeito do transformador. 
4.1. SE ANASTÁCIO – TRANSFORMADOR TF 1 230/138/13,8 KV – 75 MVA 
Dispositivo de 
Sincronismo Ajustes 
Características dos Comutadores 
Comutador sob Carga Comutador em Vazio 
Somente no lado 
de 230 kV, pois 
não há DJ no lado 
de 138 kV 
∆V ≤ 46 kV 
∆  ≤ 35° 
∆f ≤ 0,2 Hz 
 
Lado de 138 kV: O 
comutador pode variar em 
19 posições (da +9 à -9, 
tendo como nominal a 
posição 0) variando de 
+9=151,788 kV a -
9=124,212 kV, sendo que 
em cada posição o 
comutador varia a tensão 
em 1,532 kV 
Lado de 230 kV: O comutador 
possui cinco posições (A=242 kV, 
B=236 kV, C=230 kV, D=224 kV e 
E=218 kV), estando na posição C 
Notas / Restrições: Comutador sob carga com comando manual. 
Manual de Procedimentos da Operação - Módulo 5 - Submódulo 5.11 
Cadastro de Informações Operacionais Código Revisão Item Vigência 
Cadastro de Dados Operacionais de Equipamentos da 
Área 230 kV do Mato Grosso do Sul CD-CT.CO.2MS.01 48 2.1.6. 29/10/2024 
 
Referência:  22 / 50 
 
4.2. SE ANASTÁCIO – TRANSFORMADOR TF 2 230/138/13,8 KV – 75 MVA 
Dispositivo de 
Sincronismo Ajustes 
Características dos Comutadores 
Comutador sob Carga Comutador em Vazio 
Somente no lado 
de 230 kV, pois 
não há DJ no lado 
de 138 kV 
∆V ≤ 46 kV 
∆  ≤ 35° 
∆f ≤ 0,2 Hz 
 
Lado de 138 kV: O 
comutador pode variar em 
19 posições (da +9 à -9, 
tendo como nominal a 
posição 0) variando de 
+9=151,788 kV a -
9=124,212 kV, sendo que 
em cada posição o 
comutador varia a tensão 
em 1,532 kV 
Lado de 230 kV: O comutador 
possui cinco posições (A=242 kV, 
B=236 kV, C=230 kV, D=224 kV e 
E=218 kV), estando na posição C 
Notas / Restrições: Comutador sob carga com comando manual. 
4.3. SE CAMPO GRANDE 2 – TRANSFORMADOR AT1 230/138/13,8 KV – 150 MVA 
Dispositivo de 
Sincronismo Ajustes 
Características dos Comutadores 
Comutador sob Carga Comutador em Vazio 
Nos lados de 
230 kV e de 138 kV  NI 
Lado de 230 kV:  O 
comutador pode variar em 
19 posições (da 1 à 19, 
tendo como nominal a 
posição 10), variando de 1 
= 252,995  kV a 19 = 
207,005 kV, sendo que em 
cada posição o comutador 
varia a tensão em 2,555 kV 
NE 
Notas / Restrições: Comutador sob carga com comando manual. 
4.4. SE CAMPO GRANDE 2 – TRANSFORMADOR AT2 230/138/13,8 KV – 150 MVA 
Dispositivo de 
Sincronismo Ajustes 
Características dos Comutadores 
Comutador sob Carga Comutador em Vazio 
Nos lados de 
230 kV e de 138 kV  NI 
Lado de 230 kV:  O 
comutador pode variar em 
19 posições (da 1 à 19, 
tendo como nominal a 
posição 10), variando de 1 
= 252,995  kV a 19 = 
207,005 kV, sendo que em 
cada posição o comutador 
varia a tensão em 2,555 kV 
NE 
Notas / Restrições: Comutador sob carga com comando manual. 
Manual de Procedimentos da Operação - Módulo 5 - Submódulo 5.11 
Cadastro de Informações Operacionais Código Revisão Item Vigência 
Cadastro de Dados Operacionais de Equipamentos da 
Área 230 kV do Mato Grosso do Sul CD-CT.CO.2MS.01 48 2.1.6. 29/10/2024 
 
Referência:  23 / 50 
 
4.5. SE CAMPO GRANDE 2 – TRANSFORMADOR AT3 230/138/13,8 KV – 150 MVA 
Dispositivo de 
Sincronismo Ajustes 
Características dos Comutadores 
Comutador sob Carga Comutador em Vazio 
Nos lados de 
230 kV e de 138 kV  NI 
Lado de 230 kV:  O 
comutador pode variar em 
19 posições (da 1 à 19, 
tendo como nominal a 
posição 10), variando de 1 
= 252,995  kV a 19 = 
207,005 kV, sendo que em 
cada posição o comutador 
varia a tensão em 2,555 kV 
NE 
Notas / Restrições: Comutador sob carga com comando manual. 
4.6. SE CORUMBÁ 2 – TRANSFORMADOR 7AT01 230/138/13,8 KV – 100 MVA 
Dispositivo de 
Sincronismo Ajustes 
Características dos Comutadores 
Comutador sob Carga Comutador em Vazio 
Nos lados de 
230 kV e de 138 kV  NI 
Lado de 138 kV:  O 
comutador pode variar em 
19 posições (da 1 à 19, 
tendo como nominal a 
posição 10), variando de 
1=151,788 kV a 
19=124,212 kV, sendo que 
em cada posição o 
comutador varia a tensão 
em 1,532 kV 
 
Lado de 230 kV: O comutador 
possui cinco posições (A = 
242 kV, B=236 kV, C=230 kV, 
D=224 kV e E=218 kV) 
Notas / Restrições: Comutador sob carga com comando manual. 
4.7. SE CORUMBÁ 2 – TRANSFORMADOR 7AT02 230/138/13,8 KV – 100 MVA 
Dispositivo de 
Sincronismo Ajustes 
Características dos Comutadores 
Comutador sob Carga Comutador em Vazio 
Nos lados de 
230 kV e de 138 kV  NI 
Lado de 138 kV:  O 
comutador pode variar em 
19 posições (da 1 à 19, 
tendo como nominal a 
posição 10), variando de 
1=151,788 kV a 
19=124,212 kV, sendo que 
em cada posição o 
comutador varia a tensão 
em 1,532 kV 
 
Lado de 230 kV: O comutador 
possui cinco posições (A = 
242 kV, B=236 kV, C=230 kV, 
D=224 kV e E=218 kV) 
Manual de Procedimentos da Operação - Módulo 5 - Submódulo 5.11 
Cadastro de Informações Operacionais Código Revisão Item Vigência 
Cadastro de Dados Operacionais de Equipamentos da 
Área 230 kV do Mato Grosso do Sul CD-CT.CO.2MS.01 48 2.1.6. 29/10/2024 
 
Referência:  24 / 50 
 
Dispositivo de 
Sincronismo Ajustes 
Características dos Comutadores 
Comutador sob Carga Comutador em Vazio 
Notas / Restrições: Comutador sob carga com comando manual. 
4.8. SE DOURADOS – TRANSFORMADOR TF 1 230/138/13,8 KV – 75 MVA 
Dispositivo de 
Sincronismo Ajustes 
Características dos Comutadores 
Comutador sob Carga Comutador em Vazio 
Nos lados de 
230 kV e de 138 kV  NI 
Lado de 138 kV:  O 
comutador pode variar em 
19 posições (da +9 à –9, 
tendo como nominal a 
posição 0) variando de 
+9 = 151,788 kV a –
9 = 124,212 kV, sendo que 
em cada posição o 
comutador varia a tensão 
em 1,532 kV 
 
Lado de 230 kV: O comutador 
possui cinco posições 
(A = 242 kV, B = 236 kV, 
C = 230 kV, D = 224 kV e 
E= 218 kV), estando na posição C 
Notas / Restrições: Comutador sob carga com comando manual. 
4.9. SE DOURADOS – TRANSFORMADOR TF 2 230/138/13,8 KV – 75 MVA 
Dispositivo de 
Sincronismo Ajustes 
Características dos Comutadores 
Comutador sob Carga Comutador em Vazio 
Nos lados de 
230 kV e de 138 kV  NI 
Lado de 138 kV:  O 
comutador pode variar em 
19 posições (da +9 à –9, 
tendo como nominal a 
posição 0) variando de 
+9 = 151,788 kV a –
9 = 124,212 kV, sendo que 
em cada posição o 
comutador varia a tensão 
em 1,532 kV 
Lado de 230 kV: O comutador 
possui cinco posições 
(A = 242 kV, B = 236 kV, 
C = 230 kV, D = 224 kV e 
E= 218 kV), estando na posição C 
 
Notas / Restrições: Comutador sob carga com comando manual. 
Manual de Procedimentos da Operação - Módulo 5 - Submódulo 5.11 
Cadastro de Informações Operacionais Código Revisão Item Vigência 
Cadastro de Dados Operacionais de Equipamentos da 
Área 230 kV do Mato Grosso do Sul CD-CT.CO.2MS.01 48 2.1.6. 29/10/2024 
 
Referência:  25 / 50 
 
4.10. SE DOURADOS – TRANSFORMADOR TF 3 230/138/13,8 – 75 MVA 
Dispositivo de 
Sincronismo Ajustes 
Características dos Comutadores 
Comutador sob Carga Comutador em Vazio 
Nos lados de 
230 kV e de 138 kV  NI 
Lado de 138 kV:  O 
comutador pode variar em 
19 posições (da +9 à –9, 
tendo como nominal a 
posição 0) variando de 
+9 = 151,788 kV a –
9 = 124,212 kV, sendo que 
em cada posição o 
comutador varia a tensão 
em 1,532 kV 
Lado de 230 kV: O comutador 
possui cinco posições (1 = 
242 kV, 2=236 kV, 3=230 kV, 
4=224 kV e 5=218 kV), estando 
na posição 3 
Notas / Restrições: Comutador sob carga com comando manual. 
4.11. SE DOURADOS – TRANSFORMADOR TF 4 230/138/13,8 KV – 75 MVA 
Dispositivo de 
Sincronismo Ajustes 
Características dos Comutadores 
Comutador sob Carga Comutador em Vazio 
Nos lados de 
230 kV e de 138 kV  NI 
Lado de 138 kV:  O 
comutador pode variar em 
19 posições (da +9 à –9, 
tendo como nominal a 
posição 0) variando de 
+9 = 151,788 kV a –
9 = 124,212 kV, sendo que 
em cada posição o 
comutador varia a tensão 
em 1,532 kV 
Lado de 230 kV: O comutador 
possui cinco posições (A = 
242 kV, B=236 kV, C=230 kV, 
D=224 kV e E=218 kV), estando 
na posição C 
Notas / Restrições: Comutador sob carga com comando manual. 
4.12. SE DOURADOS 2 – TRANSFORMADOR 04T1 230/138/13,8 KV – 150 MVA 
Dispositivo de 
Sincronismo Ajustes 
Características dos Comutadores 
Comutador sob Carga Comutador em Vazio 
Nos lados de 
230 kV e de 138 kV  
No lado de 230 kV: 
∆V ≤ 46 kV 
∆  ≤ 26° 
∆f ≤ 0,2 Hz 
 
No lado de 138 kV: 
∆V ≤ 27,6 kV 
∆ ≤ 26° 
∆f ≤ 0,2 Hz 
Lado de 230 kV:  O 
comutador pode variar em 
21 posições (da 1 à 21, 
tendo como nominal a 
posição 11), variando de 1 
= 253,0 kV a 21 = 207,0 kV, 
sendo que em cada posição 
o comutador varia a tensão 
em 2,3 kV 
NE 
Manual de Procedimentos da Operação - Módulo 5 - Submódulo 5.11 
Cadastro de Informações Operacionais Código Revisão Item Vigência 
Cadastro de Dados Operacionais de Equipamentos da 
Área 230 kV do Mato Grosso do Sul CD-CT.CO.2MS.01 48 2.1.6. 29/10/2024 
 
Referência:  26 / 50 
 
Dispositivo de 
Sincronismo Ajustes 
Características dos Comutadores 
Comutador sob Carga Comutador em Vazio 
Notas / Restrições: Comutador sob carga com comando manual. 
4.13. SE DOURADOS 2 – TRANSFORMADOR 04T2 230/138/13,8 KV – 150 MVA 
Dispositivo de 
Sincronismo Ajustes 
Características dos Comutadores 
Comutador sob Carga Comutador em Vazio 
Nos lados de 
230 kV e de 138 kV  
No lado de 230 kV: 
∆V ≤ 46 kV 
∆  ≤ 26° 
∆f ≤ 0,2 Hz 
 
No lado de 138 kV: 
∆V ≤ 27,6 kV 
∆ ≤ 26° 
∆f ≤ 0,2 Hz 
Lado de 230 kV:  O 
comutador pode variar em 
21 posições (da 1 à 21, 
tendo como nominal a 
posição 11), variando de 1 
= 253,0 kV a 21 = 207,0 kV, 
sendo que em cada posição 
o comutador varia a tensão 
em 2,3 kV 
NE 
Notas / Restrições: Comutador sob carga com comando manual. 
4.14. SE ILHA SOLTEIRA 2 – TRANSFORMADOR 9AT01 440/230/13,8 KV – 450 MVA 
Dispositivo de 
Sincronismo Ajustes 
Características dos Comutadores 
Comutador sob Carga Comutador em Vazio 
Nos lados de 
440 kV e de 230 kV  NI 
Lado de 230 kV:  O 
comutador pode variar em 
33 posições (da 1 à 33, 
tendo como nominal a 
posição 17), variando de 
1=253 kV a  33=207 kV, 
sendo que em cada posição 
o comutador varia a tensão 
em 1,4375 kV 
NE 
Notas / Restrições: Comutador sob carga com comando manual. 
Manual de Procedimentos da Operação - Módulo 5 - Submódulo 5.11 
Cadastro de Informações Operacionais Código Revisão Item Vigência 
Cadastro de Dados Operacionais de Equipamentos da 
Área 230 kV do Mato Grosso do Sul CD-CT.CO.2MS.01 48 2.1.6. 29/10/2024 
 
Referência:  27 / 50 
 
4.15. SE ILHA SOLTEIRA 2 – TRANSFORMADOR 9AT02 440/230/13,8 KV – 450 MVA 
Dispositivo de 
Sincronismo Ajustes 
Características dos Comutadores 
Comutador sob Carga Comutador em Vazio 
Nos lados de 
440 kV e de 230 kV  NI 
Lado de 230 kV:  O 
comutador pode variar em 
33 posições (da 1 à 33, 
tendo como nominal as 
posição 17) variando de 
1=253 kV a 33=207 kV, 
sendo que em cada posição 
o comutador varia a tensão 
em 1,4375 kV 
NE 
Notas / Restrições: Comutador sob carga com comando manual. 
4.16. SE ILHA SOLTEIRA 2 – TRANSFORMADOR 9AT03 440/230/13,8 KV – 450 MVA 
Dispositivo de 
Sincronismo Ajustes 
Características dos Comutadores 
Comutador sob Carga Comutador em Vazio 
Nos lados de 
440 kV e de 230 kV  NI 
Lado de 230 kV:  O 
comutador pode variar em 
33 posições (da 1 à 33, 
tendo como nominal as 
posição 17) variando de 
1=253 kV a 33=207 kV, 
sendo que em cada posição 
o comutador varia a tensão 
em 1,4375 kV 
NE 
Notas / Restrições: Comutador sob carga com comando manual. 
4.17. SE IMBIRUSSÚ – TRANSFORMADOR 7AT01 230/130/13,8 KV – 150 MVA 
Dispositivo de 
Sincronismo Ajustes 
Características dos Comutadores 
Comutador sob Carga Comutador em Vazio 
Nos lados de 
230 kV e de 138 kV  
No lado de 230 kV: 
∆V ≤ 46 kV 
∆  ≤ 40° 
∆f ≤ 0,2 Hz 
 
No lado de 138 kV: 
∆V ≤ 27,6 kV 
∆ ≤ 40° 
∆f ≤ 0,2 Hz 
Lado de 138 kV:  O 
comutador pode variar em 
19 posições (da 1 à 19, 
tendo como nominal a 
posição 10), variando de 
1=151,788 kV a 
19=124,212 kV, sendo que 
em cada posição o 
comutador varia a tensão 
em 1,532 kV 
Lado de 230 kV: O comutador 
possui cinco posições (1 = 
241,5 kV, 2=235,7 kV, 3=230 kV, 
4=224,25 kV e 5=218,5 kV), 
estando na posição 03 
Notas / Restrições: Comutador sob carga com comando manual. 
Manual de Procedimentos da Operação - Módulo 5 - Submódulo 5.11 
Cadastro de Informações Operacionais Código Revisão Item Vigência 
Cadastro de Dados Operacionais de Equipamentos da 
Área 230 kV do Mato Grosso do Sul CD-CT.CO.2MS.01 48 2.1.6. 29/10/2024 
 
Referência:  28 / 50 
 
4.18. SE IMBIRUSSÚ – TRANSFORMADOR 7AT02 230/130/13,8 KV – 150 MVA 
Dispositivo de 
Sincronismo Ajustes 
Características dos Comutadores 
Comutador sob Carga Comutador em Vazio 
Nos lados de 
230 kV e de 138 kV  
No lado de 230 kV: 
∆V ≤ 46 kV 
∆  ≤ 40° 
∆f ≤ 0,2 Hz 
 
No lado de 138 kV: 
∆V ≤ 27,6 kV 
∆ ≤ 40° 
∆f ≤ 0,2 Hz 
Lado de 138 kV:  O 
comutador pode variar em 
19 posições (da 1 à 19, 
tendo como nominal a 
posição 10), variando de 
1=151,788 kV a 
19=124,212 kV, sendo que 
em cada posição o 
comutador varia a tensão 
em 1,532 kV 
Lado de 230 kV: O comutador 
possui cinco posições (1 = 
241,5 kV, 2=235,7 kV, 3=230 kV, 
4=224,25 kV e 5=218,5 kV), 
estando na posição 03 
Notas / Restrições: Comutador sob carga com comando manual. 
4.19. SE IMBIRUSSÚ – TRANSFORMADOR 7AT03 230/130/13,8 KV – 150 MVA 
Dispositivo de 
Sincronismo Ajustes 
Características dos Comutadores 
Comutador sob Carga Comutador em Vazio 
Nos lados de 
230 kV e de 138 kV  
No lado de 230 kV: 
∆V ≤ 46 kV 
∆  ≤ 40° 
∆f ≤ 0,2 Hz 
 
No lado de 138 kV: 
∆V ≤ 27,6 kV 
∆ ≤ 40° 
∆f ≤ 0,2 Hz 
Lado de 138 kV:  O 
comutador pode variar em 
19 posições (da 1 à 19, 
tendo como nominal a 
posição 10), variando de 
1=151,788 kV a 
19=124,212 kV, sendo que 
em cada posição o 
comutador varia a tensão 
em 1,532 kV 
Lado de 230 kV: O comutador 
possui cinco posições (1 = 
241,5 kV, 2=235,7 kV, 3=230 kV, 
4=224,25 kV e 5=218,5 kV), 
estando na posição 03 
Notas / Restrições: Comutador sob carga com comando manual. 
4.20. SE IVINHEMA 2 – TRANSFORMADOR 7AT01 230/138/13,8 KV – 150 MVA 
Dispositivo de 
Sincronismo Ajustes 
Características dos Comutadores 
Comutador sob Carga Comutador em Vazio 
Nos lados de 
230 kV e de 138 kV  
No lado de 230 kV: 
∆V ≤ 46 kV 
∆  ≤ 30° 
∆f ≤ 0,2 Hz 
 
No lado de 138 kV: 
∆V ≤ 27,6 kV 
∆ ≤ 30° 
∆f ≤ 0,2 Hz 
Lado de 230 kV:  O 
comutador pode variar em 
21 posições (da 1 à 21, 
tendo como nominal a 
posição 11), variando de 1 
= 253  kV a 21 = 207  kV, 
sendo que em cada posição 
o comutador varia a tensão 
em 2,3 kV 
NE 
Manual de Procedimentos da Operação - Módulo 5 - Submódulo 5.11 
Cadastro de Informações Operacionais Código Revisão Item Vigência 
Cadastro de Dados Operacionais de Equipamentos da 
Área 230 kV do Mato Grosso do Sul CD-CT.CO.2MS.01 48 2.1.6. 29/10/2024 
 
Referência:  29 / 50 
 
Dispositivo de 
Sincronismo Ajustes 
Características dos Comutadores 
Comutador sob Carga Comutador em Vazio 
Notas / Restrições: Comutador sob carga com comando manual. 
4.21. SE IVINHEMA 2 – TRANSFORMADOR 7AT02 230/138/13,8 KV – 150 MVA 
Dispositivo de 
Sincronismo Ajustes 
Características dos Comutadores 
Comutador sob Carga Comutador em Vazio 
Nos lados de 
230 kV e de 138 kV  
No lado de 230 kV: 
∆V ≤ 46 kV 
∆  ≤ 30° 
∆f ≤ 0,2 Hz 
 
No lado de 138 kV: 
∆V ≤ 27,6 kV 
∆ ≤ 30° 
∆f ≤ 0,2 Hz 
Lado de 230 kV:  O 
comutador pode variar em 
21 posições (da 1 à 21, 
tendo como nominal a 
posição 11), variando de 1 
= 253  kV a 21 = 207  kV, 
sendo que em cada posição 
o comutador varia a tensão 
em 2,3 kV 
NE 
Notas / Restrições: Comutador sob carga com comando manual. 
4.22. SE NOVA PORTO PRIMAVERA – TRANSFORMADOR 9AT01 440/230/13,8 KV – 450 MVA 
Dispositivo de 
Sincronismo Ajustes 
Características dos Comutadores 
Comutador sob Carga Comutador em Vazio 
Nos lados de 
440 kV e de 230 kV  
No lado de 440 kV: 
∆V ≤ 88 kV 
∆  ≤ 10° 
∆f ≤ 0,2 Hz 
 
No lado de 230 kV: 
∆V ≤ 46 kV 
∆ ≤ 10° 
∆f ≤ 0,2 Hz 
Lado de 230 kV:  O 
comutador pode variar em 
33 posições (da 1 à 33, 
tendo como nominal a 
posição 17), variando de 
1=253 kV a 33=207 kV, 
sendo que em cada posição 
o comutador varia a tensão 
em 1,4375 kV 
Lado de 440 kV: O comutador 
possui cinco posições (1 = 
462 kV, 2=451 kV, 3=440 kV, 
4=429 kV e 5=418 kV), estando 
na posição 03 
Notas / Restrições: Comutador sob carga com comando manual. 
Manual de Procedimentos da Operação - Módulo 5 - Submódulo 5.11 
Cadastro de Informações Operacionais Código Revisão Item Vigência 
Cadastro de Dados Operacionais de Equipamentos da 
Área 230 kV do Mato Grosso do Sul CD-CT.CO.2MS.01 48 2.1.6. 29/10/2024 
 
Referência:  30 / 50 
 
4.23. SE NOVA PORTO PRIMAVERA – TRANSFORMADOR 9AT02 440/230/13,8 KV – 450 MVA 
Dispositivo de 
Sincronismo Ajustes 
Características dos Comutadores 
Comutador sob Carga Comutador em Vazio 
Nos lados de 
440 kV e de 230 kV  
No lado de 440 kV: 
∆V ≤ 88 kV 
∆  ≤ 10° 
∆f ≤ 0,2 Hz 
 
No lado de 230 kV: 
∆V ≤ 46 kV 
∆ ≤ 10° 
∆f ≤ 0,2 Hz 
Lado de 230 kV:  O 
comutador pode variar em 
33 posições (da 1 à 33, 
tendo como nominal a 
posição 17), variando de 
1=253 kV a 33=207 kV, 
sendo que em cada posição 
o comutador varia a tensão 
em 1,4375 kV 
Lado de 440 kV: O comutador 
possui cinco posições (1 = 
462 kV, 2=451 kV, 3=440 kV, 
4=429 kV e 5=418 kV), estando 
na posição 03 
Notas / Restrições: Comutador sob carga com comando manual. 
4.24. SE NOVA PORTO PRIMAVERA – TRANSFORMADOR 9AT03 440/230/13,8 KV – 450 MVA 
Dispositivo de 
Sincronismo Ajustes 
Características dos Comutadores 
Comutador sob Carga Comutador em Vazio 
Nos lados de 
440 kV e de 230 kV  
No lado de 440 kV: 
∆V ≤ 88 kV 
∆  ≤ 10° 
∆f ≤ 0,2 Hz 
 
No lado de 230 kV: 
∆V ≤ 46 kV 
∆ ≤ 10° 
∆f ≤ 0,2 Hz 
Lado de 230 kV:  O 
comutador pode variar em 
33 posições (da 1 à 33, 
tendo como nominal a 
posição 17), variando de 
1=253 kV a 33=207 kV, 
sendo que em cada posição 
o comutador varia a tensão 
em 1,4375 kV 
Lado de 440 kV: O comutador 
possui cinco posições (1 = 
462 kV, 2=451 kV, 3=440 kV, 
4=429 kV e 5=418 kV), estando 
na posição 03 
Notas / Restrições: Comutador sob carga com comando manual. 
4.25. SE PARAÍSO 2 – TRANSFORMADOR 04T1 230/138/13,8 KV – 150 MVA 
Dispositivo de 
Sincronismo Ajustes 
Características dos Comutadores 
Comutador sob Carga Comutador em Vazio 
No lado de 230 kV 
No lado de 230 kV: 
∆V ≤ 46 kV 
∆  ≤ 20° 
∆f ≤ 0,2 Hz 
Lado de 230 kV:  O 
comutador pode variar em 
21 posições (da 1 à 21, 
tendo como nominal a 
posição 11), variando de 1 
= 253,0 kV a 21 = 207,0 kV, 
sendo que em cada posição 
o comutador varia a tensão 
em 2,3 kV 
NE 
Notas / Restrições: Comutador sob carga com comando manual. 
Manual de Procedimentos da Operação - Módulo 5 - Submódulo 5.11 
Cadastro de Informações Operacionais Código Revisão Item Vigência 
Cadastro de Dados Operacionais de Equipamentos da 
Área 230 kV do Mato Grosso do Sul CD-CT.CO.2MS.01 48 2.1.6. 29/10/2024 
 
Referência:  31 / 50 
 
4.26. SE PARAÍSO 2 – TRANSFORMADOR 04T2 230/138/13,8 KV – 150 MVA 
Dispositivo de 
Sincronismo Ajustes 
Características dos Comutadores 
Comutador sob Carga Comutador em Vazio 
No lado de 230 kV 
No lado de 230 kV: 
∆V ≤ 46 kV 
∆  ≤ 20° 
∆f ≤ 0,2 Hz 
Lado de 230 kV:  O 
comutador pode variar em 
21 posições (da 1 à 21, 
tendo como nominal a 
posição 11), variando de 1 
= 253,0 kV a 21 = 207,0 kV, 
sendo que em cada posição 
o comutador varia a tensão 
em 2,3 kV 
NE 
Notas / Restrições: Comutador sob carga com comando manual. 
4.27. SE SIDROLÂNDIA 2 – TRANSFORMADOR 7AT01 230/138/13,8 KV – 100 MVA 
Dispositivo de 
Sincronismo Ajustes 
Características dos Comutadores 
Comutador sob Carga Comutador em Vazio 
Nos lados de 
230 kV e de 138 kV  NI 
Lado de 230 kV:  O 
comutador pode variar em 
21 posições (da 1 à 21, 
tendo como nominal a 
posição 11), variando de 1 
= 207 kV a 21 = 253 kV, 
sendo que em cada posição 
o comutador varia a tensão 
em 2,3 kV 
NE 
Notas / Restrições: Comutador sob carga com comando automático. 
4.28. SE SIDROLÂNDIA 2 – TRANSFORMADOR 7AT02 230/138/13,8 KV – 100 MVA 
Dispositivo de 
Sincronismo Ajustes 
Características dos Comutadores 
Comutador sob Carga Comutador em Vazio 
Nos lados de 
230 kV e de 138 kV  NI 
Lado de 230 kV:  O 
comutador pode variar em 
21 posições (da 1 à 21, 
tendo como nominal a 
posição 11), variando de 1 
= 207 kV a 21 = 253 kV, 
sendo que em cada posição 
o comutador varia a tensão 
em 2,3 kV 
NE 
Notas / Restrições: Comutador sob carga com comando automático. 
Manual de Procedimentos da Operação - Módulo 5 - Submódulo 5.11 
Cadastro de Informações Operacionais Código Revisão Item Vigência 
Cadastro de Dados Operacionais de Equipamentos da Área 230 kV do Mato Grosso do Sul CD-CT.CO.2MS.01 48 2.1.6. 29/10/2024 
 
Referência:  32 / 50 
 
5. DADOS OPERACIONAIS DE UNIDADES GERADORAS HIDRÁULICAS 
Orientações sobre os dados operacionais de unidades geradoras de usinas hidrelétricas:  
Código Único de Empreendimentos em Geração – CEG: está apresentado ao lado do nome da usina. O CEG permanece associado ao empreendimento, 
independentemente de alteração de atributos ou de proprietários da usina. O número CEG é obtido no site da ANEEL. 
Campo “Unidade Geradora”: identifica cada unidade geradora conforme diagrama unifilar do agente. 
Campo “Faixa de Tensão (kV)”: 
• Campo “Nom.”: indica a tensão nominal da unidade geradora, em kV. 
• Campo “Mín.”: indica a tensão mínima da unidade geradora, em kV. 
• Campo “Máx.”: indica a tensão máxima da unidade geradora, em kV. 
Campo “Potência Aparente (MVA)”: 
• Campo “Nom.”: indica a potência aparente nominal da unidade geradora, em MVA. 
• Campo “FP”: indica o fator de potência nominal da unidade geradora. 
Campo “Potência Reativa (Mvar)”: 
• Campo “Mín.”: indica a potência reativa mínima da unidade geradora, em Mvar, podendo ser referenciada a curva de capabilidade da unidade geradora. 
• Campo “Máx.”: indica a potência reativa máxima da unidade geradora, em Mvar, podendo ser referenciada a curva de capabilidade da unidade  
geradora. 
Campo “Faixa de Operação (MW)”: 
• Campo “Permitida”: indica a faixa de potência ativa permitida da unidade geradora, em MW, associada a um determinado nível do reservatório, 
caso necessário. 
• Campo “Proibida”: indica a faixa de potência ativa máxima da unidade geradora, em MW, associada a um determinado nível do reservatório, caso  
necessário. 
Campo “Dispositivos de Sincronismo”: indica o disjuntor onde é efetuado o sincronismo da unidade geradora. 
Manual de Procedimentos da Operação - Módulo 5 - Submódulo 5.11 
Cadastro de Informações Operacionais Código Revisão Item Vigência 
Cadastro de Dados Operacionais de Equipamentos da Área 230 kV do Mato Grosso do Sul CD-CT.CO.2MS.01 48 2.1.6. 29/10/2024 
 
Referência:  33 / 50 
 
Campo “Operação como Compensador Síncrono”:  
• Campo “Unidade Geradora”: indica a identificação de cada unidade geradora conforme diagrama unifilar do agente. 
• Campo “Conversão / Reversão  (min)”: indica o tempo necessário para realizar a conversão de gerador para síncrono e síncrono para gerador, em 
minutos. 
Campo “Notas / Restrições”: campo opcional que indica informações relevantes a respeito da usina. 
Caso os dados operacionais não sejam informados pelo Agente, os campos são preenchidos com “NI” – não informado. 
Caso os dados operacionais não se apliquem, os campos são preenchidos com hifens “---”. 
5.1. USINA HIDRELÉTRICA SÃO DOMINGOS (CEG UHE.PH.MS.028.761-0.01)  
5.1.1. DADOS DAS UNIDADES GERADORAS DA UHE SÃO DOMINGOS 
Unidade 
Geradora 
Tensão (kV) 
Potência 
Aparente 
(MVA) 
Potência Reativa 
(Mvar) Faixa de Operação (MW) Dispositivo 
de  
Sincronismo 
Operação como Compensador 
Síncrono 
Nom. Mín. Máx. Nom. FP Mín. Máx. Permitida Proibida Obs. Unidade 
Geradora 
Conversão / 
Reversão (min) (*) 
G1 e G2 13,8 13,11 14,49 26,67 0,9 
Conforme 
curva de 
capabili-
dade 
Confor-
me curva 
de 
capabili-
dade 
9,6 a 24,0 0 a 9,5 --- 
G1: no lado 
de 138 kV 
 
G2: no lado 
de 138 kV 
--- --- 
Notas / Restrições: As unidades geradoras G1 e G2 da UHE São Domingos possuem turbina tipo Kaplan, operando com queda líquida mínima de 28,06 m e máxima 
de 35,15 m e com velocidade nominal de 257,10 rpm. 
 
 
Manual de Procedimentos da Operação - Módulo 5 - Submódulo 5.11 
Cadastro de Informações Operacionais Código Revisão Item Vigência 
Cadastro de Dados Operacionais de Equipamentos da Área 230 kV do Mato Grosso do Sul CD-CT.CO.2MS.01 48 2.1.6. 29/10/2024 
 
Referência:  34 / 50 
 
 
5.1.2. CURVA DE CAPABILIDADE DAS UNIDADES GERADORAS DA UHE SÃO DOMINGOS 
 
 

Manual de Procedimentos da Operação - Módulo 5 - Submódulo 5.11 
Cadastro de Informações Operacionais Código Revisão Item Vigência 
Cadastro de Dados Operacionais de Equipamentos da Área 230 kV do Mato Grosso do Sul CD-CT.CO.2MS.01 48 2.1.6. 29/10/2024 
 
Referência:  35 / 50 
 
6. DADOS OPERACIONAIS DE UNIDADES GERADORAS TÉRMICAS  
Orientações sobre os dados operacionais de unidades geradoras de usinas termelétricas: 
Código Único de Empreendimentos em Geração – CEG: está apresentado ao lado do nome da usina. O CEG permanece associado ao empreendimento, 
independentemente de alteração de atributos ou de proprietários da usina. O número CEG é obtido no site da ANEEL. 
Campo “Unidade Geradora”: indica a identificação de cada unidade geradora conforme diagrama unifilar do agente. 
Campo “Faixa de Tensão (kV)”: 
• Campo “Nom.”: indica a tensão nominal da unidade geradora, em kV. 
• Campo “Mín.”: indica a tensão mínima da unidade geradora, em kV. 
• Campo “Máx.”: indica a tensão máxima da unidade geradora, em kV. 
Campo “Potência Aparente (MVA)”: 
• Campo “Nom.”: indica a potência aparente nominal da unidade geradora, em MVA. 
• Campo “FP”: indica o fator de potência nominal da unidade geradora. 
Campo “Potência Reativa (Mvar)”: 
• Campo “Mín.”: indica a potência reativa mínima da unidade geradora, em Mvar, podendo ser referenciada a curva de capabilidade da unidade geradora. 
• Campo “Máx.”: indica a potência reativa máxima da unidade geradora, em Mvar, podendo ser referenciada a curva de capabilidade da unidade  
geradora. 
Campo “Faixa de Operação (MW)”:  
• Campo “Permitida”: indica a faixa de potência ativa permitida da unidade geradora, em MW. 
• Campo “Proibida”: indica a faixa de potência ativa máxima da unidade geradora, em MW. 
Campo “Acionamento”: indica o tipo de acionamento como: Motor (MOT), Turbina a Gás (TG), Turbina a Gás Heavy -Duty (TGHD), Turbina a Vapor (TV) ou 
cogeração (COG). 
Campo “Operação”: indica o tipo de operação como: Ciclo Aberto (ABT) ou Ciclo Combinado (CBN). 
Campo “Combustível Principal”: indica o tipo de combustível principal. 
Manual de Procedimentos da Operação - Módulo 5 - Submódulo 5.11 
Cadastro de Informações Operacionais Código Revisão Item Vigência 
Cadastro de Dados Operacionais de Equipamentos da Área 230 kV do Mato Grosso do Sul CD-CT.CO.2MS.01 48 2.1.6. 29/10/2024 
 
Referência:  36 / 50 
 
Campo “Combustível Secundário”: indica o tipo de combustível secundário, caso exista. 
Campo “Dispositivos de Sincronismo” indica o disjuntor onde é efetuado o sincronismo da unidade geradora. 
Caso os dados operacionais não sejam informados pelo Agente, os campos são preenchidos com “NI” – não informado. 
Caso os dados operacionais não se apliquem, os campos são preenchidos com hifens “---”. 
Campo “Configuração / Quantidade de UGs”: indica cada configuração operacional possível para a usina. Para cada configuração operacional informada, são 
fornecidas as informações referentes às demais colunas da tabela. 
Campo “Potência (MW)”:  
• Campo “Mín.”: indica a potência mínima da unidade geradora, em MW, utilizado no DESSEM. 
• Campo “Máx.”: indicar a potência máxima da unidade geradora, em MW, utilizado no DESSEM. 
Campo “Tempo mínimo (horas)”: 
• Campo “ Ton”:  tempo mínimo, utilizado no DESSEM, que a usina deve permanecer em operação, inclui o tempo para atingir potência mínima 
(considerando partida fria) e tempo para desligamento a partir da potência mínima. 
• Campo “Toff”: tempo mínimo, utilizado no DESSEM, que a usina tem que permanecer desligada. 
Campo “Tempos (minutos)” 
• Campo “Sincronismo” – indica o tempo necessário entre a partida da configuração / quantidade de unidades geradoras em condições fria, morna e 
quente, até o sincronismo com o SIN. 
• Campo “Potência Mínima” – indica o tempo necessário entre o sincronismo da configuração / quantidade de unidades geradoras em condições fria, 
morna e quente, até alcançar sua potência mínima. 
• Campo “Potência Máxima” – indica o tempo necessário entre o sincronismo das configurações / quantidade de unidades geradoras em condições fria, 
morna e quente, até alcançar sua potência máxima. 
• Campo “Desligamento” – indica o tempo necessário para o desligamento da unidade geradora a partir da potência mínima e máxima. 
Caso os dados operacionais não sejam informados pelo Agente, os campos são preenchidos com “NI” – não informado. 
Caso os dados operacionais não se apliquem, os campos são preenchidos com hifens “---”. 
Manual de Procedimentos da Operação - Módulo 5 - Submódulo 5.11 
Cadastro de Informações Operacionais Código Revisão Item Vigência 
Cadastro de Dados Operacionais de Equipamentos da Área 230 kV do Mato Grosso do Sul CD-CT.CO.2MS.01 48 2.1.6. 29/10/2024 
 
Referência:  37 / 50 
 
6.1. USINA TERMELÉTRICA WILLIAM ARJONA (CEG UTE.GN.MS.027.075-0.01) 
6.1.1. DADOS PRINCIPAIS DAS UNIDADES GERADORAS DA UTE WILLIAM ARJONA 
Unidade Geradora 
Tensão (kV) Potência (MVA) Potência Reativa 
(Mvar) Faixa  de Operação (MW) 
Nom. Mín. Máx. Nom. FP Mín. Máx. Permitida Proibida Obs. 
GT1  13,8 13,1 14,5 63,25 0,8 - 10 + 15 30 a 39,16 0 a 29 --- 
GT2 13,8 13,1 14,5 61,25 0,8 - 10 + 15 30 a 39,16 0 a 29 --- 
GT3 13,8 13,1 14,5 46,25 0,8 - 10 + 15 25 a 33 0 a 24 --- 
GT4 13,8 13,1 14,5 46,25 0,8 - 10 + 15 25 a 33,1 0 a 24 --- 
GT5 13,2 12,5 13,9 40,93 0,8 - 10 + 15 28 a 32,696 0 a 27 --- 
Um transformador elevador 13,8/138 kV – 50 MVA para cada unidade geradora. 
 
Unidade Geradora Acionamento Operação Combustível 
Principal 
Combustível 
Secundário Dispositivos de Sincronização 
GT1 TGHD ABT Gás Natural Óleo Diesel DJ 112 de 13,8 kV 
GT2 TGHD ABT Gás Natural Óleo Diesel DJ 122 de 13,8 kV 
GT3 TGHD ABT Gás Natural Óleo Diesel DJ 132 de 13,8 kV 
GT4 TGHD ABT Gás Natural Óleo Diesel DJ 142 de 13,8 kV 
GT5 TGHD ABT Gás Natural Óleo Diesel DJ 152 de 13,8 kV 
Manual de Procedimentos da Operação - Módulo 5 - Submódulo 5.11 
Cadastro de Informações Operacionais Código Revisão Item Vigência 
Cadastro de Dados Operacionais de Equipamentos da Área 230 kV do Mato Grosso do Sul CD-CT.CO.2MS.01 48 2.1.6. 29/10/2024 
 
Referência:  38 / 50 
 
6.1.2. DADOS RELACIONADOS A CONFIGURAÇÕES DE OPERAÇÃO – COMBUSTÍVEL PRINCIPAL – UTE WILLIAM ARJONA 
Configuração /  
Quantidade de UGs  
Potência (MW) Tempo Mínimo 
(horas) Tempos (minutos) 
Mín Máx Ton Toff 
Sincronismo  Potência Mínima  Potência Máxima  Desligamento 
Fria 
Morna 
Quente 
Fria 
Morna 
Quente 
Fria 
Morna 
Quente 
Potência 
Mín. 
Potência 
Máx. 
1 / 1 (GT1) 30 39 136 24 90 30 15 95 35 20 100 40 25 5 15 
2 / 2 (GT1, GT2) 60 77 136 24 105 45 30 110 50 35 115 55 40 5 15 
3 / 3 (GT1, GT2, GT5) 88 110 136 24 130 70 60 135 75 65 145 85 75 5 15 
4 / 4 (GT1, GT2, GT5, GT3) 113 142 136 24 160 100 90 167 107 97 182 122 112 5 15 
5 / 5 (GT1, GT2, GT5, GT3, GT4) 138 175 136 24 195 135 130 202 142 137 217 157 152 5 15 
Tempo entre solicitação de geração pelo ONS e início do processo de sincronização (minutos): 1440 
Tempo decorrido após o desligamento da unidade geradora, considerado pelo agente como critério adotado para definir a condição de (minutos):  
Partida fria: 720 Partida morna: 360 Partida quente: 120 
Restrições para operação isolada de turbina a gás (ciclo aberto) em usinas de ciclo combinado: --- 
Restrições relacionadas ao processo de cogeração: --- 
Restrições quanto à quantidade de partidas por ano: --- 
Outros tipos de restrições: permanência mínima de 3 horas em cada faixa de operação 
Manual de Procedimentos da Operação - Módulo 5 - Submódulo 5.11 
Cadastro de Informações Operacionais Código Revisão Item Vigência 
Cadastro de Dados Operacionais de Equipamentos da Área 230 kV do Mato Grosso do Sul CD-CT.CO.2MS.01 48 2.1.6. 29/10/2024 
 
Referência:  39 / 50 
 
6.1.3. DADOS RELACIONADOS A CONFIGURAÇÕES DE OPERAÇÃO – COMBUSTÍVEL SECUNDÁRIO – UTE WILLIAM ARJONA 
Configuração /  
Quantidade de UGs 
Potência (MW) Tempo Mínimo 
(horas) Tempos (minutos) 
Mín. Máx. Ton Toff 
Sincronismo  Potência Mínima  Potência Máxima  Desligamento 
Fria 
Morna 
Quente 
Fria 
Morna 
Quente 
Fria 
Morna 
Quente 
Potência 
Mín. 
Potência 
Máx. 
1 / 1 (GT1) 30 39 136 24 130 40 30 135 45 35 140 50 40 5 15 
2 / 2 (GT1, GT2) 60 77 136 24 150 60 55 155 65 60 160 70 65 5 15 
3 / 3 (GT1, GT2, GT5) 88 110 136 24 180 90 85 185 95 90 195 105 100 5 15 
4 / 4 (GT1, GT2, GT5, GT3) 113 142 136 24 220 130 125 230 140 135 245 155 150 5 15 
5 / 5 (GT1, GT2, GT5, GT3, GT4) 138 175 136 24 265 175 170 275 185 180 290 200 195 5 15 
Tempo entre solicitação de geração pelo ONS e início do processo de sincronização (minutos): 1440 
Tempo decorrido após o desligamento da unidade, considerado pelo agente como critério adotado para definir a condição de (minutos):  
Partida fria: 720 Partida morna: 360 Partida quente: 120 
Restrições para operação isolada de turbina a gás (ciclo aberto) em usinas de ciclo combinado: --- 
Restrições relacionadas ao processo de cogeração: --- 
Restrições quanto à quantidade de partidas por ano: --- 
Outros tipos de restrições: permanência mínima de 3 horas em cada faixa de operação 
Manual de Procedimentos da Operação - Módulo 5 - Submódulo 5.11 
Cadastro de Informações Operacionais Código Revisão Item Vigência 
Cadastro de Dados Operacionais de Equipamentos da Área 230 kV do Mato Grosso do Sul CD-CT.CO.2MS.01 48 2.1.6. 29/10/2024 
 
Referência:  40 / 50 
 
6.1.4. CURVAS DE CAPABILIDADE DAS UNIDADES GERADORAS DA UTE WILLIAM ARJONA 
6.1.4.1. UNIDADE GERADORA GT 1 E GT 2 
 
 

Manual de Procedimentos da Operação - Módulo 5 - Submódulo 5.11 
Cadastro de Informações Operacionais Código Revisão Item Vigência 
Cadastro de Dados Operacionais de Equipamentos da Área 230 kV do Mato Grosso do Sul CD-CT.CO.2MS.01 48 2.1.6. 29/10/2024 
 
Referência:  41 / 50 
 
6.1.4.2. UNIDADE GERADORA GT3 
6.1.4.2.1. BÁSICA: 
 

Manual de Procedimentos da Operação - Módulo 5 - Submódulo 5.11 
Cadastro de Informações Operacionais Código Revisão Item Vigência 
Cadastro de Dados Operacionais de Equipamentos da Área 230 kV do Mato Grosso do Sul CD-CT.CO.2MS.01 48 2.1.6. 29/10/2024 
 
Referência:  42 / 50 
 
6.1.4.2.2. DE PICO: 
 
 
 

Manual de Procedimentos da Operação - Módulo 5 - Submódulo 5.11 
Cadastro de Informações Operacionais Código Revisão Item Vigência 
Cadastro de Dados Operacionais de Equipamentos da Área 230 kV do Mato Grosso do Sul CD-CT.CO.2MS.01 48 2.1.6. 29/10/2024 
 
Referência:  43 / 50 
 
6.1.4.3. UNIDADE GERADORA GT4 
6.1.4.3.1. BÁSICA: 
 

Manual de Procedimentos da Operação - Módulo 5 - Submódulo 5.11 
Cadastro de Informações Operacionais Código Revisão Item Vigência 
Cadastro de Dados Operacionais de Equipamentos da Área 230 kV do Mato Grosso do Sul CD-CT.CO.2MS.01 48 2.1.6. 29/10/2024 
 
Referência:  44 / 50 
 
6.1.4.3.2. DE PICO: 
 
 
 

Manual de Procedimentos da Operação - Módulo 5 - Submódulo 5.11 
Cadastro de Informações Operacionais Código Revisão Item Vigência 
Cadastro de Dados Operacionais de Equipamentos da Área 230 kV do Mato Grosso do Sul CD-CT.CO.2MS.01 48 2.1.6. 29/10/2024 
 
Referência:  45 / 50 
 
 
6.1.4.4. UNIDADE GERADORA GT5 
6.1.4.4.1. VT = 12,5 KV: 
 

Manual de Procedimentos da Operação - Módulo 5 - Submódulo 5.11 
Cadastro de Informações Operacionais Código Revisão Item Vigência 
Cadastro de Dados Operacionais de Equipamentos da Área 230 kV do Mato Grosso do Sul CD-CT.CO.2MS.01 48 2.1.6. 29/10/2024 
 
Referência:  46 / 50 
 
6.1.4.4.2. VT = 13,2 KV: 
 

Manual de Procedimentos da Operação - Módulo 5 - Submódulo 5.11 
Cadastro de Informações Operacionais Código Revisão Item Vigência 
Cadastro de Dados Operacionais de Equipamentos da Área 230 kV do Mato Grosso do Sul CD-CT.CO.2MS.01 48 2.1.6. 29/10/2024 
 
Referência:  47 / 50 
 
6.1.4.4.3. VT = 13,9 KV: 
 

Manual de Procedimentos da Operação - Módulo 5 - Submódulo 5.11 
Cadastro de Informações Operacionais Código Revisão Item Vigência 
Cadastro de Dados Operacionais de Equipamentos da 
Área 230 kV do Mato Grosso do Sul CD-CT.CO.2MS.01 48 2.1.6. 29/10/2024 
 
Referência:  48 / 50 
 
7. DADOS OPERACIONAIS DE COMPENSADORES 
7.1. DADOS DE COMPENSADORES ESTÁTICOS 
Orientações sobre os dados operacionais de compensadores: 
• Campo “Instalação”: identifica a subestação onde o compensador está instalado. 
• Campo “ Identificação Operacional ”: consta o código identificador do compensador, conforme 
diagrama unifilar do agente. 
• Campo “ Potência Nominal (Mvar) ”:  indica a potência reativa mínima e máxima, em Mvar, do 
compensador, podendo ser referenciada a sua curva de capabilidade. 
• Campo “Barramento para Controle de Tensão”: indica o barramento de referência de tensão para o 
compensador. 
• Campo “Tempo de Resfriamento”: indica o tempo de resfriamento do compensador, em minutos. 
• Campo “Tempo para energização após desligamento ”: é o tempo entre abertura dos disjuntores 
desconectando esse equipamento do sistema e o fechamento dos disjuntores reconectando o 
equipamento no sistema. 
• Campo “ Notas / Restrições ”: campo opcional que indica informações relevantes a respeito do 
compensador. 
Caso os dados operacionais não sejam informados pelo Agente, os campos são preenchidos com “NI” – não 
informado. 
Caso os dados operacionais não se apliquem, os campos são preenchidos com hifens “---”. 
7.1.1. DADOS DE COMPENSADOR ESTÁTICO – SE ANASTÁCIO 
Instalação Identificação 
Operacional 
Potência 
Nominal 
(Mvar) 
Barramento 
para Controle 
de Tensão 
Tempo de 
Resfriamento 
(min) 
Tempo para 
Energização após 
Desligamento (min) 
SE Anastácio CE01AN – 50 / + 50 230 kV NI 10 
 
Modos de Operação em Função de Disponibilidade dos Elementos  
Modo TCR (71 Mvar) TSC (41 Mvar) 
Filtro de 3º 
Harmônico 
(5 Mvar) 
Filtro de 5º 
Harmônico 
(10 Mvar) 
Faixa de Operação 
(Mvar) 
1 – Normal Ligado Ligado Ligado Ligado – 50 / + 50 
2 – Degradado Ligado Desligado Ligado Ligado – 50 / + 15 
Manual de Procedimentos da Operação - Módulo 5 - Submódulo 5.11 
Cadastro de Informações Operacionais Código Revisão Item Vigência 
Cadastro de Dados Operacionais de Equipamentos da 
Área 230 kV do Mato Grosso do Sul CD-CT.CO.2MS.01 48 2.1.6. 29/10/2024 
 
Referência:  49 / 50 
 
7.1.2. DADOS DE COMPENSADOR ESTÁTICO – SE IMBIRUSSÚ 
Instalação Identificação 
Operacional 
Potência 
Nominal 
(Mvar) 
Barramento 
para Controle 
de Tensão 
Tempo de 
Resfriamento 
(min) 
Tempo para 
Energização após 
Desligamento (min) 
SE Imbirussú CE01IB –  100 / + 100 230 kV NI 10 
 
Modos de Operação em Função de Disponibilidade dos Elementos  
Modo TCR TSC Filtro de 3º 
Harmônico 
Filtro de 5º 
Harmônico 
Faixa de Operação 
(Mvar) 
1 – Normal Ligado Ligado Ligado Ligado – 100 / + 100 
2 – Degradado Ligado Desligado Ligado Ligado – 100 / + 30 
3 – Degradado Ligado Ligado Desligado Ligado – 53 / + 100 
4 – Degradado Ligado Ligado Ligado Desligado – 80 / + 70 
 
 
 
Manual de Procedimentos da Operação - Módulo 5 - Submódulo 5.11 
Cadastro de Informações Operacionais Código Revisão Item Vigência 
Cadastro de Dados Operacionais de Equipamentos da 
Área 230 kV do Mato Grosso do Sul CD-CT.CO.2MS.01 48 2.1.6. 29/10/2024 
 
Referência:  50 / 50 
 
8. DADOS OPERACIONAIS DE BANCOS DE CAPACITORES 
Orientações sobre os dados operacionais de bancos de capacitores: 
• Campo “Identificação Operacional ”: identificação do s bancos de capacitores, conforme diagrama 
unifilar do agente. 
• Campo “Tensão Nominal (kV)”:  indica a tensão nominal dos bancos de capacitores. 
• Campo “Potência Nominal (Mvar)”:  indica a potência nominal dos bancos de capacitores. 
• Campo “Tempo para energização após desligamento ”: é o tempo entre abertura dos disjuntores 
desconectando esse equipamento do sistema e o fechamento dos disjuntores reconectando o 
equipamento no sistema. 
• Campo “ Notas / Restrições ”: campo opcional que indica informações relevantes a respeito do s 
bancos de capacitores. 
Caso os dados operacionais não sejam informados pelo Agente, os campos são preenchidos com “NI” – não 
informado. 
Caso os dados operacionais não se apliquem, os campos são preenchidos com hifens “---”. 
8.1. SE DOURADOS – BANCOS DE CAPACITORES BC 1 E BC 2 230 KV / 50 MVAR 
Identificação 
Operacional 
Tensão Nominal  
(kV) 
Potência Nominal 
(Mvar) 
Tempo para 
Energização após 
Desligamento 
BC 1 230 50 13 minutos 
BC 2 230 50 13 minutos 
Adicionalmente, a energização do segundo banco de capacitores somente pode ser realizada 5 segundos após 
a energização do primeiro banco de capacitores (de modo a possibilitar o amortecimento completo das 
solicitações transitórias da energização do primeiro banco de capacitores). 
 
