 
 
Manual de Procedimentos da Operação 
Módulo 10 - Submódulo 10.18 
 
Cadastro de Informações Operacionais 
CADASTRO DE LIMITES OPERACIONAIS DE LINHAS DE TRANSMISSÃO E 
TRANSFORMADORES DA ÁREA 230 KV DO MATO GROSSO DO SUL 
 
 
Código Revisão Item Vigência 
CD-CT.CO.2MS.02 32 2.2.6 29/10/2024 
Início da Operação da LT 230 kV Campo Grande 2 / Paraíso 2 C1 e da LT 230 kV Chapadão / Paraíso 2 C1 
 
 
MOTIVO DA REVISÃO 
Início da operação da LT 230 kV Campo Grande 2 / Paraíso 2 C1 e da LT 230 kV Chapadão / Paraíso 2 C1 
(decorrente do seccionamento da LT 230 kV Campo Grande 2 / Chapadão na SE Paraíso 2), com inclusão dos 
subitens 4.11. e 4.17., e com exclusão do antigo subitem "LT 230 kV Campo Grande 2 / Chapadão". 
 
 
LISTA DE DISTRIBUIÇÃO 
BTE CNOS COPEL GeT COSR-S COSR-SE 
CTEEP ELETROSUL EMS ENGIE BRASIL ENERGIA ITATIM 
NEOENERGIA PANTANAL PPTE   
  
Manual de Procedimentos da Operação - Módulo 10 - Submódulo 10.18 
 Cadastro de Informações Operacionais Código Revisão Item Vigência 
CADASTRO DE LIMITES OPERACIONAIS DE LINHAS DE 
TRANSMISSÃO E TRANSFORMADORES DA ÁREA 230 KV 
DO MATO GROSSO DO SUL 
CD-
CT.CO.2MS.02 32 2.2.6 * 
 
Referência: RT-CD.BR.02 rev. 08.  2 / 41 
 
 
ÍNDICE 
 
1. OBJETIVO ................................ ................................ ................................ ................................ ..... 5 
2. CONCEITOS ................................ ................................ ................................ ................................ ... 5 
3. CONSIDERAÇÕES GERAIS ................................ ................................ ................................ .............. 7 
4. LIMITES DE CARREGAMENTO DE LINHAS DE TRANSMISSÃO ................................ ...........................  9 
4.1. LT 440 kV Ilha Solteira / Ilha Solteira 2 C1 ..................................................................................... 9 
4.2. LT 440 kV Ilha Solteira / Ilha Solteira 2 C2 ..................................................................................... 9 
4.3. LT 440 kV Nova Porto Primavera / Porto Primavera C1 .............................................................. 10 
4.4. LT 440 kV Nova Porto Primavera / Porto Primavera C2 .............................................................. 10 
4.5. LT 230 kV Anastácio / Corumbá 2 C1........................................................................................... 10 
4.6. LT 230 kV Anastácio / Corumbá 2 C2........................................................................................... 11 
4.7. LT 230 kV Anastácio / Dourados .................................................................................................. 11 
4.8. LT 230 kV Anastácio / Sidrolândia 2 ............................................................................................ 12 
4.9. LT 230 kV Campo Grande 2 / Imbirussú C1 ................................................................................. 12 
4.10. LT 230 kV Campo Grande 2 / Imbirussú C2 ................................................................................. 13 
4.11. LT 230 kV Campo Grande 2 / Paraíso 2 C1 .................................................................................. 13 
4.12. LT 230 kV Campo Grande 2 / Paraíso 2 C2 .................................................................................. 14 
4.13. LT 230 kV Campo Grande 2 / Rio Brilhante ................................................................................. 14 
4.14. LT 230 kV Chapadão / Inocência C1............................................................................................. 15 
4.15. LT 230 kV Chapadão / Inocência C2............................................................................................. 15 
4.16. LT 230 kV Chapadão / Inocência C3............................................................................................. 16 
4.17. LT 230 kV Chapadão / Paraíso 2 C1 ............................................................................................. 16 
4.18. LT 230 kV Chapadão / Paraíso 2 C2 ............................................................................................. 17 
4.19. LT 230 kV Dourados / Dourados 2 C1 .......................................................................................... 17 
4.20. LT 230 kV Dourados / Dourados 2 C2 .......................................................................................... 18 
4.21. LT 230 kV Dourados / Guaíra ....................................................................................................... 18 
4.22. LT 230 kV Dourados 2 / Ivinhema 2 ............................................................................................. 19 
4.23. LT 230 kV Dourados 2 / Rio Brilhante .......................................................................................... 19 
4.24. LT 230 kV Ilha Solteira 2 / Inocência C1 ....................................................................................... 20 
4.25. LT 230 kV Ilha Solteira 2 / Inocência C2 ....................................................................................... 20 
4.26. LT 230 kV Ilha Solteira 2 / Inocência C3 ....................................................................................... 21 
4.27. LT 230 kV Imbirussú / Rio Brilhante ............................................................................................ 21 
Manual de Procedimentos da Operação - Módulo 10 - Submódulo 10.18 
 Cadastro de Informações Operacionais Código Revisão Item Vigência 
CADASTRO DE LIMITES OPERACIONAIS DE LINHAS DE 
TRANSMISSÃO E TRANSFORMADORES DA ÁREA 230 KV 
DO MATO GROSSO DO SUL 
CD-
CT.CO.2MS.02 32 2.2.6 * 
 
Referência: RT-CD.BR.02 rev. 08.  3 / 41 
 
4.28. LT 230 kV Imbirussú / Sidrolândia 2 ............................................................................................ 21 
4.29. LT 230 kV Ivinhema 2 / Nova Porto Primavera C1....................................................................... 22 
4.30. LT 230 kV Ivinhema 2 / Nova Porto Primavera C2....................................................................... 22 
4.31. LT 230 kV Nova Porto Primavera / Rio Brilhante C1.................................................................... 23 
4.32. LT 230 kV Nova Porto Primavera / Rio Brilhante C2.................................................................... 23 
4.33. LT 138 kV Anastácio / Aquidauana C1 ......................................................................................... 24 
4.34. LT 138 kV Anastácio / Aquidauana C2 ......................................................................................... 24 
5. LIMITES DE CARREGAMENTO DE TRANSFORMADORES ................................ ................................  25 
5.1. SE Anastácio – Transformador TF 1 230/138/13,8 kV ................................................................. 25 
5.2. SE Anastácio – Transformador TF 2 230/138/13,8 kV ................................................................. 25 
5.3. SE Campo Grande 2 - AT1 230/138/13,8 kV ................................................................................ 26 
5.4. SE Campo Grande 2 - AT2 230/138/13,8 kV ................................................................................ 26 
5.5. SE Campo Grande 2 - AT3 230/138/13,8 kV ................................................................................ 27 
5.6. SE Corumbá 2 – Transformador 7AT01 230/138/13,8 kV ........................................................... 28 
5.7. SE Corumbá 2 – Transformador 7AT02 230/138/13,8 kV ........................................................... 28 
5.8. SE Dourados – Transformador TF 1 230/138/13,8 kV ................................................................. 29 
5.9. SE Dourados – Transformador TF 2 230/138/13,8 kV ................................................................. 29 
5.10. SE Dourados – Transformador TF 3 230/138/13,8 kV ................................................................. 30 
5.11. SE Dourados – Transformador TF 4 230/138/13,8 kV ................................................................. 31 
5.12. SE Dourados 2 - Transformador 04T1 230/138/13,8 kV ............................................................. 31 
5.13. SE Dourados 2 - Transformador 04T2 230/138/13,8 kV ............................................................. 32 
5.14. SE Ilha Solteira 2 – Transformador 9AT01 440/230/13,8 kV ....................................................... 32 
5.15. SE Ilha Solteira 2 – Transformador 9AT02 440/230/13,8 kV ....................................................... 33 
5.16. SE Ilha Solteira 2 – Transformador 9AT03 440/230/13,8 kV ....................................................... 34 
5.17. SE Imbirussú – Transformador 7AT01 230/130/13,8 kV ............................................................. 34 
5.18. SE Imbirussú – Transformador 7AT02 230/130/13,8 kV ............................................................. 35 
5.19. SE Imbirussú – Transformador 7AT03 230/130/13,8 kV ............................................................. 35 
5.20. SE Ivinhema 2 - Transformador 7AT01 230/138/13,8 kV ............................................................ 36 
5.21. SE Ivinhema 2 - Transformador 7AT02 230/138/13,8 kV ............................................................ 37 
5.22. SE Nova Porto Primavera – Transformador 9AT01 440/230/13,8 kV ......................................... 37 
5.23. SE Nova Porto Primavera – Transformador 9AT02 440/230/13,8 kV ......................................... 38 
5.24. SE Nova Porto Primavera - Transformador 9AT03 440/230/13,8 kV .......................................... 38 
5.25. SE Paraíso 2 - Transformador 04T1 230/138/13,8 kV ................................................................. 39 
5.26. SE Paraíso 2 - Transformador 04T2 230/138/13,8 kV ................................................................. 40 
Manual de Procedimentos da Operação - Módulo 10 - Submódulo 10.18 
 Cadastro de Informações Operacionais Código Revisão Item Vigência 
CADASTRO DE LIMITES OPERACIONAIS DE LINHAS DE 
TRANSMISSÃO E TRANSFORMADORES DA ÁREA 230 KV 
DO MATO GROSSO DO SUL 
CD-
CT.CO.2MS.02 32 2.2.6 * 
 
Referência: RT-CD.BR.02 rev. 08.  4 / 41 
 
5.27. SE Sidrolândia 2 - Transformador 7AT01 230/138/13,8 kV......................................................... 40 
5.28. SE Sidrolândia 2 - Transformador 7AT02 230/138/13,8 kV......................................................... 41 
 
  
Manual de Procedimentos da Operação - Módulo 10 - Submódulo 10.18 
 Cadastro de Informações Operacionais Código Revisão Item Vigência 
CADASTRO DE LIMITES OPERACIONAIS DE LINHAS DE 
TRANSMISSÃO E TRANSFORMADORES DA ÁREA 230 KV 
DO MATO GROSSO DO SUL 
CD-
CT.CO.2MS.02 32 2.2.6 * 
 
Referência: RT-CD.BR.02 rev. 08.  5 / 41 
 
1. OBJETIVO 
Apresentar os limites operacionais de linhas de transmissão e de transformadores da Rede de Operação a 
serem controlados pelos operadores dos Centros de Operação do ONS e pela Operação dos Agentes 
envolvidos. 
2. CONCEITOS 
2.1. Limite Operacional: Corresponde ao limite de carregamento do equipamento que deve ser observado 
pelo ONS e Agentes, em condição normal de operação e ou em condição de emergência. 
2.2. Alteração dos Limites Operacionais: É a alteração de limite na qual são estabelecidos novos valores, 
decorrentes de eventos que alteraram a capacidade operativa do equipamento, como por exemplo 
recapacitação, trocas de TC, troca de característica de proteção, indisponibilidade do sistema de  
refrigeração, flexibilização por parte do Agente, etc. 
2.3. Fator Limitante:  Fator que impede um equipamento de atingir um limite operacional superior ao 
estabelecido de projeto. Um fator limitante ativo provoca aumento no custo de operação ou de 
expansão do SIN. 
2.4. Limites de linhas de transmissão 
2.4.1. Condição Normal de Operação 
Situação de carregamento em que a linha de transmissão transporta continuamente corrente em valor igual 
ou inferior ao seu valor operacional, em sua condição de carregamento nominal, para a qual foi projetada. 
2.4.2. Condição de Emergência de Operação 
Situação de carregamento em que a linha de transmissão transporta corrente acima do seu valor operacional, 
em sua condição de carregamento superior ao nominal para a qual foi projetada, por um tempo não superior 
a 4 dias (96 horas) contínuos, ou um somatór io máximo de 18 dias (432 horas) intermitentes (se somados 
em base anual todos os períodos contínuos inferiores a 4 dias). 
As linhas de transmissão que se enquadrarem nessa situação terão o campo duração nas tabelas 
apresentadas neste cadastro preenchido com (*). 
2.4.3. Condição Sazonal de Operação 
Situação de carregamento em que a linha de transmissão transporta continuamente corrente em valor igual 
ou inferior ao seu valor operacional, em condição normal de operação e ou em condição de emergência, em 
condições de operação temporárias e específicas para diferentes períodos do ano, tais como verão -dia, 
verão-noite, inverno-dia e inverno-noite ou outro período específico do ano (meses ou estações do ano). 
2.4.4. Limite Diurno  
Limite operacional a ser considerado para o período diurno. O período diurno é o intervalo entre o horário 
do amanhecer e do crepúsculo, conforme disposto nos Procedimentos de Rede. 
Quando o período não for definido pelo agente , deve ser considerado o período entre 06h00min até 
17h59min, sempre tomando como referência o horário oficial de Brasília. 
2.4.5. Limite Noturno  
Limite operacional a ser considerado para o período noturno. O período noturno é o intervalo de tempo 
entre o horário do crepúsculo e do amanhecer, conforme disposto nos Procedimentos de Rede. 
Quando o período não for definido pelo agente, deve ser considerado o período de 18h00min até 05h59min, 
sempre tomando como referência o horário oficial de Brasília. 
Manual de Procedimentos da Operação - Módulo 10 - Submódulo 10.18 
 Cadastro de Informações Operacionais Código Revisão Item Vigência 
CADASTRO DE LIMITES OPERACIONAIS DE LINHAS DE 
TRANSMISSÃO E TRANSFORMADORES DA ÁREA 230 KV 
DO MATO GROSSO DO SUL 
CD-
CT.CO.2MS.02 32 2.2.6 * 
 
Referência: RT-CD.BR.02 rev. 08.  6 / 41 
 
2.5. Limites de Transformadores 
2.5.1. Condição Normal de Operação  
Situação de carregamento em que o transformador opera continuamente com sua corrente nominal. Mesmo 
que em algum momento seja ultrapassada a sua corrente nominal, não deve ser excedida a temperatura 
máxima do óleo e ou do enrolamento, conforme limites estabelecidos na NBR 5416, respeitadas as 
condições, valores e prazos admitidos pelo agente. 
2.5.2. Condição de Emergência de Longa Duração  
Situação de carregamento em que o transformador opera continuamente com corrente superior a sua 
corrente nominal, com duração não superior a 04 (quatro) horas. Mesmo que em algum momento seja 
ultrapassada a sua corrente de emergência de longa duração, não deve ser excedida a temperatura máxima 
do óleo e ou do enrolamento, conforme limites estabelecidos na NBR 5416, respeitadas as condições, valores 
e prazos admitidos pelo agente. 
2.5.3. Condição de Emergência de Curta Duração  
Situação de carregamento em que o transformador opera continuamente com corrente superior a sua 
corrente de emergência de longa duração, com duração não superior a 30 (trinta) minutos. Após esse 
intervalo de tempo, deve-se retornar à condição de carregamento de longa duração. 
Mesmo que em algum momento seja ultrapassada a sua corrente de emergência de curta duração, não deve 
ser excedida a temperatura máxima do óleo e ou do enrolamento, conforme limites estabelecidos na NBR 
5416, respeitadas as condições, valores e prazos admit idos pelo agente. Esta condição deve ser utilizada 
como último recurso antes do corte de carga. 
2.6. Preenchimento das Tabelas de Limites 
2.6.1. Linhas de Transmissão 
O campo “Valor Operacional” deve ser preenchido com o valor limite do equipamento a ser considerado na 
operação em tempo real. 
O campo “Duração (HH:MM)” indica o período admissível para operação da LT na condição de emergência. 
Nas tabelas em que for detalhado o tempo de operação em determinada condição de operação de 
equipamento, deve-se utilizar tantas linhas quanto forem necessárias para o detalhamento de carregamento 
por período de tempo informado pelo Agente. 
Os campos “Valor Operacional” e “Duração” das tabelas cujos valores dependem de informação do Agente 
e não estão disponíveis para o ONS, devem ser preenchidas com “NI” (Não Informado pelo Agente). 
O campo “Valor Operacional” das tabelas referentes a valores de emergência que não são permitidos pelo 
Agente, devem ser preenchidos com “NP” (Não Permitido pelo Agente). Para este caso também deve ser 
preenchido o campo “Fator Limitante”. 
O campo “Período do ano” indica, quando for o caso, a sazonalidade anual definida para determinação dos 
valores operacionais em condição normal e emergência. 
O campo “Período do dia” indica, quando for o caso, a sazonalidade diária definida para determinação dos 
valores operacionais em condição normal e emergência. 
2.6.2. Transformadores 
O campo “Enrolamento (kV)” indica o terminal ao qual está relacionado o limite operacional nas condições 
normal, emergência de longa duração e de curta duração. 
O campo “Valor Operacional (A)” indica o valor de corrente limite do transformador para condição normal, 
Manual de Procedimentos da Operação - Módulo 10 - Submódulo 10.18 
 Cadastro de Informações Operacionais Código Revisão Item Vigência 
CADASTRO DE LIMITES OPERACIONAIS DE LINHAS DE 
TRANSMISSÃO E TRANSFORMADORES DA ÁREA 230 KV 
DO MATO GROSSO DO SUL 
CD-
CT.CO.2MS.02 32 2.2.6 * 
 
Referência: RT-CD.BR.02 rev. 08.  7 / 41 
 
emergência de longa duração e de curta duração , considerando como tensão nominal a indicada no 
descritivo do equipamento apresentado no subitem. 
O campo “Duração (HH:MM)” indica o período admissível para operação do transformador na condição de 
emergência de longa e curta duração. 
Nas tabelas em que for detalhado o tempo de operação em determinada condição de operação de 
equipamento, deve-se utilizar tantas linhas quanto forem necessárias para o detalhamento de carregamento 
por período de tempo informado pelo Agente. 
Os campos “Valor Operacional” e “Duração” das tabelas cujos valores dependem de informação do Agente 
e não estão disponíveis para o ONS, devem ser preenchidas com “NI” (Não Informado pelo Agente). 
O campo “Valor Operacional” das tabelas referentes a valores de emergência que não são permitidos pelo 
Agente, devem ser preenchidos com “NP” (Não Permitido pelo Agente). Para este caso também deve ser 
preenchido o campo “Fator Limitante”. 
3. CONSIDERAÇÕES GERAIS 
3.1. Este Cadastro de Informações Operacionais apresenta os limites operacionais de carregamento de 
linhas de transmissão e dos transformadores da Rede de Operação, de acordo com as definições 
estabelecidas entre ANEEL, ONS e agentes, cujo processo de atualização é descrito pela RO-CD.BR.01 
- Controle de Limites de Carregamento de Linhas de Transmissão e Transformadores. 
3.2. Os operadores dos Centros de Operação do ONS, nas ações de coordenação, supervisão e controle 
devem observar os limites operacionais constantes deste Cadastro de Informações Operacionais. 
3.3. A operação dos agentes, em suas ações de comando e execução, deve observar os limites 
operacionais constantes deste Cadastro de Informações Operacionais. 
3.4. Cabe ao agente comunicar de imediato ao Centro de Operação com o qual se relaciona qualquer 
alteração de limite que imponha restrições à operação da linha ou transformador. 
3.5. Toda e qualquer alteração dos valores de limites operacionais constantes deste Cadastro de 
Informações Operacionais deverá ser solicitada formalmente e devidamente justificada e 
caracterizada pelo agente responsável pelo equipamento  ao Centro de Operação do ONS de seu 
relacionamento.  
3.6. Caso a operação em tempo real venha a verificar qualquer possibilidade de violação do limite 
estabelecido para o equipamento, caberá ao Centro de Operação do ONS responsável tomar as 
medidas corretivas cabíveis para que o mesmo não ultrapasse estes valores , que só podem ser 
ultrapassados com anuência do agente. 
3.7. Os valores de Limites Operacionais dos equipamentos da Rede de Operação, constantes deste 
Cadastro de Informações Operacionais, são os valores informados oficial e formalmente pelo agente. 
3.8. Os limites de transformadores que constam neste Cadastro de Informações Operacionais consideram 
todos os estágios de refrigeração disponíveis. Os limites considerando os estágios de refrigeração 
indisponíveis constam nos Cadastros de Informações Operacionais de Dados de Equipamentos. 
3.9. Os limites de transformadores apresentados têm como ref erência a tensão indicada no nome do 
respectivo equipamento. 
Manual de Procedimentos da Operação - Módulo 10 - Submódulo 10.18 
 Cadastro de Informações Operacionais Código Revisão Item Vigência 
CADASTRO DE LIMITES OPERACIONAIS DE LINHAS DE 
TRANSMISSÃO E TRANSFORMADORES DA ÁREA 230 KV 
DO MATO GROSSO DO SUL 
CD-
CT.CO.2MS.02 32 2.2.6 * 
 
Referência: RT-CD.BR.02 rev. 08.  8 / 41 
 
  
Manual de Procedimentos da Operação - Módulo 10 - Submódulo 10.18 
 Cadastro de Informações Operacionais Código Revisão Item Vigência 
CADASTRO DE LIMITES OPERACIONAIS DE LINHAS DE 
TRANSMISSÃO E TRANSFORMADORES DA ÁREA 230 KV 
DO MATO GROSSO DO SUL 
CD-
CT.CO.2MS.02 32 2.2.6 * 
 
Referência: RT-CD.BR.02 rev. 08.  9 / 41 
 
4. LIMITES DE CARREGAMENTO DE LINHAS DE TRANSMISSÃO 
4.1. LT 440 KV ILHA SOLTEIRA / ILHA SOLTEIRA 2 C1 
Limites de condição normal de operação (Longa duração) 
Período do ano Período 
do dia 
Valor 
operacional (A) Fator limitante 
01/Jan a 31/Dez Diurno / 
Noturno 3.440 Cabos condutores 
 
Limites de condição de emergência (Curta duração) 
Período do ano Período 
do dia 
Valor 
operacional (A) 
Duração 
(Hh:mm) Fator limitante 
01/Jan a 31/Dez Diurno / 
Noturno 4.044 (1) (*) Cabos condutores 
Notas: 
(1) - (*) Conforme exposto no item 2.4.2.deste Cadastro de Informações Operacionais. 
 
4.2. LT 440 KV ILHA SOLTEIRA / ILHA SOLTEIRA 2 C2 
Limites de condição normal de operação (Longa duração) 
Período do ano Período 
do dia 
Valor 
operacional (A) Fator limitante 
01/Jan a 31/Dez Diurno / 
Noturno 3.440 Cabos condutores 
 
Limites de condição de emergência (Curta duração) 
Período do ano Período 
do dia 
Valor 
operacional (A) 
Duração 
(Hh:mm) Fator limitante 
01/Jan a 31/Dez Diurno / 
Noturno 4.044 (1) (*) Cabos condutores 
Notas: 
(1) - (*) Conforme exposto no item 2.4.2.deste Cadastro de Informações Operacionais. 
 
Manual de Procedimentos da Operação - Módulo 10 - Submódulo 10.18 
 Cadastro de Informações Operacionais Código Revisão Item Vigência 
CADASTRO DE LIMITES OPERACIONAIS DE LINHAS DE 
TRANSMISSÃO E TRANSFORMADORES DA ÁREA 230 KV 
DO MATO GROSSO DO SUL 
CD-
CT.CO.2MS.02 32 2.2.6 * 
 
Referência: RT-CD.BR.02 rev. 08.  10 / 41 
 
4.3. LT 440 KV NOVA PORTO PRIMAVERA / PORTO PRIMAVERA C1 
Limites de condição normal de operação (Longa duração) 
Período do ano Período 
do dia 
Valor 
operacional (A) Fator limitante 
01/Jan a 31/Dez Diurno / 
Noturno 2.600 Cabos Condutores 
 
Limites de condição de emergência (Curta duração) 
Período do ano Período 
do dia 
Valor 
operacional (A) 
Duração 
(Hh:mm) Fator limitante 
01/Jan a 31/Dez Diurno / 
Noturno NP - Cabos Condutores 
 
4.4. LT 440 KV NOVA PORTO PRIMAVERA / PORTO PRIMAVERA C2 
Limites de condição normal de operação (Longa duração) 
Período do ano Período 
do dia 
Valor 
operacional (A) Fator limitante 
01/Jan a 31/Dez Diurno / 
Noturno 2.600 Cabos Condutores 
 
Limites de condição de emergência (Curta duração) 
Período do ano Período 
do dia 
Valor 
operacional (A) 
Duração 
(Hh:mm) Fator limitante 
01/Jan a 31/Dez Diurno / 
Noturno NP - Cabos Condutores 
 
4.5. LT 230 KV ANASTÁCIO / CORUMBÁ 2 C1 
Limites de condição normal de operação (Longa duração) 
Período do ano Período 
do dia 
Valor 
operacional (A) Fator limitante 
01/Jan a 31/Dez Diurno / 
Noturno 1.630 Cabos condutores 
 
Manual de Procedimentos da Operação - Módulo 10 - Submódulo 10.18 
 Cadastro de Informações Operacionais Código Revisão Item Vigência 
CADASTRO DE LIMITES OPERACIONAIS DE LINHAS DE 
TRANSMISSÃO E TRANSFORMADORES DA ÁREA 230 KV 
DO MATO GROSSO DO SUL 
CD-
CT.CO.2MS.02 32 2.2.6 * 
 
Referência: RT-CD.BR.02 rev. 08.  11 / 41 
 
Limites de condição de emergência (Curta duração) 
Período do ano Período 
do dia 
Valor 
operacional (A) 
Duração 
(Hh:mm) Fator limitante 
01/Jan a 31/Dez Diurno / 
Noturno 1.990 (1) (*) Cabos condutores 
Notas: 
(1) - (*) Conforme exposto no item 2.4.2.deste Cadastro de Informações Operacionais. 
 
4.6. LT 230 KV ANASTÁCIO / CORUMBÁ 2 C2 
Limites de condição normal de operação (Longa duração) 
Período do ano Período 
do dia 
Valor 
operacional (A) Fator limitante 
01/Jan a 31/Dez Diurno / 
Noturno 1.630 Cabos condutores 
 
Limites de condição de emergência (Curta duração) 
Período do ano Período 
do dia 
Valor 
operacional (A) 
Duração 
(Hh:mm) Fator limitante 
01/Jan a 31/Dez Diurno / 
Noturno 1.990 (1) (*) Cabos condutores 
Notas: 
(1) - (*) Conforme exposto no item 2.4.2.deste Cadastro de Informações Operacionais. 
 
4.7. LT 230 KV ANASTÁCIO / DOURADOS 
Limites de condição normal de operação (Longa duração) 
Período do ano Período 
do dia 
Valor 
operacional (A) Fator limitante 
01/Jan a 31/Dez Diurno / 
Noturno 800 Bobinas de Bloqueio em ambos os terminais 
 
Limites de condição de emergência (Curta duração) 
Período do ano Período 
do dia 
Valor 
operacional (A) 
Duração 
(Hh:mm) Fator limitante 
01/Jan a 31/Dez Diurno / 
Noturno NP - Bobinas de Bloqueio em ambos os terminais 
Manual de Procedimentos da Operação - Módulo 10 - Submódulo 10.18 
 Cadastro de Informações Operacionais Código Revisão Item Vigência 
CADASTRO DE LIMITES OPERACIONAIS DE LINHAS DE 
TRANSMISSÃO E TRANSFORMADORES DA ÁREA 230 KV 
DO MATO GROSSO DO SUL 
CD-
CT.CO.2MS.02 32 2.2.6 * 
 
Referência: RT-CD.BR.02 rev. 08.  12 / 41 
 
 
4.8. LT 230 KV ANASTÁCIO / SIDROLÂNDIA 2 
Limites de condição normal de operação (Longa duração) 
Período do ano Período 
do dia 
Valor 
operacional (A) Fator limitante 
01/Jan a 31/Dez Diurno / 
Noturno 1.400 Cabos condutores 
 
Limites de condição de emergência (Curta duração) 
Período do ano Período 
do dia 
Valor 
operacional (A) 
Duração 
(Hh:mm) Fator limitante 
01/Jan a 31/Dez Diurno / 
Noturno 1.720 (1) (*) Cabos condutores 
Notas: 
(1) - (*) Conforme exposto no subitem 2.4.2. deste Cadastro de Informações Operacionais. 
 
4.9. LT 230 KV CAMPO GRANDE 2 / IMBIRUSSÚ C1 
Limites de condição normal de operação (Longa duração) 
Período do ano Período 
do dia 
Valor 
operacional (A) Fator limitante 
01/Jan a 31/Dez Diurno / 
Noturno 1.620 Cabos Condutores 
 
Limites de condição de emergência (Curta duração) 
Período do ano Período 
do dia 
Valor 
operacional (A) 
Duração 
(Hh:mm) Fator limitante 
01/Jan a 31/Dez Diurno / 
Noturno 1.990 (1) (*) Cabos Condutores 
Notas: 
(1) - (*) Conforme exposto no item 2.4.2. deste Cadastro de Informações Operacionais. 
 
Manual de Procedimentos da Operação - Módulo 10 - Submódulo 10.18 
 Cadastro de Informações Operacionais Código Revisão Item Vigência 
CADASTRO DE LIMITES OPERACIONAIS DE LINHAS DE 
TRANSMISSÃO E TRANSFORMADORES DA ÁREA 230 KV 
DO MATO GROSSO DO SUL 
CD-
CT.CO.2MS.02 32 2.2.6 * 
 
Referência: RT-CD.BR.02 rev. 08.  13 / 41 
 
4.10. LT 230 KV CAMPO GRANDE 2 / IMBIRUSSÚ C2 
Limites de condição normal de operação (Longa duração) 
Período do ano Período 
do dia 
Valor 
operacional (A) Fator limitante 
01/Jan a 31/Dez Diurno / 
Noturno 1.680 Cabos Condutores 
 
Limites de condição de emergência (Curta duração) 
Período do ano Período 
do dia 
Valor 
operacional (A) 
Duração 
(Hh:mm) Fator limitante 
01/Jan a 31/Dez Diurno / 
Noturno 2.065 (1) (*) Cabos Condutores 
Notas: 
(1) - (*) Conforme exposto no item 2.4.2. deste Cadastro de Informações Operacionais. 
 
4.11. LT 230 KV CAMPO GRANDE 2 / PARAÍSO 2 C1 
Limites de condição normal de operação (Longa duração) 
Período do ano Período 
do dia 
Valor 
operacional (A) Fator limitante 
01/Jan a 31/Dez Diurno / 
Noturno 1.620 Cabos condutores 
 
Limites de condição de emergência (Curta duração) 
Período do ano Período 
do dia 
Valor 
operacional (A) 
Duração 
(Hh:mm) Fator limitante 
01/Jan a 31/Dez Diurno / 
Noturno 1.990 (1) (*) Cabos condutores 
Notas: 
(1) - (*) Conforme exposto no subitem 2.4.2. deste Cadastro de Informações Operacionais. 
 
Manual de Procedimentos da Operação - Módulo 10 - Submódulo 10.18 
 Cadastro de Informações Operacionais Código Revisão Item Vigência 
CADASTRO DE LIMITES OPERACIONAIS DE LINHAS DE 
TRANSMISSÃO E TRANSFORMADORES DA ÁREA 230 KV 
DO MATO GROSSO DO SUL 
CD-
CT.CO.2MS.02 32 2.2.6 * 
 
Referência: RT-CD.BR.02 rev. 08.  14 / 41 
 
4.12. LT 230 KV CAMPO GRANDE 2 / PARAÍSO 2 C2 
Limites de condição normal de operação (Longa duração) 
Período do ano Período 
do dia 
Valor 
operacional (A) Fator limitante 
01/Jan a 31/Dez Diurno / 
Noturno 1.620 Cabos condutores 
 
Limites de condição de emergência (Curta duração) 
Período do ano Período 
do dia 
Valor 
operacional (A) 
Duração 
(Hh:mm) Fator limitante 
01/Jan a 31/Dez Diurno / 
Noturno 1.990 (1) (*) Cabos condutores 
Notas: 
(1) - (*) Conforme exposto no subitem 2.4.2. deste Cadastro de Informações Operacionais. 
 
4.13. LT 230 KV CAMPO GRANDE 2 / RIO BRILHANTE 
Limites de condição normal de operação (Longa duração) 
Período do ano Período 
do dia 
Valor 
operacional (A) Fator limitante 
01/Jan a 31/Dez Diurno / 
Noturno 1.680 Cabos Condutores 
 
Limites de condição de emergência (Curta duração) 
Período do ano Período 
do dia 
Valor 
operacional (A) 
Duração 
(Hh:mm) Fator limitante 
01/Jan a 31/Dez Diurno / 
Noturno 2.065 (1) (*) Cabos Condutores 
Notas: 
(1) - (*) Conforme exposto no item 2.4.2.deste Cadastro de Informações Operacionais. 
 
Manual de Procedimentos da Operação - Módulo 10 - Submódulo 10.18 
 Cadastro de Informações Operacionais Código Revisão Item Vigência 
CADASTRO DE LIMITES OPERACIONAIS DE LINHAS DE 
TRANSMISSÃO E TRANSFORMADORES DA ÁREA 230 KV 
DO MATO GROSSO DO SUL 
CD-
CT.CO.2MS.02 32 2.2.6 * 
 
Referência: RT-CD.BR.02 rev. 08.  15 / 41 
 
4.14. LT 230 KV CHAPADÃO / INOCÊNCIA C1 
Limites de condição normal de operação (Longa duração) 
Período do ano Período 
do dia 
Valor 
operacional (A) Fator limitante 
01/Jan a 31/Dez Diurno / 
Noturno 1.770 Cabos condutores 
 
Limites de condição de emergência (Curta duração) 
Período do ano Período 
do dia 
Valor 
operacional (A) 
Duração 
(Hh:mm) Fator limitante 
01/Jan a 31/Dez Diurno / 
Noturno 2.180 (1) (*) Cabos condutores 
Notas: 
(1) - (*) Conforme exposto no subitem 2.4.2. deste Cadastro de Informações Operacionais. 
 
4.15. LT 230 KV CHAPADÃO / INOCÊNCIA C2 
Limites de condição normal de operação (Longa duração) 
Período do ano Período 
do dia 
Valor 
operacional (A) Fator limitante 
01/Jan a 31/Dez Diurno / 
Noturno 1.770 Cabos condutores 
 
Limites de condição de emergência (Curta duração) 
Período do ano Período 
do dia 
Valor 
operacional (A) 
Duração 
(Hh:mm) Fator limitante 
01/Jan a 31/Dez Diurno / 
Noturno 2.180 (1) (*) Cabos condutores 
Notas: 
(1) - (*) Conforme exposto no subitem 2.4.2. deste Cadastro de Informações Operacionais. 
 
Manual de Procedimentos da Operação - Módulo 10 - Submódulo 10.18 
 Cadastro de Informações Operacionais Código Revisão Item Vigência 
CADASTRO DE LIMITES OPERACIONAIS DE LINHAS DE 
TRANSMISSÃO E TRANSFORMADORES DA ÁREA 230 KV 
DO MATO GROSSO DO SUL 
CD-
CT.CO.2MS.02 32 2.2.6 * 
 
Referência: RT-CD.BR.02 rev. 08.  16 / 41 
 
4.16. LT 230 KV CHAPADÃO / INOCÊNCIA C3 
Limites de condição normal de operação (Longa duração) 
Período do ano Período 
do dia 
Valor 
operacional (A) Fator limitante 
01/Jan a 31/Dez Diurno / 
Noturno 1.770 Cabos condutores 
 
Limites de condição de emergência (Curta duração) 
Período do ano Período 
do dia 
Valor 
operacional (A) 
Duração 
(Hh:mm) Fator limitante 
01/Jan a 31/Dez Diurno / 
Noturno 2.180 (1) (*) Cabos condutores 
Notas: 
(1) - (*) Conforme exposto no subitem 2.4.2. deste Cadastro de Informações Operacionais. 
 
4.17. LT 230 KV CHAPADÃO / PARAÍSO 2 C1 
Limites de condição normal de operação (Longa duração) 
Período do ano Período 
do dia 
Valor 
operacional (A) Fator limitante 
01/Jan a 31/Dez Diurno / 
Noturno 1.620 Cabos condutores 
 
Limites de condição de emergência (Curta duração) 
Período do ano Período 
do dia 
Valor 
operacional (A) 
Duração 
(Hh:mm) Fator limitante 
01/Jan a 31/Dez Diurno / 
Noturno 1.990 (1) (*) Cabos condutores 
Notas: 
(1) - (*) Conforme exposto no subitem 2.4.2. deste Cadastro de Informações Operacionais. 
 
Manual de Procedimentos da Operação - Módulo 10 - Submódulo 10.18 
 Cadastro de Informações Operacionais Código Revisão Item Vigência 
CADASTRO DE LIMITES OPERACIONAIS DE LINHAS DE 
TRANSMISSÃO E TRANSFORMADORES DA ÁREA 230 KV 
DO MATO GROSSO DO SUL 
CD-
CT.CO.2MS.02 32 2.2.6 * 
 
Referência: RT-CD.BR.02 rev. 08.  17 / 41 
 
4.18. LT 230 KV CHAPADÃO / PARAÍSO 2 C2 
Limites de condição normal de operação (Longa duração) 
Período do ano Período 
do dia 
Valor 
operacional (A) Fator limitante 
01/Jan a 31/Dez Diurno / 
Noturno 1.620 Cabos condutores 
 
Limites de condição de emergência (Curta duração) 
Período do ano Período 
do dia 
Valor 
operacional (A) 
Duração 
(Hh:mm) Fator limitante 
01/Jan a 31/Dez Diurno / 
Noturno 1.990 (1) (*) Cabos condutores 
Notas: 
(1) - (*) Conforme exposto no subitem 2.4.2. deste Cadastro de Informações Operacionais. 
 
4.19. LT 230 KV DOURADOS / DOURADOS 2 C1 
Limites de condição normal de operação (Longa duração) 
Período do ano Período 
do dia 
Valor 
operacional (A) Fator limitante 
01/Jan a 31/Dez Diurno / 
Noturno 1.680 Cabos condutores 
 
Limites de condição de emergência (Curta duração) 
Período do ano Período 
do dia 
Valor 
operacional (A) 
Duração 
(Hh:mm) Fator limitante 
01/Jan a 31/Dez Diurno / 
Noturno 2.065 (1) (*) Cabos condutores 
Notas: 
(1) - (*) Conforme exposto no item 2.4.2. deste Cadastro de Informações Operacionais. 
 
Manual de Procedimentos da Operação - Módulo 10 - Submódulo 10.18 
 Cadastro de Informações Operacionais Código Revisão Item Vigência 
CADASTRO DE LIMITES OPERACIONAIS DE LINHAS DE 
TRANSMISSÃO E TRANSFORMADORES DA ÁREA 230 KV 
DO MATO GROSSO DO SUL 
CD-
CT.CO.2MS.02 32 2.2.6 * 
 
Referência: RT-CD.BR.02 rev. 08.  18 / 41 
 
4.20. LT 230 KV DOURADOS / DOURADOS 2 C2 
Limites de condição normal de operação (Longa duração) 
Período do ano Período 
do dia 
Valor 
operacional (A) Fator limitante 
01/Jan a 31/Dez Diurno / 
Noturno 1.680 Cabos condutores 
 
Limites de condição de emergência (Curta duração) 
Período do ano Período 
do dia 
Valor 
operacional (A) 
Duração 
(Hh:mm) Fator limitante 
01/Jan a 31/Dez Diurno / 
Noturno 2.065 (1) (*) Cabos condutores 
Notas: 
(1) - (*) Conforme exposto no subitem 2.4.2. deste Cadastro de Informações Operacionais. 
 
4.21. LT 230 KV DOURADOS / GUAÍRA 
Limites de condição normal de operação (Longa duração) 
Período do ano Período 
do dia 
Valor 
operacional (A) Fator limitante 
01/Jan a 31/Mar Diurno           848 Cabos Condutores trecho da linha com cabo Bluejay 
01/Abr a 31/Mai Diurno           866 Cabos condutores trecho recapacitado 350 MVA 
01/Jun a 30/Set Diurno           878 Cabos condutores trecho recapacitado 350 MVA 
01/Out a 30/Nov Diurno           866 Cabos condutores trecho recapacitado 350 MVA 
01/Dez a 31/Dez Diurno           848 Cabos condutores trecho da linha com cabo Bluejay 
01/Jan a 31/Dez Noturno          878 Cabos Condutores trecho recapacitado 350 MVA 
 
Limites de condição de emergência (Curta duração) 
Período do ano Período 
do dia 
Valor 
operacional (A) 
Duração 
(Hh:mm) Fator limitante 
01/Jan a 31/Dez Diurno / 
Noturno 948 (1) (*) Cabos condutores trecho recapacitado 350 MVA 
Notas: 
(1) - (*) Conforme exposto no item 2.4.2. deste Cadastro de Informações Operacionais. 
 
Manual de Procedimentos da Operação - Módulo 10 - Submódulo 10.18 
 Cadastro de Informações Operacionais Código Revisão Item Vigência 
CADASTRO DE LIMITES OPERACIONAIS DE LINHAS DE 
TRANSMISSÃO E TRANSFORMADORES DA ÁREA 230 KV 
DO MATO GROSSO DO SUL 
CD-
CT.CO.2MS.02 32 2.2.6 * 
 
Referência: RT-CD.BR.02 rev. 08.  19 / 41 
 
4.22. LT 230 KV DOURADOS 2 / IVINHEMA 2 
Limites de condição normal de operação (Longa duração) 
Período do ano Período 
do dia 
Valor 
operacional (A) Fator limitante 
01/Jan a 31/Dez Diurno / 
Noturno 1.680 Cabos condutores 
 
Limites de condição de emergência (Curta duração) 
Período do ano Período 
do dia 
Valor 
operacional (A) 
Duração 
(Hh:mm) Fator limitante 
01/Jan a 31/Dez Diurno / 
Noturno 2.065 (1) (*) Cabos condutores 
Notas: 
(1) - (*) Conforme exposto no item 2.4.2. deste Cadastro de Informações Operacionais. 
 
4.23. LT 230 KV DOURADOS 2 / RIO BRILHANTE 
Limites de condição normal de operação (Longa duração) 
Período do ano Período 
do dia 
Valor 
operacional (A) Fator limitante 
01/Jan a 31/Dez Diurno / 
Noturno 1.680 Cabos condutores 
 
Limites de condição de emergência (Curta duração) 
Período do ano Período 
do dia 
Valor 
operacional (A) 
Duração 
(Hh:mm) Fator limitante 
01/Jan a 31/Dez Diurno / 
Noturno 2.065 (1) (*) Cabos condutores 
Notas: 
(1) - (*) Conforme exposto no subitem 2.4.2. deste Cadastro de Informações Operacionais. 
 
Manual de Procedimentos da Operação - Módulo 10 - Submódulo 10.18 
 Cadastro de Informações Operacionais Código Revisão Item Vigência 
CADASTRO DE LIMITES OPERACIONAIS DE LINHAS DE 
TRANSMISSÃO E TRANSFORMADORES DA ÁREA 230 KV 
DO MATO GROSSO DO SUL 
CD-
CT.CO.2MS.02 32 2.2.6 * 
 
Referência: RT-CD.BR.02 rev. 08.  20 / 41 
 
4.24. LT 230 KV ILHA SOLTEIRA 2 / INOCÊNCIA C1 
Limites de condição normal de operação (Longa duração) 
Período do ano Período 
do dia 
Valor 
operacional (A) Fator limitante 
01/Jan a 31/Dez Diurno / 
Noturno 1.770 Cabos condutores 
 
Limites de condição de emergência (Curta duração) 
Período do ano Período 
do dia 
Valor 
operacional (A) 
Duração 
(Hh:mm) Fator limitante 
01/Jan a 31/Dez Diurno / 
Noturno 2.180 (1) (*) Cabos condutores 
Notas: 
(1) - (*) Conforme exposto no item 2.4.2.deste Cadastro de Informações Operacionais. 
 
4.25. LT 230 KV ILHA SOLTEIRA 2 / INOCÊNCIA C2 
Limites de condição normal de operação (Longa duração) 
Período do ano Período 
do dia 
Valor 
operacional (A) Fator limitante 
01/Jan a 31/Dez Diurno / 
Noturno 1.770 Cabos condutores 
 
Limites de condição de emergência (Curta duração) 
Período do ano Período 
do dia 
Valor 
operacional (A) 
Duração 
(Hh:mm) Fator limitante 
01/Jan a 31/Dez Diurno / 
Noturno 2.180 (1) (*) Cabos condutores 
Notas: 
(1) - (*) Conforme exposto no item 2.4.2.deste Cadastro de Informações Operacionais.. 
 
Manual de Procedimentos da Operação - Módulo 10 - Submódulo 10.18 
 Cadastro de Informações Operacionais Código Revisão Item Vigência 
CADASTRO DE LIMITES OPERACIONAIS DE LINHAS DE 
TRANSMISSÃO E TRANSFORMADORES DA ÁREA 230 KV 
DO MATO GROSSO DO SUL 
CD-
CT.CO.2MS.02 32 2.2.6 * 
 
Referência: RT-CD.BR.02 rev. 08.  21 / 41 
 
4.26. LT 230 KV ILHA SOLTEIRA 2 / INOCÊNCIA C3 
Limites de condição normal de operação (Longa duração) 
Período do ano Período 
do dia 
Valor 
operacional (A) Fator limitante 
01/Jan a 31/Dez Diurno / 
Noturno 1.770 Cabos condutores 
 
Limites de condição de emergência (Curta duração) 
Período do ano Período 
do dia 
Valor 
operacional (A) 
Duração 
(Hh:mm) Fator limitante 
01/Jan a 31/Dez Diurno / 
Noturno 2.180 (1) (*) Cabos condutores 
Notas: 
(1) - (*) Conforme exposto no item 2.4.2.deste Cadastro de Informações Operacionais.. 
 
4.27. LT 230 KV IMBIRUSSÚ / RIO BRILHANTE 
Limites de condição normal de operação (Longa duração) 
Período do ano Período 
do dia 
Valor 
operacional (A) Fator limitante 
01/Jan a 31/Dez Diurno / 
Noturno 1.680 Cabos condutores 
 
Limites de condição de emergência (Curta duração) 
Período do ano Período 
do dia 
Valor 
operacional (A) 
Duração 
(Hh:mm) Fator limitante 
01/Jan a 31/Dez Diurno / 
Noturno NP - Cabos condutores 
 
4.28. LT 230 KV IMBIRUSSÚ / SIDROLÂNDIA 2 
Limites de condição normal de operação (Longa duração) 
Período do ano Período 
do dia 
Valor 
operacional (A) Fator limitante 
01/Jan a 31/Dez Diurno / 
Noturno 1.400 Cabos condutores 
 
Manual de Procedimentos da Operação - Módulo 10 - Submódulo 10.18 
 Cadastro de Informações Operacionais Código Revisão Item Vigência 
CADASTRO DE LIMITES OPERACIONAIS DE LINHAS DE 
TRANSMISSÃO E TRANSFORMADORES DA ÁREA 230 KV 
DO MATO GROSSO DO SUL 
CD-
CT.CO.2MS.02 32 2.2.6 * 
 
Referência: RT-CD.BR.02 rev. 08.  22 / 41 
 
Limites de condição de emergência (Curta duração) 
Período do ano Período 
do dia 
Valor 
operacional (A) 
Duração 
(Hh:mm) Fator limitante 
01/Jan a 31/Dez Diurno / 
Noturno 1.720 (1) (*) Cabos condutores 
Notas: 
(1) - (*) Conforme exposto no item 2.4.2.deste Cadastro de Informações Operacionais.. 
 
4.29. LT 230 KV IVINHEMA 2 / NOVA PORTO PRIMAVERA C1 
Limites de condição normal de operação (Longa duração) 
Período do ano Período 
do dia 
Valor 
operacional (A) Fator limitante 
01/Jan a 31/Dez Diurno / 
Noturno 1.680 Cabos condutores 
 
Limites de condição de emergência (Curta duração) 
Período do ano Período 
do dia 
Valor 
operacional (A) 
Duração 
(Hh:mm) Fator limitante 
01/Jan a 31/Dez Diurno / 
Noturno NP - Cabos condutores 
 
4.30. LT 230 KV IVINHEMA 2 / NOVA PORTO PRIMAVERA C2 
Limites de condição normal de operação (Longa duração) 
Período do ano Período 
do dia 
Valor 
operacional (A) Fator limitante 
01/Jan a 31/Dez Diurno / 
Noturno 1.680 Cabos Condutores 
 
Limites de condição de emergência (Curta duração) 
Período do ano Período 
do dia 
Valor 
operacional (A) 
Duração 
(Hh:mm) Fator limitante 
01/Jan a 31/Dez Diurno / 
Noturno 2.065 (1) (*) Cabos Condutores 
Notas: 
(1) - (*) Conforme exposto no item 2.4.2.deste Cadastro de Informações Operacionais. 
Manual de Procedimentos da Operação - Módulo 10 - Submódulo 10.18 
 Cadastro de Informações Operacionais Código Revisão Item Vigência 
CADASTRO DE LIMITES OPERACIONAIS DE LINHAS DE 
TRANSMISSÃO E TRANSFORMADORES DA ÁREA 230 KV 
DO MATO GROSSO DO SUL 
CD-
CT.CO.2MS.02 32 2.2.6 * 
 
Referência: RT-CD.BR.02 rev. 08.  23 / 41 
 
 
4.31. LT 230 KV NOVA PORTO PRIMAVERA / RIO BRILHANTE C1 
Limites de condição normal de operação (Longa duração) 
Período do ano Período 
do dia 
Valor 
operacional (A) Fator limitante 
01/Jan a 31/Dez Diurno / 
Noturno 1.680 Cabos condutores 
 
Limites de condição de emergência (Curta duração) 
Período do ano Período 
do dia 
Valor 
operacional (A) 
Duração 
(Hh:mm) Fator limitante 
01/Jan a 31/Dez Diurno / 
Noturno NP - Cabos condutores 
 
4.32. LT 230 KV NOVA PORTO PRIMAVERA / RIO BRILHANTE C2 
Limites de condição normal de operação (Longa duração) 
Período do ano Período 
do dia 
Valor 
operacional (A) Fator limitante 
01/Jan a 31/Dez Diurno / 
Noturno 1.680 Cabos Condutores 
 
Limites de condição de emergência (Curta duração) 
Período do ano Período 
do dia 
Valor 
operacional (A) 
Duração 
(Hh:mm) Fator limitante 
01/Jan a 31/Dez Diurno / 
Noturno 2.065 (1) (*) Cabos Condutores 
Notas: 
(1) - (*) Conforme exposto no item 2.4.2.deste Cadastro de Informações Operacionais. 
 
Manual de Procedimentos da Operação - Módulo 10 - Submódulo 10.18 
 Cadastro de Informações Operacionais Código Revisão Item Vigência 
CADASTRO DE LIMITES OPERACIONAIS DE LINHAS DE 
TRANSMISSÃO E TRANSFORMADORES DA ÁREA 230 KV 
DO MATO GROSSO DO SUL 
CD-
CT.CO.2MS.02 32 2.2.6 * 
 
Referência: RT-CD.BR.02 rev. 08.  24 / 41 
 
4.33. LT 138 KV ANASTÁCIO / AQUIDAUANA C1 
Limites de condição normal de operação (Longa duração) 
Período do ano Período 
do dia 
Valor 
operacional (A) Fator limitante 
01/Jan a 31/Dez Diurno / 
Noturno 391 Cabos condutores 
 
Limites de condição de emergência (Curta duração) 
Período do ano Período 
do dia 
Valor 
operacional (A) 
Duração 
(Hh:mm) Fator limitante 
01/Jan a 31/Dez Diurno / 
Noturno 493 (1) (*) Cabos condutores 
Notas: 
(1) - (*) Conforme exposto no item 2.4.2.deste Cadastro de Informações Operacionais. 
 
4.34. LT 138 KV ANASTÁCIO / AQUIDAUANA C2 
Limites de condição normal de operação (Longa duração) 
Período do ano Período 
do dia 
Valor 
operacional (A) Fator limitante 
01/Dez a 31/Dez Diurno / 
Noturno 391 Cabos condutores 
 
Limites de condição de emergência (Curta duração) 
Período do ano Período 
do dia 
Valor 
operacional (A) 
Duração 
(Hh:mm) Fator limitante 
01/Jan a 31/Dez Diurno / 
Noturno 493 (1) (*) Cabos condutores 
Notas: 
(1) - (*) Conforme exposto no item 2.4.2.deste Cadastro de Informações Operacionais. 
 
  
Manual de Procedimentos da Operação - Módulo 10 - Submódulo 10.18 
 Cadastro de Informações Operacionais Código Revisão Item Vigência 
CADASTRO DE LIMITES OPERACIONAIS DE LINHAS DE 
TRANSMISSÃO E TRANSFORMADORES DA ÁREA 230 KV 
DO MATO GROSSO DO SUL 
CD-
CT.CO.2MS.02 32 2.2.6 * 
 
Referência: RT-CD.BR.02 rev. 08.  25 / 41 
 
5. LIMITES DE CARREGAMENTO DE TRANSFORMADORES 
5.1. SE ANASTÁCIO – TRANSFORMADOR TF 1 230/138/13,8 KV 
Limites de Condição Normal de Operação 
Enrolamento (kV) Valor 
operacional (A) Fator limitante 
138 314 Problema de ponto quente no comutador a vazio. 
230 188 Problema de ponto quente no comutador a vazio. 
 
Limites de Condição de Emergência de Longa Duração 
Enrolamento 
(kV) 
Valor 
operacional (A) 
Duração 
(Hh:mm) Fator limitante 
138 NP - Problema de ponto quente no comutador a vazio. 
230 NP - Problema de ponto quente no comutador a vazio. 
 
Limites de Condição de Emergência de Curta Duração 
Enrolamento 
(kV) 
Valor 
operacional (A) 
Duração 
(Hh:mm) Fator limitante 
138 NP - Problema de ponto quente no comutador a vazio. 
230 NP - Problema de ponto quente no comutador a vazio. 
 
5.2. SE ANASTÁCIO – TRANSFORMADOR TF 2 230/138/13,8 KV 
Limites de Condição Normal de Operação 
Enrolamento (kV) Valor 
operacional (A) Fator limitante 
138 313 Temperatura máxima do óleo e/ou do enrolamento 
230 188 Temperatura máxima do óleo e/ou do enrolamento. 
 
Limites de Condição de Emergência de Longa Duração 
Enrolamento 
(kV) 
Valor 
operacional (A) 
Duração 
(Hh:mm) Fator limitante 
138 338 04:00 Temperatura máxima do óleo e/ou do enrolamento 
230 203 04:00 Temperatura máxima do óleo e/ou do enrolamento 
 
Manual de Procedimentos da Operação - Módulo 10 - Submódulo 10.18 
 Cadastro de Informações Operacionais Código Revisão Item Vigência 
CADASTRO DE LIMITES OPERACIONAIS DE LINHAS DE 
TRANSMISSÃO E TRANSFORMADORES DA ÁREA 230 KV 
DO MATO GROSSO DO SUL 
CD-
CT.CO.2MS.02 32 2.2.6 * 
 
Referência: RT-CD.BR.02 rev. 08.  26 / 41 
 
Limites de Condição de Emergência de Curta Duração 
Enrolamento 
(kV) 
Valor 
operacional (A) 
Duração 
(Hh:mm) Fator limitante 
138 439 00:04 Temperatura máxima do óleo e/ou do enrolamento 
230 264 00:04 Temperatura máxima do óleo e/ou do enrolamento 
138 377 00:27 Temperatura máxima do óleo e/ou do enrolamento 
230 226 00:27 Temperatura máxima do óleo e/ou do enrolamento 
 
5.3. SE CAMPO GRANDE 2 - AT1 230/138/13,8 KV  
Limites de Condição Normal de Operação 
Enrolamento (kV) Valor 
operacional (A) Fator limitante 
138 628 Temperatura máxima do óleo e/ou enrolamento 
230 377 Temperatura máxima do óleo e/ou enrolamento 
 
Limites de Condição de Emergência de Longa Duração 
Enrolamento 
(kV) 
Valor 
operacional (A) 
Duração 
(Hh:mm) Fator limitante 
138 753 04:00 Temperatura máxima do óleo e/ou enrolamento 
230 452 04:00 Temperatura máxima do óleo e/ou enrolamento 
 
Limites de Condição de Emergência de Curta Duração 
Enrolamento 
(kV) 
Valor 
operacional (A) 
Duração 
(Hh:mm) Fator limitante 
138 879 00:30 Temperatura máxima do óleo e/ou enrolamento 
230 527 00:30 Temperatura máxima do óleo e/ou enrolamento 
 
5.4. SE CAMPO GRANDE 2 - AT2 230/138/13,8 KV 
Limites de Condição Normal de Operação 
Enrolamento (kV) Valor 
operacional (A) Fator limitante 
138 628 Temperatura máxima do óleo e/ou enrolamento 
230 377 Temperatura máxima do óleo e/ou enrolamento 
Manual de Procedimentos da Operação - Módulo 10 - Submódulo 10.18 
 Cadastro de Informações Operacionais Código Revisão Item Vigência 
CADASTRO DE LIMITES OPERACIONAIS DE LINHAS DE 
TRANSMISSÃO E TRANSFORMADORES DA ÁREA 230 KV 
DO MATO GROSSO DO SUL 
CD-
CT.CO.2MS.02 32 2.2.6 * 
 
Referência: RT-CD.BR.02 rev. 08.  27 / 41 
 
 
Limites de Condição de Emergência de Longa Duração 
Enrolamento 
(kV) 
Valor 
operacional (A) 
Duração 
(Hh:mm) Fator limitante 
138 753 04:00 Temperatura máxima do óleo e/ou enrolamento 
230 452 04:00 Temperatura máxima do óleo e/ou enrolamento 
 
Limites de Condição de Emergência de Curta Duração 
Enrolamento 
(kV) 
Valor 
operacional (A) 
Duração 
(Hh:mm) Fator limitante 
138 879 00:30 Temperatura máxima do óleo e/ou enrolamento 
230 527 00:30 Temperatura máxima do óleo e/ou enrolamento 
 
5.5. SE CAMPO GRANDE 2 - AT3 230/138/13,8 KV 
Limites de Condição Normal de Operação 
Enrolamento (kV) Valor 
operacional (A) Fator limitante 
138 628 Temperatura máxima do óleo e/ou enrolamento 
230 377 Temperatura máxima do óleo e/ou enrolamento 
 
Limites de Condição de Emergência de Longa Duração 
Enrolamento 
(kV) 
Valor 
operacional (A) 
Duração 
(Hh:mm) Fator limitante 
138 753 04:00 Temperatura máxima do óleo e/ou enrolamento 
230 452 04:00 Temperatura máxima do óleo e/ou enrolamento 
 
Limites de Condição de Emergência de Curta Duração 
Enrolamento 
(kV) 
Valor 
operacional (A) 
Duração 
(Hh:mm) Fator limitante 
138 879 00:30 Temperatura máxima do óleo e/ou enrolamento 
230 527 00:30 Temperatura máxima do óleo e/ou enrolamento 
 
Manual de Procedimentos da Operação - Módulo 10 - Submódulo 10.18 
 Cadastro de Informações Operacionais Código Revisão Item Vigência 
CADASTRO DE LIMITES OPERACIONAIS DE LINHAS DE 
TRANSMISSÃO E TRANSFORMADORES DA ÁREA 230 KV 
DO MATO GROSSO DO SUL 
CD-
CT.CO.2MS.02 32 2.2.6 * 
 
Referência: RT-CD.BR.02 rev. 08.  28 / 41 
 
5.6. SE CORUMBÁ 2 – TRANSFORMADOR 7AT01 230/138/13,8 KV 
Limites de Condição Normal de Operação 
Enrolamento (kV) Valor 
operacional (A) Fator limitante 
138 418 Temperatura máxima do óleo e/ou do enrolamento 
230 251 Temperatura máxima do óleo e/ou do enrolamento 
 
Limites de Condição de Emergência de Longa Duração 
Enrolamento 
(kV) 
Valor 
operacional (A) 
Duração 
(Hh:mm) Fator limitante 
138 502 04:00 Temperatura máxima do óleo e/ou do enrolamento 
230 301 04:00 Temperatura máxima do óleo e/ou do enrolamento 
 
Limites de Condição de Emergência de Curta Duração 
Enrolamento 
(kV) 
Valor 
operacional (A) 
Duração 
(Hh:mm) Fator limitante 
138 585 00:30 Temperatura máxima do óleo e/ou enrolamento. 
230 351 00:30 Temperatura máxima do óleo e/ou enrolamento. 
 
5.7. SE CORUMBÁ 2 – TRANSFORMADOR 7AT02 230/138/13,8 KV 
Limites de Condição Normal de Operação 
Enrolamento (kV) Valor 
operacional (A) Fator limitante 
138 418 Temperatura máxima do óleo e/ou do enrolamento 
230 251 Temperatura máxima do óleo e/ou do enrolamento 
 
Limites de Condição de Emergência de Longa Duração 
Enrolamento 
(kV) 
Valor 
operacional (A) 
Duração 
(Hh:mm) Fator limitante 
138 502 04:00 Temperatura máxima do óleo e/ou do enrolamento 
230 301 04:00 Temperatura máxima do óleo e/ou do enrolamento 
 
Manual de Procedimentos da Operação - Módulo 10 - Submódulo 10.18 
 Cadastro de Informações Operacionais Código Revisão Item Vigência 
CADASTRO DE LIMITES OPERACIONAIS DE LINHAS DE 
TRANSMISSÃO E TRANSFORMADORES DA ÁREA 230 KV 
DO MATO GROSSO DO SUL 
CD-
CT.CO.2MS.02 32 2.2.6 * 
 
Referência: RT-CD.BR.02 rev. 08.  29 / 41 
 
Limites de Condição de Emergência de Curta Duração 
Enrolamento 
(kV) 
Valor 
operacional (A) 
Duração 
(Hh:mm) Fator limitante 
138 585 00:30 Temperatura máxima do óleo e/ou enrolamento. 
230 351 00:30 Temperatura máxima do óleo e/ou enrolamento. 
 
5.8. SE DOURADOS – TRANSFORMADOR TF 1 230/138/13,8 KV 
Limites de Condição Normal de Operação 
Enrolamento (kV) Valor 
operacional (A) Fator limitante 
138 314 Temperatura máxima do óleo e/ou enrolamento. 
230 188 Temperatura máxima do óleo e/ou enrolamento. 
 
Limites de Condição de Emergência de Longa Duração 
Enrolamento 
(kV) 
Valor 
operacional (A) 
Duração 
(Hh:mm) Fator limitante 
138 NP - Temperatura máxima do óleo e/ou enrolamento. 
230 NP - Temperatura máxima do óleo e/ou enrolamento. 
 
Limites de Condição de Emergência de Curta Duração 
Enrolamento 
(kV) 
Valor 
operacional (A) 
Duração 
(Hh:mm) Fator limitante 
138 NP - Temperatura máxima do óleo e/ou enrolamento 
230 NP - Temperatura máxima do óleo e/ou enrolamento 
 
5.9. SE DOURADOS – TRANSFORMADOR TF 2 230/138/13,8 KV 
Limites de Condição Normal de Operação 
Enrolamento (kV) Valor 
operacional (A) Fator limitante 
138 314 Temperatura máxima do óleo e/ou enrolamento. 
230 188 Temperatura máxima do óleo e/ou enrolamento. 
 
Manual de Procedimentos da Operação - Módulo 10 - Submódulo 10.18 
 Cadastro de Informações Operacionais Código Revisão Item Vigência 
CADASTRO DE LIMITES OPERACIONAIS DE LINHAS DE 
TRANSMISSÃO E TRANSFORMADORES DA ÁREA 230 KV 
DO MATO GROSSO DO SUL 
CD-
CT.CO.2MS.02 32 2.2.6 * 
 
Referência: RT-CD.BR.02 rev. 08.  30 / 41 
 
Limites de Condição de Emergência de Longa Duração 
Enrolamento 
(kV) 
Valor 
operacional (A) 
Duração 
(Hh:mm) Fator limitante 
138 NP - Temperatura máxima do óleo e/ou enrolamento. 
230 NP - Temperatura máxima do óleo e/ou enrolamento. 
 
Limites de Condição de Emergência de Curta Duração 
Enrolamento 
(kV) 
Valor 
operacional (A) 
Duração 
(Hh:mm) Fator limitante 
138 NP - Temperatura máxima do óleo e/ou enrolamento 
230 NP - Temperatura máxima do óleo e/ou enrolamento 
 
5.10. SE DOURADOS – TRANSFORMADOR TF 3 230/138/13,8 KV 
Limites de Condição Normal de Operação 
Enrolamento (kV) Valor 
operacional (A) Fator limitante 
138 314 Temperatura máxima do óleo e/ou do enrolamento 
230 188 Temperatura máxima do óleo e/ou do enrolamento 
 
Limites de Condição de Emergência de Longa Duração 
Enrolamento 
(kV) 
Valor 
operacional (A) 
Duração 
(Hh:mm) Fator limitante 
138 339 04:00 Transformador projetado anteriormente à NBR 5416/1997 
230 203 04:00 Transformador projetado anteriormente à NBR 5416/1997 
 
Limites de Condição de Emergência de Curta Duração 
Enrolamento 
(kV) 
Valor 
operacional (A) 
Duração 
(Hh:mm) Fator limitante 
138 376 00:30 Transformador projetado anteriormente à NBR 5416/1997 
230 225 00:30 Transformador projetado anteriormente à NBR 5416/1997 
 
Manual de Procedimentos da Operação - Módulo 10 - Submódulo 10.18 
 Cadastro de Informações Operacionais Código Revisão Item Vigência 
CADASTRO DE LIMITES OPERACIONAIS DE LINHAS DE 
TRANSMISSÃO E TRANSFORMADORES DA ÁREA 230 KV 
DO MATO GROSSO DO SUL 
CD-
CT.CO.2MS.02 32 2.2.6 * 
 
Referência: RT-CD.BR.02 rev. 08.  31 / 41 
 
5.11. SE DOURADOS – TRANSFORMADOR TF 4 230/138/13,8 KV 
Limites de Condição Normal de Operação 
Enrolamento (kV) Valor 
operacional (A) Fator limitante 
138 313 Temperatura máxima do óleo e/ou do enrolamento 
230 188 Temperatura máxima do óleo e/ou enrolamento 
 
Limites de Condição de Emergência de Longa Duração 
Enrolamento 
(kV) 
Valor 
operacional (A) 
Duração 
(Hh:mm) Fator limitante 
138 333 04:00 Temperatura máxima do óleo e/ou do enrolamento 
230 200 04:00 Temperatura máxima do óleo e/ou do enrolamento 
 
Limites de Condição de Emergência de Curta Duração 
Enrolamento 
(kV) 
Valor 
operacional (A) 
Duração 
(Hh:mm) Fator limitante 
138 NP - Temperatura máxima do óleo e/ou enrolamento 
230 NP - Temperatura máxima do óleo e/ou enrolamento 
 
5.12. SE DOURADOS 2 - TRANSFORMADOR 04T1 230/138/13,8 KV 
Limites de Condição Normal de Operação 
Enrolamento (kV) Valor 
operacional (A) Fator limitante 
138 628 Temperatura máxima do óleo e/ou do enrolamento 
230 377 Temperatura máxima do óleo e/ou do enrolamento 
 
Limites de Condição de Emergência de Longa Duração 
Enrolamento 
(kV) 
Valor 
operacional (A) 
Duração 
(Hh:mm) Fator limitante 
138 753 04:00 Temperatura máxima do óleo e/ou do enrolamento 
230 452 04:00 Temperatura máxima do óleo e/ou do enrolamento 
 
Manual de Procedimentos da Operação - Módulo 10 - Submódulo 10.18 
 Cadastro de Informações Operacionais Código Revisão Item Vigência 
CADASTRO DE LIMITES OPERACIONAIS DE LINHAS DE 
TRANSMISSÃO E TRANSFORMADORES DA ÁREA 230 KV 
DO MATO GROSSO DO SUL 
CD-
CT.CO.2MS.02 32 2.2.6 * 
 
Referência: RT-CD.BR.02 rev. 08.  32 / 41 
 
Limites de Condição de Emergência de Curta Duração 
Enrolamento 
(kV) 
Valor 
operacional (A) 
Duração 
(Hh:mm) Fator limitante 
138 879 00:30 Temperatura máxima do óleo e/ou do enrolamento 
230 527 00:30 Temperatura máxima do óleo e/ou do enrolamento 
 
5.13. SE DOURADOS 2 - TRANSFORMADOR 04T2 230/138/13,8 KV 
Limites de Condição Normal de Operação 
Enrolamento (kV) Valor 
operacional (A) Fator limitante 
138 628 Temperatura máxima do óleo e/ou do enrolamento 
230 377 Temperatura máxima do óleo e/ou do enrolamento 
 
Limites de Condição de Emergência de Longa Duração 
Enrolamento 
(kV) 
Valor 
operacional (A) 
Duração 
(Hh:mm) Fator limitante 
138 753 04:00 Temperatura máxima do óleo e/ou do enrolamento 
230 452 04:00 Temperatura máxima do óleo e/ou do enrolamento 
 
Limites de Condição de Emergência de Curta Duração 
Enrolamento 
(kV) 
Valor 
operacional (A) 
Duração 
(Hh:mm) Fator limitante 
138 879 00:30 Temperatura máxima do óleo e/ou do enrolamento 
230 527 00:30 Temperatura máxima do óleo e/ou do enrolamento 
 
5.14. SE ILHA SOLTEIRA 2 – TRANSFORMADOR 9AT01 440/230/13,8 KV 
Limites de Condição Normal de Operação 
Enrolamento (kV) Valor 
operacional (A) Fator limitante 
230 1.129 Temperatura máxima do óleo e/ou do enrolamento. 
440 590 Temperatura máxima do óleo e/ou do enrolamento. 
 
Manual de Procedimentos da Operação - Módulo 10 - Submódulo 10.18 
 Cadastro de Informações Operacionais Código Revisão Item Vigência 
CADASTRO DE LIMITES OPERACIONAIS DE LINHAS DE 
TRANSMISSÃO E TRANSFORMADORES DA ÁREA 230 KV 
DO MATO GROSSO DO SUL 
CD-
CT.CO.2MS.02 32 2.2.6 * 
 
Referência: RT-CD.BR.02 rev. 08.  33 / 41 
 
Limites de Condição de Emergência de Longa Duração 
Enrolamento 
(kV) 
Valor 
operacional (A) 
Duração 
(Hh:mm) Fator limitante 
230 1.469 04:00 Temperatura máxima do óleo e/ou do enrolamento. 
440 768 04:00 Temperatura máxima do óleo e/ou do enrolamento. 
 
Limites de Condição de Emergência de Curta Duração 
Enrolamento 
(kV) 
Valor 
operacional (A) 
Duração 
(Hh:mm) Fator limitante 
230 1.581 00:30 Temperatura máxima do óleo e/ou do enrolamento. 
440 827 00:30 Temperatura máxima do óleo e/ou do enrolamento. 
 
5.15. SE ILHA SOLTEIRA 2 – TRANSFORMADOR 9AT02 440/230/13,8 KV 
Limites de Condição Normal de Operação 
Enrolamento (kV) Valor 
operacional (A) Fator limitante 
230 1.129 Temperatura máxima do óleo e/ou do enrolamento. 
440 590 Temperatura máxima do óleo e/ou do enrolamento. 
 
Limites de Condição de Emergência de Longa Duração 
Enrolamento 
(kV) 
Valor 
operacional (A) 
Duração 
(Hh:mm) Fator limitante 
230 1.469 04:00 Temperatura máxima do óleo e/ou do enrolamento. 
440 768 04:00 Temperatura máxima do óleo e/ou do enrolamento. 
 
Limites de Condição de Emergência de Curta Duração 
Enrolamento 
(kV) 
Valor 
operacional (A) 
Duração 
(Hh:mm) Fator limitante 
230 1.581 00:30 Temperatura máxima do óleo e/ou do enrolamento. 
440 827 00:30 Temperatura máxima do óleo e/ou do enrolamento. 
 
Manual de Procedimentos da Operação - Módulo 10 - Submódulo 10.18 
 Cadastro de Informações Operacionais Código Revisão Item Vigência 
CADASTRO DE LIMITES OPERACIONAIS DE LINHAS DE 
TRANSMISSÃO E TRANSFORMADORES DA ÁREA 230 KV 
DO MATO GROSSO DO SUL 
CD-
CT.CO.2MS.02 32 2.2.6 * 
 
Referência: RT-CD.BR.02 rev. 08.  34 / 41 
 
5.16. SE ILHA SOLTEIRA 2 – TRANSFORMADOR 9AT03 440/230/13,8 KV 
Limites de Condição Normal de Operação 
Enrolamento (kV) Valor 
operacional (A) Fator limitante 
230 1.129 Temperatura máxima do óleo e/ou do enrolamento. 
440 590 Temperatura máxima do óleo e/ou do enrolamento. 
 
Limites de Condição de Emergência de Longa Duração 
Enrolamento 
(kV) 
Valor 
operacional (A) 
Duração 
(Hh:mm) Fator limitante 
230 1.469 04:00 Temperatura máxima do óleo e/ou do enrolamento. 
440 768 04:00 Temperatura máxima do óleo e/ou do enrolamento. 
 
Limites de Condição de Emergência de Curta Duração 
Enrolamento 
(kV) 
Valor 
operacional (A) 
Duração 
(Hh:mm) Fator limitante 
230 1.581 00:30 Temperatura máxima do óleo e/ou do enrolamento. 
440 827 00:30 Temperatura máxima do óleo e/ou do enrolamento. 
 
5.17. SE IMBIRUSSÚ – TRANSFORMADOR 7AT01 230/130/13,8 KV 
Limites de Condição Normal de Operação 
Enrolamento (kV) Valor 
operacional (A) Fator limitante 
138 628 Temperatura máxima do óleo e ou do enrolamento 
230 377 Temperatura máxima do óleo e ou do enrolamento 
 
Limites de Condição de Emergência de Longa Duração 
Enrolamento 
(kV) 
Valor 
operacional (A) 
Duração 
(Hh:mm) Fator limitante 
138 816 04:00 Temperatura máxima do óleo e ou do enrolamento 
230 490 04:00 Temperatura máxima do óleo e ou do enrolamento 
 
Manual de Procedimentos da Operação - Módulo 10 - Submódulo 10.18 
 Cadastro de Informações Operacionais Código Revisão Item Vigência 
CADASTRO DE LIMITES OPERACIONAIS DE LINHAS DE 
TRANSMISSÃO E TRANSFORMADORES DA ÁREA 230 KV 
DO MATO GROSSO DO SUL 
CD-
CT.CO.2MS.02 32 2.2.6 * 
 
Referência: RT-CD.BR.02 rev. 08.  35 / 41 
 
Limites de Condição de Emergência de Curta Duração 
Enrolamento 
(kV) 
Valor 
operacional (A) 
Duração 
(Hh:mm) Fator limitante 
138 879 00:30 Temperatura máxima do óleo e ou do enrolamento 
230 527 00:30 Temperatura máxima do óleo e ou do enrolamento 
 
5.18. SE IMBIRUSSÚ – TRANSFORMADOR 7AT02 230/130/13,8 KV 
Limites de Condição Normal de Operação 
Enrolamento (kV) Valor 
operacional (A) Fator limitante 
138 628 Temperatura máxima do óleo e ou do enrolamento 
230 377 Temperatura máxima do óleo e ou do enrolamento 
 
Limites de Condição de Emergência de Longa Duração 
Enrolamento 
(kV) 
Valor 
operacional (A) 
Duração 
(Hh:mm) Fator limitante 
138 816 04:00 Temperatura máxima do óleo e ou do enrolamento 
230 490 04:00 Temperatura máxima do óleo e ou do enrolamento 
 
Limites de Condição de Emergência de Curta Duração 
Enrolamento 
(kV) 
Valor 
operacional (A) 
Duração 
(Hh:mm) Fator limitante 
138 879 00:30 Temperatura máxima do óleo e ou do enrolamento 
230 527 00:30 Temperatura máxima do óleo e ou do enrolamento 
 
5.19. SE IMBIRUSSÚ – TRANSFORMADOR 7AT03 230/130/13,8 KV 
Limites de Condição Normal de Operação 
Enrolamento (kV) Valor 
operacional (A) Fator limitante 
138 628 Temperatura máxima do óleo e ou do enrolamento 
230 377 Temperatura máxima do óleo e ou do enrolamento 
 
Manual de Procedimentos da Operação - Módulo 10 - Submódulo 10.18 
 Cadastro de Informações Operacionais Código Revisão Item Vigência 
CADASTRO DE LIMITES OPERACIONAIS DE LINHAS DE 
TRANSMISSÃO E TRANSFORMADORES DA ÁREA 230 KV 
DO MATO GROSSO DO SUL 
CD-
CT.CO.2MS.02 32 2.2.6 * 
 
Referência: RT-CD.BR.02 rev. 08.  36 / 41 
 
Limites de Condição de Emergência de Longa Duração 
Enrolamento 
(kV) 
Valor 
operacional (A) 
Duração 
(Hh:mm) Fator limitante 
138 816 04:00 Temperatura máxima do óleo e ou do enrolamento 
230 490 04:00 Temperatura máxima do óleo e ou do enrolamento 
 
Limites de Condição de Emergência de Curta Duração 
Enrolamento 
(kV) 
Valor 
operacional (A) 
Duração 
(Hh:mm) Fator limitante 
138 879 00:30 Temperatura máxima do óleo e ou do enrolamento 
230 527 00:30 Temperatura máxima do óleo e ou do enrolamento 
 
5.20. SE IVINHEMA 2 - TRANSFORMADOR 7AT01 230/138/13,8 KV 
Limites de Condição Normal de Operação 
Enrolamento (kV) Valor 
operacional (A) Fator limitante 
138 628 Temperatura máxima do óleo e/ou do enrolamento 
230 377 Temperatura máxima do óleo e/ou do enrolamento 
 
Limites de Condição de Emergência de Longa Duração 
Enrolamento 
(kV) 
Valor 
operacional (A) 
Duração 
(Hh:mm) Fator limitante 
138 754 04:00 Temperatura máxima do óleo e/ou do enrolamento 
230 452 04:00 Temperatura máxima do óleo e/ou do enrolamento 
 
Limites de Condição de Emergência de Curta Duração 
Enrolamento 
(kV) 
Valor 
operacional (A) 
Duração 
(Hh:mm) Fator limitante 
138 878 00:30 Temperatura máxima do óleo e/ou do enrolamento 
230 527 00:30 Temperatura máxima do óleo e/ou do enrolamento 
 
Manual de Procedimentos da Operação - Módulo 10 - Submódulo 10.18 
 Cadastro de Informações Operacionais Código Revisão Item Vigência 
CADASTRO DE LIMITES OPERACIONAIS DE LINHAS DE 
TRANSMISSÃO E TRANSFORMADORES DA ÁREA 230 KV 
DO MATO GROSSO DO SUL 
CD-
CT.CO.2MS.02 32 2.2.6 * 
 
Referência: RT-CD.BR.02 rev. 08.  37 / 41 
 
5.21. SE IVINHEMA 2 - TRANSFORMADOR 7AT02 230/138/13,8 KV 
Limites de Condição Normal de Operação 
Enrolamento (kV) Valor 
operacional (A) Fator limitante 
138 628 Temperatura máxima do óleo e/ou do enrolamento 
230 377 Temperatura máxima do óleo e/ou do enrolamento 
 
Limites de Condição de Emergência de Longa Duração 
Enrolamento 
(kV) 
Valor 
operacional (A) 
Duração 
(Hh:mm) Fator limitante 
138 754 04:00 Temperatura máxima do óleo e/ou do enrolamento 
230 452 04:00 Temperatura máxima do óleo e/ou do enrolamento 
 
Limites de Condição de Emergência de Curta Duração 
Enrolamento 
(kV) 
Valor 
operacional (A) 
Duração 
(Hh:mm) Fator limitante 
138 878 00:30 Temperatura máxima do óleo e/ou do enrolamento 
230 527 00:30 Temperatura máxima do óleo e/ou do enrolamento 
 
5.22. SE NOVA PORTO PRIMAVERA – TRANSFORMADOR 9AT01 440/230/13,8 KV 
Limites de Condição Normal de Operação 
Enrolamento (kV) Valor 
operacional (A) Fator limitante 
230 1.129 Temperatura máxima do óleo e/ou do enrolamento. 
440 590 Temperatura máxima do óleo e/ou do enrolamento. 
 
Limites de Condição de Emergência de Longa Duração 
Enrolamento 
(kV) 
Valor 
operacional (A) 
Duração 
(Hh:mm) Fator limitante 
230 1.469 04:00 Temperatura máxima do óleo e/ou do enrolamento. 
440 768 04:00 Temperatura máxima do óleo e/ou do enrolamento. 
 
Manual de Procedimentos da Operação - Módulo 10 - Submódulo 10.18 
 Cadastro de Informações Operacionais Código Revisão Item Vigência 
CADASTRO DE LIMITES OPERACIONAIS DE LINHAS DE 
TRANSMISSÃO E TRANSFORMADORES DA ÁREA 230 KV 
DO MATO GROSSO DO SUL 
CD-
CT.CO.2MS.02 32 2.2.6 * 
 
Referência: RT-CD.BR.02 rev. 08.  38 / 41 
 
Limites de Condição de Emergência de Curta Duração 
Enrolamento 
(kV) 
Valor 
operacional (A) 
Duração 
(Hh:mm) Fator limitante 
230 NP - Temperatura máxima do óleo e/ou enrolamento 
440 NP - Temperatura máxima do óleo e/ou enrolamento 
 
5.23. SE NOVA PORTO PRIMAVERA – TRANSFORMADOR 9AT02 440/230/13,8 KV 
Limites de Condição Normal de Operação 
Enrolamento (kV) Valor 
operacional (A) Fator limitante 
230 1.129 Temperatura máxima do óleo e/ou do enrolamento.. 
440 590 Temperatura máxima do óleo e/ou do enrolamento.. 
 
Limites de Condição de Emergência de Longa Duração 
Enrolamento 
(kV) 
Valor 
operacional (A) 
Duração 
(Hh:mm) Fator limitante 
230 1.469 04:00 Temperatura máxima do óleo e/ou do enrolamento.. 
440 768 04:00 Temperatura máxima do óleo e/ou do enrolamento.. 
 
Limites de Condição de Emergência de Curta Duração 
Enrolamento 
(kV) 
Valor 
operacional (A) 
Duração 
(Hh:mm) Fator limitante 
230 NP - Temperatura máxima do óleo e/ou enrolamento.. 
440 NP - Temperatura máxima do óleo e/ou enrolamento.. 
 
5.24. SE NOVA PORTO PRIMAVERA - TRANSFORMADOR 9AT03 440/230/13,8 KV  
Limites de Condição Normal de Operação 
Enrolamento (kV) Valor 
operacional (A) Fator limitante 
230 1.129 Temperatura máxima do óleo e/ou do enrolamento. 
440 590 Temperatura máxima do óleo e/ou do enrolamento. 
 
Manual de Procedimentos da Operação - Módulo 10 - Submódulo 10.18 
 Cadastro de Informações Operacionais Código Revisão Item Vigência 
CADASTRO DE LIMITES OPERACIONAIS DE LINHAS DE 
TRANSMISSÃO E TRANSFORMADORES DA ÁREA 230 KV 
DO MATO GROSSO DO SUL 
CD-
CT.CO.2MS.02 32 2.2.6 * 
 
Referência: RT-CD.BR.02 rev. 08.  39 / 41 
 
Limites de Condição de Emergência de Longa Duração 
Enrolamento 
(kV) 
Valor 
operacional (A) 
Duração 
(Hh:mm) Fator limitante 
230 1.355 04:00 Temperatura máxima do óleo e/ou do enrolamento. 
440 708 04:00 Temperatura máxima do óleo e/ou do enrolamento. 
 
Limites de Condição de Emergência de Curta Duração 
Enrolamento 
(kV) 
Valor 
operacional (A) 
Duração 
(Hh:mm) Fator limitante 
230 1.581 00:30 Temperatura máxima do óleo e/ou do enrolamento. 
440 827 00:30 Temperatura máxima do óleo e/ou do enrolamento. 
 
5.25. SE PARAÍSO 2 - TRANSFORMADOR 04T1 230/138/13,8 KV 
Limites de Condição Normal de Operação 
Enrolamento (kV) Valor 
operacional (A) Fator limitante 
138 628 Temperatura máxima do óleo e/ou do enrolamento 
230 377 Temperatura máxima do óleo e/ou do enrolamento 
 
Limites de Condição de Emergência de Longa Duração 
Enrolamento 
(kV) 
Valor 
operacional (A) 
Duração 
(Hh:mm) Fator limitante 
138 753 04:00 Temperatura máxima do óleo e/ou do enrolamento 
230 452 04:00 Temperatura máxima do óleo e/ou do enrolamento 
 
Limites de Condição de Emergência de Curta Duração 
Enrolamento 
(kV) 
Valor 
operacional (A) 
Duração 
(Hh:mm) Fator limitante 
138 879 00:30 Temperatura máxima do óleo e/ou do enrolamento 
230 527 00:30 Temperatura máxima do óleo e/ou do enrolamento 
 
Manual de Procedimentos da Operação - Módulo 10 - Submódulo 10.18 
 Cadastro de Informações Operacionais Código Revisão Item Vigência 
CADASTRO DE LIMITES OPERACIONAIS DE LINHAS DE 
TRANSMISSÃO E TRANSFORMADORES DA ÁREA 230 KV 
DO MATO GROSSO DO SUL 
CD-
CT.CO.2MS.02 32 2.2.6 * 
 
Referência: RT-CD.BR.02 rev. 08.  40 / 41 
 
5.26. SE PARAÍSO 2 - TRANSFORMADOR 04T2 230/138/13,8 KV 
Limites de Condição Normal de Operação 
Enrolamento (kV) Valor 
operacional (A) Fator limitante 
138 628 Temperatura máxima do óleo e/ou do enrolamento 
230 377 Temperatura máxima do óleo e/ou do enrolamento 
 
Limites de Condição de Emergência de Longa Duração 
Enrolamento 
(kV) 
Valor 
operacional (A) 
Duração 
(Hh:mm) Fator limitante 
138 753 04:00 Temperatura máxima do óleo e/ou do enrolamento 
230 452 04:00 Temperatura máxima do óleo e/ou do enrolamento 
 
Limites de Condição de Emergência de Curta Duração 
Enrolamento 
(kV) 
Valor 
operacional (A) 
Duração 
(Hh:mm) Fator limitante 
138 879 00:30 Temperatura máxima do óleo e/ou do enrolamento 
230 527 00:30 Temperatura máxima do óleo e/ou do enrolamento 
 
5.27. SE SIDROLÂNDIA 2 - TRANSFORMADOR 7AT01 230/138/13,8 KV 
Limites de Condição Normal de Operação 
Enrolamento (kV) Valor 
operacional (A) Fator limitante 
138 418 Temperatura máxima do óleo e ou do enrolamento 
230 251 Temperatura máxima do óleo e ou do enrolamento 
 
Limites de Condição de Emergência de Longa Duração 
Enrolamento 
(kV) 
Valor 
operacional (A) 
Duração 
(Hh:mm) Fator limitante 
138 502 04:00 Temperatura máxima do óleo e ou do enrolamento 
230 301 04:00 Temperatura máxima do óleo e ou do enrolamento 
 
Manual de Procedimentos da Operação - Módulo 10 - Submódulo 10.18 
 Cadastro de Informações Operacionais Código Revisão Item Vigência 
CADASTRO DE LIMITES OPERACIONAIS DE LINHAS DE 
TRANSMISSÃO E TRANSFORMADORES DA ÁREA 230 KV 
DO MATO GROSSO DO SUL 
CD-
CT.CO.2MS.02 32 2.2.6 * 
 
Referência: RT-CD.BR.02 rev. 08.  41 / 41 
 
Limites de Condição de Emergência de Curta Duração 
Enrolamento 
(kV) 
Valor 
operacional (A) 
Duração 
(Hh:mm) Fator limitante 
138 585 00:30 Temperatura máxima do óleo e ou do enrolamento 
230 351 00:30 Temperatura máxima do óleo e ou do enrolamento 
 
5.28. SE SIDROLÂNDIA 2 - TRANSFORMADOR 7AT02 230/138/13,8 KV 
Limites de Condição Normal de Operação 
Enrolamento (kV) Valor 
operacional (A) Fator limitante 
138 418 Temperatura máxima do óleo e ou do enrolamento 
230 251 Temperatura máxima do óleo e ou do enrolamento 
 
Limites de Condição de Emergência de Longa Duração 
Enrolamento 
(kV) 
Valor 
operacional (A) 
Duração 
(Hh:mm) Fator limitante 
138 502 04:00 Temperatura máxima do óleo e ou do enrolamento 
230 301 04:00 Temperatura máxima do óleo e ou do enrolamento 
 
Limites de Condição de Emergência de Curta Duração 
Enrolamento 
(kV) 
Valor 
operacional (A) 
Duração 
(Hh:mm) Fator limitante 
138 585 00:30 Temperatura máxima do óleo e ou do enrolamento 
230 351 00:30 Temperatura máxima do óleo e ou do enrolamento 
 
