 
Manual de Procedimentos da Operação 
Módulo 5 - Submódulo 5.11 
 
Cadastro de Informações Operacionais 
Cadastro de Dados Operacionais de Equipamentos da Área 230 kV Sudoeste da Região Nordeste 
 
 
Código Revisão Item Vigência 
CD-CT.NE.2SO.01 74 2.1.3. 27/09/2024 
 
. 
 
MOTIVO DA REVISÃO 
- Ativação dos religamentos automáticos das LT 230 kV Bom Jesus da Lapa II / Bom Jesus da Lapa – C1(F3) e 
LT 230 kV Bom Jesus da Lapa II / Bom Jesus da Lapa – C2(F4), acarretando a atualização dos itens 3.7 e 3.8. 
 
 
 
LISTA DE DISTRIBUIÇÃO 
CNOS COSR-NE Chesf 
State Grid Taesa Companhia Energética de Petrolina 
Cymi UTE Sykué São Pedro Transmissora 
TME Equatorial Engepat 
Energisa Soluções   
 
Manual de Procedimentos da Operação - Módulo 5 - Submódulo 5.11 
 Cadastro de Informações Operacionais Código Revisão Item Vigência 
Cadastro de Dados Operacionais de Equipamentos da 
Área 230 kV Sudoeste da Região Nordeste CD-CT.NE.2SO.01 74 2.1.3. 27/09/2024 
 
Referência: PARECER TÉCNICO 0191/2024 - RELIGAMENTO AUTOMÁTICO LT 230KV BOM JESUS DA LAPA IIIGAPORÃ II C1, LT 230KV BOM 
JESUS DA LAPA II – BOM JESUS DA LAPA C1 E C2 
2/53 
 
ÍNDICE 
1. OBJETIVO ................................ ................................ ................................ ................................ ..... 6 
2. CONSIDERAÇÕES GERAIS................................ ................................ ................................ ............... 6 
3. DADOS OPERACIONAIS DE LINHAS DE TRANSMISSÃO ................................ ................................ .... 7 
3.1. LT 230 KV BARREIRAS / BARREIRAS II – C1(V2) .............................................................................. 8 
3.2. LT 230 KV BARREIRAS / BARREIRAS II – C3(L8) .............................................................................. 8 
3.3. LT 230 KV BARREIRAS II / DIANÓPOLIS II – C1 ............................................................................... 9 
3.4. LT 230 KV BARREIRAS / RIO GRANDE II - C1(L4) ............................................................................ 9 
3.5. LT 230 KV BARREIRAS II / RIO GRANDE II - C1(C1) ....................................................................... 10 
3.6. LT 230 KV BARREIRAS II / TABOCAS DO BREJO VELHO – C1(V1) .................................................. 10 
3.7. LT 230 kV BOM JESUS DA LAPA II / BOM JESUS DA LAPA - C1(F3) ............................................... 11 
3.8. LT 230 kV BOM JESUS DA LAPA II / BOM JESUS DA LAPA - C2(F4) ............................................... 12 
3.9. LT 230 KV BOM JESUS DA LAPA II / IGAPORÃ II - C1(F6) .............................................................. 12 
3.10. LT 230 kV BOM JESUS DA LAPA / TABOCAS DO BREJO VELHO - C1(L1) ....................................... 13 
3.11. LT 230 KV BROTAS DE MACAÚBAS / GENTIO DO OURO II - C1(F6) .............................................. 13 
3.12. LT 230 kV IRECÊ / BROTAS DE MACAÚBAS - C1(F2) ..................................................................... 14 
3.13. LT 230 kV IRECÊ / MORRO DO CHAPÉU II - C1(S5) ....................................................................... 14 
3.14. LT 230 KV IRECÊ / OUROLÂNDIA II - C1(F1).................................................................................. 15 
3.15. LT 230 kV IGAPORÃ II / IGAPORÃ III - C1(F8) ............................................................................... 15 
3.16. LT 230 kV IGAPORÃ II / IGAPORÃ III - C2(F9) ............................................................................... 16 
3.17. LT 230 kV IGAPORÃ III / PINDAÍ II - C1(N1) .................................................................................. 16 
3.18. LT 230 kV IGAPORÃ III / PINDAÍ II - C2(N2) .................................................................................. 17 
3.19. LT 230 kV IGAPORÃ III / PINDAÍ II - C3(N3) .................................................................................. 17 
3.20. LT 230 kV BROTAS DE MACAÚBAS / BOM JESUS DA LAPA - C1(F5) ............................................. 18 
3.21. LT 230 kV JUAZEIRO DA BAHIA II / JAGUARARI - C1(N1) .............................................................. 18 
3.22. LT 230 kV JUAZEIRO DA BAHIA III / JUAZEIRO DA BAHIA II -  C1(S4)............................................ 19 
3.23. LT 230 kV JAGUARARI / SENHOR DO BONFIM II - C1(L1) ............................................................. 19 
3.24. LT 230 kV JUAZEIRO DA BAHIA II / SENHOR DO BONFIM II - C1(N2) ........................................... 20 
3.25. LT 230 KV OUROLÂNDIA II / CAMPO FORMOSO - C1(C2) ............................................................ 20 
3.26. LT 230 KV RIO DAS ÉGUAS / RIO FORMOSO II – C1(F1) ............................................................... 21 
3.27. LT 230 KV RIO DAS ÉGUAS / RIO FORMOSO II – C2(F2) ............................................................... 21 
Manual de Procedimentos da Operação - Módulo 5 - Submódulo 5.11 
 Cadastro de Informações Operacionais Código Revisão Item Vigência 
Cadastro de Dados Operacionais de Equipamentos da 
Área 230 kV Sudoeste da Região Nordeste CD-CT.NE.2SO.01 74 2.1.3. 27/09/2024 
 
Referência: PARECER TÉCNICO 0191/2024 - RELIGAMENTO AUTOMÁTICO LT 230KV BOM JESUS DA LAPA IIIGAPORÃ II C1, LT 230KV BOM 
JESUS DA LAPA II – BOM JESUS DA LAPA C1 E C2 
3/53 
 
3.28. LT 230 KV RIO DAS ÉGUAS / RIO GRANDE II – C1(F3) .................................................................. 22 
3.29. LT 230 kV SENHOR DO BONFIM II / CAMPO FORMOSO - C1(C1) ................................................ 22 
3.30. LT 230 kV SOBRADINHO / JUAZEIRO DA BAHIA II - C1(S1) .......................................................... 23 
3.31. LT 230 kV SOBRADINHO / JUAZEIRO DA BAHIA II - C2(S2) .......................................................... 23 
4. DADOS OPERACIONAIS DE TRANSFORMADORES ................................ ................................ ......... 24 
4.1. SE BARREIRAS II - AUTOTRANSFORMADOR T1 - 500/230/13,8 KV ............................................. 24 
4.2. SE BARREIRAS II - AUTOTRANSFORMADOR T2 - 500/230/13,8 KV ............................................. 25 
4.3. SE BOM JESUS DA LAPA II - AUTOTRANSFORMADOR T1 - 525/230/13,8 KV .............................. 25 
4.4. SE BOM JESUS DA LAPA II  - AUTOTRANSFORMADOR T2 - 525/230/13,8 KV ............................. 25 
4.5. SE BOM JESUS DA LAPA II - AUTOTRANSFORMADOR T3 - 525/17,5 KV ...................................... 25 
4.6. SE GENTIO DO OURO II – AUTOTRANSFORMADOR 500/230 KV – 900 MVA – T1 ...................... 25 
4.7. SE GENTIO DO OURO II – AUTOTRANSFORMADOR 500/230 KV – 900 MVA – T2 ...................... 26 
4.8. SE JUAZEIRO DA BAHIA III - AUTOTRANSFORMADOR 500/230/13,8 kV 300 MVA – T1 .............. 26 
4.9. SE JUAZEIRO DA BAHIA III - AUTOTRANSFORMADOR 500/230/13,8 kV 300 MVA – T2 .............. 26 
4.10. SE MORRO DO CHAPÉU II – AUTOTRANSFORMADOR 500/230 KV – 900 MVA – T4 .................. 26 
4.11. SE MORRO DO CHAPÉU II – AUTOTRANSFORMADOR 500/230 KV – 900 MVA – T5 .................. 26 
4.12. SE MORRO DO CHAPÉU II – TRANSFORMADOR 230/69/13,8 KV – 150 MVA – T1 ..................... 27 
4.13. SE MORRO DO CHAPÉU II – TRANSFORMADOR 230/69/13,8 KV – 180 MVA – T2 ..................... 27 
4.14. SE OUROLÂNDIA II – AUTOTRANSFORMADOR 500/230 KV – 900 MVA – T1.............................. 27 
4.15. SE OUROLÂNDIA II – AUTOTRANSFORMADOR 500/230 KV – 900 MVA – T2.............................. 27 
4.16. SE OUROLÂNDIA II – AUTOTRANSFORMADOR 500/230 KV – 900 MVA – T3.............................. 27 
4.17. SE/UHE SOBRADINHO - AUTOTRANSFORMADOR T4 DE 500 / 230 / 13,8 KV - 300 MVA ........... 28 
4.18. SE/UHE SOBRADINHO - AUTOTRANSFORMADOR T5 DE 500 / 230 KV - 300 MVA ..................... 28 
4.19. SE/UHE SOBRADINHO - AUTOTRANSFORMADOR T6 DE 500 / 230 KV - 300 MVA ..................... 28 
4.20. SE BARREIRAS - TRANSFORMADOR T1 - 230 / 69 KV .................................................................. 28 
4.21. SE BARREIRAS - TRANSFORMADOR T2 - 230 / 69 KV .................................................................. 28 
4.22. SE BARREIRAS - TRANSFORMADOR T3 - 230 / 138 KV ................................................................ 29 
4.23. SE BARREIRAS - TRANSFORMADOR T4 - 230 / 138 KV ................................................................ 29 
4.24. SE BOM JESUS DA LAPA - TRANSFORMADOR T1 - 230 / 69 KV ................................................... 29 
4.25. SE BOM JESUS DA LAPA - TRANSFORMADOR T2 - 230 / 69 / 13,8 KV ......................................... 29 
Manual de Procedimentos da Operação - Módulo 5 - Submódulo 5.11 
 Cadastro de Informações Operacionais Código Revisão Item Vigência 
Cadastro de Dados Operacionais de Equipamentos da 
Área 230 kV Sudoeste da Região Nordeste CD-CT.NE.2SO.01 74 2.1.3. 27/09/2024 
 
Referência: PARECER TÉCNICO 0191/2024 - RELIGAMENTO AUTOMÁTICO LT 230KV BOM JESUS DA LAPA IIIGAPORÃ II C1, LT 230KV BOM 
JESUS DA LAPA II – BOM JESUS DA LAPA C1 E C2 
4/53 
 
4.26. SE BOM JESUS DA LAPA - TRANSFORMADOR T3 - 230 / 69 / 13,8 KV ......................................... 29 
4.27. SE BOM JESUS DA LAPA - TRANSFORMADOR T4 - 230 / 69 KV ................................................... 30 
4.28. SE BOM JESUS DA LAPA - TRANSFORMADOR T6 - 230 / 13,8 / 13,8 KV ...................................... 30 
4.29. SE IRECÊ - TRANSFORMADOR T1 - 230 / 69 / 13,8 KV ................................................................. 30 
4.30. SE IRECÊ - TRANSFORMADOR T2 - 230 / 69 / 13,8 KV ................................................................. 30 
4.31. SE IRECÊ - TRANSFORMADOR T3 - 230 / 69 / 13,8 KV ................................................................. 30 
4.32. SE IRECÊ - TRANSFORMADOR T7 - 230 / 6,9 / 13,8 KV ................................................................ 31 
4.33. SE IRECÊ - TRANSFORMADOR T4 - 230 / 138 KV ......................................................................... 31 
4.34. SE IRECÊ - TRANSFORMADOR T5 - 230 / 138 KV ......................................................................... 31 
4.35. SE IRECÊ - TRANSFORMADOR T8 - 230 / 138 KV ......................................................................... 31 
4.36. SE JUAZEIRO DA BAHIA II - TRANSFORMADOR T1 - 230 / 69 KV ................................................. 31 
4.37. SE JUAZEIRO DA BAHIA II - TRANSFORMADOR T2 - 230 / 69 KV ................................................. 32 
4.38. SE JUAZEIRO DA BAHIA II - TRANSFORMADOR T3 - 230 / 69 KV ................................................. 32 
4.39. SE RIO DAS ÉGUAS - AUTOTRANSFORMADOR 500 / 230 / 13,8 KV – 300 MVA – T1 .................. 32 
4.40. SE RIO DAS ÉGUAS - AUTOTRANSFORMADOR 500 / 230 / 13,8 KV – 300 MVA – T2 .................. 32 
4.41. SE FORMOSO II - TRANSFORMADOR 230 / 138 / 13,8 KV – 200 MVA – T1 ................................ 32 
4.42. SE FORMOSO II - TRANSFORMADOR 230 / 138 / 13,8 KV – 200 MVA – T2 ................................ 32 
4.43. SE RIO GRANDE II - TRANSFORMADOR T1 - 230 / 138 / 13,8 KV ................................................ 33 
4.44. SE RIO GRANDE II - TRANSFORMADOR T2 - 230 / 138 / 13,8 KV ................................................ 33 
4.45. SE SENHOR DO BONFIM II - TRANSFORMADOR T1 - 230 / 69 KV ............................................... 33 
4.46. SE SENHOR DO BONFIM II - TRANSFORMADOR T3 - 230 / 69 KV ............................................... 33 
4.47. SE SENHOR DO BONFIM II - TRANSFORMADOR T2 - 230 / 138 KV ............................................. 33 
4.48. SE SENHOR DO BONFIM II - TRANSFORMADOR T4 - 230 / 138 KV ............................................. 34 
4.49. SE SENHOR DO BONFIM II - TRANSFORMADOR T5 - 230 / 138 KV ............................................. 34 
5. DADOS OPERACIONAIS DE UNIDADES GERADORAS HIDRÁULICAS ................................ ................ 35 
5.1. UHE Sobradinho (CEG: UHE.PH.BA.002755-3.01) ....................................................................... 36 
5.1.1. Dados das Unidades Geradoras da UHE Sobradinho ................................................ 36 
5.1.2. Curva de Capabilidade das Unidades Geradoras da UHE Sobradinho ...................... 38 
6. DADOS OPERACIONAIS DE UNIDADES GERADORAS TÉRMICAS ................................ .....................  39 
6.1. UTE Petrolina (CEG: UTE.PE.PE.028.584-6.01) ............................................................................ 41 
Manual de Procedimentos da Operação - Módulo 5 - Submódulo 5.11 
 Cadastro de Informações Operacionais Código Revisão Item Vigência 
Cadastro de Dados Operacionais de Equipamentos da 
Área 230 kV Sudoeste da Região Nordeste CD-CT.NE.2SO.01 74 2.1.3. 27/09/2024 
 
Referência: PARECER TÉCNICO 0191/2024 - RELIGAMENTO AUTOMÁTICO LT 230KV BOM JESUS DA LAPA IIIGAPORÃ II C1, LT 230KV BOM 
JESUS DA LAPA II – BOM JESUS DA LAPA C1 E C2 
5/53 
 
6.1.1. Dados das Unidades Geradoras da UTE Petrolina ..................................................... 41 
6.1.2. Dados relacionados a Configurações de Operação da UTE Petrolina - Combustível 
Principal ..................................................................................................................... 44 
6.1.3. Dados relacionados a Configurações de Operação da UTE Petrolina - Combustível 
secundário ................................................................................................................. 45 
6.1.4. Curva de capabilidade das Unidades Geradoras da UTE Petrolina ........................... 46 
6.2. UTE Sykué (CEG: UTE.AI.BA.029634-1.01) ................................................................................... 47 
6.2.1. Dados das Unidades Geradoras da UTE Sykué .......................................................... 47 
6.2.2. Dados relacionados a Configurações de Operação da UTE Sykué - Combustível 
Principal ..................................................................................................................... 48 
6.2.3. Dados relacionados a Configurações de Operação da UTE Sykué- Combustível 
secundário ................................................................................................................. 49 
7. DADOS OPERACIONAIS DE COMPENSADORES SÍNCRONOS ................................ ..........................  50 
7.1. SE Irecê – Compensador Síncrono 01K1 (-15 / +30 Mvar) .......................................................... 51 
7.2. SE Bom Jesus da Lapa – Compensador Síncrono 01K1 (-15 / +30 Mvar) .................................... 51 
8. DADOS OPERACIONAIS DE BANCOS DE CAPACITORES SHUNT ................................ .......................  52 
8.1. SE Igaporã II - Banco de Capacitores 230 kV – 50 Mvar – H1 ...................................................... 52 
8.2. SE Bom Jesus da Lapa - Banco de Capacitores 230 kV – 34,92 Mvar – h1 .................................. 53 
8.3. SE Irecê - Banco de Capacitores 230 kV – 81 Mvar – H1 ............................................................. 53 
  
Manual de Procedimentos da Operação - Módulo 5 - Submódulo 5.11 
 Cadastro de Informações Operacionais Código Revisão Item Vigência 
Cadastro de Dados Operacionais de Equipamentos da 
Área 230 kV Sudoeste da Região Nordeste CD-CT.NE.2SO.01 74 2.1.3. 27/09/2024 
 
Referência: PARECER TÉCNICO 0191/2024 - RELIGAMENTO AUTOMÁTICO LT 230KV BOM JESUS DA LAPA IIIGAPORÃ II C1, LT 230KV BOM 
JESUS DA LAPA II – BOM JESUS DA LAPA C1 E C2 
6/53 
 
1. OBJETIVO 
Apresentar os Dados Operacionais de Equipamentos da (Área 230 kV Sudoeste da Região Nordeste), a 
serem observados pelos operadores dos Centros de Operação do ONS e pela Operação dos Agentes 
envolvidos, de acordo com os Procedimentos de Rede. 
2. CONSIDERAÇÕES GERAIS 
2.1. Os dados de linhas de transmissão e equipamentos da Rede de Operação constantes neste Cadastro 
de Informações Operacionais devem ser observados pelos Centros de Operação do ONS para as 
ações de coordenação, supervisão e controle da operação, assim como pelos Agentes para as ações 
de comando e execução. 
2.2. As limitações técnicas para tentativas de religamento de equipamentos contidas neste documento 
têm caráter operacional. Poderão ser utilizadas para apuração da qualidade do serviço público de 
transmissão de energia elétrica (apuração de parcela variável) o valor do “Tempo para energização 
após desligamento” de cada equipamento, desde que sejam atendidos os critérios estabelecidos na 
regulação vigente. 
Manual de Procedimentos da Operação - Módulo 5 - Submódulo 5.11 
 Cadastro de Informações Operacionais Código Revisão Item Vigência 
Cadastro de Dados Operacionais de Equipamentos da 
Área 230 kV Sudoeste da Região Nordeste CD-CT.NE.2SO.01 74 2.1.3. 27/09/2024 
 
Referência: PARECER TÉCNICO 0191/2024 - RELIGAMENTO AUTOMÁTICO LT 230KV BOM JESUS DA LAPA IIIGAPORÃ II C1, LT 230KV BOM 
JESUS DA LAPA II – BOM JESUS DA LAPA C1 E C2 
7/53 
 
3. DADOS OPERACIONAIS DE LINHAS DE TRANSMISSÃO 
Orientações sobre os dados operacionais de linhas de transmissão:  
Campo “Religamento Automático”:  
• Campo “Tipo”: indica o tipo de religamento utilizado em operação normal: monopolar, tripolar ou 
monopolar / tripolar; caso não exista religamento instalado, o campo é preenchido com “NE” – 
não existe. 
• Campo “Situação”: indica se o religamento está ligado ou desligado em operação normal; caso 
não exista religamento instalado, o campo é preenchido com “NE” – não existe. 
• Campo “Sentido”: para religamentos tripolares, indica em primeiro lugar a instalação onde se dá o 
fechamento inicial (terminal líder), e após a seta, a instalação de fechamento final (terminal 
seguidor); para religamentos monopolares ou caso não exista religamento instalado, o campo é 
preenchido com hifens (---). 
• Campo “Ajustes”: indica os ajustes de tempo morto, diferença de tensão, defasagem angular e 
diferença de frequência instalados para a função de verificação de sincronismo para o religamento 
automático; caso não exista religamento automático instalado, o campo é preenchido com hifens 
(---). 
Campo “LT em Mesma Estrutura”: apresenta o nome da LT que compartilha estrutura, e quando disponível, 
a informação da extensão do trecho de compartilhamento e da quantidade de torres compartilhadas; caso 
não exista, o campo é preenchido com “NE” – não existe.  
Não deve ser considerado o compartilhamento de estrutura caso esse seja apenas na chegada as 
subestações envolvidas. 
Campo “Religamentos Manuais”:  
• Campo “Quantidade de Tentativas”: indica quantos religamentos (ou tentativas de religamento) 
manuais são permitidos pelo Agente. 
• Campo “Intervalo entre os Religamentos (min)”: é o intervalo de tempo entre os religamentos, 
em minutos, a ser considerado entre a tentativa de fechamento não-bem-sucedida anterior 
(incluindo o religamento automático) e o novo fechamento do disjuntor. 
• Campo “Dispositivo de Sincronismo”: indica os terminais onde esses estão instalados e em 
funcionamento. Dispositivo de Sincronismo é o equipamento utilizado para verificação das condições de 
fechamento em anel ou paralelo entre dois pontos elétricos; caso não exista, o campo é preenchido 
com “NE” – não existe. Se em algum disjuntor do terminal não houver o dispositivo de sincronismo essa 
informação deve ser destacada. 
• Campo “Ajustes”: indica os ajustes de diferença de tensão, defasagem angular e diferença de 
frequência instalados para a função de verificação de sincronismo para o religamento manual de 
cada terminal; caso não exista dispositivo de sincronismo, o campo é preenchido com hifens (---). 
Campo “Notas / Restrições”: campo opcional que indica informações relevantes a respeito da linha de 
transmissão. 
Manual de Procedimentos da Operação - Módulo 5 - Submódulo 5.11 
 Cadastro de Informações Operacionais Código Revisão Item Vigência 
Cadastro de Dados Operacionais de Equipamentos da 
Área 230 kV Sudoeste da Região Nordeste CD-CT.NE.2SO.01 74 2.1.3. 27/09/2024 
 
Referência: PARECER TÉCNICO 0191/2024 - RELIGAMENTO AUTOMÁTICO LT 230KV BOM JESUS DA LAPA IIIGAPORÃ II C1, LT 230KV BOM 
JESUS DA LAPA II – BOM JESUS DA LAPA C1 E C2 
8/53 
 
Caso os dados operacionais não sejam informados pelo Agente, os campos são preenchidos com “NI” – não 
informado. 
3.1. LT 230 KV BARREIRAS / BARREIRAS II – C1(V2) 
Religamento Automático 
LT em Mesma Estrutura 
Tipo Situação Sentido Ajustes 
Tripolar Ligado 
Da SE 
Barreiras II 
para SE 
Barreiras 
NI Não 
Notas / Restrições: 
 
Religamento Manual 
Sentido Quantidade de 
Tentativas 
Intervalo entre os 
religamentos (minutos) 
Dispositivo de 
sincronismo Ajustes 
NI 2 
Imediato para terminais 
distintos NI NI 15 minutos caso seja no 
mesmo terminal 
 
3.2. LT 230 KV BARREIRAS / BARREIRAS II – C3(L8) 
 
 
Religamento Automático 
LT em Mesma Estrutura 
Tipo Situação Sentido Ajustes 
Tripolar Ligado 
Da SE 
Barreiras II 
para SE 
Barreiras 
V  46 kV 
   30° 
f  0,2 Hz 
Não 
Notas / Restrições: 
Manual de Procedimentos da Operação - Módulo 5 - Submódulo 5.11 
 Cadastro de Informações Operacionais Código Revisão Item Vigência 
Cadastro de Dados Operacionais de Equipamentos da 
Área 230 kV Sudoeste da Região Nordeste CD-CT.NE.2SO.01 74 2.1.3. 27/09/2024 
 
Referência: PARECER TÉCNICO 0191/2024 - RELIGAMENTO AUTOMÁTICO LT 230KV BOM JESUS DA LAPA IIIGAPORÃ II C1, LT 230KV BOM 
JESUS DA LAPA II – BOM JESUS DA LAPA C1 E C2 
9/53 
 
Religamento Manual 
Sentido Quantidade de 
Tentativas 
Intervalo entre os 
religamentos (minutos) 
Dispositivo de 
sincronismo Ajustes 
Da SE Barreiras II para SE 
Barreiras 1 3 Sim 
V  46 kV 
   45° 
f  0,2 Hz 
 
3.3. LT 230 KV BARREIRAS II / DIANÓPOLIS II – C1 
Religamento Automático 
LT em Mesma Estrutura 
Tipo Situação Sentido Ajustes 
Tripolar Ligado Barreiras II → 
Dianópolis II 
V  20% 
   30° 
f   0,2 Hz 
Tempo morto: 5s 
NE 
Notas / Restrições: NI 
 
3.4. LT 230 KV BARREIRAS / RIO GRANDE II - C1(L4) 
Religamento Automático 
LT em Mesma Estrutura 
Tipo Situação Sentido Ajustes 
Tripolar Ligado NI NI LT 230 KV BARREIRAS II / RIO GRANDE II - 
C1(C1) 
Religamento Manual 
Sentido Quantidade de 
Tentativas 
Intervalo entre os 
religamentos (minutos) 
Dispositivo de 
sincronismo Ajustes 
NI 2 
Após tentativa de 
religamento automático, 
1 tentativa de 
religamento manual com 
intervalo de 3 minutos 
até a segunda tentativa. 
Em ambos os 
terminais NI 
Manual de Procedimentos da Operação - Módulo 5 - Submódulo 5.11 
 Cadastro de Informações Operacionais Código Revisão Item Vigência 
Cadastro de Dados Operacionais de Equipamentos da 
Área 230 kV Sudoeste da Região Nordeste CD-CT.NE.2SO.01 74 2.1.3. 27/09/2024 
 
Referência: PARECER TÉCNICO 0191/2024 - RELIGAMENTO AUTOMÁTICO LT 230KV BOM JESUS DA LAPA IIIGAPORÃ II C1, LT 230KV BOM 
JESUS DA LAPA II – BOM JESUS DA LAPA C1 E C2 
10/53 
 
Religamento Automático 
LT em Mesma Estrutura 
Tipo Situação Sentido Ajustes 
Notas / Restrições: 
 
Religamento Manual 
Sentido Quantidade de 
Tentativas 
Intervalo entre os 
religamentos (minutos) 
Dispositivo de 
sincronismo Ajustes 
NI 2 
1 tentativa imediata com 
intervalo de 3 minutos 
até a segunda tentativa 
NI NI 
 
3.5. LT 230 KV BARREIRAS II / RIO GRANDE II - C1(C1) 
Religamento Automático 
LT em Mesma Estrutura 
Tipo Situação Sentido Ajustes 
Tripolar Ligado BRD → RGD 
Tempo morto: 5s 
V  46 kV 
   30° 
f  0,2 Hz 
LT 230 KV BARREIRAS / RIO GRANDE II - 
C1(L4) 
Notas / Restrições: 
 
Religamento Manual 
Sentido Quantidade de 
Tentativas 
Intervalo entre os 
religamentos (minutos) 
Dispositivo de 
sincronismo Ajustes 
NI 2 
1 tentativa imediata com 
intervalo de 3 minutos 
até a segunda tentativa 
NI NI 
 
3.6. LT 230 KV BARREIRAS II / TABOCAS DO BREJO VELHO – C1(V1) 
Religamento Automático 
LT em Mesma Estrutura 
Tipo Situação Sentido Ajustes 
Tripolar Ligado 
Da SE 
Barreiras II 
para SE 
NI Não 
Manual de Procedimentos da Operação - Módulo 5 - Submódulo 5.11 
 Cadastro de Informações Operacionais Código Revisão Item Vigência 
Cadastro de Dados Operacionais de Equipamentos da 
Área 230 kV Sudoeste da Região Nordeste CD-CT.NE.2SO.01 74 2.1.3. 27/09/2024 
 
Referência: PARECER TÉCNICO 0191/2024 - RELIGAMENTO AUTOMÁTICO LT 230KV BOM JESUS DA LAPA IIIGAPORÃ II C1, LT 230KV BOM 
JESUS DA LAPA II – BOM JESUS DA LAPA C1 E C2 
11/53 
 
Religamento Automático 
LT em Mesma Estrutura 
Tipo Situação Sentido Ajustes 
Tabocas do 
Brejo Velho 
 
Religamento Manual 
Sentido Quantidade de 
Tentativas 
Intervalo entre os 
religamentos (minutos) 
Dispositivo de 
sincronismo Ajustes 
NI 2 
Imediato para terminais 
distintos 
NI NI 15 minutos caso seja no 
mesmo terminal 
 
3.7. LT 230 KV BOM JESUS DA LAPA II / BOM JESUS DA LAPA - C1(F3) 
Religamento Automático 
LT em Mesma Estrutura 
Tipo Situação Sentido Ajustes 
Tripolar Ligado BJD→ BJS 
Tempo morto: 5s 
V  46 kV  
  30°  
f  0,2 Hz 
Não 
 
Religamento Manual 
Sentido Quantidade de 
Tentativas 
Intervalo entre os 
religamentos (minutos) 
Dispositivo de 
sincronismo Ajustes 
NI 2 
1 tentativa imediata com 
intervalo de 3 minutos 
até a segunda tentativa 
Sim, em ambos os 
terminais, realizado 
pelas Unidades de 
Controle e 
Aquisição (UACs) 
NI 
 
Manual de Procedimentos da Operação - Módulo 5 - Submódulo 5.11 
 Cadastro de Informações Operacionais Código Revisão Item Vigência 
Cadastro de Dados Operacionais de Equipamentos da 
Área 230 kV Sudoeste da Região Nordeste CD-CT.NE.2SO.01 74 2.1.3. 27/09/2024 
 
Referência: PARECER TÉCNICO 0191/2024 - RELIGAMENTO AUTOMÁTICO LT 230KV BOM JESUS DA LAPA IIIGAPORÃ II C1, LT 230KV BOM 
JESUS DA LAPA II – BOM JESUS DA LAPA C1 E C2 
12/53 
 
3.8. LT 230 KV BOM JESUS DA LAPA II / BOM JESUS DA LAPA - C2(F4) 
Religamento Automático 
LT em Mesma Estrutura 
Tipo Situação Sentido Ajustes 
Tripolar Ligado BJD→ BJS 
Tempo morto: 5s 
V  46 kV  
  30°  
f  0,2 Hz 
Não 
 
Religamento Manual 
Sentido Quantidade de 
Tentativas 
Intervalo entre os 
religamentos (minutos) 
Dispositivo de 
sincronismo Ajustes 
NI 2 
1 tentativa imediata com 
intervalo de 3 minutos 
até a segunda tentativa 
Sim, em ambos os 
terminais, realizado 
pelas Unidades de 
Controle e 
Aquisição (UACs) 
NI 
 
3.9. LT 230 KV BOM JESUS DA LAPA II / IGAPORÃ II - C1(F6) 
Religamento Automático 
LT em Mesma Estrutura 
Tipo Situação Sentido Ajustes 
Tripolar Ligado BJD→ IGD 
Tempo morto: 5s 
V  46 kV  
  30°  
f  0,2 Hz 
Não 
 
Religamento Manual 
Sentido Quantidade de 
Tentativas 
Intervalo entre os 
religamentos (minutos) 
Dispositivo de 
sincronismo Ajustes 
NI NI NI NI NI 
 
Manual de Procedimentos da Operação - Módulo 5 - Submódulo 5.11 
 Cadastro de Informações Operacionais Código Revisão Item Vigência 
Cadastro de Dados Operacionais de Equipamentos da 
Área 230 kV Sudoeste da Região Nordeste CD-CT.NE.2SO.01 74 2.1.3. 27/09/2024 
 
Referência: PARECER TÉCNICO 0191/2024 - RELIGAMENTO AUTOMÁTICO LT 230KV BOM JESUS DA LAPA IIIGAPORÃ II C1, LT 230KV BOM 
JESUS DA LAPA II – BOM JESUS DA LAPA C1 E C2 
13/53 
 
3.10. LT 230 KV BOM JESUS DA LAPA / TABOCAS DO BREJO VELHO - C1(L1) 
Religamento Automático 
LT em Mesma Estrutura 
Tipo Situação Sentido Ajustes 
Tripolar Ligado 
Da SE Bom 
Jesus da 
Lapa para SE 
Tabocas do 
Brejo Velho 
NI Não 
 
Religamento Manual 
Sentido Quantidade de 
Tentativas 
Intervalo entre os 
religamentos (minutos) 
Dispositivo de 
sincronismo Ajustes 
NI 2 
Imediato para terminais 
distintos NI NI 15 minutos caso seja no 
mesmo terminal 
 
3.11. LT 230 KV BROTAS DE MACAÚBAS / GENTIO DO OURO II - C1(F6) 
Religamento Automático 
LT em Mesma Estrutura 
Tipo Situação Sentido Ajustes 
Tripolar Ligado 
Da SE Gentio 
do Ouro II 
para SE 
Brotas de 
Macaúbas 
NI Não 
 
Religamento Manual 
Sentido Quantidade de 
Tentativas 
Intervalo entre os 
religamentos (minutos) 
Dispositivo de 
sincronismo Ajustes 
NI 2 
Imediato para terminais 
distintos NI NI 15 minutos caso seja no 
mesmo terminal 
 
Manual de Procedimentos da Operação - Módulo 5 - Submódulo 5.11 
 Cadastro de Informações Operacionais Código Revisão Item Vigência 
Cadastro de Dados Operacionais de Equipamentos da 
Área 230 kV Sudoeste da Região Nordeste CD-CT.NE.2SO.01 74 2.1.3. 27/09/2024 
 
Referência: PARECER TÉCNICO 0191/2024 - RELIGAMENTO AUTOMÁTICO LT 230KV BOM JESUS DA LAPA IIIGAPORÃ II C1, LT 230KV BOM 
JESUS DA LAPA II – BOM JESUS DA LAPA C1 E C2 
14/53 
 
3.12. LT 230 KV IRECÊ / BROTAS DE MACAÚBAS - C1(F2) 
Religamento Automático 
LT em Mesma Estrutura 
Tipo Situação Sentido Ajustes 
Tripolar Ligado 
Da SE Irecê para 
Brotas de 
Macaúbas 
NI 
LT 230 kV BROTAS DE 
MACAÚBAS / BOM JESUS DA 
LAPA - C1(F5) 
(26,94 Km) 
 
Religamento Manual 
Sentido Quantidade de 
Tentativas 
Intervalo entre os 
religamentos (minutos) 
Dispositivo de 
sincronismo Ajustes 
NI 2 
Imediato para terminais 
distintos NI NI 15 minutos caso seja no 
mesmo terminal 
 
3.13. LT 230 KV IRECÊ / MORRO DO CHAPÉU II - C1(S5) 
Religamento Automático 
LT em Mesma Estrutura 
Tipo Situação Sentido Ajustes 
Tripolar Ligado 
Da SE Morro 
do Chapéu II 
para SE Irecê 
NI NI 
 
Religamento Manual 
Sentido Quantidade de 
Tentativas 
Intervalo entre os 
religamentos (minutos) 
Dispositivo de 
sincronismo Ajustes 
NI 2 
Imediato para terminais 
distintos NI NI 15 minutos caso seja no 
mesmo terminal 
 
Manual de Procedimentos da Operação - Módulo 5 - Submódulo 5.11 
 Cadastro de Informações Operacionais Código Revisão Item Vigência 
Cadastro de Dados Operacionais de Equipamentos da 
Área 230 kV Sudoeste da Região Nordeste CD-CT.NE.2SO.01 74 2.1.3. 27/09/2024 
 
Referência: PARECER TÉCNICO 0191/2024 - RELIGAMENTO AUTOMÁTICO LT 230KV BOM JESUS DA LAPA IIIGAPORÃ II C1, LT 230KV BOM 
JESUS DA LAPA II – BOM JESUS DA LAPA C1 E C2 
15/53 
 
3.14. LT 230 KV IRECÊ / OUROLÂNDIA II - C1(F1) 
Religamento Automático 
LT em Mesma Estrutura 
Tipo Situação Sentido Ajustes 
Tripolar Ligado 
Da SE Irecê 
para a SE 
Ourolândia II 
NI Não 
 
Religamento Manual 
Sentido Quantidade de 
Tentativas 
Intervalo entre os 
religamentos (minutos) 
Dispositivo de 
sincronismo Ajustes 
NI 2 
Imediato para terminais 
distintos NI NI 15 minutos caso seja no 
mesmo terminal 
 
3.15. LT 230 kV IGAPORÃ II / IGAPORÃ III - C1(F8)  
Religamento Automático 
LT em Mesma Estrutura 
Tipo Situação Sentido Ajustes 
NI Ligado 
Da SE 
Igaporã II 
para a SE 
Igaporã III 
NI Não 
 
Religamento Manual 
Sentido Quantidade de 
Tentativas 
Intervalo entre os 
religamentos (minutos) 
Dispositivo de 
sincronismo Ajustes 
NI 2 
Imediato para terminais 
distintos NI NI 15 minutos caso seja no 
mesmo terminal 
 
Manual de Procedimentos da Operação - Módulo 5 - Submódulo 5.11 
 Cadastro de Informações Operacionais Código Revisão Item Vigência 
Cadastro de Dados Operacionais de Equipamentos da 
Área 230 kV Sudoeste da Região Nordeste CD-CT.NE.2SO.01 74 2.1.3. 27/09/2024 
 
Referência: PARECER TÉCNICO 0191/2024 - RELIGAMENTO AUTOMÁTICO LT 230KV BOM JESUS DA LAPA IIIGAPORÃ II C1, LT 230KV BOM 
JESUS DA LAPA II – BOM JESUS DA LAPA C1 E C2 
16/53 
 
3.16. LT 230 kV IGAPORÃ II / IGAPORÃ III - C2(F9) 
Religamento Automático 
LT em Mesma Estrutura 
Tipo Situação Sentido Ajustes 
NI Ligado 
Da SE 
Igaporã II 
para a SE 
Igaporã III 
NI Não 
 
Religamento Manual 
Sentido Quantidade de 
Tentativas 
Intervalo entre os 
religamentos (minutos) 
Dispositivo de 
sincronismo Ajustes 
NI 2 
Imediato para terminais 
distintos NI NI 15 minutos caso seja no 
mesmo terminal 
 
3.17. LT 230 kV IGAPORÃ III / PINDAÍ II - C1(N1) 
Religamento Automático 
LT em Mesma Estrutura 
Tipo Situação Sentido Ajustes 
Tripolar Ligado 
Da SE 
Igaporã III 
para a SE 
Pindaí II 
ΔV ≤ 23 kV 
Δδ ≤ 10° 
Δf ≤ 0,2 Hz 
Não 
 
Religamento Manual 
Sentido Quantidade de 
Tentativas 
Intervalo entre os 
religamentos (minutos) 
Dispositivo de 
sincronismo Ajustes 
NI 2 
Imediato para terminais 
distintos NI NI 15 minutos caso seja no 
mesmo terminal 
 
Manual de Procedimentos da Operação - Módulo 5 - Submódulo 5.11 
 Cadastro de Informações Operacionais Código Revisão Item Vigência 
Cadastro de Dados Operacionais de Equipamentos da 
Área 230 kV Sudoeste da Região Nordeste CD-CT.NE.2SO.01 74 2.1.3. 27/09/2024 
 
Referência: PARECER TÉCNICO 0191/2024 - RELIGAMENTO AUTOMÁTICO LT 230KV BOM JESUS DA LAPA IIIGAPORÃ II C1, LT 230KV BOM 
JESUS DA LAPA II – BOM JESUS DA LAPA C1 E C2 
17/53 
 
3.18. LT 230 kV IGAPORÃ III / PINDAÍ II - C2(N2) 
Religamento Automático 
LT em Mesma Estrutura 
Tipo Situação Sentido Ajustes 
Tripolar Ligado 
Da SE 
Igaporã III 
para a SE 
Pindaí II 
ΔV ≤ 23 kV 
Δδ ≤ 10° 
Δf ≤ 0,2 Hz 
LT 230 kV IGAPORÃ III / PINDAÍ II – C3(N3) 
(50 km) 
 
Religamento Manual 
Sentido Quantidade de 
Tentativas 
Intervalo entre os 
religamentos (minutos) 
Dispositivo de 
sincronismo Ajustes 
NI NI 
NI 
NI 
ΔV ≤ 23 kV 
Δδ ≤ 20° 
Δf ≤ 0,2 Hz NI 
 
3.19. LT 230 kV IGAPORÃ III / PINDAÍ II - C3(N3) 
Religamento Automático 
LT em Mesma Estrutura 
Tipo Situação Sentido Ajustes 
Tripolar Ligado 
Da SE 
Igaporã III 
para a SE 
Pindaí II 
ΔV ≤ 23 kV 
Δδ ≤ 10° 
Δf ≤ 0,2 Hz 
LT 230 kV IGAPORÃ III / PINDAÍ II – C2(N2) 
(50 km) 
 
Religamento Manual 
Sentido Quantidade de 
Tentativas 
Intervalo entre os 
religamentos (minutos) 
Dispositivo de 
sincronismo Ajustes 
NI NI 
NI 
NI 
ΔV ≤ 23 kV 
Δδ ≤ 20° 
Δf ≤ 0,2 Hz NI 
 
Manual de Procedimentos da Operação - Módulo 5 - Submódulo 5.11 
 Cadastro de Informações Operacionais Código Revisão Item Vigência 
Cadastro de Dados Operacionais de Equipamentos da 
Área 230 kV Sudoeste da Região Nordeste CD-CT.NE.2SO.01 74 2.1.3. 27/09/2024 
 
Referência: PARECER TÉCNICO 0191/2024 - RELIGAMENTO AUTOMÁTICO LT 230KV BOM JESUS DA LAPA IIIGAPORÃ II C1, LT 230KV BOM 
JESUS DA LAPA II – BOM JESUS DA LAPA C1 E C2 
18/53 
 
3.20. LT 230 KV BROTAS DE MACAÚBAS / BOM JESUS DA LAPA - C1(F5) 
Religamento Automático 
LT em Mesma Estrutura 
Tipo Situação Sentido Ajustes 
Tripolar Ligado 
Da SE Brotas 
de Macaúbas 
para SE Bom 
Jesus da 
Lapa 
NI 
LT 230 kV IRECÊ / BROTAS DE MACAÚBAS - 
C1(F2) 
(26,94 Km) 
 
 
 
Religamento Manual 
Sentido Quantidade de 
Tentativas 
Intervalo entre os 
religamentos (minutos) 
Dispositivo de 
sincronismo Ajustes 
NI 2 
Imediato para terminais 
distintos NI NI 15 minutos caso seja no 
mesmo terminal 
 
3.21. LT 230 KV JUAZEIRO DA BAHIA II / JAGUARARI - C1(N1) 
Religamento Automático 
LT em Mesma Estrutura 
Tipo Situação Sentido Ajustes 
NI Ligado 
Da SE 
Juazeiro da 
Bahia II para 
a SE 
Jaguarari 
NI 
LT 230 kV JUAZEIRO DA BAHIA II / SENHOR 
DO BONFIM II - C1(N2) 
(77,46 Km) 
LT 230 kV JAGUARARI / SENHOR DO 
BONFIM II - C1(L1) 
(9,28 Km) 
 
Religamento Manual 
Sentido Quantidade de 
Tentativas 
Intervalo entre os 
religamentos (minutos) 
Dispositivo de 
sincronismo Ajustes 
NI 2 Imediato para terminais 
distintos NI NI 
Manual de Procedimentos da Operação - Módulo 5 - Submódulo 5.11 
 Cadastro de Informações Operacionais Código Revisão Item Vigência 
Cadastro de Dados Operacionais de Equipamentos da 
Área 230 kV Sudoeste da Região Nordeste CD-CT.NE.2SO.01 74 2.1.3. 27/09/2024 
 
Referência: PARECER TÉCNICO 0191/2024 - RELIGAMENTO AUTOMÁTICO LT 230KV BOM JESUS DA LAPA IIIGAPORÃ II C1, LT 230KV BOM 
JESUS DA LAPA II – BOM JESUS DA LAPA C1 E C2 
19/53 
 
Religamento Manual 
Sentido Quantidade de 
Tentativas 
Intervalo entre os 
religamentos (minutos) 
Dispositivo de 
sincronismo Ajustes 
15 minutos caso seja no 
mesmo terminal 
 
 
 
3.22. LT 230 KV JUAZEIRO DA BAHIA III / JUAZEIRO DA BAHIA II -  C1(S4) 
Religamento Automático 
LT em Mesma Estrutura 
Tipo Situação Sentido Ajustes 
Tripolar Ligado 
Da SE 
Juazeiro da 
Bahia III para 
a SE Juazeiro 
da Bahia II 
ΔΘ ≤ 30° 
ΔV ≤ 46 NE 
 
Religamento Manual 
Sentido Quantidade de 
Tentativas 
Intervalo entre os 
religamentos (minutos) 
Dispositivo de 
sincronismo Ajustes 
NI 2 
Imediato para terminais 
distintos NI NI 5 minutos caso seja no 
mesmo terminal 
 
3.23. LT 230 KV JAGUARARI / SENHOR DO BONFIM II - C1(L1) 
Religamento Automático 
LT em Mesma Estrutura 
Tipo Situação Sentido Ajustes 
Tripolar Ligado 
Da SE Senhor 
do Bonfim II 
para a SE 
Jaguarari 
NI 
LT 230 kV JUAZEIRO DA BAHIA II / SENHOR 
DO BONFIM II - C1(N2) 
(70,55 Km) 
 
Manual de Procedimentos da Operação - Módulo 5 - Submódulo 5.11 
 Cadastro de Informações Operacionais Código Revisão Item Vigência 
Cadastro de Dados Operacionais de Equipamentos da 
Área 230 kV Sudoeste da Região Nordeste CD-CT.NE.2SO.01 74 2.1.3. 27/09/2024 
 
Referência: PARECER TÉCNICO 0191/2024 - RELIGAMENTO AUTOMÁTICO LT 230KV BOM JESUS DA LAPA IIIGAPORÃ II C1, LT 230KV BOM 
JESUS DA LAPA II – BOM JESUS DA LAPA C1 E C2 
20/53 
 
Religamento Manual 
Sentido Quantidade de 
Tentativas 
Intervalo entre os 
religamentos (minutos) 
Dispositivo de 
sincronismo Ajustes 
NI 2 
Imediato para terminais 
distintos NI NI 15 minutos caso seja no 
mesmo terminal 
 
3.24. LT 230 KV JUAZEIRO DA BAHIA II / SENHOR DO BONFIM II - C1(N2) 
Religamento Automático 
LT em Mesma Estrutura 
Tipo Situação Sentido Ajustes 
Tripolar Ligado 
Da SE Senhor 
do Bonfim II  
para a SE 
Juazeiro da 
Bahia II 
NI 
LT 230 kV JAGUARARI / SENHOR DO 
BONFIM II - C1(L1) 
(70,55 Km) 
 
Religamento Manual 
Sentido Quantidade de 
Tentativas 
Intervalo entre os 
religamentos (minutos) 
Dispositivo de 
sincronismo Ajustes 
NI 2 
Imediato para terminais 
distintos NI NI 15 minutos caso seja no 
mesmo terminal 
 
3.25. LT 230 KV OUROLÂNDIA II / CAMPO FORMOSO - C1(C2) 
Religamento Automático 
LT em Mesma Estrutura 
Tipo Situação Sentido Ajustes 
Tripolar Ligado 
Da SE 
Ourolândia II 
para SE 
Campo 
Formoso 
NI 
LT 230 KV SENHOR DO BONFIM II / CAMPO 
FORMOSO – C1(C1) 
(4,43 km) 
 
Manual de Procedimentos da Operação - Módulo 5 - Submódulo 5.11 
 Cadastro de Informações Operacionais Código Revisão Item Vigência 
Cadastro de Dados Operacionais de Equipamentos da 
Área 230 kV Sudoeste da Região Nordeste CD-CT.NE.2SO.01 74 2.1.3. 27/09/2024 
 
Referência: PARECER TÉCNICO 0191/2024 - RELIGAMENTO AUTOMÁTICO LT 230KV BOM JESUS DA LAPA IIIGAPORÃ II C1, LT 230KV BOM 
JESUS DA LAPA II – BOM JESUS DA LAPA C1 E C2 
21/53 
 
Religamento Manual 
Sentido Quantidade de 
Tentativas 
Intervalo entre os 
religamentos (minutos) 
Dispositivo de 
sincronismo Ajustes 
NI 2 
Imediato para terminais 
distintos NI NI 15 minutos caso seja no 
mesmo terminal 
 
3.26. LT 230 KV RIO DAS ÉGUAS / RIO FORMOSO II – C1(F1)  
Religamento Automático 
LT em Mesma Estrutura 
Tipo Situação Sentido Ajustes 
Tripolar / 
Monopolar Ligado 
Da SE Rio das 
Éguas para 
SE Rio 
Formoso II 
V  46 kV 
   30° 
f  0,2 Hz 
LT 230 KV RIO DAS ÉGUAS / RIO 
FORMOSO II – C2(F2) 
(99 km) 
 
Religamento Manual 
Sentido Quantidade de 
Tentativas 
Intervalo entre os 
religamentos (minutos) 
Dispositivo de 
sincronismo Ajustes 
Da SE Rio das Éguas para 
SE Rio Formoso II 2 1 Sim, em ambos 
terminais 
ΔV ≤ 46 kV 
Δδ ≤ 30° 
Δf ≤ 0,2 Hz 
3.27. LT 230 KV RIO DAS ÉGUAS / RIO FORMOSO II – C2(F2)  
Religamento Automático 
LT em Mesma Estrutura 
Tipo Situação Sentido Ajustes 
Tripolar / 
Monopolar Ligado 
Da SE Rio das 
Éguas para 
SE Rio 
Formoso II 
V  46 kV 
   30° 
f  0,2 Hz 
LT 230 KV RIO DAS ÉGUAS / RIO 
FORMOSO II – C1(F1) 
(99 km) 
 
Manual de Procedimentos da Operação - Módulo 5 - Submódulo 5.11 
 Cadastro de Informações Operacionais Código Revisão Item Vigência 
Cadastro de Dados Operacionais de Equipamentos da 
Área 230 kV Sudoeste da Região Nordeste CD-CT.NE.2SO.01 74 2.1.3. 27/09/2024 
 
Referência: PARECER TÉCNICO 0191/2024 - RELIGAMENTO AUTOMÁTICO LT 230KV BOM JESUS DA LAPA IIIGAPORÃ II C1, LT 230KV BOM 
JESUS DA LAPA II – BOM JESUS DA LAPA C1 E C2 
22/53 
 
Religamento Manual 
Sentido Quantidade de 
Tentativas 
Intervalo entre os 
religamentos (minutos) 
Dispositivo de 
sincronismo Ajustes 
Da SE Rio das Éguas para 
SE Rio Formoso II 2 1 Sim, em ambos 
terminais 
ΔV ≤ 46 kV 
Δδ ≤ 30° 
Δf ≤ 0,2 Hz 
3.28. LT 230 KV RIO DAS ÉGUAS / RIO GRANDE II – C1(F3) 
Religamento Automático 
LT em Mesma Estrutura 
Tipo Situação Sentido Ajustes 
Tripolar Ligado 
Da SE Rio das 
Éguas para 
SE Rio 
Grande II 
V  46 kV 
   30° 
f  0,2 Hz 
Não 
 
Religamento Manual 
Sentido Quantidade de 
Tentativas 
Intervalo entre os 
religamentos (minutos) 
Dispositivo de 
sincronismo Ajustes 
Da SE Rio das Éguas para 
SE Rio Grande II 1 3 Sim 
V  46 kV 
   45° 
f  0,2 Hz 
 
3.29. LT 230 KV SENHOR DO BONFIM II / CAMPO FORMOSO - C1(C1) 
Religamento Automático 
LT em Mesma Estrutura 
Tipo Situação Sentido Ajustes 
Tripolar Ligado 
Da SE Senhor 
do Bonfim II 
para SE 
Campo 
Formoso 
NI 
LT 230 KV OUROLÂNDIA II / CAMPO 
FORMOSO - C1(C2) 
(4,43 km) 
 
Manual de Procedimentos da Operação - Módulo 5 - Submódulo 5.11 
 Cadastro de Informações Operacionais Código Revisão Item Vigência 
Cadastro de Dados Operacionais de Equipamentos da 
Área 230 kV Sudoeste da Região Nordeste CD-CT.NE.2SO.01 74 2.1.3. 27/09/2024 
 
Referência: PARECER TÉCNICO 0191/2024 - RELIGAMENTO AUTOMÁTICO LT 230KV BOM JESUS DA LAPA IIIGAPORÃ II C1, LT 230KV BOM 
JESUS DA LAPA II – BOM JESUS DA LAPA C1 E C2 
23/53 
 
Religamento Manual 
Sentido Quantidade de 
Tentativas 
Intervalo entre os 
religamentos (minutos) 
Dispositivo de 
sincronismo Ajustes 
NI 2 
Imediato para terminais 
distintos NI NI 15 minutos caso seja no 
mesmo terminal 
 
3.30. LT 230 KV SOBRADINHO / JUAZEIRO DA BAHIA II - C1(S1) 
Religamento Automático 
LT em Mesma Estrutura 
Tipo Situação Sentido Ajustes 
Tripolar Ligado 
Da SE 
Juazeiro da 
Bahia II para   
a SE 
Sobradinho 
NI 
LT 230 kV SOBRADINHO / JUAZEIRO DA 
BAHIA II - C2(S2) 
(42,5 Km) 
 
Religamento Manual 
Sentido Quantidade de 
Tentativas 
Intervalo entre os 
religamentos (minutos) 
Dispositivo de 
sincronismo Ajustes 
NI 2 
Imediato para terminais 
distintos NI NI 15 minutos caso seja no 
mesmo terminal 
 
3.31. LT 230 KV SOBRADINHO / JUAZEIRO DA BAHIA II - C2(S2) 
Religamento Automático 
LT em Mesma Estrutura 
Tipo Situação Sentido Ajustes 
Tripolar Ligado 
Da SE 
Juazeiro da 
Bahia II para 
a SE 
Sobradinho 
NI 
LT 230 kV SOBRADINHO / JUAZEIRO DA 
BAHIA II - C1(S1) 
(42,5 Km) 
 
Manual de Procedimentos da Operação - Módulo 5 - Submódulo 5.11 
 Cadastro de Informações Operacionais Código Revisão Item Vigência 
Cadastro de Dados Operacionais de Equipamentos da 
Área 230 kV Sudoeste da Região Nordeste CD-CT.NE.2SO.01 74 2.1.3. 27/09/2024 
 
Referência: PARECER TÉCNICO 0191/2024 - RELIGAMENTO AUTOMÁTICO LT 230KV BOM JESUS DA LAPA IIIGAPORÃ II C1, LT 230KV BOM 
JESUS DA LAPA II – BOM JESUS DA LAPA C1 E C2 
24/53 
 
Religamento Manual 
Sentido Quantidade de 
Tentativas 
Intervalo entre os 
religamentos (minutos) 
Dispositivo de 
sincronismo Ajustes 
NI 2 
Imediato para terminais 
distintos NI NI 15 minutos caso seja no 
mesmo terminal 
 
4. DADOS OPERACIONAIS DE TRANSFORMADORES 
Orientações sobre os dados operacionais de transformadores: 
Campo “Dispositivo de Sincronismo”: indica os terminais onde estão instalados e em funcionamento. 
Dispositivo de Sincronismo é o equipamento utilizado para verificação das condições de fechamento em 
anel ou paralelo entre dois pontos elétricos, o campo é preenchido com “NE” – não existe. Se em algum 
disjuntor do terminal não houver o dispositivo de sincronismo essa informação deve ser destacada. 
Campo “Ajustes”: indica os ajustes de diferença de tensão, defasagem angular e diferença de frequência 
instalados para a função de verificação de sincronismo para o religamento manual de cada terminal; caso 
não exista dispositivo de sincronismo, o campo é preenchido com hifens (---). 
Campo “Características dos Comutadores”:  
• Campo “Comutador sob carga”: indica o número de posições associando a tensão correspondente 
à identificação das posições mínima, máxima e nominal, bem como a variação de tensão entre 
cada posição, conforme os dados de placa do transformador. Caso os números das posições dos 
dados de placa do transformador sejam diferentes dos números das posições utilizadas no Sistema 
de Supervisão e Controle, incluir, além das posições dos dados de placa, também as posições 
utilizadas no SSC. Caso não exista comutador sob carga no transformador, o campo é preenchido 
com “NE” – não existe. 
• Campo “Comutador em Vazio”: indica as posições do comutador em vazio com os respectivos 
valores de tensão e sua posição em serviço. Caso não exista comutador em vazio no 
transformador, o campo é preenchido com “NE” – não existe. 
Campo “Notas / Restrições”: campo opcional que indica informações relevantes a respeito do 
transformador. 
Caso os dados operacionais não sejam informados pelo Agente, os campos são preenchidos com “NI” – não 
informado. 
4.1. SE BARREIRAS II - AUTOTRANSFORMADOR T1 - 500/230/13,8 KV 
Dispositivo de 
Sincronismo Ajustes 
Características dos Comutadores 
Comutador sob Carga Comutador em Vazio 
NI NI NI NI 
Notas / Restrições: 
Manual de Procedimentos da Operação - Módulo 5 - Submódulo 5.11 
 Cadastro de Informações Operacionais Código Revisão Item Vigência 
Cadastro de Dados Operacionais de Equipamentos da 
Área 230 kV Sudoeste da Região Nordeste CD-CT.NE.2SO.01 74 2.1.3. 27/09/2024 
 
Referência: PARECER TÉCNICO 0191/2024 - RELIGAMENTO AUTOMÁTICO LT 230KV BOM JESUS DA LAPA IIIGAPORÃ II C1, LT 230KV BOM 
JESUS DA LAPA II – BOM JESUS DA LAPA C1 E C2 
25/53 
 
4.2. SE BARREIRAS II - AUTOTRANSFORMADOR T2 - 500/230/13,8 KV 
Dispositivo de 
Sincronismo Ajustes 
Características dos Comutadores 
Comutador sob Carga Comutador em Vazio 
Nos lados 500 kV e 
230 kV 
NI NI NI 
Notas / Restrições: 
 
4.3. SE BOM JESUS DA LAPA II - AUTOTRANSFORMADOR T1 - 525/230/13,8 KV 
Dispositivo de 
Sincronismo Ajustes 
Características dos Comutadores 
Comutador sob Carga Comutador em Vazio 
NI NI NI NI 
Notas / Restrições: 
 
4.4. SE BOM JESUS DA LAPA II  - AUTOTRANSFORMADOR T2 - 525/230/13,8 KV 
Dispositivo de 
Sincronismo Ajustes 
Características dos Comutadores 
Comutador sob Carga Comutador em Vazio 
NI NI NI NI 
Notas / Restrições: 
 
4.5. SE BOM JESUS DA LAPA II - AUTOTRANSFORMADOR T3 - 525/17,5 KV 
Dispositivo de 
Sincronismo Ajustes 
Características dos Comutadores 
Comutador sob Carga Comutador em Vazio 
NI NI Não NI 
Notas / Restrições: 
 
4.6. SE GENTIO DO OURO II – AUTOTRANSFORMADOR 500/230 KV – 900 MVA – T1 
Dispositivo de 
Sincronismo Ajustes 
Características dos Comutadores 
Comutador sob Carga Comutador em Vazio 
NI NI Não NI 
Notas / Restrições: 
 
Manual de Procedimentos da Operação - Módulo 5 - Submódulo 5.11 
 Cadastro de Informações Operacionais Código Revisão Item Vigência 
Cadastro de Dados Operacionais de Equipamentos da 
Área 230 kV Sudoeste da Região Nordeste CD-CT.NE.2SO.01 74 2.1.3. 27/09/2024 
 
Referência: PARECER TÉCNICO 0191/2024 - RELIGAMENTO AUTOMÁTICO LT 230KV BOM JESUS DA LAPA IIIGAPORÃ II C1, LT 230KV BOM 
JESUS DA LAPA II – BOM JESUS DA LAPA C1 E C2 
26/53 
 
4.7. SE GENTIO DO OURO II – AUTOTRANSFORMADOR 500/230 KV – 900 MVA – T2 
Dispositivo de 
Sincronismo Ajustes 
Características dos Comutadores 
Comutador sob Carga Comutador em Vazio 
NI NI Não NI 
Notas / Restrições: 
 
4.8. SE JUAZEIRO DA BAHIA III - AUTOTRANSFORMADOR 500/230/13,8 KV 300 MVA – T1 
Dispositivo de 
Sincronismo Ajustes 
Características dos Comutadores 
Comutador sob Carga Comutador em Vazio 
NI NI NI NI 
Notas / Restrições: 
 
4.9. SE JUAZEIRO DA BAHIA III - AUTOTRANSFORMADOR 500/230/13,8 KV 300 MVA – T2 
Dispositivo de 
Sincronismo Ajustes 
Características dos Comutadores 
Comutador sob Carga Comutador em Vazio 
NI NI NI NI 
Notas / Restrições: 
 
4.10. SE MORRO DO CHAPÉU II – AUTOTRANSFORMADOR 500/230 KV – 900 MVA – T4 
Dispositivo de 
Sincronismo Ajustes 
Características dos Comutadores 
Comutador sob Carga Comutador em Vazio 
NI NI Não NI 
Notas / Restrições: 
 
4.11. SE MORRO DO CHAPÉU II – AUTOTRANSFORMADOR 500/230 KV – 900 MVA – T5 
Dispositivo de 
Sincronismo Ajustes 
Características dos Comutadores 
Comutador sob Carga Comutador em Vazio 
NI NI Não NI 
Notas / Restrições: 
 
Manual de Procedimentos da Operação - Módulo 5 - Submódulo 5.11 
 Cadastro de Informações Operacionais Código Revisão Item Vigência 
Cadastro de Dados Operacionais de Equipamentos da 
Área 230 kV Sudoeste da Região Nordeste CD-CT.NE.2SO.01 74 2.1.3. 27/09/2024 
 
Referência: PARECER TÉCNICO 0191/2024 - RELIGAMENTO AUTOMÁTICO LT 230KV BOM JESUS DA LAPA IIIGAPORÃ II C1, LT 230KV BOM 
JESUS DA LAPA II – BOM JESUS DA LAPA C1 E C2 
27/53 
 
4.12. SE MORRO DO CHAPÉU II – TRANSFORMADOR 230/69/13,8 KV – 150 MVA – T1 
Dispositivo de 
Sincronismo Ajustes 
Características dos Comutadores 
Comutador sob Carga Comutador em Vazio 
NI NI Não NI 
Notas / Restrições: 
 
4.13. SE MORRO DO CHAPÉU II – TRANSFORMADOR 230/69/13,8 KV – 180 MVA – T2 
Dispositivo de 
Sincronismo Ajustes 
Características dos Comutadores 
Comutador sob Carga Comutador em Vazio 
NI NI Não NI 
Notas / Restrições: 
 
4.14. SE OUROLÂNDIA II – AUTOTRANSFORMADOR 500/230 KV – 900 MVA – T1 
Dispositivo de 
Sincronismo Ajustes 
Características dos Comutadores 
Comutador sob Carga Comutador em Vazio 
NI NI Não NI 
Notas / Restrições: 
 
4.15. SE OUROLÂNDIA II – AUTOTRANSFORMADOR 500/230 KV – 900 MVA – T2 
Dispositivo de 
Sincronismo Ajustes 
Características dos Comutadores 
Comutador sob Carga Comutador em Vazio 
NI NI Não NI 
Notas / Restrições: 
4.16. SE OUROLÂNDIA II – AUTOTRANSFORMADOR 500/230 KV – 900 MVA – T3 
Dispositivo de 
Sincronismo Ajustes 
Características dos Comutadores 
Comutador sob Carga Comutador em Vazio 
NI NI Posição 1: 590 kV 
Posição 19: 500 kV 
Posição 33: 430 kV 
NI 
Notas / Restrições: 
 
Manual de Procedimentos da Operação - Módulo 5 - Submódulo 5.11 
 Cadastro de Informações Operacionais Código Revisão Item Vigência 
Cadastro de Dados Operacionais de Equipamentos da 
Área 230 kV Sudoeste da Região Nordeste CD-CT.NE.2SO.01 74 2.1.3. 27/09/2024 
 
Referência: PARECER TÉCNICO 0191/2024 - RELIGAMENTO AUTOMÁTICO LT 230KV BOM JESUS DA LAPA IIIGAPORÃ II C1, LT 230KV BOM 
JESUS DA LAPA II – BOM JESUS DA LAPA C1 E C2 
28/53 
 
4.17. SE/UHE SOBRADINHO - AUTOTRANSFORMADOR T4 DE 500 / 230 / 13,8 KV - 300 MVA 
Dispositivo de 
Sincronismo Ajustes 
Características dos Comutadores 
Comutador sob Carga Comutador em Vazio 
NI NI NI NI 
Notas / Restrições: 
 
4.18. SE/UHE SOBRADINHO - AUTOTRANSFORMADOR T5 DE 500 / 230 KV - 300 MVA 
Dispositivo de 
Sincronismo Ajustes 
Características dos Comutadores 
Comutador sob Carga Comutador em Vazio 
NI NI NI NI 
Notas / Restrições: 
 
4.19. SE/UHE SOBRADINHO - AUTOTRANSFORMADOR T6 DE 500 / 230 KV - 300 MVA 
Dispositivo de 
Sincronismo Ajustes 
Características dos Comutadores 
Comutador sob Carga Comutador em Vazio 
NI NI NI NI 
Notas / Restrições: 
 
4.20. SE BARREIRAS - TRANSFORMADOR T1 - 230 / 69 KV  
Dispositivo de 
Sincronismo Ajustes 
Características dos Comutadores 
Comutador sob Carga Comutador em Vazio 
NI NI NI NI 
Notas / Restrições: 
 
4.21. SE BARREIRAS - TRANSFORMADOR T2 - 230 / 69 KV  
Dispositivo de 
Sincronismo Ajustes 
Características dos Comutadores 
Comutador sob Carga Comutador em Vazio 
NI NI NI NI 
Notas / Restrições: 
 
Manual de Procedimentos da Operação - Módulo 5 - Submódulo 5.11 
 Cadastro de Informações Operacionais Código Revisão Item Vigência 
Cadastro de Dados Operacionais de Equipamentos da 
Área 230 kV Sudoeste da Região Nordeste CD-CT.NE.2SO.01 74 2.1.3. 27/09/2024 
 
Referência: PARECER TÉCNICO 0191/2024 - RELIGAMENTO AUTOMÁTICO LT 230KV BOM JESUS DA LAPA IIIGAPORÃ II C1, LT 230KV BOM 
JESUS DA LAPA II – BOM JESUS DA LAPA C1 E C2 
29/53 
 
4.22. SE BARREIRAS - TRANSFORMADOR T3 - 230 / 138 KV  
Dispositivo de 
Sincronismo Ajustes 
Características dos Comutadores 
Comutador sob Carga Comutador em Vazio 
NI NI NI NI 
Notas / Restrições: 
 
4.23. SE BARREIRAS - TRANSFORMADOR T4 - 230 / 138 KV  
Dispositivo de 
Sincronismo Ajustes 
Características dos Comutadores 
Comutador sob Carga Comutador em Vazio 
NI NI NI NI 
Notas / Restrições: 
 
4.24. SE BOM JESUS DA LAPA - TRANSFORMADOR T1 - 230 / 69 KV  
Dispositivo de 
Sincronismo Ajustes 
Características dos Comutadores 
Comutador sob Carga Comutador em Vazio 
NI NI NI NI 
Notas / Restrições: 
 
4.25. SE BOM JESUS DA LAPA - TRANSFORMADOR T2 - 230 / 69 / 13,8 KV  
Dispositivo de 
Sincronismo Ajustes 
Características dos Comutadores 
Comutador sob Carga Comutador em Vazio 
NI NI NI NI 
Notas / Restrições: 
 
4.26. SE BOM JESUS DA LAPA - TRANSFORMADOR T3 - 230 / 69 / 13,8 KV  
Dispositivo de 
Sincronismo Ajustes 
Características dos Comutadores 
Comutador sob Carga Comutador em Vazio 
NI NI NI NI 
Notas / Restrições: 
 
Manual de Procedimentos da Operação - Módulo 5 - Submódulo 5.11 
 Cadastro de Informações Operacionais Código Revisão Item Vigência 
Cadastro de Dados Operacionais de Equipamentos da 
Área 230 kV Sudoeste da Região Nordeste CD-CT.NE.2SO.01 74 2.1.3. 27/09/2024 
 
Referência: PARECER TÉCNICO 0191/2024 - RELIGAMENTO AUTOMÁTICO LT 230KV BOM JESUS DA LAPA IIIGAPORÃ II C1, LT 230KV BOM 
JESUS DA LAPA II – BOM JESUS DA LAPA C1 E C2 
30/53 
 
4.27. SE BOM JESUS DA LAPA - TRANSFORMADOR T4 - 230 / 69 KV  
Dispositivo de 
Sincronismo Ajustes 
Características dos Comutadores 
Comutador sob Carga Comutador em Vazio 
NI NI NI NI 
Notas / Restrições: 
 
4.28. SE BOM JESUS DA LAPA - TRANSFORMADOR T6 - 230 / 13,8 / 13,8 KV  
Dispositivo de 
Sincronismo Ajustes 
Características dos Comutadores 
Comutador sob Carga Comutador em Vazio 
NI NI NI NI 
Notas / Restrições: 
 
4.29. SE IRECÊ - TRANSFORMADOR T1 - 230 / 69 / 13,8 KV  
Dispositivo de 
Sincronismo Ajustes 
Características dos Comutadores 
Comutador sob Carga Comutador em Vazio 
NI NI NI NI 
Notas / Restrições: 
 
4.30. SE IRECÊ - TRANSFORMADOR T2 - 230 / 69 / 13,8 KV  
Dispositivo de 
Sincronismo Ajustes 
Características dos Comutadores 
Comutador sob Carga Comutador em Vazio 
NI NI NI NI 
Notas / Restrições: 
 
4.31. SE IRECÊ - TRANSFORMADOR T3 - 230 / 69 / 13,8 KV  
Dispositivo de 
Sincronismo Ajustes 
Características dos Comutadores 
Comutador sob Carga Comutador em Vazio 
NI NI NI NI 
Notas / Restrições: 
 
Manual de Procedimentos da Operação - Módulo 5 - Submódulo 5.11 
 Cadastro de Informações Operacionais Código Revisão Item Vigência 
Cadastro de Dados Operacionais de Equipamentos da 
Área 230 kV Sudoeste da Região Nordeste CD-CT.NE.2SO.01 74 2.1.3. 27/09/2024 
 
Referência: PARECER TÉCNICO 0191/2024 - RELIGAMENTO AUTOMÁTICO LT 230KV BOM JESUS DA LAPA IIIGAPORÃ II C1, LT 230KV BOM 
JESUS DA LAPA II – BOM JESUS DA LAPA C1 E C2 
31/53 
 
4.32. SE IRECÊ - TRANSFORMADOR T7 - 230 / 6,9 / 13,8 KV  
Dispositivo de 
Sincronismo Ajustes 
Características dos Comutadores 
Comutador sob Carga Comutador em Vazio 
NI NI NI NI 
Notas / Restrições: 
 
4.33. SE IRECÊ - TRANSFORMADOR T4 - 230 / 138 KV  
Dispositivo de 
Sincronismo Ajustes 
Características dos Comutadores 
Comutador sob Carga Comutador em Vazio 
NI NI NI NI 
Notas / Restrições: 
 
4.34. SE IRECÊ - TRANSFORMADOR T5 - 230 / 138 KV 
Dispositivo de 
Sincronismo Ajustes 
Características dos Comutadores 
Comutador sob Carga Comutador em Vazio 
NI NI NI NI 
Notas / Restrições: 
 
4.35. SE IRECÊ - TRANSFORMADOR T8 - 230 / 138 KV 
Dispositivo de 
Sincronismo Ajustes 
Características dos Comutadores 
Comutador sob Carga Comutador em Vazio 
NI NI NI NI 
Notas / Restrições: 
 
4.36. SE JUAZEIRO DA BAHIA II - TRANSFORMADOR T1 - 230 / 69 KV  
Dispositivo de 
Sincronismo Ajustes 
Características dos Comutadores 
Comutador sob Carga Comutador em Vazio 
NI NI NI NI 
Notas / Restrições: 
 
Manual de Procedimentos da Operação - Módulo 5 - Submódulo 5.11 
 Cadastro de Informações Operacionais Código Revisão Item Vigência 
Cadastro de Dados Operacionais de Equipamentos da 
Área 230 kV Sudoeste da Região Nordeste CD-CT.NE.2SO.01 74 2.1.3. 27/09/2024 
 
Referência: PARECER TÉCNICO 0191/2024 - RELIGAMENTO AUTOMÁTICO LT 230KV BOM JESUS DA LAPA IIIGAPORÃ II C1, LT 230KV BOM 
JESUS DA LAPA II – BOM JESUS DA LAPA C1 E C2 
32/53 
 
4.37. SE JUAZEIRO DA BAHIA II - TRANSFORMADOR T2 - 230 / 69 KV  
Dispositivo de 
Sincronismo Ajustes 
Características dos Comutadores 
Comutador sob Carga Comutador em Vazio 
NI NI NI NI 
Notas / Restrições: 
 
4.38. SE JUAZEIRO DA BAHIA II - TRANSFORMADOR T3 - 230 / 69 KV  
Dispositivo de 
Sincronismo Ajustes 
Características dos Comutadores 
Comutador sob Carga Comutador em Vazio 
NI NI NI NI 
Notas / Restrições: 
 
4.39. SE RIO DAS ÉGUAS - AUTOTRANSFORMADOR 500 / 230 / 13,8 KV – 300 MVA – T1  
Dispositivo de 
Sincronismo Ajustes 
Características dos Comutadores 
Comutador sob Carga Comutador em Vazio 
NI NI NI NI 
Notas / Restrições: 
4.40. SE RIO DAS ÉGUAS - AUTOTRANSFORMADOR 500 / 230 / 13,8 KV – 300 MVA – T2  
Dispositivo de 
Sincronismo Ajustes 
Características dos Comutadores 
Comutador sob Carga Comutador em Vazio 
NI NI NI NI 
Notas / Restrições: 
4.41. SE FORMOSO II - TRANSFORMADOR 230 / 138 / 13,8 KV – 200 MVA – T1  
Dispositivo de 
Sincronismo Ajustes 
Características dos Comutadores 
Comutador sob Carga Comutador em Vazio 
NI NI NI NI 
Notas / Restrições: 
4.42. SE FORMOSO II - TRANSFORMADOR 230 / 138 / 13,8 KV – 200 MVA – T2 
Dispositivo de 
Sincronismo Ajustes 
Características dos Comutadores 
Comutador sob Carga Comutador em Vazio 
NI NI NI NI 
Notas / Restrições: 
Manual de Procedimentos da Operação - Módulo 5 - Submódulo 5.11 
 Cadastro de Informações Operacionais Código Revisão Item Vigência 
Cadastro de Dados Operacionais de Equipamentos da 
Área 230 kV Sudoeste da Região Nordeste CD-CT.NE.2SO.01 74 2.1.3. 27/09/2024 
 
Referência: PARECER TÉCNICO 0191/2024 - RELIGAMENTO AUTOMÁTICO LT 230KV BOM JESUS DA LAPA IIIGAPORÃ II C1, LT 230KV BOM 
JESUS DA LAPA II – BOM JESUS DA LAPA C1 E C2 
33/53 
 
4.43. SE RIO GRANDE II - TRANSFORMADOR T1 - 230 / 138 / 13,8 KV  
Dispositivo de 
Sincronismo Ajustes 
Características dos Comutadores 
Comutador sob Carga Comutador em Vazio 
NI NI NI NI 
Notas / Restrições: 
 
4.44. SE RIO GRANDE II - TRANSFORMADOR T2 - 230 / 138 / 13,8 KV  
Dispositivo de 
Sincronismo Ajustes 
Características dos Comutadores 
Comutador sob Carga Comutador em Vazio 
NI NI NI NI 
Notas / Restrições: 
 
4.45. SE SENHOR DO BONFIM II - TRANSFORMADOR T1 - 230 / 69 KV  
Dispositivo de 
Sincronismo Ajustes 
Características dos Comutadores 
Comutador sob Carga Comutador em Vazio 
NI NI NI NI 
Notas / Restrições: 
 
4.46. SE SENHOR DO BONFIM II - TRANSFORMADOR T3 - 230 / 69 KV  
Dispositivo de 
Sincronismo Ajustes 
Características dos Comutadores 
Comutador sob Carga Comutador em Vazio 
NI NI NI NI 
Notas / Restrições: 
 
4.47. SE SENHOR DO BONFIM II - TRANSFORMADOR T2 - 230 / 138 KV  
Dispositivo de 
Sincronismo Ajustes 
Características dos Comutadores 
Comutador sob Carga Comutador em Vazio 
NI NI NI NI 
Notas / Restrições: 
 
Manual de Procedimentos da Operação - Módulo 5 - Submódulo 5.11 
 Cadastro de Informações Operacionais Código Revisão Item Vigência 
Cadastro de Dados Operacionais de Equipamentos da 
Área 230 kV Sudoeste da Região Nordeste CD-CT.NE.2SO.01 74 2.1.3. 27/09/2024 
 
Referência: PARECER TÉCNICO 0191/2024 - RELIGAMENTO AUTOMÁTICO LT 230KV BOM JESUS DA LAPA IIIGAPORÃ II C1, LT 230KV BOM 
JESUS DA LAPA II – BOM JESUS DA LAPA C1 E C2 
34/53 
 
4.48. SE SENHOR DO BONFIM II - TRANSFORMADOR T4 - 230 / 138 KV  
Dispositivo de 
Sincronismo Ajustes 
Características dos Comutadores 
Comutador sob Carga Comutador em Vazio 
NI NI NI NI 
Notas / Restrições: 
 
4.49. SE SENHOR DO BONFIM II - TRANSFORMADOR T5 - 230 / 138 KV  
Dispositivo de 
Sincronismo Ajustes 
Características dos Comutadores 
Comutador sob Carga Comutador em Vazio 
NI NI NI NI 
Notas / Restrições: 
 
 
Manual de Procedimentos da Operação - Módulo 5 - Submódulo 5.11 
 Cadastro de Informações Operacionais Código Revisão Item Vigência 
Cadastro de Dados Operacionais de Equipamentos da 
Área 230 kV Sudoeste da Região Nordeste CD-CT.NE.2SO.01 74 2.1.3. 27/09/2024 
 
Referência:  35/53 
 
5. DADOS OPERACIONAIS DE UNIDADES GERADORAS HIDRÁULICAS 
Orientações sobre os dados operacionais de unidades geradoras de usinas hidrelétricas:  
Código Único de Empreendimentos em Geração – CEG: está apresentado ao lado do nome da usina. O CEG permanece associado ao empreendimento, 
independentemente de alteração de atributos ou de proprietários da usina. O número CEG é obtido no site da ANEEL. 
Campo “Unidade Geradora”: identifica cada unidade geradora conforme diagrama unifilar do agente. 
Campo “Faixa de Tensão (kV)”: 
• Campo “Nom.”: indica a tensão nominal da unidade geradora, em kV. 
• Campo “Mín.”: indica a tensão mínima da unidade geradora, em kV. 
• Campo “Máx.”: indica a tensão máxima da unidade geradora, em kV. 
Campo “Potência Aparente (MVA)”: 
• Campo “Nom.”: indica a potência aparente nominal da unidade geradora, em MVA. 
• Campo “FP”: indica o fator de potência nominal da unidade geradora. 
Campo “Potência Reativa (Mvar)”: 
• Campo “Mín.”: indica a potência reativa mínima da unidade geradora, em Mvar, podendo ser referenciada a curva de capabilidade da unidade geradora. 
• Campo “Máx.”: indica a potência reativa máxima da unidade geradora, em Mvar, podendo ser referenciada a curva de capabilidade da unidade geradora. 
Campo “Faixa de Operação (MW)”: 
• Campo “Permitida”: indica a faixa de potência ativa permitida da unidade geradora, em MW, associada a um determinado nível do reservatório, caso 
necessário. 
• Campo “Proibida”: indica a faixa de potência ativa máxima da unidade geradora, em MW, associada a um determinado nível do reservatório, caso 
necessário. 
Manual de Procedimentos da Operação - Módulo 5 - Submódulo 5.11 
 Cadastro de Informações Operacionais Código Revisão Item Vigência 
Cadastro de Dados Operacionais de Equipamentos da 
Área 230 kV Sudoeste da Região Nordeste CD-CT.NE.2SO.01 74 2.1.3. 27/09/2024 
 
Referência:  36/53 
 
Campo “Dispositivos de Sincronismo”: indica o disjuntor onde é efetuado o sincronismo da unidade geradora. 
Campo “Operação como Compensador Síncrono”: 
• Campo “Unidade Geradora”: indica a identificação de cada unidade geradora conforme diagrama unifilar do agente. 
• Campo “Conversão / Reversão  (min)”: indica o tempo necessário para realizar a conversão de gerador para síncrono e síncrono para gerador, em 
minutos. 
Campo “Notas / Restrições”: campo opcional que indica informações relevantes a respeito da usina. 
Caso os dados operacionais não sejam informados pelo Agente, os campos são preenchidos com “NI” – não informado. 
Caso os dados operacionais não se apliquem, os campos são preenchidos com hifens “---”. 
5.1. UHE SOBRADINHO (CEG: UHE.PH.BA.002755-3.01) 
5.1.1. DADOS DAS UNIDADES GERADORAS DA UHE SOBRADINHO 
Unidade 
Geradora 
Tensão 
(kV)  
Potência 
Aparente 
(MVA) 
Potência Reativa (Mvar) Faixa de Operação 
(MW) Dispositivo 
de 
Sincronismo 
Operação como Compensador Síncrono 
Nom. Mín. Máx. Nom. FP Mín. Máx. Permitida Proibida Unidade Geradora Conversão / 
Reversão(min) 
01G1 a 
01G6 13,8 13,1 14,5 194,5 0,90 Ver curva capabilidade 46 a 175 0 a 45 NI 01G1 a 01G6 3 / 8 
Manual de Procedimentos da Operação - Módulo 5 - Submódulo 5.11 
 Cadastro de Informações Operacionais Código Revisão Item Vigência 
Cadastro de Dados Operacionais de Equipamentos da 
Área 230 kV Sudoeste da Região Nordeste CD-CT.NE.2SO.01 74 2.1.3. 27/09/2024 
 
Referência:  37/53 
 
Unidade 
Geradora 
Tensão 
(kV)  
Potência 
Aparente 
(MVA) 
Potência Reativa (Mvar) Faixa de Operação 
(MW) Dispositivo 
de 
Sincronismo 
Operação como Compensador Síncrono 
Nom. Mín. Máx. Nom. FP Mín. Máx. Permitida Proibida Unidade Geradora Conversão / 
Reversão(min) 
Notas / Restrições: Potência Reativa entre -115 / + 115 Mvar como compensador síncrono. 
 
O tempo de reposição dos tanques de ar com máquina parada é de 195 minutos. 
O tempo de reposição dos tanques de ar com máquina sincronizada é de 188 minutos. 
 
O tempo para partida, excitação e conversão de unidade geradora pode levar até 15 minutos. 
Manual de Procedimentos da Operação - Módulo 5 - Submódulo 5.11 
 Cadastro de Informações Operacionais Código Revisão Item Vigência 
Cadastro de Dados Operacionais de Equipamentos da 
Área 230 kV Sudoeste da Região Nordeste CD-CT.NE.2SO.01 74 2.1.3. 27/09/2024 
 
Referência:  38/53 
 
5.1.2. CURVA DE CAPABILIDADE DAS UNIDADES GERADORAS DA UHE SOBRADINHO 
Curvas de Capabilidade das Unidades Geradoras da UHE Sobradinho. 
 
 

Manual de Procedimentos da Operação - Módulo 5 - Submódulo 5.11 
 Cadastro de Informações Operacionais Código Revisão Item Vigência 
Cadastro de Dados Operacionais de Equipamentos da 
Área 230 kV Sudoeste da Região Nordeste CD-CT.NE.2SO.01 74 2.1.3. 27/09/2024 
 
Referência:  39/53 
 
6. DADOS OPERACIONAIS DE UNIDADES GERADORAS TÉRMICAS 
Orientações sobre os dados operacionais de unidades geradoras de usinas termelétricas: 
Código Único de Empreendimentos em Geração – CEG: está apresentado ao lado do nome da usina. O CEG permanece associado ao empreendimento, 
independentemente de alteração de atributos ou de proprietários da usina. O número CEG é obtido no site da ANEEL. 
Campo “Unidade Geradora”: indica a identificação de cada unidade geradora conforme diagrama unifilar do agente. 
Campo “Faixa de Tensão (kV)”: 
• Campo “Nom.”: indica a tensão nominal da unidade geradora, em kV. 
• Campo “Mín.”: indica a tensão mínima da unidade geradora, em kV. 
• Campo “Máx.”: indica a tensão máxima da unidade geradora, em kV. 
Campo “Potência Aparente (MVA)”: 
• Campo “Nom.”: indica a potência aparente nominal da unidade geradora, em MVA. 
• Campo “FP”: indica o fator de potência nominal da unidade geradora. 
Campo “Potência Reativa (Mvar)”: 
• Campo “Mín.”: indica a potência reativa mínima da unidade geradora, em Mvar, podendo ser referenciada a curva de capabilidade da unidade geradora. 
• Campo “Máx.”: indica a potência reativa máxima da unidade geradora, em Mvar, podendo ser referenciada a curva de capabilidade da unidade geradora. 
Campo “Faixa de Operação (MW)”:  
• Campo “Permitida”: indica a faixa de potência ativa permitida da unidade geradora, em MW. 
• Campo “Proibida”: indica a faixa de potência ativa máxima da unidade geradora, em MW. 
Campo “Acionamento”: indica o tipo de acionamento como: Motor (MOT), Turbina a Gás (TG), Turbina a Gás Heavy-Duty (TGHD), Turbina a Vapor (TV) ou 
cogeração (COG). 
Manual de Procedimentos da Operação - Módulo 5 - Submódulo 5.11 
 Cadastro de Informações Operacionais Código Revisão Item Vigência 
Cadastro de Dados Operacionais de Equipamentos da 
Área 230 kV Sudoeste da Região Nordeste CD-CT.NE.2SO.01 74 2.1.3. 27/09/2024 
 
Referência:  40/53 
 
Campo “Operação”: indica o tipo de operação como: Ciclo Aberto (ABT) ou Ciclo Combinado (CBN). 
Campo “Combustível Principal”: indica o tipo de combustível principal. 
Campo “Combustível Secundário”: indica o tipo de combustível secundário, caso exista. 
Campo “Dispositivos de Sincronismo” indica o disjuntor onde é efetuado o sincronismo da unidade geradora. 
Caso os dados operacionais não sejam informados pelo Agente, os campos são preenchidos com “NI” – não informado. 
Caso os dados operacionais não se apliquem, os campos são preenchidos com hifens “---”. 
Campo “Configuração / Quantidade de UGs”: indica cada configuração operacional possível para a usina. Para cada configuração operacional informada, são 
fornecidas as informações referentes às demais colunas da tabela. 
Campo “Potência (MW)”:  
• Campo “Mín.”: indicar a potência mínima da unidade geradora, em MW, utilizado no DESSEM. 
• Campo “Máx.”: indicar a potência máxima da unidade geradora, em MW, utilizado no DESSEM. 
Campo “Tempo mínimo (horas)”: 
• Campo “Ton”:  tempo mínimo, utilizado no DESSEM, que a usina deve permanecer em operação, inclui o tempo para atingir potência mínima 
(considerando partida fria) e o tempo para desligamento a partir da potência mínima. 
• Campo “Toff”: tempo mínimo, utilizado no DESSEM, que a usina tem que permanecer desligada. 
Campo “Tempos (minutos)” 
• Campo “Sincronismo” – indica o tempo necessário entre a partida da configuração / quantidade de unidades geradoras em condições fria, morna e 
quente, até o sincronismo com o SIN. 
• Campo “Potência Mínima” – indica o tempo necessário entre o sincronismo da configuração / quantidade de unidades geradoras em condições fria, 
morna e quente, até alcançar sua potência mínima. 
Manual de Procedimentos da Operação - Módulo 5 - Submódulo 5.11 
 Cadastro de Informações Operacionais Código Revisão Item Vigência 
Cadastro de Dados Operacionais de Equipamentos da 
Área 230 kV Sudoeste da Região Nordeste CD-CT.NE.2SO.01 74 2.1.3. 27/09/2024 
 
Referência:  41/53 
 
• Campo “Potência Máxima” – indica o tempo necessário entre o sincronismo das configurações / quantidade de unidades geradoras em condições fria, 
morna e quente, até alcançar sua potência máxima. 
• Campo “Desligamento” – indica o tempo necessário para o desligamento da unidade geradora a partir da potência mínima e máxima. 
Caso os dados operacionais não sejam informados pelo Agente, os campos são preenchidos com “NI” – não informado. 
Caso os dados operacionais não se apliquem, os campos são preenchidos com hifens “---”. 
 
6.1. UTE PETROLINA (CEG: UTE.PE.PE.028.584-6.01) 
6.1.1. DADOS DAS UNIDADES GERADORAS DA UTE PETROLINA 
Unidade 
Geradora 
Tensão (kV) Potência Aparente 
(MVA) Potência Reativa (Mvar) Faixa de Operação (MW) 
Nom Mín Máx Nom FP Mín Máx Permitida Proibida Obs. 
01G1 13,8 11,04 15,456 21,281 0,8 - 6,385 12 15,2 a 16,5 Inferior a 15,2 (1) 
01G2 13,8 11,04 15,456 21,281 0,8 - 6,385 12 15,2 a 16,5 Inferior a 15,2 (1) 
01G3 13,8 11,04 15,456 21,281 0,8 - 6,385 12 15,2 a 16,5 Inferior a 15,2 (1) 
01G4 13,8 11,04 15,456 21,281 0,8 - 6,385 12 15,2 a 16,5 Inferior a 15,2 (1) 
01G5 13,8 11,04 15,456 21,281 0,8 - 6,385 12 15,2 a 16,5 Inferior a 15,2 (1) 
01G6 13,8 11,04 15,456 21,281 0,8 - 6,385 12 15,2 a 16,5 Inferior a 15,2 (1) 
Manual de Procedimentos da Operação - Módulo 5 - Submódulo 5.11 
 Cadastro de Informações Operacionais Código Revisão Item Vigência 
Cadastro de Dados Operacionais de Equipamentos da 
Área 230 kV Sudoeste da Região Nordeste CD-CT.NE.2SO.01 74 2.1.3. 27/09/2024 
 
Referência:  42/53 
 
Unidade 
Geradora 
Tensão (kV) Potência Aparente 
(MVA) Potência Reativa (Mvar) Faixa de Operação (MW) 
Nom Mín Máx Nom FP Mín Máx Permitida Proibida Obs. 
01G7 13,8 11,04 15,456 21,281 0,8 - 6,385 12 15,2 a 16,5 Inferior a 15,2 (1) 
01G8 13,8 11,04 15,456 21,281 0,8 - 6,385 12 15,2 a 16,5 Inferior a 15,2 (1) 
(1) Caso a UG opere abaixo desta potência, o consumo específico aumenta muito, não devendo operar abaixo de 15,2MW em regime. As condições em 
que a UG pode operar por tempo determinado abaixo de 15,2MW são: 1- Durante a lavagem dos turbocompressores, que deve ocorrer com 
potência reduzida; 2- Durante rampa de amaciamento do motor, que ocorre após retorno de algumas manutenções. 
 
Unidade Geradora Acionamento Operação Combustível 
Principal 
Combustível 
Secundário Dispositivos de Sincronização 
01G1 MOT ABT OCB1 ESPECIAL OD BS550 Disjuntor BAE011 
01G2 MOT ABT OCB1 ESPECIAL OD BS550 Disjuntor BAE021 
01G3 MOT ABT OCB1 ESPECIAL OD BS550 Disjuntor BAE031 
01G4 MOT ABT OCB1 ESPECIAL OD BS550 Disjuntor BAE041 
01G5 MOT ABT OCB1 ESPECIAL OD BS550 Disjuntor BAE051 
01G6 MOT ABT OCB1 ESPECIAL OD BS550 Disjuntor BAE061 
01G7 MOT ABT OCB1 ESPECIAL OD BS550 Disjuntor BAE071 
Manual de Procedimentos da Operação - Módulo 5 - Submódulo 5.11 
 Cadastro de Informações Operacionais Código Revisão Item Vigência 
Cadastro de Dados Operacionais de Equipamentos da 
Área 230 kV Sudoeste da Região Nordeste CD-CT.NE.2SO.01 74 2.1.3. 27/09/2024 
 
Referência:  43/53 
 
Unidade Geradora Acionamento Operação Combustível 
Principal 
Combustível 
Secundário Dispositivos de Sincronização 
01G8 MOT ABT OCB1 ESPECIAL OD BS550 Disjuntor BAE081 
Combustível secundário somente utilizado para partida das UGs após condição de usina fria e durante desligamento para retorno a condição de usina fria. 
 
Manual de Procedimentos da Operação - Módulo 5 - Submódulo 5.11 
 Cadastro de Informações Operacionais Código Revisão Item Vigência 
Cadastro de Dados Operacionais de Equipamentos da 
Área 230 kV Sudoeste da Região Nordeste CD-CT.NE.2SO.01 74 2.1.3. 27/09/2024 
 
Referência:  44/53 
 
6.1.2. DADOS RELACIONADOS A CONFIGURAÇÕES DE OPERAÇÃO DA UTE PETROLINA - COMBUSTÍVEL PRINCIPAL 
Configuração / 
Quantidade de UGs 
Potência (MW) 
Tempo 
mínimo 
(horas) 
Tempos (minutos) 
Mín. Máx. Ton Toff 
Sincronismo Potência Mínima Potência Máxima Desligamento 
Fria 
Morna 
Quente 
Fria 
Morna 
Quente 
Fria 
Morna 
Quente 
Potência 
Mín. 
Potência 
Máx. 
1 / UG1 11,3 16,5 480 360  4322 N/A  92  4334 N/A  104  4340 N/A  110 8 9 
2 / UG1 e UG2 22,6 33,0 480 360  4332 N/A  102  4344 N/A  114  4350 N/A  120 8 9 
3 / UG1 a UG3 33,9 49,5 480 360  4342 N/A  112 4354 N/A 124 4360 N/A  130 8 9 
4 / UG1 a UG4 45,2 66,0 480 360 4352 N/A 122  4364 N/A  134 4370 N/A 140 8 9 
5 / UG1 e UG5 56,5 82,5 480 360  4362 N/A  132  4374 N/A  144  4380 N/A  150 8 9 
6 / UG1 e UG6 67,8 99,0 480 360  4372 N/A  142  4384 N/A  154  4390 N/A  160 8 9 
7 / UG1 a UG7 79,1 115,5 480 360  4382 N/A  152  4394 N/A  164  4400 N/A  170 8 9 
8 / UG1 a UG8 90,4 132,0 480 360  4392 N/A  162  4404 N/A  174  4410 N/A  180 8 9 
Tempo entre solicitação de geração pelo ONS e início do processo de sincronização (minutos): fria - 4.320min (72h) e quente - 90min (1,5h). 
Tempo decorrido após o desligamento da unidade geradora, considerado pelo agente como critério adotado para definir a condição de (minutos): 
Manual de Procedimentos da Operação - Módulo 5 - Submódulo 5.11 
 Cadastro de Informações Operacionais Código Revisão Item Vigência 
Cadastro de Dados Operacionais de Equipamentos da 
Área 230 kV Sudoeste da Região Nordeste CD-CT.NE.2SO.01 74 2.1.3. 27/09/2024 
 
Referência:  45/53 
 
Configuração / 
Quantidade de UGs 
Potência (MW) 
Tempo 
mínimo 
(horas) 
Tempos (minutos) 
Mín. Máx. Ton Toff 
Sincronismo Potência Mínima Potência Máxima Desligamento 
Fria 
Morna 
Quente 
Fria 
Morna 
Quente 
Fria 
Morna 
Quente 
Potência 
Mín. 
Potência 
Máx. 
Partida fria: 10.080 (7 dias) Partida morna: N/A Partida quente: 360 (6 horas) 
Restrições para operação isolada de turbina a gás (ciclo aberto) em usinas de ciclo combinado: N/A 
Restrições relacionadas ao processo de cogeração: N/A 
Restrições quanto à quantidade de partidas por ano: N/A 
Outros tipos de restrições: Redução automática de potência das UGs para temperatura ambiente superior a 35 °C (derating) 
 
6.1.3. DADOS RELACIONADOS A CONFIGURAÇÕES DE OPERAÇÃO DA UTE PETROLINA - COMBUSTÍVEL SECUNDÁRIO 
Não aplica. 
Manual de Procedimentos da Operação - Módulo 5 - Submódulo 5.11 
 Cadastro de Informações Operacionais Código Revisão Item Vigência 
Cadastro de Dados Operacionais de Equipamentos da 
Área 230 kV Sudoeste da Região Nordeste CD-CT.NE.2SO.01 74 2.1.3. 27/09/2024 
 
Referência:  46/53 
 
6.1.4. CURVA DE CAPABILIDADE DAS UNIDADES GERADORAS DA UTE PETROLINA 
 

Manual de Procedimentos da Operação - Módulo 5 - Submódulo 5.11 
 Cadastro de Informações Operacionais Código Revisão Item Vigência 
Cadastro de Dados Operacionais de Equipamentos da 
Área 230 kV Sudoeste da Região Nordeste CD-CT.NE.2SO.01 74 2.1.3. 27/09/2024 
 
Referência:  47/53 
 
6.2. UTE SYKUÉ (CEG: UTE.AI.BA.029634-1.01) 
6.2.1. DADOS DAS UNIDADES GERADORAS DA UTE SYKUÉ 
Unidade 
Geradora 
Tensão (kV) Potência (MVA) Potência Reativa (Mvar) Faixa  de Operação (MW) 
Nom Min Max Nom FP Min Max Permitida Proibida Obs. 
BASK010UG1 138 131    144 30 0,95 0 0,8 30 (*) 18 Máx/mín 
Detalhes da configuração da usina: (operação das unidades por blocos ou conjuntos; configuração para operação em ciclo combinado (combinação de 
turbina a gás/caldeira de recuperação/turbina a vapor). 
(*) Potência instalada é de 30MW, porém consumo interno da UTE de 2MW com Exportação em 28MW (disponibilidade máxima). 
 
 
Unidade Geradora Acionamento Operação Combustível 
Principal 
Combustível 
Secundário Dispositivos de Sincronização 
BASK010UG1 TV ABT BIOMASSSA - 13M1 - ESK 
 
  
Manual de Procedimentos da Operação - Módulo 5 - Submódulo 5.11 
 Cadastro de Informações Operacionais Código Revisão Item Vigência 
Cadastro de Dados Operacionais de Equipamentos da 
Área 230 kV Sudoeste da Região Nordeste CD-CT.NE.2SO.01 74 2.1.3. 27/09/2024 
 
Referência:  48/53 
 
6.2.2. DADOS RELACIONADOS A CONFIGURAÇÕES DE OPERAÇÃO DA UTE SYKUÉ - COMBUSTÍVEL PRINCIPAL 
Configuração 
/  
nº de UGs  
Potência 
(MW) Tempos (minutos) 
Min Max Ton Toff 
Sincronismo  Potência Mínima  Potência Máxima  Desligamento 
Fria Morna Quente Fria Morna Quente Fria Morna Quente Potênci
a Min 
Potência 
Max 
1 / UG1 18 28 43200  
ou mais 0 894 858 618 180 180 180 560 560 560 1.440(*) 1.440(*) 
Tempo entre solicitação de geração pelo ONS e início do processo de sincronização (minutos): A depender da contratação comercial da usina para garantia de um 
fluxo mínimo contratado e garantido da geração que viabilize a exposição a condições complementares não pré-definidas/garantidas. 
Tempo decorrido após o desligamento da unidade, considerado pelo agente como critério adotado para definir a condição de (minutos): 
Partida fria: X>1.800 Partida morna: 1.800 < X < 720 Partida quente: X<720 
Restrições para operação isolada de turbina a gás (ciclo aberto) em usinas de ciclo combinado: N/I 
Restrições relacionadas ao processo de cogeração: N/I 
Outros tipos de restrições: 
Tempo máximo: 15 dias sem hibernação, a partir de 15 dias necessidade de 2 dias para executar procedimento de hibernação dos equipamentos e mais sendo 2 
dias adicionais ao item sincronismo.  
Parada (para retomada fria, quente ou morna) apenas 1 vez ao mês. 
Abaixo de 18MW não pode operar, necessária parada da unidade. 
Parada na geração de 30 dias consecutivos a cada 11 meses operativos para manutenção anual e 2 dias a cada 2 meses para manutenção preventiva. 
Parada (para retomada fria, quente ou morna) apenas 1 vez ao mês. 
(*) Potência instalada é de 30MW, porém consumo interno da UTE de 2MW com Exportação em 28MW (disponibilidade máxima). 
 
Manual de Procedimentos da Operação - Módulo 5 - Submódulo 5.11 
 Cadastro de Informações Operacionais Código Revisão Item Vigência 
Cadastro de Dados Operacionais de Equipamentos da 
Área 230 kV Sudoeste da Região Nordeste CD-CT.NE.2SO.01 74 2.1.3. 27/09/2024 
 
Referência:  49/53 
 
 
 
Tempos para Desligamento Completo da unidade partindo da Carga 
Parada Turbina (retirada de carga) 30 Min 
Parada Caldeira (despressurização) 240 Min 
Parada Caldeira (resfriamento) 1.140 Min 
Parada Caldeira (sist. Aux.) 30 Min 
Tempo Total para desligamento 1.440 Min 
 
6.2.3. DADOS RELACIONADOS A CONFIGURAÇÕES DE OPERAÇÃO DA UTE SYKUÉ- COMBUSTÍVEL SECUNDÁRIO 
Não aplica. 
 
 
Manual de Procedimentos da Operação - Módulo 5 - Submódulo 5.11 
 Cadastro de Informações Operacionais Código Revisão Item Vigência 
Cadastro de Dados Operacionais de Equipamentos da 
Área 230 kV Sudoeste da Região Nordeste CD-CT.NE.2SO.01 74 2.1.3. 27/09/2024 
 
Referência:  50/53 
 
7. DADOS OPERACIONAIS DE COMPENSADORES SÍNCRONOS 
• Campo “Identificação Operacional”: consta o código identificador do compensador, conforme diagrama unifilar do agente. 
• Campo “Tensão Nominal (kV)”:  indica a tensão nominal do compensador. 
• Campo “Potência Nominal (Mvar)”:  indica a potência reativa mínima e máxima, em Mvar, do compensador, podendo ser referenciada a sua curva de 
capabilidade. 
• Campo “Barramento para Controle de Tensão”: indica o barramento de referência de tensão para o compensador. 
• Campo “Tempo de Partida”: indica o tempo de partida do compensador, em minutos.  
• Campo “Tempo de Resfriamento”: indica o tempo de resfriamento do compensador, em minutos. 
• Campo “Tempo de Parada”: indica o tempo de parada do compensador sem freio e com freio, em minutos. 
• Campo “Tempo de Parada com freio”: indica o tempo de parada do compensador, em minutos, considerando o uso de freios elétricos e mecânicos.  
• Campo “Tempo de Parada sem freio”: indica o tempo de parada do compensador, em minutos, considerando a ausência de freios elétricos e mecânicos.  
• Campo “Tempo para energização após desligamento”: é o tempo entre abertura dos disjuntores desconectando esse equipamento do sistema e o 
fechamento dos disjuntores reconectando o equipamento no sistema. 
• Campo “Notas / Restrições”: campo opcional que indica informações relevantes a respeito do compensador. 
Caso os dados operacionais não sejam informados pelo Agente, os campos são preenchidos com “NI” – não informado. 
Caso os dados operacionais não se apliquem, os campos são preenchidos com hifens “---”. 
 
 
Manual de Procedimentos da Operação - Módulo 5 - Submódulo 5.11 
 Cadastro de Informações Operacionais Código Revisão Item Vigência 
Cadastro de Dados Operacionais de Equipamentos da 
Área 230 kV Sudoeste da Região Nordeste CD-CT.NE.2SO.01 74 2.1.3. 27/09/2024 
 
Referência:  51/53 
 
7.1. SE IRECÊ – COMPENSADOR SÍNCRONO 01K1 (-15 / +30 MVAR) 
Identificação 
Operacional Tensão Nominal (kV) Potência Nominal 
(Mvar)  
Barramento Para 
Controle de Tensão  
Tempo de Parada (min)  
Tempo de 
partida (min)  
Tempo para 
energização após 
desligamento (min) Sem Freio Com Freio 
01K1 13,8 - 15 a + 30 13,8kV 120 NÃO 30 (a) 120 (b) 
Notas / Restrições: (a) Caso a partida seja realizada aproveitando-se a inércia, o tempo deve ser inferior a 400 rpm (ou 20 minutos). Esse tempo pode variar, 
dependendo das condições operacionais do equipamento (velocidade, temperatura) no momento do seu desligamento. 
(b) O intervalo de tempo entre tentativas de partida deve ser de 120 minutos. 
 
7.2. SE BOM JESUS DA LAPA – COMPENSADOR SÍNCRONO 01K1 (-15 / +30 MVAR) 
Identificação 
Operacional Tensão Nominal (kV) Potência Nominal 
(Mvar)  
Barramento Para 
Controle de Tensão  
Tempo de Parada (min)  
Tempo de 
partida (min)  
Tempo para 
energização após 
desligamento (min) Sem Freio Com Freio 
01K1 13,8 - 15 a + 30 13,8kV 75 NÃO 30 (a) 120 (b) 
Notas / Restrições: (a) Caso a partida seja realizada aproveitando-se a inércia, o tempo deve ser inferior a 500 rpm (ou 20 minutos). Esse tempo pode variar, 
dependendo das condições operacionais do equipamento (velocidade, temperatura) no momento do seu desligamento. 
(b) O intervalo de tempo entre tentativas de partida deve ser de 120 minutos. Após a segunda tentativa, o intervalo de tempo entre tentativas de partida deve 
ser de 240 minutos. 
 
Manual de Procedimentos da Operação - Módulo 5 - Submódulo 5.11 
 Cadastro de Informações Operacionais Código Revisão Item Vigência 
Cadastro de Dados Operacionais de Equipamentos da 
Área 230 kV Sudoeste da Região Nordeste CD-CT.NE.2SO.01 74 2.1.3. 27/09/2024 
 
Referência:  52/53 
 
8. DADOS OPERACIONAIS DE BANCOS DE CAPACITORES SHUNT 
Orientações sobre os dados operacionais de bancos de capacitores: 
• Campo “Identificação Operacional”: identificação dos bancos de capacitores, conforme diagrama unifilar do agente. 
• Campo “Tensão Nominal (kV)”:  indica a tensão nominal dos bancos de capacitores. 
• Campo “Potência Nominal (Mvar)”:  indica a potência nominal dos bancos de capacitores. 
• Campo “Tempo para energização após desligamento”: é o tempo entre abertura dos disjuntores desconectando esse equipamento do sistema e o 
fechamento dos disjuntores reconectando o equipamento no sistema. 
• Campo “Notas / Restrições”: campo opcional que indica informações relevantes a respeito dos bancos de capacitores. 
Caso os dados operacionais não sejam informados pelo Agente, os campos são preenchidos com “NI” – não informado. 
Caso os dados operacionais não se apliquem, os campos são preenchidos com hifens “---”. 
8.1. SE IGAPORÃ II - BANCO DE CAPACITORES 230 KV – 50 MVAR – H1 
Identificação 
Operacional Tensão Nominal (kV) Potência Nominal 
(Mvar) 
Tempo para 
Energização após 
Desligamento 
H1 230 50 10 minutos 
 
Manual de Procedimentos da Operação - Módulo 5 - Submódulo 5.11 
 Cadastro de Informações Operacionais Código Revisão Item Vigência 
Cadastro de Dados Operacionais de Equipamentos da 
Área 230 kV Sudoeste da Região Nordeste CD-CT.NE.2SO.01 74 2.1.3. 27/09/2024 
 
Referência:  53/53 
 
8.2. SE BOM JESUS DA LAPA - BANCO DE CAPACITORES 230 KV – 34,92 MVAR – H1 
Identificação 
Operacional Tensão Nominal (kV) Potência Nominal 
(Mvar) 
Tempo para 
Energização após 
Desligamento 
H1 230 34,92 10 minutos 
 
8.3. SE IRECÊ - BANCO DE CAPACITORES 230 KV – 81 MVAR – H1 
Identificação 
Operacional Tensão Nominal (kV) Potência Nominal 
(Mvar) 
Tempo para 
Energização após 
Desligamento 
H1 230 81 10 minutos 
 
