Manual de Procedimentos da Operação
Módulo 5 - Submódulo 5.11
Cadastro de Informações Operacionais
Cadastro de Dados Operacionais de Equipamentos da Área Roraima
Código Revisão Item Vigência
CD-CT.N.5RR.01 17 2.1.4. 14/06/2024
.
MOTIVO DA REVISÃO:
•Inclusão parcial da MOP/ONS 237-R/2024, incluindo os dados operacionais da LT 69 kV Boa Vista / Floresta 
C3.
LISTA DE DISTRIBUIÇÃO
CNOS COSR-NCO BRASIL BIOFUELS ELETRONORTE ENEVA
RORAIMA ENERGIA TRANSNORTE OXE ENERGIA OLEOPLAN OLIVEIRA ENERGIA
Manual de Procedimentos da Operação – Módulo 5 – Submódulo 5.11
 Cadastro de Informações Operacionais Código Revisão Item Vigência
Cadastro de Dados Operacionais de Equipamentos da 
Área Roraima CD-CT.N.5RR.01 17 2.1.4. 14/06/2024
Referência: E-mail da Eletronorte do dia 05/05/2023. 2 / 50
ÍNDICE
1. OBJETIVO.........................................................................................................................................6
2. CONSIDERAÇÕES GERAIS .................................................................................................................6
3. DADOS OPERACIONAIS DE LINHAS DE TRANSMISSÃO......................................................................6
3.1. LT 230 kV Boa Vista / Santa Elena .................................................................................................7
3.2. LT 230 kV UTE Jaguatirica II / Boa Vista.........................................................................................7
3.3. LT 69 kV Boa Vista / Monte Cristo.................................................................................................8
3.4. LT 69 kV Boa Vista / Distrito com derivação para a SE Equatorial e para a UTE Monte Cristo 
Bloco II...........................................................................................................................................8
3.5. LT 69 kV Boa Vista / Floresta C1 com derivação para a SE Satélite ...............................................8
3.6. LT 69 kV Boa Vista / Floresta C2 ....................................................................................................9
3.7. LT 69 KV Boa Vista / Floresta C3....................................................................................................9
3.8. LT 69 kV Boa Vista / Centro .........................................................................................................10
3.9. LT 69 kV Centenário / Distrito .....................................................................................................10
3.10. LT 69 kV Floresta / Centenário ....................................................................................................11
3.11. LT 69 kV Floresta / Centro ...........................................................................................................11
4. DADOS OPERACIONAIS DE TRANSFORMADORES ...........................................................................11
4.1. SE Boa Vista – transformador BVTF6-02, 03 ou 04 de 230/69/13,8 kV - 100 MVA.....................12
4.2. SE Distrito – transformador DTTF4-01 ou 02 de 69/13,8 kV – 26,6 MVA....................................12
4.3. SE Centro – transformador CETF4-01, 02 ou 03 de 69/13,8 kV – 26,6 MVA ...............................12
4.4. SE Floresta – transformador FTTF4-01, 02 ou 03 de 69/13,8 kV – 26,6 MVA .............................13
4.5. SE Equatorial – transformador EQTF4-01 de 69/13,8 kV – 26,6 MVA.........................................13
4.6. SE Satélite – transformador STTF4-01 ou 02 de 69/13,8 kV – 18,75 MVA ..................................13
4.7. UTE Jaguatirica II – Transformador 11BAT10 OU 12BAT10 13,8/230 KV – 65 MVA....................13
4.8. UTE Jaguatirica II – Transformador 18BAT10 DE 13,8/230 KV – 55 MVA....................................14
5. DADOS OPERACIONAIS DE UNIDADES GERADORAS TÉRMICAS ......................................................15
5.1. UTE Monte Cristo (CEG: UTE.PE.RR.031982-1.01) ......................................................................17
5.1.1. Dados das Unidades Geradoras da UTE Monte Cristo ..............................................17
5.1.2. Dados Relacionados à Configuração de Operação da UTE Monte Cristo– Combustível 
Principal.....................................................................................................................17
5.1.3. Dados Relacionados à Configuração de Operação da UTE Monte Cristo– Combustível 
Secundário.................................................................................................................18
5.1.4. Curva de Capabilidade das Unidades Geradoras da UTE Monte Cristo.....................19
5.2. UTE Monte Cristo Bloco II (CEG: UTE.PE.RR.044653-0.01)..........................................................20
5.2.1. Dados das Unidades Geradoras da UTE Monte Cristo Bloco II..................................20
Manual de Procedimentos da Operação – Módulo 5 – Submódulo 5.11
 Cadastro de Informações Operacionais Código Revisão Item Vigência
Cadastro de Dados Operacionais de Equipamentos da 
Área Roraima CD-CT.N.5RR.01 17 2.1.4. 14/06/2024
Referência: E-mail da Eletronorte do dia 05/05/2023. 3 / 50
5.2.2. Dados Relacionados à Configurações de Operação da UTE Monte Cristo Bloco II – 
Combustível Principal ................................................................................................20
5.2.3. Dados Relacionados à Configurações de Operação da UTE Monte Cristo Bloco II – 
Combustível Secundário............................................................................................21
5.2.4. Curva de Capabilidade das Unidades Geradoras da UTE Monte Cristo Bloco II........21
5.3. UTE Baliza (CEG: UTE.AI.RR.044586-0)........................................................................................22
5.3.1. Dados das Unidades Geradoras da UTE Baliza ..........................................................22
5.3.2. Dados Relacionados às Configurações de Operação da UTE Baliza – Combustível 
Principal.....................................................................................................................22
5.3.3. Dados Relacionados às Configurações de Operação da UTE Baliza – Combustível 
Secundário.................................................................................................................23
5.3.4. Curva de Capabilidade das Unidades Geradoras da UTE Baliza ................................23
5.4. UTE Bonfim (CEG: UTE.FL.RR.044603-3) .....................................................................................24
5.4.1. Dados das Unidades Geradoras da UTE Bonfim ........................................................24
5.4.2. Dados Relacionados às Configurações de Operação da UTE Bonfim – Combustível 
Principal.....................................................................................................................24
5.4.3. Dados Relacionados às Configurações de Operação da UTE Bonfim – Combustível 
Secundário.................................................................................................................25
5.4.4. Curva de Capabilidade das Unidades Geradoras da UTE Bonfim ..............................25
5.5. UTE Cantá (CEG: UTE.FL.RR.044604-1)........................................................................................26
5.5.1. Dados das Unidades Geradoras da UTE Cantá ..........................................................26
5.5.2. Dados Relacionados à Configurações de Operação da UTE Cantá– Combustível 
Principal.....................................................................................................................26
5.5.3. Dados Relacionados à Configurações de Operação da UTE Cantá– Combustível 
Secundário.................................................................................................................27
5.5.4. Curva de Capabilidade das Unidades Geradoras da ute Cantá .................................27
5.6. UTE Distrito Industrial – Bloco 1 (CEG: UTE.PE.RR.030638-0.01) ................................................28
5.6.1. Dados das Unidades Geradoras da UTE Distrito Industrial........................................28
5.6.2. Dados Relacionados às Configurações de Operação da UTE Distrito Industrial - Bloco 
1– Combustível Principal ...........................................................................................28
5.6.3. Dados Relacionados às Configurações de Operação da UTE Distrito Industrial - Bloco 
1– Combustível Secundário .......................................................................................29
5.6.4. Curva de Capabilidade das Unidades Geradoras da UTE Distrito Industrial – Bloco 1
...................................................................................................................................29
5.7. UTE Distrito Industrial – Bloco 2 (CEG: UTE.PE.RR.030638-0.01) ................................................30
5.7.1. Dados das Unidades Geradoras da UTE Distrito Industrial – Bloco 2 ........................30
5.7.2. Dados Relacionados à Configurações de Operação da UTE Distrito Industrial - Bloco 
2– Combustível Principal ...........................................................................................30
Manual de Procedimentos da Operação – Módulo 5 – Submódulo 5.11
 Cadastro de Informações Operacionais Código Revisão Item Vigência
Cadastro de Dados Operacionais de Equipamentos da 
Área Roraima CD-CT.N.5RR.01 17 2.1.4. 14/06/2024
Referência: E-mail da Eletronorte do dia 05/05/2023. 4 / 50
5.7.3. Dados Relacionados à Configurações de Operação da UTE Distrito Industrial - Bloco 
2– Combustível Secundário .......................................................................................31
5.7.4. Curva de Capabilidade das Unidades Geradoras da UTE Distrito Industrial- Bloco 231
5.8. UTE Distrito Industrial – Bloco 3 (CEG: UTE.PE.RR.031983-0.01) ................................................32
5.8.1. Dados das Unidades Geradoras da UTE Distrito Industrial – Bloco 3 ........................32
5.8.2. Dados Relacionados às Configurações de Operação da UTE Distrito Industrial - Bloco 
3– Combustível Principal ...........................................................................................32
5.8.3. Dados Relacionados às Configurações de Operação da UTE Distrito Industrial - Bloco 
3– Combustível Secundário .......................................................................................33
5.8.4. Curva de Capabilidade das Unidades Geradoras da UTE Distrito Industrial - Bloco 3
...................................................................................................................................33
5.9. UTE Floresta ................................................................................................................................34
5.9.1. Dados das Unidades Geradoras da UTE Floresta.......................................................34
5.9.2. Dados Relacionados à Configurações de Operação da UTE Floresta– Combustível 
Principal.....................................................................................................................34
5.9.3. Dados Relacionados à Configurações de Operação da UTE Floresta– Combustível 
Secundário.................................................................................................................35
5.9.4. Curva de Capabilidade das Unidades Geradoras da UTE Floresta.............................35
5.10. UTE Monte Cristo Sucuba............................................................................................................36
5.10.1. Dados das Unidades Geradoras da UTE Monte Cristo Sucuba..................................36
5.10.2. Dados relacionados às Confgurações de Operação da UTE Monte Cristo Sucuba  – 
Combustível Principal ................................................................................................36
5.10.3. Dados Relacionados à Configurações de Operação da UTE MOnte Cristo Sucuba– 
Combustível Secundário............................................................................................37
5.10.4. Curva de Capabilidade das Unidades Geradoras da UTE Monte Cristo Sucuba ........37
5.11. UTE Novo Paraíso (CEG: UTE.PE.RR.031984-8) ...........................................................................38
5.11.1. Dados das Unidades Geradoras da UTE Novo Paraíso ..............................................38
5.11.2. Dados Relacionados à Configurações de Operação da UTE Novo paraíso– Combustível 
Principal.....................................................................................................................38
5.11.3. Dados Relacionados à Configurações de Operação da UTE Novo Paraíso– Combustível 
Secundário.................................................................................................................39
5.11.4. Curva de Capabilidade das Unidades Geradoras da UTE Novo Paraíso ....................39
5.12. UTE Jaguatirica II (CEG: UTE.GN.RR.044619-0.01) ......................................................................40
5.12.1. Dados das Unidades Geradoras da UTE Jaguatirica II................................................40
5.12.2. Dados relacionados às Configurações de Operação da UTE Jaguatirica II– Combustível 
Principal.....................................................................................................................41
5.12.3. Dados relacionados às Configurações de Operação da UTE Jaguatirica II– Combustível 
Secundário.................................................................................................................42
Manual de Procedimentos da Operação – Módulo 5 – Submódulo 5.11
 Cadastro de Informações Operacionais Código Revisão Item Vigência
Cadastro de Dados Operacionais de Equipamentos da 
Área Roraima CD-CT.N.5RR.01 17 2.1.4. 14/06/2024
Referência: E-mail da Eletronorte do dia 05/05/2023. 5 / 50
5.12.4. Curva de Capabilidade das Unidades Geradoras da UTE jaguatirica II ......................42
5.13. UTE Pau Rainha (CEG: UTE.FL.RR.044605-0) ...............................................................................42
5.13.1. Dados das Unidades Geradoras da UTE Pau Rainha..................................................42
5.13.2. Dados Relacionados às Configurações de Operação da UTE Pau Rainha– Combustível 
Principal.....................................................................................................................43
5.13.3. Dados Relacionados às Configurações de Operação da UTE Pau Rainha– Combustível 
Secundário.................................................................................................................44
5.13.4. Curva de Capabilidade das Unidades Geradoras da UTE Pau Rainha........................44
5.14. UTE Palmaplan (CEG: UTE.BL.RR.044588-6)................................................................................44
5.14.1. Dados das Unidades Geradoras da UTE Palmaplan...................................................44
5.14.2. Dados Relacionados às Configurações de Operação da UTE Palmaplan – Combustível 
Principal.....................................................................................................................45
5.14.3. Dados Relacionados às Configurações de Operação da UTE Palmaplan– Combustível 
Secundário.................................................................................................................46
5.14.4. Curva de Capabilidade das Unidades Geradoras da UTE Pau Palmaplan..................46
5.15. UTE Santa Luz (CEG: UTE.FL.RR.044606-8)..................................................................................47
5.15.1. Dados das Unidades Geradoras da UTE Santa Luz ....................................................47
5.15.2. Dados Relacionados às Configurações de Operação da UTE Santa Luz – Combustível 
Principal.....................................................................................................................47
5.15.3. Dados Relacionados às Configurações de Operação da UTE Santa Luz – Combustível 
Secundário.................................................................................................................48
5.15.4. Curva de Capabilidade das Unidades Geradoras da UTE Santa Luz ..........................48
6. DADOS OPERACIONAIS DE COMPENSADORES ESTÁTICOS ..............................................................49
6.1. SE Boa Vista – Compensador Estático BVCE2-01 (-120/+150 Mvar) ...........................................49
Manual de Procedimentos da Operação – Módulo 5 – Submódulo 5.11
 Cadastro de Informações Operacionais Código Revisão Item Vigência
Cadastro de Dados Operacionais de Equipamentos da 
Área Roraima CD-CT.N.5RR.01 17 2.1.4. 14/06/2024
Referência:  6 / 50
1. OBJETIVO
Apresentar os Dados Operacionais de Equipamentos da Área Roraima, a serem observados pelos operadores 
dos Centros de Operação do ONS e pela Operação dos Agentes envolvidos, de acordo com os Procedimentos 
de Rede. 
2. CONSIDERAÇÕES GERAIS
2.1. Os dados de linhas de transmissão e equipamentos da Rede de Operação constantes neste Cadastro 
de Informações Operacionais devem ser observados pelos Centros de Operação do ONS para as ações 
de coordenação, supervisão e controle da operação, assim como pelos Agentes para as ações de 
comando e execução.
2.2. As limitações técnicas para tentativas de religamento de equipamentos contidas neste documento 
têm caráter operacional. Poderão ser utilizadas para apuração da qualidade do serviço público de 
transmissão de energia elétrica (apuração de parcela variável) o valor do “Tempo para energização 
após desligamento” de cada equipamento, desde que sejam atendidos os critérios estabelecidos na 
regulação vigente.
3. DADOS OPERACIONAIS DE LINHAS DE TRANSMISSÃO
Orientações sobre os dados operacionais de linhas de transmissão:
Campo “Religamento Automático”:
•Campo “Tipo”: indica o tipo de religamento utilizado em operação normal: monopolar, tripolar ou 
monopolar / tripolar; caso não exista religamento instalado, o campo é preenchido com “NE” – não 
existe.
•Campo “Situação”: indica se o religamento está ligado ou desligado em operação normal; caso não 
exista religamento instalado, o campo é preenchido com “NE” – não existe.
•Campo “Sentido”: para religamentos tripolares, indica em primeiro lugar a instalação onde se dá o 
fechamento inicial (terminal líder), e após a seta, a instalação de fechamento final (terminal seguidor); 
para religamentos monopolares ou caso não exista religamento instalado, o campo é preenchido com 
hifens (---).
•Campo “Ajustes”: indica os ajustes de tempo morto, diferença de tensão, defasagem angular e diferença 
de frequência instalados para a função de verificação de sincronismo para o religamento automático; 
caso não exista religamento automático instalado, o campo é preenchido com hifens (---).
•Campo “LT em Mesma Estrutura”: apresenta o nome da LT que compartilha estrutura, e quando 
disponível, a informação da extensão do trecho de compartilhamento e da quantidade de torres 
compartilhadas; caso não exista, o campo é preenchido com “NE” – não existe.
Não deve ser considerado o compartilhamento de estrutura caso esse seja apenas na chegada as subestações 
envolvidas.
Campo “Religamentos Manuais”:
•Campo “Quantidade de Tentativas”: indica quantos religamentos (ou tentativas de religamento) 
manuais são permitidos pelo Agente.
•Campo “Intervalo entre os Religamentos (min)”: é o intervalo de tempo entre os religamentos, em 
minutos, a ser considerado entre a tentativa de fechamento não-bem-sucedida anterior (incluindo 
o religamento automático) e o novo fechamento do disjuntor.
Manual de Procedimentos da Operação – Módulo 5 – Submódulo 5.11
 Cadastro de Informações Operacionais Código Revisão Item Vigência
Cadastro de Dados Operacionais de Equipamentos da 
Área Roraima CD-CT.N.5RR.01 17 2.1.4. 14/06/2024
Referência:  7 / 50
•Campo “Dispositivo de Sincronismo”: indica os terminais onde esses estão instalados e em 
funcionamento. Dispositivo de Sincronismo é o equipamento utilizado para verificação das 
condições de fechamento em anel ou paralelo entre dois pontos elétricos; caso não exista, o campo 
é preenchido com “NE” – não existe. Se em algum disjuntor do terminal não houver o dispositivo 
de sincronismo essa informação deve ser destacada.
•Campo “Ajustes”: indica os ajustes de diferença de tensão, defasagem angular e diferença de 
frequência instalados para a função de verificação de sincronismo para o religamento manual de 
cada terminal; caso não exista dispositivo de sincronismo, o campo é preenchido com hifens (---).
Campo “Notas / Restrições”: campo opcional que indica informações relevantes a respeito da linha de 
transmissão.
Caso os dados operacionais não sejam informados pelo Agente, os campos são preenchidos com “NI” – não 
informado.
3.1. LT 230 KV BOA VISTA / SANTA ELENA
Religamento Automático
Tipo Situação Sentido Ajustes
LT em Mesma Estrutura
Monopolar Ligado --- Tempo morto: 1s NE
Notas / Restrições: NI
Religamento Manual
Sentido Quantidade de 
Tentativas
Intervalo entre os 
religamentos (minutos)
Dispositivo de 
sincronismo Ajustes
- 2
Primeira tentativa após 3 
(três) minutos do 
religamento automático.
Segunda tentativa após 
12 minutos da primeira 
tentativa manual.
Na SE Boa Vista NI
3.2. LT 230 KV UTE JAGUATIRICA II / BOA VISTA
Religamento Automático
Tipo Situação Sentido Ajustes
LT em Mesma Estrutura
NE --- --- --- NE
Notas / Restrições: NA
Manual de Procedimentos da Operação – Módulo 5 – Submódulo 5.11
 Cadastro de Informações Operacionais Código Revisão Item Vigência
Cadastro de Dados Operacionais de Equipamentos da 
Área Roraima CD-CT.N.5RR.01 17 2.1.4. 14/06/2024
Referência:  8 / 50
Religamento Manual
Sentido Quantidade de 
Tentativas
Intervalo entre os 
religamentos (minutos)
Dispositivo de 
sincronismo Ajustes
--- NI NI NI NI
3.3. LT 69 KV BOA VISTA / MONTE CRISTO
Religamento Automático
Tipo Situação Sentido Ajustes
LT em Mesma Estrutura
NE --- --- --- NE
Notas / Restrições: NA
Religamento Manual
Sentido Quantidade de 
Tentativas
Intervalo entre os 
religamentos (minutos)
Dispositivo de 
sincronismo Ajustes
--- 2 Imediato e 3 minutos NE NE
3.4. LT 69 KV BOA VISTA / DISTRITO COM DERIVAÇÃO PARA A SE EQUATORIAL E PARA A UTE MONTE 
CRISTO BLOCO II
Religamento Automático
Tipo Situação Sentido Ajustes
LT em Mesma Estrutura
NE --- --- --- NE
Notas / Restrições: NA
Religamento Manual
Sentido Quantidade de 
Tentativas
Intervalo entre os 
religamentos (minutos)
Dispositivo de 
sincronismo Ajustes
--- 2 1 minuto e 3 minutos NE NE
3.5. LT 69 KV BOA VISTA / FLORESTA C1 COM DERIVAÇÃO PARA A SE SATÉLITE
Religamento Automático
Tipo Situação Sentido Ajustes
LT em Mesma Estrutura
NE --- --- --- LT 69 kV Boa Vista / Centro
Manual de Procedimentos da Operação – Módulo 5 – Submódulo 5.11
 Cadastro de Informações Operacionais Código Revisão Item Vigência
Cadastro de Dados Operacionais de Equipamentos da 
Área Roraima CD-CT.N.5RR.01 17 2.1.4. 14/06/2024
Referência:  9 / 50
Religamento Automático
Tipo Situação Sentido Ajustes
LT em Mesma Estrutura
Notas / Restrições: NA
Religamento Manual
Sentido Quantidade de 
Tentativas
Intervalo entre os 
religamentos (minutos)
Dispositivo de 
sincronismo Ajustes
SE Floresta → SE Boa 
Vista
2 1 minuto e 3 minutos Na SE Boa Vista V≤ 6,9 kV
 ≤ 11°
f ≤ 0,2 Hz
3.6. LT 69 KV BOA VISTA / FLORESTA C2
Religamento Automático
Tipo Situação Sentido Ajustes
LT em Mesma Estrutura
NE --- --- --- NE
Notas / Restrições: NA
Religamento Manual
Sentido Quantidade de 
Tentativas
Intervalo entre os 
religamentos (minutos)
Dispositivo de 
sincronismo Ajustes
SE Floresta → SE Boa 
Vista
2 1 minuto e 3 minutos Na SE Boa Vista V≤ 6,9 kV
 ≤ 11°
f ≤ 0,2 Hz
SE Boa Vista→ SE 
Floresta
NI NI Na SE Floresta V≤ 6,9 kV
 ≤ 11°
f ≤ 0,2 Hz
3.7. LT 69 KV BOA VISTA / FLORESTA C3
Religamento Automático
Tipo Situação Sentido Ajustes
LT em Mesma Estrutura
Tripolar Ligado Boa Vista  
Floresta
Tempo morto = 5s
V  6,9 kV
   11°
f   0,2 Hz
NE
Manual de Procedimentos da Operação – Módulo 5 – Submódulo 5.11
 Cadastro de Informações Operacionais Código Revisão Item Vigência
Cadastro de Dados Operacionais de Equipamentos da 
Área Roraima CD-CT.N.5RR.01 17 2.1.4. 14/06/2024
Referência:  10 / 50
Religamento Automático
Tipo Situação Sentido Ajustes
LT em Mesma Estrutura
Notas / Restrições: NA
Religamento Manual
Sentido Quantidade de 
Tentativas
Intervalo entre os 
religamentos (minutos)
Dispositivo de 
sincronismo Ajustes
SE Floresta → SE Boa 
Vista
NI NI Na SE Boa Vista V≤ 6,9 kV
 ≤ 11°
f ≤ 0,2 Hz
SE Boa Vista→ SE 
Floresta
NI NI Na SE Floresta V≤ 6,9 kV
 ≤ 11°
f ≤ 0,2 Hz
3.8. LT 69 KV BOA VISTA / CENTRO
Religamento Automático
Tipo Situação Sentido Ajustes
LT em Mesma Estrutura
NE --- --- --- LT 69 kV Boa Vista / Floresta C1
Notas / Restrições: NA
Religamento Manual
Sentido Quantidade de 
Tentativas
Intervalo entre os 
religamentos (minutos)
Dispositivo de 
sincronismo Ajustes
--- 2 1 minuto e 3 minutos NE NE
3.9. LT 69 KV CENTENÁRIO / DISTRITO 
Religamento Automático
Tipo Situação Sentido Ajustes
LT em Mesma Estrutura
NE --- --- --- NE
Notas / Restrições: NA
Manual de Procedimentos da Operação – Módulo 5 – Submódulo 5.11
 Cadastro de Informações Operacionais Código Revisão Item Vigência
Cadastro de Dados Operacionais de Equipamentos da 
Área Roraima CD-CT.N.5RR.01 17 2.1.4. 14/06/2024
Referência:  11 / 50
Religamento Manual
Sentido Quantidade de 
Tentativas
Intervalo entre os 
religamentos (minutos)
Dispositivo de 
sincronismo Ajustes
--- 2 1 minuto e 3 minutos NE NE
3.10. LT 69 KV FLORESTA / CENTENÁRIO
Religamento Automático
Tipo Situação Sentido Ajustes
LT em Mesma Estrutura
NE --- --- --- NE
Notas / Restrições: NA
Religamento Manual
Sentido Quantidade de 
Tentativas
Intervalo entre os 
religamentos (minutos)
Dispositivo de 
sincronismo Ajustes
--- 2 1 minuto e 3 minutos NE NE
3.11. LT 69 KV FLORESTA / CENTRO
Religamento Automático
Tipo Situação Sentido Ajustes
LT em Mesma Estrutura
NE --- --- --- NE
Notas / Restrições: NA
Religamento Manual
Sentido Quantidade de 
Tentativas
Intervalo entre os 
religamentos (minutos)
Dispositivo de 
sincronismo Ajustes
--- 2 1 minuto e 3 minutos NE NE
4. DADOS OPERACIONAIS DE TRANSFORMADORES
Orientações sobre os dados operacionais de transformadores: 
Campo “Dispositivo de Sincronismo”: indica os terminais onde estão instalados e em funcionamento. 
Dispositivo de Sincronismo é o equipamento utilizado para verificação das condições de fechamento em anel 
ou paralelo entre dois pontos elétricos, o campo é preenchido com “NE” – não existe. Se em algum disjuntor 
do terminal não houver o dispositivo de sincronismo essa informação deve ser destacada. 
Campo “Ajustes”: indica os ajustes de diferença de tensão, defasagem angular e diferença de frequência 
Manual de Procedimentos da Operação – Módulo 5 – Submódulo 5.11
 Cadastro de Informações Operacionais Código Revisão Item Vigência
Cadastro de Dados Operacionais de Equipamentos da 
Área Roraima CD-CT.N.5RR.01 17 2.1.4. 14/06/2024
Referência:  12 / 50
instalados para a função de verificação de sincronismo para o religamento manual de cada terminal; caso 
não exista dispositivo de sincronismo, o campo é preenchido com hifens (---). 
Campo “Características dos Comutadores”:
• Campo “Comutador sob carga”: indica o número de posições associando a tensão correspondente 
à identificação das posições mínima, máxima e nominal, bem como a variação de tensão entre cada posição, 
conforme os dados de placa do transformador. Caso os números das posições dos dados de placa do 
transformador sejam diferentes dos números das posições utilizadas no Sistema de Supervisão e Controle, 
incluir, além das posições dos dados de placa, também as posições utilizadas no SSC. Caso não exista 
comutador sob carga no transformador, o campo é preenchido com “NE” – não existe.
• Campo “Comutador em Vazio”: indica as posições do comutador em vazio com os respectivos 
valores de tensão e sua posição em serviço. Caso não exista comutador em vazio no transformador, o campo 
é preenchido com “NE” – não existe.
Campo “Notas / Restrições”: campo opcional que indica informações relevantes a respeito do 
transformador.
Caso os dados operacionais não sejam informados pelo Agente, os campos são preenchidos com “NI” – não 
informado.
4.1. SE BOA VISTA – TRANSFORMADOR BVTF6-02, 03 OU 04 DE 230/69/13,8 KV - 100 MVA
Características dos ComutadoresDispositivo de 
Sincronismo Ajustes
Comutador sob Carga Comutador em Vazio
No terminal de 69 kV NI
1 = 75,9 kV
9 = 69,0 kV
17 = 62,1 kV
Tape de 5 posições
Posição atual = 3 (230 kV)
Notas / Restrições: NI
4.2. SE DISTRITO – TRANSFORMADOR DTTF4-01 OU 02 DE 69/13,8 KV – 26,6 MVA
Características dos ComutadoresDispositivo de 
Sincronismo Ajustes
Comutador sob Carga Comutador em Vazio
NE ---
1 = 15,18 kV
9 = 13,8 kV
17 = 12,42 kV
Tape de 5 posições
Posição atual = 3 (69 kV)
Notas / Restrições: NI
4.3. SE CENTRO – TRANSFORMADOR CETF4-01, 02 OU 03 DE 69/13,8 KV – 26,6 MVA
Características dos ComutadoresDispositivo de 
Sincronismo Ajustes
Comutador sob Carga Comutador em Vazio
NE --- 1 = 15,18 kV
9 = 13,8 kV
Tape de 5 posições
Manual de Procedimentos da Operação – Módulo 5 – Submódulo 5.11
 Cadastro de Informações Operacionais Código Revisão Item Vigência
Cadastro de Dados Operacionais de Equipamentos da 
Área Roraima CD-CT.N.5RR.01 17 2.1.4. 14/06/2024
Referência:  13 / 50
Características dos ComutadoresDispositivo de 
Sincronismo Ajustes
Comutador sob Carga Comutador em Vazio
17 = 12,42 kV Posição atual = 3 (69 kV)
Notas / Restrições: NI
4.4. SE FLORESTA – TRANSFORMADOR FTTF4-01, 02 OU 03 DE 69/13,8 KV – 26,6 MVA
Características dos ComutadoresDispositivo de 
Sincronismo Ajustes
Comutador sob Carga Comutador em Vazio
NE ---
1 = 15,18 kV
9 = 13,8 kV
17 = 12,42 kV
Tape de 5 posições
Posição atual = 3 (69 kV)
Notas / Restrições: NI
4.5. SE EQUATORIAL – TRANSFORMADOR EQTF4-01 DE 69/13,8 KV – 26,6 MVA
Características dos ComutadoresDispositivo de 
Sincronismo Ajustes
Comutador sob Carga Comutador em Vazio
NE ---
1 = 15,18 kV
9 = 13,8 kV
17 = 12,42 kV
Tape de 5 posições
Posição atual = 3 (69 kV)
Notas / Restrições: NI
4.6. SE SATÉLITE – TRANSFORMADOR STTF4-01 OU 02 DE 69/13,8 KV – 18,75 MVA
Características dos ComutadoresDispositivo de 
Sincronismo Ajustes
Comutador sob Carga Comutador em Vazio
NE ---
1 = 75,9 kV
9 = 69,0 kV
17 = 62,1 kV
NI
Notas / Restrições: NI
4.7. UTE JAGUATIRICA II – TRANSFORMADOR 11BAT10 OU 12BAT10 13,8/230 KV – 65 MVA
Características dos ComutadoresDispositivo de 
Sincronismo Ajustes
Comutador sob Carga Comutador em Vazio
Em ambos os 
terminais NI NE
Tape de 5 posições
1 = 218,5 kV
Manual de Procedimentos da Operação – Módulo 5 – Submódulo 5.11
 Cadastro de Informações Operacionais Código Revisão Item Vigência
Cadastro de Dados Operacionais de Equipamentos da 
Área Roraima CD-CT.N.5RR.01 17 2.1.4. 14/06/2024
Referência:  14 / 50
Características dos ComutadoresDispositivo de 
Sincronismo Ajustes
Comutador sob Carga Comutador em Vazio
2 = 224,25 kV
3 = 230 kV
4 = 235,75 kV
5 = 241,5 kV
Notas / Restrições: NI
4.8. UTE JAGUATIRICA II – TRANSFORMADOR 18BAT10 DE 13,8/230 KV – 55 MVA
Características dos ComutadoresDispositivo de 
Sincronismo Ajustes
Comutador sob Carga Comutador em Vazio
Em ambos os 
terminais NI NE
Tape de 5 posições
1 = 218,5 kV
2 = 224,25 kV
3 = 230 kV
4 = 235,75 kV
5 = 241,5 kV
Notas / Restrições: NI
Manual de Procedimentos da Operação – Módulo 5 – Submódulo 5.11
 Cadastro de Informações Operacionais Código Revisão Item Vigência
Cadastro de Dados Operacionais de Equipamentos da Área Roraima CD-CT.N.5RR.01 17 2.1.4. 14/06/2024
Referência:  E-mail da Eletronorte do dia 05/05/2023. 15 / 50
5. DADOS OPERACIONAIS DE UNIDADES GERADORAS TÉRMICAS
Orientações sobre os dados operacionais de unidades geradoras de usinas termelétricas: 
Código Único de Empreendimentos em Geração – CEG: está apresentado ao lado do nome da usina. O CEG permanece associado ao empreendimento, 
independentemente de alteração de atributos ou de proprietários da usina. O número CEG é obtido no site da ANEEL.
Campo “Unidade Geradora”: indica a identificação de cada unidade geradora conforme diagrama unifilar do agente.
Campo “Faixa de Tensão (kV)”:
•Campo “Nom.”: indica a tensão nominal da unidade geradora, em kV.
•Campo “Mín.”: indica a tensão mínima da unidade geradora, em kV.
•Campo “Máx.”: indica a tensão máxima da unidade geradora, em kV.
Campo “Potência Aparente (MVA)”:
•Campo “Nom.”: indica a potência aparente nominal da unidade geradora, em MVA.
•Campo “FP”: indica o fator de potência nominal da unidade geradora.
Campo “Potência Reativa (Mvar)”:
•Campo “Mín.”: indica a potência reativa mínima da unidade geradora, em Mvar, podendo ser referenciada a curva de capabilidade da unidade geradora.
•Campo “Máx.”: indica a potência reativa máxima da unidade geradora, em Mvar, podendo ser referenciada a curva de capabilidade da unidade 
geradora.
Campo “Faixa de Operação (MW)”:
•Campo “Permitida”: indica a faixa de potência ativa permitida da unidade geradora, em MW.
•Campo “Proibida”: indica a faixa de potência ativa máxima da unidade geradora, em MW.
Campo “Acionamento”: indica o tipo de acionamento como: Motor (MOT), Turbina a Gás (TG), Turbina a Gás Heavy-Duty (TGHD), Turbina a Vapor (TV) ou cogeração 
(COG).
Campo “Operação”: indica o tipo de operação como: Ciclo Aberto (ABT) ou Ciclo Combinado (CBN).
Campo “Combustível Principal”: indica o tipo de combustível principal.
Manual de Procedimentos da Operação – Módulo 5 – Submódulo 5.11
 Cadastro de Informações Operacionais Código Revisão Item Vigência
Cadastro de Dados Operacionais de Equipamentos da Área Roraima CD-CT.N.5RR.01 17 2.1.4. 14/06/2024
Referência:  E-mail da Eletronorte do dia 05/05/2023. 16 / 50
Campo “Combustível Secundário”: indica o tipo de combustível secundário, caso exista.
Campo “Dispositivos de Sincronismo” indica o disjuntor onde é efetuado o sincronismo da unidade geradora.
Caso os dados operacionais não sejam informados pelo Agente, os campos são preenchidos com “NI” – não informado.
Caso os dados operacionais não se apliquem, os campos são preenchidos com hifens “---”.
Campo “Configuração / Quantidade de UGs”: indica cada configuração operacional possível para a usina. Para cada configuração operacional informada, são 
fornecidas as informações referentes às demais colunas da tabela.
Campo “Potência (MW)”:
•Campo “Mín.”: indica a potência mínima da unidade geradora, em MW, utilizado no DESSEM. 
•Campo “Máx.”: indicar a potência máxima da unidade geradora, em MW, utilizado no DESSEM.
Campo “Tempo mínimo (horas)”:
•Campo “Ton”: tempo mínimo, utilizado no DESSEM, que a usina deve permanecer em operação, inclui o tempo para atingir potência mínima 
(considerando partida fria) e tempo para desligamento a partir da potência mínima.
•Campo “Toff”: tempo mínimo, utilizado no DESSEM, que a usina tem que permanecer desligada;
Campo “Tempos (minutos)”:
•Campo “Sincronismo” – indica o tempo necessário entre a partida da configuração / quantidade de unidades geradoras em condições fria, morna e 
quente, até o sincronismo com o SIN.
•Campo “Potência Mínima” – indica o tempo necessário entre o sincronismo da configuração / quantidade de unidades geradoras em condições fria, 
morna e quente, até alcançar sua potência mínima.
•Campo “Potência Máxima” – indica o tempo necessário entre o sincronismo das configurações / quantidade de unidades geradoras em condições fria, 
morna e quente, até alcançar sua potência máxima.
•Campo “Desligamento” – indica o tempo necessário para o desligamento da unidade geradora a partir da potência mínima e máxima.
Caso os dados operacionais não sejam informados pelo Agente, os campos são preenchidos com “NI” – não informado.
Caso os dados operacionais não se apliquem, os campos são preenchidos com hifens “---”.
Manual de Procedimentos da Operação – Módulo 5 – Submódulo 5.11
 Cadastro de Informações Operacionais Código Revisão Item Vigência
Cadastro de Dados Operacionais de Equipamentos da Área Roraima CD-CT.N.5RR.01 17 2.1.4. 14/06/2024
Referência:  E-mail da Eletronorte do dia 05/05/2023. 17 / 50
5.1. UTE MONTE CRISTO (CEG: UTE.PE.RR.031982-1.01)
5.1.1. DADOS DAS UNIDADES GERADORAS DA UTE MONTE CRISTO
Tensão (kV) Potência Aparente (MVA) Potência Reativa (Mvar) Faixa de Operação (MW)
Unidade Geradora
Nom. Mín. Máx. Nom. FP Mín. Máx. Permitida Proibida Obs.
01 a 31 13,8 NI NI 4,062 0,85 NI NI NI NI NI
Detalhes da configuração da usina: NI
Unidade Geradora Acionamento Operação Combustível Principal Combustível Secundário Dispositivos de Sincronização
01 a 31 NI Ciclo Aberto Óleo Diesel NA NI
5.1.2. DADOS RELACIONADOS À CONFIGURAÇÃO DE OPERAÇÃO DA UTE MONTE CRISTO– COMBUSTÍVEL PRINCIPAL 
Potência 
(MW)
Tempo mínimo 
(horas) Tempos (minutos)
Sincronismo Potência Mínima Potência Máxima DesligamentoConfiguração / 
Quantidade de UGs 
Mín. Máx. Ton Toff
Fria
Morna
Quente
Fria
Morna
Quente
Fria
Morna
Quente
Potência 
Mín.
Potência 
Máx.
NI NI NI NI NI NI NI NI NI NI NI NI NI NI NI NI
Tempo entre solicitação de geração pelo ONS e início do processo de sincronização (minutos): NI
Tempo decorrido após o desligamento da unidade geradora, considerado pelo agente como critério adotado para definir a condição de (minutos): NI
Partida fria: NI Partida Morna: NI Partida Quente: NI
Manual de Procedimentos da Operação – Módulo 5 – Submódulo 5.11
 Cadastro de Informações Operacionais Código Revisão Item Vigência
Cadastro de Dados Operacionais de Equipamentos da Área Roraima CD-CT.N.5RR.01 17 2.1.4. 14/06/2024
Referência:  E-mail da Eletronorte do dia 05/05/2023. 18 / 50
Potência 
(MW)
Tempo mínimo 
(horas) Tempos (minutos)
Sincronismo Potência Mínima Potência Máxima DesligamentoConfiguração / 
Quantidade de UGs 
Mín. Máx. Ton Toff
Fria
Morna
Quente
Fria
Morna
Quente
Fria
Morna
Quente
Potência 
Mín.
Potência 
Máx.
Restrições para operação isolada de turbina a gás (ciclo aberto) em usinas de ciclo combinado: NI
Restrições relacionadas ao processo de cogeração: NI
Restrições quanto à quantidade de partidas por ano: NI
Outros tipos de restrições: NI
5.1.3. DADOS RELACIONADOS À CONFIGURAÇÃO DE OPERAÇÃO DA UTE MONTE CRISTO– COMBUSTÍVEL SECUNDÁRIO 
Não se aplica.
Manual de Procedimentos da Operação – Módulo 5 – Submódulo 5.11
 Cadastro de Informações Operacionais Código Revisão Item Vigência
Cadastro de Dados Operacionais de Equipamentos da Área Roraima CD-CT.N.5RR.01 17 2.1.4. 14/06/2024
Referência:  E-mail da Eletronorte do dia 05/05/2023. 19 / 50
5.1.4. CURVA DE CAPABILIDADE DAS UNIDADES GERADORAS DA UTE MONTE CRISTO

Manual de Procedimentos da Operação – Módulo 5 – Submódulo 5.11
 Cadastro de Informações Operacionais Código Revisão Item Vigência
Cadastro de Dados Operacionais de Equipamentos da Área Roraima CD-CT.N.5RR.01 17 2.1.4. 14/06/2024
Referência:  E-mail da Eletronorte do dia 05/05/2023. 20 / 50
5.2. UTE MONTE CRISTO BLOCO II (CEG: UTE.PE.RR.044653-0.01)
5.2.1. DADOS DAS UNIDADES GERADORAS DA UTE MONTE CRISTO BLOCO II
Tensão (kV) Potência Aparente (MVA) Potência Reativa (Mvar) Faixa de Operação (MW)
Unidade Geradora
Nom. Mín. Máx. Nom. FP Mín. Máx. Permitida Proibida Obs.
01 a 30 0,440 NI NI 1,4 0,8 NI NI NI NI NI
Detalhes da configuração da usina: NI.
Unidade Geradora Acionamento Operação Combustível Principal Combustível Secundário Dispositivos de Sincronização
01 a 30 NI Ciclo Aberto Óleo Diesel NA NI
5.2.2. DADOS RELACIONADOS À CONFIGURAÇÕES DE OPERAÇÃO DA UTE MONTE CRISTO BLOCO II – COMBUSTÍVEL PRINCIPAL 
Potência 
(MW)
Tempo mínimo 
(horas) Tempos (minutos)
Sincronismo Potência Mínima Potência Máxima DesligamentoConfiguração / 
Quantidade de UGs 
Mín. Máx. Ton Toff
Fria
Morna
Quente
Fria
Morna
Quente
Fria
Morna
Quente
Potência 
Mín.
Potência 
Máx.
NI NI NI NI NI NI NI NI NI NI NI NI NI NI NI NI
Tempo entre solicitação de geração pelo ONS e início do processo de sincronização (minutos): NI
Tempo decorrido após o desligamento da unidade geradora, considerado pelo agente como critério adotado para definir a condição de (minutos): NI
Partida fria: NI Partida Morna: NI Partida Quente: NI
Manual de Procedimentos da Operação – Módulo 5 – Submódulo 5.11
 Cadastro de Informações Operacionais Código Revisão Item Vigência
Cadastro de Dados Operacionais de Equipamentos da Área Roraima CD-CT.N.5RR.01 17 2.1.4. 14/06/2024
Referência:  E-mail da Eletronorte do dia 05/05/2023. 21 / 50
Potência 
(MW)
Tempo mínimo 
(horas) Tempos (minutos)
Sincronismo Potência Mínima Potência Máxima DesligamentoConfiguração / 
Quantidade de UGs 
Mín. Máx. Ton Toff
Fria
Morna
Quente
Fria
Morna
Quente
Fria
Morna
Quente
Potência 
Mín.
Potência 
Máx.
Restrições para operação isolada de turbina a gás (ciclo aberto) em usinas de ciclo combinado: NI
Restrições relacionadas ao processo de cogeração: NI
Restrições quanto à quantidade de partidas por ano: NI
Outros tipos de restrições: NI
5.2.3. DADOS RELACIONADOS À CONFIGURAÇÕES DE OPERAÇÃO DA UTE MONTE CRISTO BLOCO II – COMBUSTÍVEL SECUNDÁRIO 
Não se aplica.
5.2.4. CURVA DE CAPABILIDADE DAS UNIDADES GERADORAS DA UTE MONTE CRISTO BLOCO II
NI.
Manual de Procedimentos da Operação – Módulo 5 – Submódulo 5.11
 Cadastro de Informações Operacionais Código Revisão Item Vigência
Cadastro de Dados Operacionais de Equipamentos da Área Roraima CD-CT.N.5RR.01 17 2.1.4. 14/06/2024
Referência:  E-mail da Eletronorte do dia 05/05/2023. 22 / 50
5.3. UTE BALIZA (CEG: UTE.AI.RR.044586-0)
5.3.1. DADOS DAS UNIDADES GERADORAS DA UTE BALIZA
Tensão (kV) Potência Aparente(MVA) Potência Reativa (Mvar) Faixa de Operação (MW)
Unidade Geradora
Nom Mín. Máx. Nom. FP Mín. Máx. Permitida Proibida Obs.
UG1 13,8 13,11 14,49 12,5 80 -3,37 7,28 9,8 12,5 ---
UMCD1 13,8 13,45 14,14 11,032 80 -3,04 6,9 8,136 11,032 ---
Detalhes da configuração da usina: NI.
Unidade Geradora Acionamento Operação Combustível Principal Combustível Secundário Dispositivos de Sincronização
UG1 Turbina a 
vapor Ciclo Aberto (ABT) Capim elefante NA NI
UMCD1 Motor a 
combustão Ciclo Aberto (ABT) Óleo Vegetal NA NI
5.3.2. DADOS RELACIONADOS ÀS CONFIGURAÇÕES DE OPERAÇÃO DA UTE BALIZA – COMBUSTÍVEL PRINCIPAL 
Potência 
(MW)
Tempo mínimo 
(horas) Tempos (minutos)
Sincronismo Potência Mínima Potência Máxima DesligamentoConfiguração / 
Quantidade de UGs
Mín. Máx. Ton Toff
Fria
Morna
Quente
Fria
Morna
Quente
Fria
Morna
Quente
Potência 
Mín.
Potência 
Máx.
UG1 2 9,8 22,8 1,2 720 360 120 60 40 20 120 80 40 10 30
Manual de Procedimentos da Operação – Módulo 5 – Submódulo 5.11
 Cadastro de Informações Operacionais Código Revisão Item Vigência
Cadastro de Dados Operacionais de Equipamentos da Área Roraima CD-CT.N.5RR.01 17 2.1.4. 14/06/2024
Referência:  E-mail da Eletronorte do dia 05/05/2023. 23 / 50
Potência 
(MW)
Tempo mínimo 
(horas) Tempos (minutos)
Sincronismo Potência Mínima Potência Máxima DesligamentoConfiguração / 
Quantidade de UGs
Mín. Máx. Ton Toff
Fria
Morna
Quente
Fria
Morna
Quente
Fria
Morna
Quente
Potência 
Mín.
Potência 
Máx.
UMCD1 1,7 8,136 22,8 1,2 30 30 5 30 30 5 30 30 5 0 30
Tempo entre solicitação de geração pelo ONS e início do processo de sincronização (minutos):60
Tempo decorrido após o desligamento da unidade geradora, considerado pelo agente como critério adotado para definir a condição de (minutos):120
Partida fria: 720 minutos Partida Morna: 360 minutos Partida Quente: 120 minutos
Restrições para operação isolada de turbina a gás (ciclo aberto) em usinas de ciclo combinado: NI
Restrições relacionadas ao processo de cogeração: NI
Restrições quanto à quantidade de partidas por ano: NI
Outros tipos de restrições: NA
5.3.3. DADOS RELACIONADOS ÀS CONFIGURAÇÕES DE OPERAÇÃO DA UTE BALIZA – COMBUSTÍVEL SECUNDÁRIO 
Não se aplica.
5.3.4. CURVA DE CAPABILIDADE DAS UNIDADES GERADORAS DA UTE BALIZA
NI.
Manual de Procedimentos da Operação – Módulo 5 – Submódulo 5.11
 Cadastro de Informações Operacionais Código Revisão Item Vigência
Cadastro de Dados Operacionais de Equipamentos da Área Roraima CD-CT.N.5RR.01 17 2.1.4. 14/06/2024
Referência:  E-mail da Eletronorte do dia 05/05/2023. 24 / 50
5.4. UTE BONFIM (CEG: UTE.FL.RR.044603-3)
5.4.1. DADOS DAS UNIDADES GERADORAS DA UTE BONFIM
Tensão (kV) Potência (MVA) Potência Reativa (Mvar) Faixa de Operação (MW)
Unidade Geradora
Nom. Mín. Máx. Nom. FP Mín. Máx. Permitida Proibida Obs.
01 13,8 13,11 14,49 12,5 0,96 5 8 3 a 10 0-2 NI
Detalhes da configuração da usina: NI.
Unidade Geradora Acionamento Operação Combustível Principal Combustível Secundário Dispositivos de Sincronização
01 TV 24h Cavaco de Madeira NI DSLC2
5.4.2. DADOS RELACIONADOS ÀS CONFIGURAÇÕES DE OPERAÇÃO DA UTE BONFIM – COMBUSTÍVEL PRINCIPAL
Potência (MW) Tempo mínimo 
(horas) Tempos (minutos)
Sincronismo Potência Mínima Potência Máxima DesligamentoConfiguração / 
Quantidade de UGs 
Mín. Máx. Ton Toff
Fria
Morna
Quente
Fria
Morna
Quente
Fria
Morna
Quente
Potência 
Mín.
Potência 
Máx.
1 / UG1 3 10 0 0 495 115 5 505 130 20 530 150 30 3 10
Tempo entre solicitação de geração pelo ONS e início do processo de sincronização (minutos): NI
Manual de Procedimentos da Operação – Módulo 5 – Submódulo 5.11
 Cadastro de Informações Operacionais Código Revisão Item Vigência
Cadastro de Dados Operacionais de Equipamentos da Área Roraima CD-CT.N.5RR.01 17 2.1.4. 14/06/2024
Referência:  E-mail da Eletronorte do dia 05/05/2023. 25 / 50
Potência (MW) Tempo mínimo 
(horas) Tempos (minutos)
Sincronismo Potência Mínima Potência Máxima DesligamentoConfiguração / 
Quantidade de UGs 
Mín. Máx. Ton Toff
Fria
Morna
Quente
Fria
Morna
Quente
Fria
Morna
Quente
Potência 
Mín.
Potência 
Máx.
Tempo decorrido após o desligamento da unidade geradora, considerado pelo agente como critério adotado para definir a condição de (minutos):495
Partida fria: 530 minutos Partida Morna: 150 minutos Partida Quente: 30 minutos
Restrições para operação isolada de turbina a gás (ciclo aberto) em usinas de ciclo combinado: NA
Restrições relacionadas ao processo de cogeração: NA.
Restrições quanto à quantidade de partidas por ano: NI
Outros tipos de restrições: NA
5.4.3. DADOS RELACIONADOS ÀS CONFIGURAÇÕES DE OPERAÇÃO DA UTE BONFIM – COMBUSTÍVEL SECUNDÁRIO
Não se aplica.
5.4.4. CURVA DE CAPABILIDADE DAS UNIDADES GERADORAS DA UTE BONFIM
NI.
Manual de Procedimentos da Operação – Módulo 5 – Submódulo 5.11
 Cadastro de Informações Operacionais Código Revisão Item Vigência
Cadastro de Dados Operacionais de Equipamentos da Área Roraima CD-CT.N.5RR.01 17 2.1.4. 14/06/2024
Referência:  E-mail da Eletronorte do dia 05/05/2023. 26 / 50
5.5. UTE CANTÁ (CEG: UTE.FL.RR.044604-1)
5.5.1. DADOS DAS UNIDADES GERADORAS DA UTE CANTÁ
Tensão (kV) Potência (MVA) Potência Reativa (Mvar) Faixa de Operação (MW)
Unidade Geradora
Nom. Mín. Máx. Nom. FP Mín. Máx. Permitida Proibida Obs.
01 13,8 13,11 14,49 12,5 0,96 5 8 3 a 10 0-2 NI
Detalhes da configuração da usina: NI
Unidade Geradora Acionamento Operação Combustível Principal Combustível Secundário Dispositivos de Sincronização
01 TV 24h Cavaco de Madeira NI DSLC2
5.5.2. DADOS RELACIONADOS À CONFIGURAÇÕES DE OPERAÇÃO DA UTE CANTÁ– COMBUSTÍVEL PRINCIPAL
Potência 
(MW)
Tempo mínimo 
(horas) Tempos (minutos)
Sincronismo Potência Mínima Potência Máxima DesligamentoConfiguração /
Quantidade de UGs 
Mín. Máx. Ton Toff
Fria
Morna
Quente
Fria
Morna
Quente
Fria
Morna
Quente
Potência 
Mín.
Potência 
Máx.
NI NI NI NI NI NI NI NI NI NI NI NI NI NI NI NI
Tempo entre solicitação de geração pelo ONS e início do processo de sincronização (minutos): NI
Manual de Procedimentos da Operação – Módulo 5 – Submódulo 5.11
 Cadastro de Informações Operacionais Código Revisão Item Vigência
Cadastro de Dados Operacionais de Equipamentos da Área Roraima CD-CT.N.5RR.01 17 2.1.4. 14/06/2024
Referência:  E-mail da Eletronorte do dia 05/05/2023. 27 / 50
Potência 
(MW)
Tempo mínimo 
(horas) Tempos (minutos)
Sincronismo Potência Mínima Potência Máxima DesligamentoConfiguração /
Quantidade de UGs 
Mín. Máx. Ton Toff
Fria
Morna
Quente
Fria
Morna
Quente
Fria
Morna
Quente
Potência 
Mín.
Potência 
Máx.
Tempo decorrido após o desligamento da unidade geradora, considerado pelo agente como critério adotado para definir a condição de (minutos): NI
Partida fria: NI Partida Morna: NI Partida Quente: NI
Restrições para operação isolada de turbina a gás (ciclo aberto) em usinas de ciclo combinado: NI
Restrições relacionadas ao processo de cogeração: NI
Restrições quanto à quantidade de partidas por ano: NI
Outros tipos de restrições: NI
5.5.3. DADOS RELACIONADOS À CONFIGURAÇÕES DE OPERAÇÃO DA UTE CANTÁ– COMBUSTÍVEL SECUNDÁRIO
Não se aplica.
5.5.4. CURVA DE CAPABILIDADE DAS UNIDADES GERADORAS DA UTE CANTÁ
NI.
Manual de Procedimentos da Operação – Módulo 5 – Submódulo 5.11
 Cadastro de Informações Operacionais Código Revisão Item Vigência
Cadastro de Dados Operacionais de Equipamentos da Área Roraima CD-CT.N.5RR.01 17 2.1.4. 14/06/2024
Referência:  E-mail da Eletronorte do dia 05/05/2023. 28 / 50
5.6. UTE DISTRITO INDUSTRIAL – BLOCO 1 (CEG: UTE.PE.RR.030638-0.01)
5.6.1. DADOS DAS UNIDADES GERADORAS DA UTE DISTRITO INDUSTRIAL
Tensão (kV) Potência Aparente (MVA) Potência Reativa (Mvar) Faixa de Operação (MW)
Unidade Geradora
Nom. Mín. Máx. Nom. FP Mín. Máx. Permitida Proibida Obs.
01 a 08 0,465 NI NI 1,76 0,8 NI NI NI NI NI
Detalhes da configuração da usina: NI
Unidade Geradora Acionamento Operação Combustível Principal Combustível Secundário Dispositivos de Sincronização
01 a 08 NI Ciclo aberto Óleo Diesel NA NI
5.6.2. DADOS RELACIONADOS ÀS CONFIGURAÇÕES DE OPERAÇÃO DA UTE DISTRITO INDUSTRIAL - BLOCO 1– COMBUSTÍVEL PRINCIPAL
Potência (MW) Tempo mínimo 
(horas) Tempos (minutos)
Sincronismo Potência Mínima Potência Máxima DesligamentoConfiguração / 
Quantidade de UGs 
Mín. Máx. Ton Toff
Fria
Morna
Quente
Fria
Morna
Quente
Fria
Morna
Quente
Potência 
Mín.
Potência 
Máx.
NI NI NI NI NI NI NI NI NI NI NI NI NI NI NI NI
Tempo entre solicitação de geração pelo ONS e início do processo de sincronização (minutos): NI
Manual de Procedimentos da Operação – Módulo 5 – Submódulo 5.11
 Cadastro de Informações Operacionais Código Revisão Item Vigência
Cadastro de Dados Operacionais de Equipamentos da Área Roraima CD-CT.N.5RR.01 17 2.1.4. 14/06/2024
Referência:  E-mail da Eletronorte do dia 05/05/2023. 29 / 50
Potência (MW) Tempo mínimo 
(horas) Tempos (minutos)
Sincronismo Potência Mínima Potência Máxima DesligamentoConfiguração / 
Quantidade de UGs 
Mín. Máx. Ton Toff
Fria
Morna
Quente
Fria
Morna
Quente
Fria
Morna
Quente
Potência 
Mín.
Potência 
Máx.
Tempo decorrido após o desligamento da unidade geradora, considerado pelo agente como critério adotado para definir a condição de (minutos): NI
Partida fria: NI Partida Morna: NI Partida Quente: NI
Restrições para operação isolada de turbina a gás (ciclo aberto) em usinas de ciclo combinado: NI
Restrições relacionadas ao processo de cogeração: NI
Restrições quanto à quantidade de partidas por ano: NI
Outros tipos de restrições: NI
5.6.3. DADOS RELACIONADOS ÀS CONFIGURAÇÕES DE OPERAÇÃO DA UTE DISTRITO INDUSTRIAL - BLOCO 1– COMBUSTÍVEL SECUNDÁRIO
Não se aplica.
5.6.4. CURVA DE CAPABILIDADE DAS UNIDADES GERADORAS DA UTE DISTRITO INDUSTRIAL – BLOCO 1
NI.
Manual de Procedimentos da Operação – Módulo 5 – Submódulo 5.11
 Cadastro de Informações Operacionais Código Revisão Item Vigência
Cadastro de Dados Operacionais de Equipamentos da Área Roraima CD-CT.N.5RR.01 17 2.1.4. 14/06/2024
Referência:  E-mail da Eletronorte do dia 05/05/2023. 30 / 50
5.7. UTE DISTRITO INDUSTRIAL – BLOCO 2 (CEG: UTE.PE.RR.030638-0.01)
5.7.1. DADOS DAS UNIDADES GERADORAS DA UTE DISTRITO INDUSTRIAL – BLOCO 2
Tensão (kV) Potência Aparente (MVA) Potência Reativa (Mvar) Faixa de Operação (MW)
Unidade Geradora
Nom. Mín. Máx. Nom. FP Mín. Máx. Permitida Proibida Obs.
9 a 16 0,465 NI NI 1,76 0,8 NI NI NI NI NI
Detalhes da configuração da usina: NI
Unidade Geradora Acionamento Operação Combustível Principal Combustível Secundário Dispositivos de Sincronização
9 a 16 NI Ciclo aberto Óleo Diesel NA NI
5.7.2. DADOS RELACIONADOS À CONFIGURAÇÕES DE OPERAÇÃO DA UTE DISTRITO INDUSTRIAL - BLOCO 2– COMBUSTÍVEL PRINCIPAL
Potência (MW) Tempo mínimo 
(horas) Tempos (minutos)
Sincronismo Potência Mínima Potência Máxima DesligamentoConfiguração / 
Quantidade de UGs 
Mín. Máx. Ton Toff
Fria
Morna
Quente
Fria
Morna
Quente
Fria
Morna
Quente
Potência 
Mín.
Potência 
Máx.
NI NI NI NI NI NI NI NI NI NI NI NI NI NI NI NI
Tempo entre solicitação de geração pelo ONS e início do processo de sincronização (minutos): NI
Manual de Procedimentos da Operação – Módulo 5 – Submódulo 5.11
 Cadastro de Informações Operacionais Código Revisão Item Vigência
Cadastro de Dados Operacionais de Equipamentos da Área Roraima CD-CT.N.5RR.01 17 2.1.4. 14/06/2024
Referência:  E-mail da Eletronorte do dia 05/05/2023. 31 / 50
Potência (MW) Tempo mínimo 
(horas) Tempos (minutos)
Sincronismo Potência Mínima Potência Máxima DesligamentoConfiguração / 
Quantidade de UGs 
Mín. Máx. Ton Toff
Fria
Morna
Quente
Fria
Morna
Quente
Fria
Morna
Quente
Potência 
Mín.
Potência 
Máx.
Tempo decorrido após o desligamento da unidade geradora, considerado pelo agente como critério adotado para definir a condição de (minutos): NI
Partida fria: NI Partida Morna: NI Partida Quente: NI
Restrições para operação isolada de turbina a gás (ciclo aberto) em usinas de ciclo combinado: NI
Restrições relacionadas ao processo de cogeração: NI
Restrições quanto à quantidade de partidas por ano: NI
Outros tipos de restrições: NI
5.7.3. DADOS RELACIONADOS À CONFIGURAÇÕES DE OPERAÇÃO DA UTE DISTRITO INDUSTRIAL - BLOCO 2– COMBUSTÍVEL SECUNDÁRIO
Não se aplica.
5.7.4. CURVA DE CAPABILIDADE DAS UNIDADES GERADORAS DA UTE DISTRITO INDUSTRIAL- BLOCO 2
NI.
Manual de Procedimentos da Operação – Módulo 5 – Submódulo 5.11
 Cadastro de Informações Operacionais Código Revisão Item Vigência
Cadastro de Dados Operacionais de Equipamentos da Área Roraima CD-CT.N.5RR.01 17 2.1.4. 14/06/2024
Referência:  E-mail da Eletronorte do dia 05/05/2023. 32 / 50
5.8. UTE DISTRITO INDUSTRIAL – BLOCO 3 (CEG: UTE.PE.RR.031983-0.01)
5.8.1. DADOS DAS UNIDADES GERADORAS DA UTE DISTRITO INDUSTRIAL – BLOCO 3
Tensão (kV) Potência Aparente (MVA) Potência Reativa (Mvar) Faixa de Operação (MW)
Unidade Geradora
Nom. Mín. Máx. Nom. FP Mín. Máx. Permitida Proibida Obs.
30 a 46 0,480 NI NI 2,281 0,8 NI NI NI NI NI
Detalhes da configuração da usina: NI
Unidade Geradora Acionamento Operação Combustível Principal Combustível Secundário Dispositivos de Sincronização
30 a 46 NI Ciclo aberto Óleo Diesel NA NI
5.8.2. DADOS RELACIONADOS ÀS CONFIGURAÇÕES DE OPERAÇÃO DA UTE DISTRITO INDUSTRIAL - BLOCO 3– COMBUSTÍVEL PRINCIPAL
Potência (MW) Tempo mínimo 
(horas) Tempos (minutos)
Sincronismo Potência Mínima Potência Máxima DesligamentoConfiguração / 
Quantidade de UGs 
Mín. Máx. Ton Toff
Fria
Morna
Quente
Fria
Morna
Quente
Fria
Morna
Quente
Potência 
Mín.
Potência 
Máx.
NI NI NI NI NI NI NI NI NI NI NI NI NI NI NI NI
Tempo entre solicitação de geração pelo ONS e início do processo de sincronização (minutos): NI
Tempo decorrido após o desligamento da unidade geradora, considerado pelo agente como critério adotado para definir a condição de (minutos): NI
Manual de Procedimentos da Operação – Módulo 5 – Submódulo 5.11
 Cadastro de Informações Operacionais Código Revisão Item Vigência
Cadastro de Dados Operacionais de Equipamentos da Área Roraima CD-CT.N.5RR.01 17 2.1.4. 14/06/2024
Referência:  E-mail da Eletronorte do dia 05/05/2023. 33 / 50
Potência (MW) Tempo mínimo 
(horas) Tempos (minutos)
Sincronismo Potência Mínima Potência Máxima DesligamentoConfiguração / 
Quantidade de UGs 
Mín. Máx. Ton Toff
Fria
Morna
Quente
Fria
Morna
Quente
Fria
Morna
Quente
Potência 
Mín.
Potência 
Máx.
Partida fria: NI Partida Morna: NI Partida Quente: NI
Restrições para operação isolada de turbina a gás (ciclo aberto) em usinas de ciclo combinado: NI
Restrições relacionadas ao processo de cogeração: NI
Restrições quanto à quantidade de partidas por ano: NI
Outros tipos de restrições: NI
5.8.3. DADOS RELACIONADOS ÀS CONFIGURAÇÕES DE OPERAÇÃO DA UTE DISTRITO INDUSTRIAL - BLOCO 3– COMBUSTÍVEL SECUNDÁRIO
Não se aplica.
5.8.4. CURVA DE CAPABILIDADE DAS UNIDADES GERADORAS DA UTE DISTRITO INDUSTRIAL - BLOCO 3
NI.
Manual de Procedimentos da Operação – Módulo 5 – Submódulo 5.11
 Cadastro de Informações Operacionais Código Revisão Item Vigência
Cadastro de Dados Operacionais de Equipamentos da Área Roraima CD-CT.N.5RR.01 17 2.1.4. 14/06/2024
Referência:  E-mail da Eletronorte do dia 05/05/2023. 34 / 50
5.9. UTE FLORESTA
5.9.1. DADOS DAS UNIDADES GERADORAS DA UTE FLORESTA
Tensão (kV) Potência Aparente (MVA) Potência Reativa (Mvar) Faixa de Operação (MW)
Unidade Geradora
Nom. Mín. Máx. Nom. FP Mín. Máx. Permitida Proibida Obs.
01 a 28 0,480 NI NI 2,050 0,7 NI NI NI NI NI
Detalhes da configuração da usina: NI
Unidade Geradora Acionamento Operação Combustível Principal Combustível Secundário Dispositivos de Sincronização
01 a 28 NI Ciclo aberto Óleo Diesel NA NI
5.9.2. DADOS RELACIONADOS À CONFIGURAÇÕES DE OPERAÇÃO DA UTE FLORESTA– COMBUSTÍVEL PRINCIPAL
Potência (MW) Tempo mínimo 
(horas) Tempos (minutos)
Sincronismo Potência Mínima Potência Máxima DesligamentoConfiguração / 
Quantidade de UGs
Mín. Máx. Ton Toff
Fria
Morna
Quente
Fria
Morna
Quente
Fria
Morna
Quente
Potência 
Mín.
Potência 
Máx.
NI NI NI NI NI NI NI NI NI NI NI NI NI NI NI NI
Tempo entre solicitação de geração pelo ONS e início do processo de sincronização (minutos): NI
Tempo decorrido após o desligamento da unidade geradora, considerado pelo agente como critério adotado para definir a condição de (minutos): NI
Manual de Procedimentos da Operação – Módulo 5 – Submódulo 5.11
 Cadastro de Informações Operacionais Código Revisão Item Vigência
Cadastro de Dados Operacionais de Equipamentos da Área Roraima CD-CT.N.5RR.01 17 2.1.4. 14/06/2024
Referência:  E-mail da Eletronorte do dia 05/05/2023. 35 / 50
Potência (MW) Tempo mínimo 
(horas) Tempos (minutos)
Sincronismo Potência Mínima Potência Máxima DesligamentoConfiguração / 
Quantidade de UGs
Mín. Máx. Ton Toff
Fria
Morna
Quente
Fria
Morna
Quente
Fria
Morna
Quente
Potência 
Mín.
Potência 
Máx.
Partida fria: NI Partida Morna: NI Partida Quente: NI
Restrições para operação isolada de turbina a gás (ciclo aberto) em usinas de ciclo combinado: NI
Restrições relacionadas ao processo de cogeração: NI
Restrições quanto à quantidade de partidas por ano: NI
Outros tipos de restrições: NI
5.9.3. DADOS RELACIONADOS À CONFIGURAÇÕES DE OPERAÇÃO DA UTE FLORESTA– COMBUSTÍVEL SECUNDÁRIO
Não se aplica.
5.9.4. CURVA DE CAPABILIDADE DAS UNIDADES GERADORAS DA UTE FLORESTA
NI
Manual de Procedimentos da Operação – Módulo 5 – Submódulo 5.11
 Cadastro de Informações Operacionais Código Revisão Item Vigência
Cadastro de Dados Operacionais de Equipamentos da Área Roraima CD-CT.N.5RR.01 17 2.1.4. 14/06/2024
Referência:  E-mail da Eletronorte do dia 05/05/2023. 36 / 50
5.10. UTE MONTE CRISTO SUCUBA
5.10.1. DADOS DAS UNIDADES GERADORAS DA UTE MONTE CRISTO SUCUBA
Tensão (kV) Potência (MVA) Potência Reativa (Mvar) Faixa de Operação (MW)
Unidade Geradora
Nom. Mín. Máx. Nom. FP Mín. Máx. Permitida Proibida Obs.
MSUGD-01 A MSUGD-03 13,8 13,11 14,49 3,25 0,8 -0,7 1,95 2,5 3,25 NI
Detalhes da configuração da usina: NI
Unidade Geradora Acionamento Operação Combustível Principal Combustível Secundário Dispositivos de Sincronização
MSUGD-01 A MSUGD-03 MOT ABT DIESEL BS500 NA NI
5.10.2. DADOS RELACIONADOS ÀS CONFGURAÇÕES DE OPERAÇÃO DA UTE MONTE CRISTO SUCUBA  – COMBUSTÍVEL PRINCIPAL 
Potência (MW) Tempos mínimo 
(horas) Tempos (minutos)
Sincronismo Potência Mínima Potência Máxima DesligamentoConfiguração / 
Quantidade de UGs
Mín. Máx. Ton Toff
Fria
Morna
Quente
Fria
Morna
Quente
Fria
Morna
Quente
Potência 
Mín.
Potência 
Máx.
Unitária / 1 UG 2,5 3,25 0,016 0,016 1 1 1 1 1 1 1 1 1 1 1
Bloco 1 / 7 UG's 17,5 22,75 0,016 0,016 1 1 1 1 1 1 1 1 1 1 1
Bloco 2 / 6 UG's 15 19,5 0,016 0,016 1 1 1 1 1 1 1 1 1 1 1
Manual de Procedimentos da Operação – Módulo 5 – Submódulo 5.11
 Cadastro de Informações Operacionais Código Revisão Item Vigência
Cadastro de Dados Operacionais de Equipamentos da Área Roraima CD-CT.N.5RR.01 17 2.1.4. 14/06/2024
Referência:  E-mail da Eletronorte do dia 05/05/2023. 37 / 50
Potência (MW) Tempos mínimo 
(horas) Tempos (minutos)
Sincronismo Potência Mínima Potência Máxima DesligamentoConfiguração / 
Quantidade de UGs
Mín. Máx. Ton Toff
Fria
Morna
Quente
Fria
Morna
Quente
Fria
Morna
Quente
Potência 
Mín.
Potência 
Máx.
Total / 13 UG's 32,5 42,25 0,016 0,016 1 1 1 1 1 1 1 1 1 1 1
Tempo entre solicitação de geração pelo ONS e início do processo de sincronização (minutos): 5
Tempo decorrido após o desligamento da unidade, considerado pelo agente como critério adotado para definir a condição de (minutos):495
Partida fria: 5 minutos Partida Morna: 5 Partida Quente: 5
Restrições para operação isolada de turbina a gás (ciclo aberto) em usinas de ciclo combinado: NA
Restrições relacionadas ao processo de cogeração: NA.
Restrições quanto à quantidade de partidas por ano: NI
Outros tipos de restrições: NI
5.10.3. DADOS RELACIONADOS À CONFIGURAÇÕES DE OPERAÇÃO DA UTE MONTE CRISTO SUCUBA– COMBUSTÍVEL SECUNDÁRIO
NI.
5.10.4. CURVA DE CAPABILIDADE DAS UNIDADES GERADORAS DA UTE MONTE CRISTO SUCUBA 
NI
Manual de Procedimentos da Operação – Módulo 5 – Submódulo 5.11
 Cadastro de Informações Operacionais Código Revisão Item Vigência
Cadastro de Dados Operacionais de Equipamentos da Área Roraima CD-CT.N.5RR.01 17 2.1.4. 14/06/2024
Referência:  E-mail da Eletronorte do dia 05/05/2023. 38 / 50
5.11. UTE NOVO PARAÍSO (CEG: UTE.PE.RR.031984-8)
5.11.1. DADOS DAS UNIDADES GERADORAS DA UTE NOVO PARAÍSO
Tensão (kV) Potência Aparente 
(MVA) Potência Reativa (Mvar) Faixa de Operação (MW)
Unidade Geradora
Nom. Mín. Máx. Nom. FP Mín. Máx. Permitida Proibida Obs.
01 a 11 0,480 NI NI 2,281 0,8 NI NI NI NI NI
Detalhes da configuração da usina: NI
Unidade Geradora Acionamento Operação Combustível
Principal Combustível Secundário Dispositivos de Sincronização
01 a 11 NI Ciclo aberto Óleo Diesel NA NI
5.11.2. DADOS RELACIONADOS À CONFIGURAÇÕES DE OPERAÇÃO DA UTE NOVO PARAÍSO– COMBUSTÍVEL PRINCIPAL
Potência (MW) Tempo mínimo 
(horas) Tempos (minutos)
Sincronismo Potência Mínima Potência Máxima DesligamentoConfiguração / 
Quantidade de UGs 
Mín. Máx. Ton Toff
Fria
Morna
Quente
Fria
Morna
Quente
Fria
Morna
Quente
Potência 
Mín.
Potência 
Máx.
NI NI NI NI NI NI NI NI NI NI NI NI NI NI NI NI
Tempo entre solicitação de geração pelo ONS e início do processo de sincronização (minutos): NI
Manual de Procedimentos da Operação – Módulo 5 – Submódulo 5.11
 Cadastro de Informações Operacionais Código Revisão Item Vigência
Cadastro de Dados Operacionais de Equipamentos da Área Roraima CD-CT.N.5RR.01 17 2.1.4. 14/06/2024
Referência:  E-mail da Eletronorte do dia 05/05/2023. 39 / 50
Potência (MW) Tempo mínimo 
(horas) Tempos (minutos)
Sincronismo Potência Mínima Potência Máxima DesligamentoConfiguração / 
Quantidade de UGs 
Mín. Máx. Ton Toff
Fria
Morna
Quente
Fria
Morna
Quente
Fria
Morna
Quente
Potência 
Mín.
Potência 
Máx.
Tempo decorrido após o desligamento da unidade geradora, considerado pelo agente como critério adotado para definir a condição de (minutos): NI
Partida fria: NI Partida Morna: NI Partida Quente: NI
Restrições para operação isolada de turbina a gás (ciclo aberto) em usinas de ciclo combinado: NI
Restrições relacionadas ao processo de cogeração: NI
Restrições quanto à quantidade de partidas por ano: NI
Outros tipos de restrições: NI
5.11.3. DADOS RELACIONADOS À CONFIGURAÇÕES DE OPERAÇÃO DA UTE NOVO PARAÍSO– COMBUSTÍVEL SECUNDÁRIO
Não se aplica.
5.11.4. CURVA DE CAPABILIDADE DAS UNIDADES GERADORAS DA UTE NOVO PARAÍSO
NI
Manual de Procedimentos da Operação – Módulo 5 – Submódulo 5.11
 Cadastro de Informações Operacionais Código Revisão Item Vigência
Cadastro de Dados Operacionais de Equipamentos da Área Roraima CD-CT.N.5RR.01 17 2.1.4. 14/06/2024
Referência:  E-mail da Eletronorte do dia 05/05/2023. 40 / 50
5.12. UTE JAGUATIRICA II (CEG: UTE.GN.RR.044619-0.01)
5.12.1. DADOS DAS UNIDADES GERADORAS DA UTE JAGUATIRICA II
Tensão (kV) Potência Aparente (MVA) Potência Reativa (Mvar) Faixa de Operação (MW)
Unidade Geradora
Nom. Mín. Máx. Nom. FP Mín. Máx. Permitida Proibida Obs.
UG11 13,8 12,42 15,18 57,23 0,85 -16,6 36,48 NI NI NI
UG12 13,8 12,42 15,18 57,23 0,85 -16,6 36,48 NI NI NI
UG18 13,8 12,42 15,18 51,21 0,85 -14,5 28,02 NI NI NI
Detalhes da configuração da usina: NI
Unidade Geradora Acionamento Operação Combustível Principal Combustível Secundário Dispositivos de Sincronização
UG11 NI Ciclo simples / Ciclo 
combinado Gás Natural NA NI
UG12 NI Ciclo simples / Ciclo 
combinado
Gás Natural NA NI
UG18 NI Ciclo combinado Gás Natural NA I
Manual de Procedimentos da Operação – Módulo 5 – Submódulo 5.11
 Cadastro de Informações Operacionais Código Revisão Item Vigência
Cadastro de Dados Operacionais de Equipamentos da Área Roraima CD-CT.N.5RR.01 17 2.1.4. 14/06/2024
Referência:  E-mail da Eletronorte do dia 05/05/2023. 41 / 50
5.12.2. DADOS RELACIONADOS ÀS CONFIGURAÇÕES DE OPERAÇÃO DA UTE JAGUATIRICA II– COMBUSTÍVEL PRINCIPAL
Potência (MW)(2) Tempo mínimo 
(horas) (3)
Tempo (minutos)
Sincronismo Potência Mínima Potência Máxima DesligamentoConfigura-ção 
/Quantidade de UGs (1) 
Mín. Máx. Ton Toff
Fria
Morna
Quente
Fria
Morna
Quente
Fria
Morna
Quente
Potência 
Mín.
Potência 
Máx.
3 UGs 
(2 UGs a gás + 1 UG a 
vapor)
80,1 140,8 120 48 180 180 180 420 360 240 480 420 300 60 120
1 UG
(1 UG a gás) 24,5 48,6 120 48 180 180 180 240 240 240 300 300 300 30 60
2 UGs
(2 UGs a gás) 48,6 97,3 120 48 180 180 180 240 240 240 300 300 300 30 60
2 UGs
(1 UG a gás + 1 UG a 
vapor)
38,0 69,5 120
48
180 180 180 420 360 240 480 420 300 60 120
–Notas:
(1) Configuração/Quantidade de UGs:
➢3UGs– Operação com 2 (duas) unidades geradoras a gás mais 1(uma) unidade geradora a vapor
➢1 UG – Operação com 1 (uma) unidade geradora a gás
➢2 UGs– Operação com 2 (duas) unidades geradoras a gás
Manual de Procedimentos da Operação – Módulo 5 – Submódulo 5.11
 Cadastro de Informações Operacionais Código Revisão Item Vigência
Cadastro de Dados Operacionais de Equipamentos da Área Roraima CD-CT.N.5RR.01 17 2.1.4. 14/06/2024
Referência:  E-mail da Eletronorte do dia 05/05/2023. 42 / 50
Potência (MW)(2) Tempo mínimo 
(horas) (3)
Tempo (minutos)
Sincronismo Potência Mínima Potência Máxima DesligamentoConfigura-ção 
/Quantidade de UGs (1) 
Mín. Máx. Ton Toff
Fria
Morna
Quente
Fria
Morna
Quente
Fria
Morna
Quente
Potência 
Mín.
Potência 
Máx.
➢2 UGs– Operação com 1 (uma) unidade geradora a gás mais 1 (uma) unidade geradora a vapor
(2) As unidades geradoras a gás só podem operar abaixo de 24,5 MW e a unidade geradora a vapor abaixo de 13,7 MW em processos de partidas e paradas.
(3) O tempo mínimo em operação e tempo mínimo desligada entre parada e partida são baseados nas recomendações do fabricante das unidades geradoras.
5.12.3. DADOS RELACIONADOS ÀS CONFIGURAÇÕES DE OPERAÇÃO DA UTE JAGUATIRICA II– COMBUSTÍVEL SECUNDÁRIO
Não se aplica.
5.12.4. CURVA DE CAPABILIDADE DAS UNIDADES GERADORAS DA UTE JAGUATIRICA II
NI.
5.13. UTE PAU RAINHA (CEG: UTE.FL.RR.044605-0)
5.13.1. DADOS DAS UNIDADES GERADORAS DA UTE PAU RAINHA
Tensão (kV) Potência Aparente (MVA) Potência Reativa (Mvar) Faixa de Operação (MW)
Unidade Geradora
Nom. Mín. Máx. Nom. FP Mín. Máx. Permitida Proibida Obs.
01 13,8 13,11 14,49 12,5 0,96 5 8 3 a 10 0-2 NA
Manual de Procedimentos da Operação – Módulo 5 – Submódulo 5.11
 Cadastro de Informações Operacionais Código Revisão Item Vigência
Cadastro de Dados Operacionais de Equipamentos da Área Roraima CD-CT.N.5RR.01 17 2.1.4. 14/06/2024
Referência:  E-mail da Eletronorte do dia 05/05/2023. 43 / 50
Tensão (kV) Potência Aparente (MVA) Potência Reativa (Mvar) Faixa de Operação (MW)
Unidade Geradora
Nom. Mín. Máx. Nom. FP Mín. Máx. Permitida Proibida Obs.
Detalhes da configuração da usina: NI
Unidade Geradora Acionamento Operação Combustível Principal Combustível Secundário Dispositivos de Sincronização
01 TV 24h Cavaco de Madeira NA DSLC2
5.13.2. DADOS RELACIONADOS ÀS CONFIGURAÇÕES DE OPERAÇÃO DA UTE PAU RAINHA– COMBUSTÍVEL PRINCIPAL
Potência (MW) Tempo Mínimo 
(horas) Tempos (minutos)
Sincronismo Potência Mínima Potência Máxima DesligamentoConfiguração / 
Quantidade de UGs 
Mín. Máx. Ton Toff
Fria
Morna
Quente
Fria
Morna
Quente
Fria
Morna
Quente
Potência 
Mín.
Potência 
Máx.
1 / UG1 3 10 0 0 495 115 5 505 130 20 530 150 30 3 10
Tempo entre solicitação de geração pelo ONS e início do processo de sincronização (minutos): NI
Tempo decorrido após o desligamento da unidade geradora, considerado pelo agente como critério adotado para definir a condição de (minutos):495
Partida fria: 530 minutos Partida Morna: 150 minutos Partida Quente: 30 minutos
Restrições para operação isolada de turbina a gás (ciclo aberto) em usinas de ciclo combinado: NA
Restrições relacionadas ao processo de cogeração: NA.
Manual de Procedimentos da Operação – Módulo 5 – Submódulo 5.11
 Cadastro de Informações Operacionais Código Revisão Item Vigência
Cadastro de Dados Operacionais de Equipamentos da Área Roraima CD-CT.N.5RR.01 17 2.1.4. 14/06/2024
Referência:  E-mail da Eletronorte do dia 05/05/2023. 44 / 50
Potência (MW) Tempo Mínimo 
(horas) Tempos (minutos)
Sincronismo Potência Mínima Potência Máxima DesligamentoConfiguração / 
Quantidade de UGs 
Mín. Máx. Ton Toff
Fria
Morna
Quente
Fria
Morna
Quente
Fria
Morna
Quente
Potência 
Mín.
Potência 
Máx.
Restrições quanto à quantidade de partidas por ano: NI
Outros tipos de restrições: NA
5.13.3. DADOS RELACIONADOS ÀS CONFIGURAÇÕES DE OPERAÇÃO DA UTE PAU RAINHA– COMBUSTÍVEL SECUNDÁRIO
Não se aplica.
5.13.4. CURVA DE CAPABILIDADE DAS UNIDADES GERADORAS DA UTE PAU RAINHA
NI.
5.14. UTE PALMAPLAN (CEG: UTE.BL.RR.044588-6)
5.14.1. DADOS DAS UNIDADES GERADORAS DA UTE PALMAPLAN
Tensão (kV) Potência Aparente (MVA) Potência Reativa (Mvar) Faixa de Operação (MW)
Unidade Geradora
Nom. Mín. Máx. Nom. FP Mín. Máx. Permitida Proibida Obs.
UG1 13,8KV 13,11 14,49 7,22 0,8 -2,1 4,3 2,3 a 5,7 0 a 2,2 -
UG2 13,8KV 13,11 14,49 7,22 0,8 -2,1 4,3 2,3 a 5,7 0 a 2,2 -
Manual de Procedimentos da Operação – Módulo 5 – Submódulo 5.11
 Cadastro de Informações Operacionais Código Revisão Item Vigência
Cadastro de Dados Operacionais de Equipamentos da Área Roraima CD-CT.N.5RR.01 17 2.1.4. 14/06/2024
Referência:  E-mail da Eletronorte do dia 05/05/2023. 45 / 50
Tensão (kV) Potência Aparente (MVA) Potência Reativa (Mvar) Faixa de Operação (MW)
Unidade Geradora
Nom. Mín. Máx. Nom. FP Mín. Máx. Permitida Proibida Obs.
Detalhes da configuração da usina: 
Unidade Geradora Acionamento Operação Combustível Principal Combustível Secundário Dispositivos de Sincronização
UG1 Motor a 
Combustão Ciclo Aberto LBF (Biocombustivel 
Liquido) NI Disjuntores QM1 e QM3
UG2 Motor a 
Combustão Ciclo Aberto LBF (Biocombustivel 
Liquido) NI Disjuntores QM1 e QM3
5.14.2. DADOS RELACIONADOS ÀS CONFIGURAÇÕES DE OPERAÇÃO DA UTE PALMAPLAN – COMBUSTÍVEL PRINCIPAL
Potência (MW) Tempo 
Mínimo(horas) Tempos (minutos)
Sincronismo Potência Mínima Potência Máxima DesligamentoConfiguração / 
Quantidade de UGs 
Mín. Máx. Ton Toff
Fria
Morna
Quente
Fria
Morna
Quente
Fria
Morna
Quente
Potência 
Mín.
Potência 
Máx.
UG1 2,3 5,7 0 0,5 120 60 30 1 1 1 2,4 2,4 2,4 15 30
UG2 2,3 5,7 0 0,5 120 60 30 1 1 1 2,4 2,4 2,4 15 30
Tempo entre solicitação de geração pelo ONS e início do processo de sincronização (minutos):30
Tempo decorrido após o desligamento da unidade, considerado pelo agente como critério adotado para definir a condição de (minutos):
Manual de Procedimentos da Operação – Módulo 5 – Submódulo 5.11
 Cadastro de Informações Operacionais Código Revisão Item Vigência
Cadastro de Dados Operacionais de Equipamentos da Área Roraima CD-CT.N.5RR.01 17 2.1.4. 14/06/2024
Referência:  E-mail da Eletronorte do dia 05/05/2023. 46 / 50
Potência (MW) Tempo 
Mínimo(horas) Tempos (minutos)
Sincronismo Potência Mínima Potência Máxima DesligamentoConfiguração / 
Quantidade de UGs 
Mín. Máx. Ton Toff
Fria
Morna
Quente
Fria
Morna
Quente
Fria
Morna
Quente
Potência 
Mín.
Potência 
Máx.
Partida fria: 60 minutos Partida Morna: 40 Partida Quente: 30
Restrições para operação isolada de turbina a gás (ciclo aberto) em usinas de ciclo combinado: NA
Restrições relacionadas ao processo de cogeração: Sem restrição.
Restrições quanto à quantidade de partidas por ano: NI
Outros tipos de restrições: NA
5.14.3. DADOS RELACIONADOS ÀS CONFIGURAÇÕES DE OPERAÇÃO DA UTE PALMAPLAN– COMBUSTÍVEL SECUNDÁRIO 
Não se aplica.
5.14.4. CURVA DE CAPABILIDADE DAS UNIDADES GERADORAS DA UTE PAU PALMAPLAN
NI.
Manual de Procedimentos da Operação – Módulo 5 – Submódulo 5.11
 Cadastro de Informações Operacionais Código Revisão Item Vigência
Cadastro de Dados Operacionais de Equipamentos da Área Roraima CD-CT.N.5RR.01 17 2.1.4. 14/06/2024
Referência:  E-mail da Eletronorte do dia 05/05/2023. 47 / 50
5.15. UTE SANTA LUZ (CEG: UTE.FL.RR.044606-8)
5.15.1. DADOS DAS UNIDADES GERADORAS DA UTE SANTA LUZ
Tensão (kV) Potência Aparente (MVA) Potência Reativa (Mvar) Faixa de Operação (MW)
Unidade Geradora
Nom. Mín. Máx. Nom. FP Mín. Máx. Permitida Proibida Obs.
01 13,8 13,11 14,49 12,5 0,96 5 8 3 a 10 0-2  
Detalhes da configuração da usina: NI
Unidade Geradora Acionamento Operação Combustível Principal Combustível Secundário Dispositivos de Sincronização
01 TV 24h Cavaco de Madeira NA DSLC2
5.15.2. DADOS RELACIONADOS ÀS CONFIGURAÇÕES DE OPERAÇÃO DA UTE SANTA LUZ – COMBUSTÍVEL PRINCIPAL
Potência (MW) Tempo Mínimo 
(horas) Tempos (minutos)
Sincronismo Potência Mínima Potência Máxima DesligamentoConfiguração / 
Quantidade de UGs 
Mín. Máx. Ton Toff
Fria
Morna
Quente
Fria
Morna
Quente
Fria
Morna
Quente
Potência 
Mín.
Potência 
Máx.
1 / UG1 3 10 0 0 495 115 5 505 130 20 530 150 30 3 10
Tempo entre solicitação de geração pelo ONS e início do processo de sincronização (minutos): NI
Manual de Procedimentos da Operação – Módulo 5 – Submódulo 5.11
 Cadastro de Informações Operacionais Código Revisão Item Vigência
Cadastro de Dados Operacionais de Equipamentos da Área Roraima CD-CT.N.5RR.01 17 2.1.4. 14/06/2024
Referência:  E-mail da Eletronorte do dia 05/05/2023. 48 / 50
Potência (MW) Tempo Mínimo 
(horas) Tempos (minutos)
Sincronismo Potência Mínima Potência Máxima DesligamentoConfiguração / 
Quantidade de UGs 
Mín. Máx. Ton Toff
Fria
Morna
Quente
Fria
Morna
Quente
Fria
Morna
Quente
Potência 
Mín.
Potência 
Máx.
Tempo decorrido após o desligamento da unidade, considerado pelo agente como critério adotado para definir a condição de (minutos):495
Partida fria: 530 minutos Partida Morna: 150 Partida Quente: 30
Restrições para operação isolada de turbina a gás (ciclo aberto) em usinas de ciclo combinado: NA
Restrições relacionadas ao processo de cogeração: NA.
Restrições quanto à quantidade de partidas por ano: NI
Outros tipos de restrições: NA
5.15.3. DADOS RELACIONADOS ÀS CONFIGURAÇÕES DE OPERAÇÃO DA UTE SANTA LUZ – COMBUSTÍVEL SECUNDÁRIO
Não se aplica.
5.15.4. CURVA DE CAPABILIDADE DAS UNIDADES GERADORAS DA UTE SANTA LUZ
NI.
Manual de Procedimentos da Operação – Módulo 5 – Submódulo 5.11
 Cadastro de Informações Operacionais Código Revisão Item Vigência
Cadastro de Dados Operacionais de Equipamentos da 
Área Roraima CD-CT.N.5RR.01 17 2.1.4. 14/06/2024
Referência: E-mail da Eletronorte do dia 05/05/2023. 49 / 50
6. DADOS OPERACIONAIS DE COMPENSADORES ESTÁTICOS
Orientações sobre os dados operacionais de compensadores:
•Campo “Identificação Operacional”: consta o código identificador do compensador, conforme 
diagrama unifilar do agente.
•Campo “Tensão Nominal (kV)”: indica a tensão nominal do compensador.
•Campo “Potência Nominal (Mvar)”:  indica a potência reativa mínima e máxima, em Mvar, do 
compensador, podendo ser referenciada a sua curva de capabilidade.
•Campo “Barramento para Controle de Tensão”: indica o barramento de referência de tensão para 
o compensador.
•Campo “Tempo de Resfriamento”: indica o tempo de resfriamento do compensador, em minutos.
•Campo “Tempo para energização após desligamento”: é o tempo entre abertura dos disjuntores 
desconectando esse equipamento do sistema e o fechamento dos disjuntores reconectando o 
equipamento no sistema.
•Campo “Notas / Restrições”: campo opcional que indica informações relevantes a respeito do 
compensador.
Caso os dados operacionais não sejam informados pelo Agente, os campos são preenchidos com “NI” – não 
informado.
Caso os dados operacionais não se apliquem, os campos são preenchidos com hifens “---”.
6.1. SE BOA VISTA – COMPENSADOR ESTÁTICO BVCE2-01 (-120/+150 MVAR)
Identificação 
Operacional
Tensão 
Nominal (kV)
Potência 
Nominal 
(Mvar)
Barramento 
para Controle 
de Tensão
Tempo de 
Resfriamento 
(min)
Tempo para 
energização 
após 
desligamento 
(min)
BVCE2-01 NI -120/+150 230 kV NI NI
Notas / Restrições: NI
Modos de Operação em função de disponibilidade dos elementos 
Modos TCR1 TCR2 TSC1 TSC2 F1 F2
Faixa de 
Operação 
(Mvar)
1 – Normal Ligado Ligado Ligado Ligado Ligado Ligado -120 / +150 
Mvar
2 – 
Degradado NI NI NI NI NI NI -20 / +70
Manual de Procedimentos da Operação – Módulo 5 – Submódulo 5.11
 Cadastro de Informações Operacionais Código Revisão Item Vigência
Cadastro de Dados Operacionais de Equipamentos da 
Área Roraima CD-CT.N.5RR.01 17 2.1.4. 14/06/2024
Referência: E-mail da Eletronorte do dia 05/05/2023. 50 / 50
Composição
TCR1 TCR2 TSC1 TSC2 F1 F2 Potência 
(Mvar)
Reator 
controlado a 
tiristor:
- 143 Mvar
Reator 
controlado 
a tiristor:
- 143 Mvar
Capacitor 
controlado a 
tiristor:
+ 104 Mvar
Capacitor 
controlado a 
tiristor:
+ 104 Mvar
Filtro de 5° 
harmônico:
+ 117,25 
Mvar
Filtro de 5º 
harmônico:
+ 117,25 
Mvar
-120 / +150 
Mvar
