Manual de Procedimentos da Operação
Módulo 5 - Submódulo 5.11
Cadastro de Informações Operacionais
Cadastro de Dados Operacionais de Equipamentos da Área 500/230 KV Maranhão
Código Revisão Item Vigência
CD-CT.NE.5MA.01 78 2.1.3. 05/03/2024
.
MOTIVO DA REVISÃO
•Inclusão da MOP/ONS 491-R/2023 - Início da Operação do Transformador MRTF6-03 230/69 kV da SE 
Miranda II. Inclui o item 4.16
•Inclusão do agente Simm Soluções e exclusão do agente STEAG da lista de distribuição.
LISTA DE DISTRIBUIÇÃO
CNOS COSR-NCO CELEO REDES COTESA EDP
ELETRONORTE GERA MARANHÃO NEXCERA SIMM 
SOLUÇÕES
UTE PORTO DO 
ITAQUI
Manual de Procedimentos da Operação - Módulo 5 - Submódulo 5.11
 Cadastro de Informações Operacionais Código Revisão Item Vigência
Cadastro de Dados Operacionais de Equipamentos da 
Área 500/230 KV Maranhão CD-CT.NE.5MA.01 78 2.1.3. 05/03/2024
Referência: 2 / 51
ÍNDICE
1. OBJETIVO.........................................................................................................................................5
2. CONSIDERAÇÕES GERAIS .................................................................................................................5
3. DADOS OPERACIONAIS DE LINHAS DE TRANSMISSÃO......................................................................5
3.1. LT 500 kV Bacabeira / São Luís II C1 ..............................................................................................6
3.2. LT 500 kV Bacabeira / São Luís II C2 ..............................................................................................6
3.3. LT 500 kV Miranda II / Elevadora Paulino Neves...........................................................................7
3.4. LT 500 kV Miranda II / São Luís II C3..............................................................................................7
3.5. LT 500 kV São Luís II / São Luís IV C1 .............................................................................................8
3.6. LT 500 kV São Luís II / São Luís IV C2 .............................................................................................8
3.7. LT 230 kV Caxias II / Coelho Neto..................................................................................................8
3.8. LT 230 kV Chapadinha II / Coelho Neto.........................................................................................9
3.9. LT 230 kV Chapadinha II / Miranda II ..........................................................................................10
3.10. LT 230 kV Coelho Neto / Teresina ...............................................................................................10
3.11. LT 230 kV Geranorte / Miranda II................................................................................................11
3.12. LT 230 kV Imperatriz / Porto Franco C1 ......................................................................................11
3.13. LT 230 kV Imperatriz / Porto Franco C2 ......................................................................................12
3.14. LT 230 kV Miranda II / Encruzo Novo ..........................................................................................12
3.15. LT 230 kV Miranda II / Peritoró ...................................................................................................12
3.16. LT 230 kV Peritoró / Caxias II.......................................................................................................13
3.17. LT 230 kV Presidente Dutra / Peritoró ........................................................................................14
3.18. LT 230 kV Ribeiro Gonçalves / Balsas ..........................................................................................14
3.19. LT 230 kV São Luís II / Miranda II.................................................................................................15
3.20. LT 230 kV São Luís II / São Luís I C1 .............................................................................................15
3.21. LT 230 kV São Luís II / São Luís I C2 .............................................................................................16
3.22. LT 230 kV São Luís II / São Luís III C1 ...........................................................................................16
3.23. LT 230 kV São Luís II / São Luís III C2 ...........................................................................................17
3.24. LT 230 kV São Luís II / São Luís IV ................................................................................................17
3.25. LT 230 kV UTE Porto do Itaqui / São Luís IV ................................................................................17
3.26. LT 138 kV Coletora Delta 3 / Elevadora Paulino Neves ...............................................................18
3.27. LT 138 kV Coletora Delta 6 / Elevadora Paulino Neves ...............................................................18
4. DADOS OPERACIONAIS DE TRANSFORMADORES ...........................................................................19
4.1. SE Balsas – Transformador BSTF6-01 230/69/13,8 kV - 100 MVA ..............................................19
4.2. SE Balsas – Transformador BSTF6-02 230/69/13,8 kV - 100 MVA ..............................................19
Manual de Procedimentos da Operação - Módulo 5 - Submódulo 5.11
 Cadastro de Informações Operacionais Código Revisão Item Vigência
Cadastro de Dados Operacionais de Equipamentos da 
Área 500/230 KV Maranhão CD-CT.NE.5MA.01 78 2.1.3. 05/03/2024
Referência: 3 / 51
4.3. SE Caxias II– Transformador CXTF6-01 ou CXTF6-02 230/69/13,8 kV - 100 MVA .......................20
4.4. SE Chapadinha II – Transformador TR1 ou TR2 230/69 kV/13,8 kV – 100 MVA..........................20
4.5. SE Coelho Neto – Transformador CHTF6-01 ou 02 230/69/13,8 kV – 65 MVA ...........................20
4.6. SE Elevadora Paulino Neves – Autotransformador 05T1 500/138/13,8 KV - 360 MVA ..............20
4.7. SE Encruzo Novo – Transformador 7TR01 ou 7TR02 230/69/13,8 kV - 100 MVA .......................21
4.8. SE Imperatriz – Autotransformador IZAT7-01 500/230/13,8 kV - 600 MVA ...............................21
4.9. SE Imperatriz – Autotransformador IZAT7-02 500/230/13,8 kV - 450 MVA ...............................21
4.10. SE Imperatriz – Transformador IZTF6-03, 04 ou 05 230/69/13,8 kV - 100 MVA .........................21
4.11. SE Miranda II – Autotransformador MRAT7-01 500/230/13,8 kV – 450 MVA............................22
4.12. SE Miranda II – Autotransformador MRAT7-02 500/230/13,8 kV – 450 MVA............................22
4.13. SE Miranda II – Autotransformador MRAT6-01 ou 02 ou 03 230/138/13,8 kV - 100 MVA.........22
4.14. SE Miranda II – Transformador MRTF6-01 230/69/13,8 kV - 100 MVA ......................................22
4.15. SE Miranda II – Transformador MRTF6-02 230/69 kV - 100 MVA...............................................22
4.16. SE Miranda II – Transformador MRTF6-03 230/69 kV - 100 MVA...............................................23
4.17. SE Peritoró – Transformador PRTF6-01 ou 02 ou 03 230/69/13,8 kV - 100 MVA .......................23
4.18. SE Porto Franco – Autotransformador PFAT6-01 ou 02 230/138/13,8 kV – 100 MVA ...............23
4.19. SE Porto Franco – Autotransformador PFAT6-03 230/138/13,8 kV – 100 MVA .........................23
4.20. SE Porto Franco – Transformador PFTF6-01 ou 02 ou 03 230/69 kV – 33 MVA..........................23
4.21. SE Presidente Dutra – Autotransformador PDAT7-01 500/230/13,8 kV - 300 MVA ...................24
4.22. SE Presidente Dutra –Transformador PDTF6-01 ou 04 ou 05 230/69/13,8 kV - 50 MVA ou 
Transformador PDTF6-06 230/69/13,8 kV – 100 MVA................................................................24
4.23. SE São Luís I – Transformador LITF6-01, 02, 03 ou 04 de 230/69 kV - 100 MVA.........................24
4.24. SE São Luís II – Autotransformador LDAT7-01, 02 ou 03 500/230/13,8 kV – 600 MVA ..............24
4.25. SE São Luís II – Autotransformador LDAT7-04 500/230/13,8 kV – 600 MVA ..............................25
4.26. SE São Luís III – Transformador LTTF6-01 230/69 kV - 150 MVA.................................................25
4.27. SE São Luís III – Transformador LTTF6-02 230/69/13,8 kV - 150 MVA ........................................25
4.28. SE São Luís III – Transformador LTTF6-03 230/69/13,8 kV - 150 MVA ........................................25
4.29. SE São Luís IV- AutoTransformador 9ATF-01 ou 9ATF-02 500/230/13,8 kV - 600 MVA..............25
4.30. SE São Luís IV– Transformador 7TR-01 ou 7TR-02 230/69/13,8 kV - 200 MVA...........................26
5. DADOS OPERACIONAIS DE UNIDADES GERADORAS TÉRMICAS ......................................................27
5.1. UTE Geramar I (CEG: UTE.PE.MA.029705-4.01) ..........................................................................29
5.1.1. Dados das Unidades Geradoras da UTE Geramar I ...................................................29
5.1.2. Dados relacionados a Configurações de Operação da UTE Geramar I – Combustível 
Principal.....................................................................................................................29
5.1.3. Dados relacionados a Configurações de Operação da UTE Geramar I – Combustível 
Secundário.................................................................................................................33
Manual de Procedimentos da Operação - Módulo 5 - Submódulo 5.11
 Cadastro de Informações Operacionais Código Revisão Item Vigência
Cadastro de Dados Operacionais de Equipamentos da 
Área 500/230 KV Maranhão CD-CT.NE.5MA.01 78 2.1.3. 05/03/2024
Referência: 4 / 51
5.1.4. Curva de Capabilidade das Unidades Geradoras da UTE Geramar I..........................34
5.2. UTE Geramar II (CEG: UTE.PE.MA.029668-6.01) .........................................................................35
5.2.1. Dados das Unidades Geradoras da UTE Geramar iI...................................................35
5.2.2. Dados relacionados a Configurações de Operação da UTE Geramar II – Combustível 
Principal.....................................................................................................................35
5.2.3. Dados relacionados a Configurações de Operação da UTE Geramar II – Combustível 
Secundário.................................................................................................................39
5.2.4. Curva de Capabilidade das Unidades Geradoras da UTE Geramar II.........................40
5.3. UTE Porto do Itaqui (CEG: UTE.CM.MA.029700-3.01) ................................................................41
5.3.1. Dados das Unidades Geradoras da UTE Porto do Itaqui ...........................................41
5.3.2. Dados relacionados a Configurações de Operação da UTE Porto do Itaqui – 
Combustível Principal ................................................................................................42
5.3.3. Dados relacionados a Configurações de Operação da UTE Porto do Itaqui – 
Combustível Secundário............................................................................................44
5.3.4. Curva de Capabilidade das Unidades Geradoras da UTE Porto do Itaqui .................45
6. DADOS OPERACIONAIS DE COMPENSADORES SÍNCRONOS ............................................................46
6.1. SE Imperatriz – Compensadores síncronos IZCS2-01 ou 02 (- 70 / +100 Mvar) ..........................46
6.2. SE Imperatriz – Compensador síncrono IZCS2-03 (- 70 / +100 Mvar) .........................................47
6.3. SE Presidente Dutra – Compensadores síncronos PDCS2-01 ou 02 (- 70 / +100 Mvar) ..............47
7. DADOS OPERACIONAIS DE COMPENSADORES ESTÁTICOS ..............................................................47
7.1. SE São Luís II – Compensador estático LDCE2-01 (-100 / + 150 Mvar)........................................48
7.2. SE São Luís II – Compensador estático LDCE2-02 (-100 / + 150 Mvar)........................................49
8. DADOS OPERACIONAIS DE BANCOS DE CAPACITORES....................................................................50
8.1. SE Miranda II – Bancos de capacitores MRBC6-01 ou 02 230 kV / 20 Mvar ...............................50
8.2. SE Peritoró – Banco de capacitores PRBC6-01 230 kV / 20 Mvar................................................50
8.3. SE São Luís II – Banco de capacitores LDBC6-01 230 kV / 50,8 Mvar ..........................................50
8.4. SE São Luís II – Banco de capacitores LDBC6-02 230 kV / 61,1 Mvar ..........................................50
8.5. SE São Luís II – Banco de capacitores LDBC6-03 230 kV / 55,5 Mvar ..........................................51
8.6. SE São Luís II – Banco de capacitores LDBC6-04 230 kV / 55,5 Mvar ..........................................51
Manual de Procedimentos da Operação - Módulo 5 - Submódulo 5.11
 Cadastro de Informações Operacionais Código Revisão Item Vigência
Cadastro de Dados Operacionais de Equipamentos da 
Área 500/230 KV Maranhão CD-CT.NE.5MA.01 78 2.1.3. 05/03/2024
Referência: 5 / 51
1. OBJETIVO
Apresentar os Dados Operacionais de Equipamentos da Área 500/230 kV Maranhão, a serem observados 
pelos operadores dos Centros de Operação do ONS e pela Operação dos Agentes envolvidos, de acordo com 
os Procedimentos de Rede.
2. CONSIDERAÇÕES GERAIS
2.1.Os dados de linhas de transmissão e equipamentos da Rede de Operação constantes neste Cadastro 
de Informações Operacionais devem ser observados pelos Centros de Operação do ONS para as ações 
de coordenação, supervisão e controle da operação, assim como pelos Agentes para as ações de 
comando e execução.
2.2.As limitações técnicas para tentativas de religamento de equipamentos contidas neste documento 
têm caráter operacional. Poderão ser utilizadas para apuração da qualidade do serviço público de 
transmissão de energia elétrica (apuração de parcela variável) o valor do “Tempo para energização 
após desligamento” de cada equipamento, desde que sejam atendidos os critérios estabelecidos na 
regulação vigente.
3. DADOS OPERACIONAIS DE LINHAS DE TRANSMISSÃO
Orientações sobre os dados operacionais de linhas de transmissão: 
Campo “Religamento Automático”:
•Campo “Tipo”: indica o tipo de religamento utilizado em operação normal: monopolar, tripolar ou 
monopolar / tripolar; caso não exista religamento instalado, o campo é preenchido com “NE” – não 
existe.
•Campo “Situação”: indica se o religamento está ligado ou desligado em operação normal; caso não 
exista religamento instalado, o campo é preenchido com “NE” – não existe.
•Campo “Sentido”: para religamentos tripolares, indica em primeiro lugar a instalação onde se dá o 
fechamento inicial (terminal líder), e após a seta, a instalação de fechamento final (terminal 
seguidor); para religamentos monopolares ou caso não exista religamento instalado, o campo é 
preenchido com hifens (---).
•Campo “Ajustes”: indica os ajustes de tempo morto, diferença de tensão, defasagem angular e 
diferença de frequência instalados para a função de verificação de sincronismo para o religamento 
automático; caso não exista religamento automático instalado, o campo é preenchido com hifens 
(---).
Campo “LT em Mesma Estrutura”: apresenta o nome da LT que compartilha estrutura, e quando disponível, 
a informação da extensão do trecho de compartilhamento e da quantidade de torres compartilhadas; caso 
não exista, o campo é preenchido com “NE” – não existe.
Não deve ser considerado o compartilhamento de estrutura caso esse seja apenas na chegada as subestações 
envolvidas.
Campo “Religamentos Manuais”:
•Campo “Quantidade de Tentativas”: indica quantos religamentos (ou tentativas de religamento) 
manuais são permitidos pelo Agente.
•Campo “Intervalo entre os Religamentos (min)”: é o intervalo de tempo entre os religamentos, em 
minutos, a ser considerado entre a tentativa de fechamento não-bem-sucedida anterior (incluindo 
o religamento automático) e o novo fechamento do disjuntor.
Manual de Procedimentos da Operação - Módulo 5 - Submódulo 5.11
 Cadastro de Informações Operacionais Código Revisão Item Vigência
Cadastro de Dados Operacionais de Equipamentos da 
Área 500/230 KV Maranhão CD-CT.NE.5MA.01 78 2.1.3. 05/03/2024
Referência: 6 / 51
•Campo “Dispositivo de Sincronismo”: indica os terminais onde esses estão instalados e em 
funcionamento. Dispositivo de Sincronismo é o equipamento utilizado para verificação das 
condições de fechamento em anel ou paralelo entre dois pontos elétricos; caso não exista, o campo 
é preenchido com “NE” – não existe. Se em algum disjuntor do terminal não houver o dispositivo 
de sincronismo essa informação deve ser destacada.
•Campo “Ajustes”: indica os ajustes de diferença de tensão, defasagem angular e diferença de 
frequência instalados para a função de verificação de sincronismo para o religamento manual de 
cada terminal; caso não exista dispositivo de sincronismo, o campo é preenchido com hifens (---).
Campo “Notas / Restrições”: campo opcional que indica informações relevantes a respeito da linha de 
transmissão.
Caso os dados operacionais não sejam informados pelo Agente, os campos são preenchidos com “NI” – não 
informado.
3.1. LT 500 KV BACABEIRA / SÃO LUÍS II C1
Religamento Automático
Tipo Situação Sentido Ajustes
LT em Mesma Estrutura
Tripolar Ligado Bacabeira  
São Luís II Tempo morto: 1,5 s NE
Notas / Restrições: NI
Religamento Manual
Sentido Quantidade de 
Tentativas
Intervalo entre os 
religamentos (minutos)
Dispositivo de 
sincronismo Ajustes
Bacabeira  São Luís II 1
Uma tentativa em sentido 
normal após 3 (três) 
minutos do religamento 
automático.
NI
V = 100 kV
δ = 150
f = 0,2 Hz
3.2. LT 500 KV BACABEIRA / SÃO LUÍS II C2
Religamento Automático
Tipo Situação Sentido Ajustes
LT em Mesma Estrutura
Tripolar Ligado Bacabeira  
São Luís II Tempo morto: 1,5 s NE
Notas / Restrições: NI
Manual de Procedimentos da Operação - Módulo 5 - Submódulo 5.11
 Cadastro de Informações Operacionais Código Revisão Item Vigência
Cadastro de Dados Operacionais de Equipamentos da 
Área 500/230 KV Maranhão CD-CT.NE.5MA.01 78 2.1.3. 05/03/2024
Referência: 7 / 51
Religamento Manual
Sentido Quantidade de 
Tentativas
Intervalo entre os 
religamentos (minutos)
Dispositivo de 
sincronismo Ajustes
Bacabeira  São Luís II 1
Uma tentativa em sentido 
normal após 3 (três) 
minutos do religamento 
automático.
NI
V = 100 kV
δ = 150
f = 0,2 Hz
3.3. LT 500 KV MIRANDA II / ELEVADORA PAULINO NEVES
Religamento Automático
Tipo Situação Sentido Ajustes
LT em Mesma Estrutura
NE NE --- --- NE
Notas / Restrições: NI
Religamento Manual
Sentido Quantidade de 
Tentativas
Intervalo entre os 
religamentos (minutos)
Dispositivo de 
sincronismo Ajustes
NI NI NI NI ---
3.4. LT 500 KV MIRANDA II / SÃO LUÍS II C3
Religamento Automático
Tipo Situação Sentido Ajustes
LT em Mesma Estrutura
Tripolar Ligado Miranda II  
São Luís II Tempo morto: 5 s NE
Notas / Restrições: NI
Religamento Manual
Sentido Quantidade de 
Tentativas
Intervalo entre os 
religamentos (minutos)
Dispositivo de 
sincronismo Ajustes
NI NI NI Sim, em ambos os 
terminais
V = 100 kV
δ = 300
f = 0,2 Hz
Manual de Procedimentos da Operação - Módulo 5 - Submódulo 5.11
 Cadastro de Informações Operacionais Código Revisão Item Vigência
Cadastro de Dados Operacionais de Equipamentos da 
Área 500/230 KV Maranhão CD-CT.NE.5MA.01 78 2.1.3. 05/03/2024
Referência: 8 / 51
3.5. LT 500 KV SÃO LUÍS II / SÃO LUÍS IV C1
Religamento Automático
Tipo Situação Sentido Ajustes
LT em Mesma Estrutura
Tripolar Ligado São Luís II  
São Luís IV Tempo morto: 5 s LT 500 kV São Luís II / São Luís IV C2
Notas / Restrições: NI
Religamento Manual
Sentido Quantidade de 
Tentativas
Intervalo entre os 
religamentos (minutos)
Dispositivo de 
sincronismo Ajustes
NI NI NI Sim, em ambos os 
terminais
V = 100 kV
δ = 150
f = 0,2 Hz
3.6. LT 500 KV SÃO LUÍS II / SÃO LUÍS IV C2
Religamento Automático
Tipo Situação Sentido Ajustes
LT em Mesma Estrutura
Tripolar Ligado São Luís II  
São Luís IV Tempo morto: 5 s LT 500 kV São Luís II / São Luís IV C1
Notas / Restrições: NI
Religamento Manual
Sentido Quantidade de 
Tentativas
Intervalo entre os 
religamentos (minutos)
Dispositivo de 
sincronismo Ajustes
NI NI NI Sim, em ambos os 
terminais
V = 100 kV
δ = 150
f = 0,2 Hz
3.7. LT 230 KV CAXIAS II / COELHO NETO
Religamento Automático
Tipo Situação Sentido Ajustes
LT em Mesma Estrutura
Tripolar Ligado
Coelho 
Neto  
Caxias II
Tempo morto:5 s NE
Notas / Restrições:
Manual de Procedimentos da Operação - Módulo 5 - Submódulo 5.11
 Cadastro de Informações Operacionais Código Revisão Item Vigência
Cadastro de Dados Operacionais de Equipamentos da 
Área 500/230 KV Maranhão CD-CT.NE.5MA.01 78 2.1.3. 05/03/2024
Referência: 9 / 51
Religamento Automático
Tipo Situação Sentido Ajustes
LT em Mesma Estrutura
O religamento automático da LT deve estar desligado nas seguintes situações:
- Indisponibilidade da LT 230 kV Peritoró / Caxias II.
Religamento Manual
Sentido Quantidade de 
Tentativas
Intervalo entre os 
religamentos (minutos)
Dispositivo de 
sincronismo Ajustes
Coelho Neto  Caxias 
II 2
Primeira tentativa, em 
sentido normal, após 3 
(três) minutos do 
religamento automático.
A segunda tentativa, em 
sentido normal, após 12 
(doze) minutos da 
primeira tentativa.
Sim, em ambos os 
terminais
V = 46 kV
δ = 400
f = 0,2 Hz
3.8. LT 230 KV CHAPADINHA II / COELHO NETO
Religamento Automático
Tipo Situação Sentido Ajustes
LT em Mesma Estrutura
Tripolar Ligado
Coelho 
Neto  
Chapadinha 
II
Tempo morto: 5 s NE
Notas / Restrições:
O religamento automático da LT deve estar desligado nas seguintes situações:
- Indisponibilidade da LT 230 kV Chapadinha II / Miranda II.
Religamento Manual
Sentido Quantidade de 
Tentativas
Intervalo entre os 
religamentos (minutos)
Dispositivo de 
sincronismo Ajustes
NI 2 1 Sim, em ambos os 
terminais
V = 40 kV
δ = 300
f = 0,2 Hz
Manual de Procedimentos da Operação - Módulo 5 - Submódulo 5.11
 Cadastro de Informações Operacionais Código Revisão Item Vigência
Cadastro de Dados Operacionais de Equipamentos da 
Área 500/230 KV Maranhão CD-CT.NE.5MA.01 78 2.1.3. 05/03/2024
Referência: 10 / 51
3.9. LT 230 KV CHAPADINHA II / MIRANDA II
Religamento Automático
Tipo Situação Sentido Ajustes
LT em Mesma Estrutura
Tripolar Ligado
Miranda 
II  
Chapadinha 
II
Tempo morto: 5 s NE
Notas / Restrições:
O religamento automático da LT deve estar desligado nas seguintes situações:
- Indisponibilidade da LT 230 kV Chapadinha II / Coelho Neto.
Religamento Manual
Sentido Quantidade de 
Tentativas
Intervalo entre os 
religamentos (minutos)
Dispositivo de 
sincronismo Ajustes
NI 2 1 Sim, em ambos os 
terminais
V = 40 kV
δ = 300
f = 0,2 Hz
3.10. LT 230 KV COELHO NETO / TERESINA
Religamento Automático
Tipo Situação Sentido Ajustes
LT em Mesma Estrutura
Tripolar Ligado
Coelho 
Neto  
Teresina
Tempo morto: 2 s NE
Notas / Restrições: NI
Religamento Manual
Sentido Quantidade de 
Tentativas
Intervalo entre os 
religamentos (minutos)
Dispositivo de 
sincronismo Ajustes
NI 1
Uma tentativa, em 
sentido normal, após 3 
(três) minutos do 
religamento automático.
NI
V = 20 kV
δ = 200
f = 0,2 Hz
Manual de Procedimentos da Operação - Módulo 5 - Submódulo 5.11
 Cadastro de Informações Operacionais Código Revisão Item Vigência
Cadastro de Dados Operacionais de Equipamentos da 
Área 500/230 KV Maranhão CD-CT.NE.5MA.01 78 2.1.3. 05/03/2024
Referência: 11 / 51
3.11. LT 230 KV GERANORTE / MIRANDA II
Religamento Automático
Tipo Situação Sentido Ajustes
LT em Mesma Estrutura
NE NE --- --- NE
Notas / Restrições: NI
Religamento Manual
Sentido Quantidade de 
Tentativas
Intervalo entre os 
religamentos (minutos)
Dispositivo de 
sincronismo Ajustes
NI NI NI NI NI
3.12. LT 230 KV IMPERATRIZ / PORTO FRANCO C1
Religamento Automático
Tipo Situação Sentido Ajustes
LT em Mesma Estrutura
Tripolar Ligado
Imperatriz 
Porto 
Franco
Tempo morto: 5 s 
V = 46 kV
δ = 10°
f = 0,2 Hz
NE
Notas / Restrições:
O religamento automático da LT deve estar desligado na seguinte situação:
- Indisponibilidade do circuito paralelo.
Religamento Manual
Sentido Quantidade de 
Tentativas
Intervalo entre os 
religamentos (minutos)
Dispositivo de 
sincronismo Ajustes
NI 2
Primeira tentativa, em 
sentido normal, após 3 
(três) minutos do 
religamento automático.
A segunda tentativa, em 
sentido normal, após 12 
(doze) minutos da 
primeira tentativa.
Sim, em ambos os 
terminais
V = 46 kV
δ = 40°
f = 0,2 Hz
Manual de Procedimentos da Operação - Módulo 5 - Submódulo 5.11
 Cadastro de Informações Operacionais Código Revisão Item Vigência
Cadastro de Dados Operacionais de Equipamentos da 
Área 500/230 KV Maranhão CD-CT.NE.5MA.01 78 2.1.3. 05/03/2024
Referência: 12 / 51
3.13. LT 230 KV IMPERATRIZ / PORTO FRANCO C2
Religamento Automático
Tipo Situação Sentido Ajustes
LT em Mesma Estrutura
Tripolar Ligado
Imperatriz 
Porto 
Franco
Tempo morto: 5 s 
V = 46 kV
δ = 10°
f = 0,2 Hz
NE
Notas / Restrições:
O religamento automático da LT deve estar desligado na seguinte situação:
- Indisponibilidade do circuito paralelo.
Religamento Manual
Sentido Quantidade de 
Tentativas
Intervalo entre os 
religamentos (minutos)
Dispositivo de 
sincronismo Ajustes
NI NI NI Sim, em ambos os 
terminais
V = 46 kV
δ = 40°
f = 0,2 Hz
3.14. LT 230 KV MIRANDA II / ENCRUZO NOVO
Religamento Automático
Tipo Situação Sentido Ajustes
LT em Mesma Estrutura
Monopolar Ligado
Miranda II  
Encruzo 
Novo
Tempo morto:0,8 s NE
Notas / Restrições: NI
Religamento Manual
Sentido Quantidade de 
Tentativas
Intervalo entre os 
religamentos (minutos)
Dispositivo de 
sincronismo Ajustes
NI 1 3 NI NI
3.15. LT 230 KV MIRANDA II / PERITORÓ
Religamento Automático
Tipo Situação Sentido Ajustes
LT em Mesma Estrutura
Tripolar Ligado Miranda II  Tempo morto: 2 s NE
Manual de Procedimentos da Operação - Módulo 5 - Submódulo 5.11
 Cadastro de Informações Operacionais Código Revisão Item Vigência
Cadastro de Dados Operacionais de Equipamentos da 
Área 500/230 KV Maranhão CD-CT.NE.5MA.01 78 2.1.3. 05/03/2024
Referência: 13 / 51
Religamento Automático
Tipo Situação Sentido Ajustes
LT em Mesma Estrutura
Peritoró
Notas / Restrições: NI
Religamento Manual
Sentido Quantidade de 
Tentativas
Intervalo entre os 
religamentos (minutos)
Dispositivo de 
sincronismo Ajustes
NI 1
Uma tentativa, em 
sentido normal, após 3 
(três) minutos do 
religamento automático.
NI
V = 20 kV
δ = 20°
f = 0,2 Hz
3.16. LT 230 KV PERITORÓ / CAXIAS II
Religamento Automático
Tipo Situação Sentido Ajustes
LT em Mesma Estrutura
Tripolar Ligado Peritoró  
Caxias II Tempo morto: 5 s NE
Notas / Restrições:
O religamento automático da LT deve estar desligado na seguinte situação:
- Indisponibilidade da LT 230 kV Caxias II / Coelho Neto.
- O tempo morto definido está coordenado com o ajuste para o esquema de subtensão do Consumidor 
Heineken, pick-up: 0,30 pu e temporização: 2,0 seg, de forma a não permitir que o religamento automático 
da LT seja efetuado com o Consumidor Industrial Heineken conectado a LT.
Religamento Manual
Sentido Quantidade de 
Tentativas
Intervalo entre os 
religamentos (minutos)
Dispositivo de 
sincronismo Ajustes
NI 2
Primeira tentativa, em 
sentido normal, após 3 
(três) minutos do 
religamento automático.
A segunda tentativa, em 
sentido normal, após 12 
(doze) minutos da 
primeira tentativa.
Sim, em ambos os 
terminais
V = 46 kV
δ = 40°
f = 0,2 Hz
Manual de Procedimentos da Operação - Módulo 5 - Submódulo 5.11
 Cadastro de Informações Operacionais Código Revisão Item Vigência
Cadastro de Dados Operacionais de Equipamentos da 
Área 500/230 KV Maranhão CD-CT.NE.5MA.01 78 2.1.3. 05/03/2024
Referência: 14 / 51
3.17. LT 230 KV PRESIDENTE DUTRA / PERITORÓ
Religamento Automático
Tipo Situação Sentido Ajustes
LT em Mesma Estrutura
Tripolar Ligado
Peritoró  
Presidente 
Dutra
Tempo morto: 2 s NE
Notas / Restrições: NI
Religamento Manual
Sentido Quantidade de 
Tentativas
Intervalo entre os 
religamentos (minutos)
Dispositivo de 
sincronismo Ajustes
NI 2
Primeira tentativa, em 
sentido normal, após 3 
(três) minutos do 
religamento automático.
A segunda tentativa, em 
sentido normal, após 12 
(doze) minutos da 
primeira tentativa.
NI
V = 30 kV
δ = 30°
f = 0,2 Hz
3.18. LT 230 KV RIBEIRO GONÇALVES / BALSAS
Religamento Automático
Tipo Situação Sentido Ajustes
LT em Mesma Estrutura
Monopolar Ligado NI Tempo morto: 0,8 s NE
Notas / Restrições: NI
Religamento Manual
Sentido Quantidade de 
Tentativas
Intervalo entre os 
religamentos (minutos)
Dispositivo de 
sincronismo Ajustes
NI 2
Primeira tentativa, em 
sentido normal, após 3 
(três) minutos do 
religamento automático.
A segunda tentativa, em 
sentido normal, após 12 
(doze) minutos da 
NE NE
Manual de Procedimentos da Operação - Módulo 5 - Submódulo 5.11
 Cadastro de Informações Operacionais Código Revisão Item Vigência
Cadastro de Dados Operacionais de Equipamentos da 
Área 500/230 KV Maranhão CD-CT.NE.5MA.01 78 2.1.3. 05/03/2024
Referência: 15 / 51
Religamento Manual
Sentido Quantidade de 
Tentativas
Intervalo entre os 
religamentos (minutos)
Dispositivo de 
sincronismo Ajustes
primeira tentativa.
3.19. LT 230 KV SÃO LUÍS II / MIRANDA II
Religamento Automático
Tipo Situação Sentido Ajustes
LT em Mesma Estrutura
Tripolar Ligado Miranda II  
São Luís II Tempo morto: 2 s NE
Notas / Restrições: NI
Religamento Manual
Sentido Quantidade de 
Tentativas
Intervalo entre os 
religamentos (minutos)
Dispositivo de 
sincronismo Ajustes
NI 1
Uma tentativa, em 
sentido normal, após 3 
(três) minutos do 
religamento automático.
NI
V = 30 kV
δ = 20°
f = 0,2 Hz
3.20. LT 230 KV SÃO LUÍS II / SÃO LUÍS I C1
Religamento Automático
Tipo Situação Sentido Ajustes
LT em Mesma Estrutura
Tripolar Ligado São Luís II  
São Luís I Tempo morto:2 s NE
Notas / Restrições:
O religamento automático da LT deve estar desligado na seguinte situação:
- Indisponibilidade do circuito paralelo.
Religamento Manual
Sentido Quantidade de 
Tentativas
Intervalo entre os 
religamentos (minutos)
Dispositivo de 
sincronismo Ajustes
NI 1
Uma tentativa, em 
sentido normal, após 3 
(três) minutos do 
religamento automático.
NI
V = 20 kV
δ = 20°
f = 0,2 Hz
Manual de Procedimentos da Operação - Módulo 5 - Submódulo 5.11
 Cadastro de Informações Operacionais Código Revisão Item Vigência
Cadastro de Dados Operacionais de Equipamentos da 
Área 500/230 KV Maranhão CD-CT.NE.5MA.01 78 2.1.3. 05/03/2024
Referência: 16 / 51
3.21. LT 230 KV SÃO LUÍS II / SÃO LUÍS I C2
Religamento Automático
Tipo Situação Sentido Ajustes
LT em Mesma Estrutura
Tripolar Ligado São Luís II  
São Luís I Tempo morto: 2 s NE
Notas / Restrições:
O religamento automático da LT deve estar desligado na seguinte situação:
- Indisponibilidade do circuito paralelo.
Religamento Manual
Sentido Quantidade de 
Tentativas
Intervalo entre os 
religamentos (minutos)
Dispositivo de 
sincronismo Ajustes
NI 1
Uma tentativa, em 
sentido normal, após 3 
(três) minutos do 
religamento automático.
NI
V = 20 kV
δ = 20°
f = 0,2 Hz
3.22. LT 230 KV SÃO LUÍS II / SÃO LUÍS III C1
Religamento Automático
Tipo Situação Sentido Ajustes
LT em Mesma Estrutura
Tripolar Ligado São Luís II  
São Luís III Tempo morto:5 s NE
Notas / Restrições:
O religamento automático da LT deve estar desligado na seguinte situação:
- Indisponibilidade do circuito paralelo.
Religamento Manual
Sentido Quantidade de 
Tentativas
Intervalo entre os 
religamentos (minutos)
Dispositivo de 
sincronismo Ajustes
NI 1
Uma tentativa, em 
sentido normal, após 3 
(três) minutos do 
religamento automático.
NI
V = 46 kV
δ = 10°
f = 0,2 Hz
Manual de Procedimentos da Operação - Módulo 5 - Submódulo 5.11
 Cadastro de Informações Operacionais Código Revisão Item Vigência
Cadastro de Dados Operacionais de Equipamentos da 
Área 500/230 KV Maranhão CD-CT.NE.5MA.01 78 2.1.3. 05/03/2024
Referência: 17 / 51
3.23. LT 230 KV SÃO LUÍS II / SÃO LUÍS III C2
Religamento Automático
Tipo Situação Sentido Ajustes
LT em Mesma Estrutura
Tripolar Ligado São Luís II  
São Luís III Tempo morto: 5 s NE
Notas / Restrições:
O religamento automático da LT deve estar desligado na seguinte situação:
- Indisponibilidade do circuito paralelo.
Religamento Manual
Sentido Quantidade de 
Tentativas
Intervalo entre os 
religamentos (minutos)
Dispositivo de 
sincronismo Ajustes
NI NI NI NI
V = 46 kV
δ = 10°
f = 0,2 Hz
3.24. LT 230 KV SÃO LUÍS II / SÃO LUÍS IV
Religamento Automático
Tipo Situação Sentido Ajustes
LT em Mesma Estrutura
Tripolar Ligado São Luís II  
São Luís IV Tempo morto: 5 s NE
Notas / Restrições: NI
Religamento Manual
Sentido Quantidade de 
Tentativas
Intervalo entre os 
religamentos (minutos)
Dispositivo de 
sincronismo Ajustes
NI NI NI Sim, em ambos os 
terminais
V = 46 kV
δ = 15°
f = 0,2 Hz
3.25. LT 230 KV UTE PORTO DO ITAQUI / SÃO LUÍS IV
Religamento Automático
Tipo Situação Sentido Ajustes
LT em Mesma Estrutura
NE NE --- --- NE
Manual de Procedimentos da Operação - Módulo 5 - Submódulo 5.11
 Cadastro de Informações Operacionais Código Revisão Item Vigência
Cadastro de Dados Operacionais de Equipamentos da 
Área 500/230 KV Maranhão CD-CT.NE.5MA.01 78 2.1.3. 05/03/2024
Referência: 18 / 51
Religamento Automático
Tipo Situação Sentido Ajustes
LT em Mesma Estrutura
Notas / Restrições: NI
Religamento Manual
Sentido Quantidade de 
Tentativas
Intervalo entre os 
religamentos (minutos)
Dispositivo de 
sincronismo Ajustes
NI NI NI NE NE
3.26. LT 138 KV COLETORA DELTA 3 / ELEVADORA PAULINO NEVES
Religamento Automático
Tipo Situação Sentido Ajustes
LT em Mesma Estrutura
NE NE --- --- NE
Notas / Restrições: NI
Religamento Manual
Sentido Quantidade de 
Tentativas
Intervalo entre os 
religamentos (minutos)
Dispositivo de 
sincronismo Ajustes
NI NI NI NE NE
3.27. LT 138 KV COLETORA DELTA 6 / ELEVADORA PAULINO NEVES
Religamento Automático
Tipo Situação Sentido Ajustes
LT em Mesma Estrutura
NE NE --- --- NE
Notas / Restrições: NI
Religamento Manual
Sentido Quantidade de 
Tentativas
Intervalo entre os 
religamentos (minutos)
Dispositivo de 
sincronismo Ajustes
NI NI NI NE NE
Manual de Procedimentos da Operação - Módulo 5 - Submódulo 5.11
 Cadastro de Informações Operacionais Código Revisão Item Vigência
Cadastro de Dados Operacionais de Equipamentos da 
Área 500/230 KV Maranhão CD-CT.NE.5MA.01 78 2.1.3. 05/03/2024
Referência: 19 / 51
4. DADOS OPERACIONAIS DE TRANSFORMADORES
Orientações sobre os dados operacionais de transformadores:
Campo “Dispositivo de Sincronismo”: indica os terminais onde estão instalados e em funcionamento. 
Dispositivo de Sincronismo é o equipamento utilizado para verificação das condições de fechamento em anel 
ou paralelo entre dois pontos elétricos, o campo é preenchido com “NE” – não existe. Se em algum disjuntor 
do terminal não houver o dispositivo de sincronismo essa informação deve ser destacada.
Campo “Ajustes”: indica os ajustes de diferença de tensão, defasagem angular e diferença de frequência 
instalados para a função de verificação de sincronismo para o religamento manual de cada terminal; caso 
não exista dispositivo de sincronismo, o campo é preenchido com hifens (---).
Campo “Características dos Comutadores”: 
•Campo “Comutador sob carga”: indica o número de posições associando a tensão correspondente 
à identificação das posições mínima, máxima e nominal, bem como a variação de tensão entre cada 
posição, conforme os dados de placa do transformador. Caso os números das posições dos dados 
de placa do transformador sejam diferentes dos números das posições utilizadas no Sistema de 
Supervisão e Controle, incluir, além das posições dos dados de placa, também as posições utilizadas 
no SSC. Caso não exista comutador sob carga no transformador, o campo é preenchido com “NE” 
– não existe.
•Campo “Comutador em Vazio”: indica as posições do comutador em vazio com os respectivos 
valores de tensão e sua posição em serviço. Caso não exista comutador em vazio no transformador, 
o campo é preenchido com “NE” – não existe.
Campo “Notas / Restrições”: campo opcional que indica informações relevantes a respeito do 
transformador.
Caso os dados operacionais não sejam informados pelo Agente, os campos são preenchidos com “NI” – não 
informado.
4.1. SE BALSAS – TRANSFORMADOR BSTF6-01 230/69/13,8 KV - 100 MVA
Características dos ComutadoresDispositivo de 
Sincronismo Ajustes
Comutador sob Carga Comutador em Vazio
NI NI 1 = 253 kV
19 = 207 kV NE
Notas / Restrições: NI
4.2. SE BALSAS – TRANSFORMADOR BSTF6-02 230/69/13,8 KV - 100 MVA
Características dos ComutadoresDispositivo de 
Sincronismo Ajustes
Comutador sob Carga Comutador em Vazio
NI NI 1 = 253 kV
19 = 207 kV NE
Manual de Procedimentos da Operação - Módulo 5 - Submódulo 5.11
 Cadastro de Informações Operacionais Código Revisão Item Vigência
Cadastro de Dados Operacionais de Equipamentos da 
Área 500/230 KV Maranhão CD-CT.NE.5MA.01 78 2.1.3. 05/03/2024
Referência: 20 / 51
4.3. SE CAXIAS II– TRANSFORMADOR CXTF6-01 OU CXTF6-02 230/69/13,8 KV - 100 MVA
Características dos ComutadoresDispositivo de 
Sincronismo Ajustes
Comutador sob Carga Comutador em Vazio
Em ambos os 
terminais
No lado de 230 kV:
ΔV ≤ 11,5 kV
Δδ ≤ 10°
Δf ≤ 0,1 Hz
No lado de 69 kV:
ΔV ≤ 11,5 kV
Δδ ≤ 10°
Δf ≤ 0,1 Hz
1 = 253 kV
11 = 230 kV
21 = 207 kV
NE
Notas / restrições:
(1)Modos de operação: manual ou automático.
(2) Paralelismos dos transformadores: um (01) em Mestre e o outro em Escravo.
(3) Comutador sob carga:
•Cada mudança de posição do comutador corresponde a 2,3 kV de variação da tensão.
•A posição 11 é a posição central e corresponde à tensão nominal.
4.4. SE CHAPADINHA II – TRANSFORMADOR TR1 OU TR2 230/69 KV/13,8 KV – 100 MVA 
Características dos ComutadoresDispositivo de 
Sincronismo Ajustes
Comutador sob Carga Comutador em Vazio
NI ---
1 = 264 kV
17 = 230 kV
33 = 195 kV
NE
Notas / Restrições: NI
4.5. SE COELHO NETO – TRANSFORMADOR CHTF6-01 OU 02 230/69/13,8 KV – 65 MVA
Características dos ComutadoresDispositivo de 
Sincronismo Ajustes
Comutador sob Carga Comutador em Vazio
NI NI 1 = 75,89 kV
19 = 62,11 kV NE
Notas / Restrições: NI
4.6. SE ELEVADORA PAULINO NEVES – AUTOTRANSFORMADOR 05T1 500/138/13,8 KV - 360 MVA
Características dos ComutadoresDispositivo de 
Sincronismo Ajustes
Comutador sob Carga Comutador em Vazio
NI NI 1 = 550 kV NE
Manual de Procedimentos da Operação - Módulo 5 - Submódulo 5.11
 Cadastro de Informações Operacionais Código Revisão Item Vigência
Cadastro de Dados Operacionais de Equipamentos da 
Área 500/230 KV Maranhão CD-CT.NE.5MA.01 78 2.1.3. 05/03/2024
Referência: 21 / 51
Características dos ComutadoresDispositivo de 
Sincronismo Ajustes
Comutador sob Carga Comutador em Vazio
11 = 500 kV
21 = 450 kV 
Notas / Restrições: NI
4.7. SE ENCRUZO NOVO – TRANSFORMADOR 7TR01 OU 7TR02 230/69/13,8 KV - 100 MVA
Características dos ComutadoresDispositivo de 
Sincronismo Ajustes
Comutador sob Carga Comutador em Vazio
230 kV, com o relé 
de sincronismo NI
1=253 kV
11 = 230 kV
21=207 kV
NE
Notas / Restrições: NI
4.8. SE IMPERATRIZ – AUTOTRANSFORMADOR IZAT7-01 500/230/13,8 KV - 600 MVA
Características dos ComutadoresDispositivo de 
Sincronismo Ajustes
Comutador sob Carga Comutador em Vazio
NI NI
1 a 16 = 550 / 196 a 242 
kV
17 = 543 / 242 kV
18 a 33 = 536 a 450 / 242 
kV 
NE
Notas / Restrições: NI
4.9. SE IMPERATRIZ – AUTOTRANSFORMADOR IZAT7-02 500/230/13,8 KV - 450 MVA
Características dos ComutadoresDispositivo de 
Sincronismo Ajustes
Comutador sob Carga Comutador em Vazio
NI NI
1 a 16 = 550 / 196 a 242 
kV
17 = 543 / 242 kV
18 a 33 = 536 a 450 / 242 
kV
NE
Notas / Restrições: NI
4.10. SE IMPERATRIZ – TRANSFORMADOR IZTF6-03, 04 OU 05 230/69/13,8 KV - 100 MVA
Características dos ComutadoresDispositivo de 
Sincronismo Ajustes
Comutador sob Carga Comutador em Vazio
NI NI 1 = 257 kV
21 = 167 kV NE
Notas / Restrições: NI
Manual de Procedimentos da Operação - Módulo 5 - Submódulo 5.11
 Cadastro de Informações Operacionais Código Revisão Item Vigência
Cadastro de Dados Operacionais de Equipamentos da 
Área 500/230 KV Maranhão CD-CT.NE.5MA.01 78 2.1.3. 05/03/2024
Referência: 22 / 51
4.11. SE MIRANDA II – AUTOTRANSFORMADOR MRAT7-01 500/230/13,8 KV – 450 MVA
Características dos ComutadoresDispositivo de 
Sincronismo Ajustes
Comutador sob Carga Comutador em Vazio
NI NI
1 = 500 / 253 kV
15 = 500 / 232,9 kV
16 = 500 / 231,4 kV
33 = 500 / 207 kV
NE
Notas / Restrições: NI
4.12. SE MIRANDA II – AUTOTRANSFORMADOR MRAT7-02 500/230/13,8 KV – 450 MVA
Características dos ComutadoresDispositivo de 
Sincronismo Ajustes
Comutador sob Carga Comutador em Vazio
NI NI
1 = 500 / 253 kV
15 = 500 / 232,9 kV
16 = 500 / 231,4 kV
33 = 500 / 207 kV
NE
Notas / Restrições: NI
4.13. SE MIRANDA II – AUTOTRANSFORMADOR MRAT6-01 OU 02 OU 03 230/138/13,8 KV - 100 MVA
Características dos ComutadoresDispositivo de 
Sincronismo Ajustes
Comutador sob Carga Comutador em Vazio
NI NI 1 = 151,8 kV
17 = 124,2 kV NE
Notas / Restrições: NI
4.14. SE MIRANDA II – TRANSFORMADOR MRTF6-01 230/69/13,8 KV - 100 MVA
Características dos ComutadoresDispositivo de 
Sincronismo Ajustes
Comutador sob Carga Comutador em Vazio
NI NI 1 = 257 kV
21 = 167 kV NE
Notas / Restrições: NI
4.15. SE MIRANDA II – TRANSFORMADOR MRTF6-02 230/69 KV - 100 MVA
Características dos ComutadoresDispositivo de 
Sincronismo Ajustes
Comutador sob Carga Comutador em Vazio
NI NI 1 = 257 kV
21 = 167 kV NE
Notas / Restrições: NI
Manual de Procedimentos da Operação - Módulo 5 - Submódulo 5.11
 Cadastro de Informações Operacionais Código Revisão Item Vigência
Cadastro de Dados Operacionais de Equipamentos da 
Área 500/230 KV Maranhão CD-CT.NE.5MA.01 78 2.1.3. 05/03/2024
Referência: 23 / 51
4.16. SE MIRANDA II – TRANSFORMADOR MRTF6-03 230/69 KV - 100 MVA
Características dos ComutadoresDispositivo de 
Sincronismo Ajustes
Comutador sob Carga Comutador em Vazio
NI NI
1 = 257 kV 
7 = 230 kV
21 = 167 kV
NE
Notas / Restrições: NI
4.17. SE PERITORÓ – TRANSFORMADOR PRTF6-01 OU 02 OU 03 230/69/13,8 KV - 100 MVA
Características dos ComutadoresDispositivo de 
Sincronismo Ajustes
Comutador sob Carga Comutador em Vazio
NI NI 1 = 257 kV
21 = 167 kV NE
Notas / Restrições: NI
4.18. SE PORTO FRANCO – AUTOTRANSFORMADOR PFAT6-01 OU 02 230/138/13,8 KV – 100 MVA
Características dos ComutadoresDispositivo de 
Sincronismo Ajustes
Comutador sob Carga Comutador em Vazio
NI NI 1 = 151,8 kV
17 = 124,2 kV NE
Notas / Restrições: NI
4.19. SE PORTO FRANCO – AUTOTRANSFORMADOR PFAT6-03 230/138/13,8 KV – 100 MVA
Características dos ComutadoresDispositivo de 
Sincronismo Ajustes
Comutador sob Carga Comutador em Vazio
NI NI 1 = 151,8 kV
17 = 124,2 kV NE
Notas / Restrições: NI
4.20. SE PORTO FRANCO – TRANSFORMADOR PFTF6-01 OU 02 OU 03 230/69 KV – 33 MVA
Características dos ComutadoresDispositivo de 
Sincronismo Ajustes
Comutador sob Carga Comutador em Vazio
NI NI 1 = 253 kV
17 = 207 kV
1 = 253 a 207 
kV
2 = 247,2 a 
201,2 kV
3 = 241,5 a 
195,5 kV 
4 = 235,7 a 
189,7 kV
5 = 230 a 184 
kV
Manual de Procedimentos da Operação - Módulo 5 - Submódulo 5.11
 Cadastro de Informações Operacionais Código Revisão Item Vigência
Cadastro de Dados Operacionais de Equipamentos da 
Área 500/230 KV Maranhão CD-CT.NE.5MA.01 78 2.1.3. 05/03/2024
Referência: 24 / 51
Características dos ComutadoresDispositivo de 
Sincronismo Ajustes
Comutador sob Carga Comutador em Vazio
Tape em serviço = 1
Notas / Restrições: NI
4.21. SE PRESIDENTE DUTRA – AUTOTRANSFORMADOR PDAT7-01 500/230/13,8 KV - 300 MVA
Características dos ComutadoresDispositivo de 
Sincronismo Ajustes
Comutador sob Carga Comutador em Vazio
NI NI +12=295,32 kV
-12=216,89 kV NE
Notas / Restrições: NI
4.22. SE PRESIDENTE DUTRA –TRANSFORMADOR PDTF6-01 OU 04 OU 05 230/69/13,8 KV - 50 MVA OU 
TRANSFORMADOR PDTF6-06 230/69/13,8 KV – 100 MVA
Características dos ComutadoresDispositivo de 
Sincronismo Ajustes
Comutador sob Carga Comutador em Vazio
NI NI 1 = 253 kV
17 = 207 kV NE
Notas / Restrições: NI
4.23. SE SÃO LUÍS I – TRANSFORMADOR LITF6-01, 02, 03 OU 04 DE 230/69 KV - 100 MVA
Características dos ComutadoresDispositivo de 
Sincronismo Ajustes
Comutador sob Carga Comutador em Vazio
NI NI 1 = 257 kV
21 = 167 kV NE
Notas / Restrições: NI
4.24. SE SÃO LUÍS II – AUTOTRANSFORMADOR LDAT7-01, 02 OU 03 500/230/13,8 KV – 600 MVA
Características dos ComutadoresDispositivo de 
Sincronismo Ajustes
Comutador sob Carga Comutador em Vazio
NI NI
1 a 16 = 550 / 196 a 242 
kV
17 = 543 / 242 kV
18 a 33 = 536 a 450 / 242 
kV 
NE
Notas / Restrições: NI
Manual de Procedimentos da Operação - Módulo 5 - Submódulo 5.11
 Cadastro de Informações Operacionais Código Revisão Item Vigência
Cadastro de Dados Operacionais de Equipamentos da 
Área 500/230 KV Maranhão CD-CT.NE.5MA.01 78 2.1.3. 05/03/2024
Referência: 25 / 51
4.25. SE SÃO LUÍS II – AUTOTRANSFORMADOR LDAT7-04 500/230/13,8 KV – 600 MVA
Características dos ComutadoresDispositivo de 
Sincronismo Ajustes
Comutador sob Carga Comutador em Vazio
NI NI
1 a 16 = 550 / 196 a 242 
kV
17 = 543 / 242 kV
18 a 33 = 536 a 450 / 242 
kV 
NE
Notas / Restrições: NI
4.26. SE SÃO LUÍS III – TRANSFORMADOR LTTF6-01 230/69 KV - 150 MVA
Características dos ComutadoresDispositivo de 
Sincronismo Ajustes
Comutador sob Carga Comutador em Vazio
NI NI 1 = 253 kV
16 = 207 kV NE
Notas / Restrições: NI
4.27. SE SÃO LUÍS III – TRANSFORMADOR LTTF6-02 230/69/13,8 KV - 150 MVA
Características dos ComutadoresDispositivo de 
Sincronismo Ajustes
Comutador sob Carga Comutador em Vazio
NI NI 1 = 253 kV
17 = 207 kV
1 = 72,45 kV
5 = 65,55 kV
Notas / Restrições: NI
4.28. SE SÃO LUÍS III – TRANSFORMADOR LTTF6-03 230/69/13,8 KV - 150 MVA
Características dos ComutadoresDispositivo de 
Sincronismo Ajustes
Comutador sob Carga Comutador em Vazio
NI NI 1 = 253 kV
17 = 207 kV NE
Notas / Restrições: NI
4.29. SE SÃO LUÍS IV- AUTOTRANSFORMADOR 9ATF-01 OU 9ATF-02 500/230/13,8 KV - 600 MVA
Características dos ComutadoresDispositivo de 
Sincronismo Ajustes
Comutador sob Carga Comutador em Vazio
NI NI
1 = 253 kV
11 = 230 kV
21 = 207 kV
2 posições
Manual de Procedimentos da Operação - Módulo 5 - Submódulo 5.11
 Cadastro de Informações Operacionais Código Revisão Item Vigência
Cadastro de Dados Operacionais de Equipamentos da 
Área 500/230 KV Maranhão CD-CT.NE.5MA.01 78 2.1.3. 05/03/2024
Referência: 26 / 51
Características dos ComutadoresDispositivo de 
Sincronismo Ajustes
Comutador sob Carga Comutador em Vazio
Notas / Restrições: NI
4.30. SE SÃO LUÍS IV– TRANSFORMADOR 7TR-01 OU 7TR-02 230/69/13,8 KV - 200 MVA
Características dos ComutadoresDispositivo de 
Sincronismo Ajustes
Comutador sob Carga Comutador em Vazio
NI NI
1 = 253 kV
11 = 230 kV
21 = 207 kV
2 posições
Notas / Restrições: NI
Manual de Procedimentos da Operação - Módulo 5 - Submódulo 5.11
 Cadastro de Informações Operacionais Código Revisão Item Vigência
Cadastro de Dados Operacionais de Equipamentos da Área 500/230 KV Maranhão CD-CT.NE.5MA.01 78 2.1.3. 05/03/2024
Referência: 27 / 51
5. DADOS OPERACIONAIS DE UNIDADES GERADORAS TÉRMICAS
Orientações sobre os dados operacionais de unidades geradoras de usinas termelétricas: 
Código Único de Empreendimentos em Geração – CEG: está apresentado ao lado do nome da usina. O CEG permanece associado ao empreendimento, 
independentemente de alteração de atributos ou de proprietários da usina. O número CEG é obtido no site da ANEEL.
Campo “Unidade Geradora”: indica a identificação de cada unidade geradora conforme diagrama unifilar do agente.
Campo “Faixa de Tensão (kV)”:
•Campo “Nom.”: indica a tensão nominal da unidade geradora, em kV.
•Campo “Mín.”: indica a tensão mínima da unidade geradora, em kV.
•Campo “Máx.”: indica a tensão máxima da unidade geradora, em kV.
Campo “Potência Aparente (MVA)”:
•Campo “Nom.”: indica a potência aparente nominal da unidade geradora, em MVA.
•Campo “FP”: indica o fator de potência nominal da unidade geradora.
Campo “Potência Reativa (Mvar)”:
•Campo “Mín.”: indica a potência reativa mínima da unidade geradora, em Mvar, podendo ser referenciada a curva de capabilidade da unidade geradora.
•Campo “Máx.”: indica a potência reativa máxima da unidade geradora, em Mvar, podendo ser referenciada a curva de capabilidade da unidade geradora.
Campo “Faixa de Operação (MW)”:
•Campo “Permitida”: indica a faixa de potência ativa permitida da unidade geradora, em MW.
•Campo “Proibida”: indica a faixa de potência ativa máxima da unidade geradora, em MW.
Campo “Acionamento”: indica o tipo de acionamento como: Motor (MOT), Turbina a Gás (TG), Turbina a Gás Heavy-Duty (TGHD), Turbina a Vapor (TV) ou cogeração 
(COG).
Campo “Operação”: indica o tipo de operação como: Ciclo Aberto (ABT) ou Ciclo Combinado (CBN).
Campo “Combustível Principal”: indica o tipo de combustível principal.
Manual de Procedimentos da Operação - Módulo 5 - Submódulo 5.11
 Cadastro de Informações Operacionais Código Revisão Item Vigência
Cadastro de Dados Operacionais de Equipamentos da Área 500/230 KV Maranhão CD-CT.NE.5MA.01 78 2.1.3. 05/03/2024
Referência: 28 / 51
Campo “Combustível Secundário”: indica o tipo de combustível secundário, caso exista.
Campo “Dispositivos de Sincronismo” indica o disjuntor onde é efetuado o sincronismo da unidade geradora.
Caso os dados operacionais não sejam informados pelo Agente, os campos são preenchidos com “NI” – não informado.
Caso os dados operacionais não se apliquem, os campos são preenchidos com hifens “---”.
Campo “Configuração / Quantidade de UGs”: indica cada configuração operacional possível para a usina. Para cada configuração operacional informada, são 
fornecidas as informações referentes às demais colunas da tabela.
Campo “Potência (MW)”:
•Campo “Mín.”: indica a potência mínima da unidade geradora, em MW, utilizado no DESSEM.
•Campo “Máx.”: indicar a potência máxima da unidade geradora, em MW, utilizado no DESSEM.
Campo “Tempo mínimo (horas)”:
•Campo “Ton”: tempo mínimo, utilizado no DESSEM, que a usina deve permanecer em operação, inclui o tempo para atingir potência mínima (considerando 
partida fria) e tempo para desligamento a partir da potência mínima.
•Campo “Toff”: tempo mínimo, utilizado no DESSEM, que a usina tem que permanecer desligada.
Campo “Tempos (minutos)”:
•Campo “Sincronismo” – indica o tempo necessário entre a partida da configuração / quantidade de unidades geradoras em condições fria, morna e quente, 
até o sincronismo com o SIN.
•Campo “Potência Mínima” – indica o tempo necessário entre o sincronismo da configuração / quantidade de unidades geradoras em condições fria, morna 
e quente, até alcançar sua potência mínima.
•Campo “Potência Máxima” – indica o tempo necessário entre o sincronismo das configurações / quantidade de unidades geradoras em condições fria, 
morna e quente, até alcançar sua potência máxima.
•Campo “Desligamento” – indica o tempo necessário para o desligamento da unidade geradora a partir da potência mínima e máxima.
Caso os dados operacionais não sejam informados pelo Agente, os campos são preenchidos com “NI” – não informado.
Caso os dados operacionais não se apliquem, os campos são preenchidos com hifens “---”.
Manual de Procedimentos da Operação - Módulo 5 - Submódulo 5.11
 Cadastro de Informações Operacionais Código Revisão Item Vigência
Cadastro de Dados Operacionais de Equipamentos da Área 500/230 KV Maranhão CD-CT.NE.5MA.01 78 2.1.3. 05/03/2024
Referência: 29 / 51
5.1. UTE GERAMAR I (CEG: UTE.PE.MA.029705-4.01)
5.1.1. DADOS DAS UNIDADES GERADORAS DA UTE GERAMAR I
Tensão (kV) Potência Aparente 
(MVA) Potência Reativa (Mvar) Faixa de Operação (MW)
Unidade Geradora
Nom. Mín. Máx. Nom. FP Mín. Máx. Permitida Proibida Obs.
Todas as UGs (01 a 
19) 13,8 13,11 14,49 10,91 0,8 NI NI --- 0-6,97 ---
Detalhes da configuração da usina: 19 UGs com motores Wartsila 20V32 - 165,87 MW - 3 Blocos de 5 UGs (43,65 MW) e 1 bloco de 4 UGs (34,92 MW)
Unidade Geradora Acionamento Operação Combustível
Principal
Combustível
Secundário Dispositivos de Sincronismo
Todas as UGs Motor (MOT) Ciclo Aberto (ABT) OC1B especial NE NI
5.1.2. DADOS RELACIONADOS A CONFIGURAÇÕES DE OPERAÇÃO DA UTE GERAMAR I – COMBUSTÍVEL PRINCIPAL
Potência (MW)
Tempo 
Mínimo 
(minutos)
Tempos (minutos)
Sincronismo Potência Mínima Potência Máxima DesligamentoConfiguração / 
Quantidade de 
UGs 
Mín. Máx. Ton Toff
Fria
Morna
Quente
Fria
Morna
Quente
Fria
Morna
Quente
Potência 
Mín.
Potência 
Máx.
1 UG 6,98 8,73 5 0 5 NI 5 24 NI 24 30 NI 30 24 30
Manual de Procedimentos da Operação - Módulo 5 - Submódulo 5.11
 Cadastro de Informações Operacionais Código Revisão Item Vigência
Cadastro de Dados Operacionais de Equipamentos da Área 500/230 KV Maranhão CD-CT.NE.5MA.01 78 2.1.3. 05/03/2024
Referência: 30 / 51
Potência (MW)
Tempo 
Mínimo 
(minutos)
Tempos (minutos)
Sincronismo Potência Mínima Potência Máxima DesligamentoConfiguração / 
Quantidade de 
UGs 
Mín. Máx. Ton Toff
Fria
Morna
Quente
Fria
Morna
Quente
Fria
Morna
Quente
Potência 
Mín.
Potência 
Máx.
2 UG s 13,97 17,46 5 0 10 NI 10 24 NI 24 30 NI 30 26 32
3 UG s 20,95 26,19 5 0 15 NI 15 24 NI 24 30 NI 30 28 34
4 UG s 27,94 34,92 5 0 20 NI 20 24 NI 24 30 NI 30 30 36
5 UG s 34,92 43,65 5 0 25 NI 25 24 NI 24 30 NI 30 32 38
6 UG s 41,90 52,38 5 0 30 NI 30 24 NI 24 30 NI 30 34 40
7 UG s 48,89 61,11 5 0 35 NI 35 24 NI 24 30 NI 30 36 42
8 UG s 55,87 69,84 5 0 40 NI 40 24 NI 24 30 NI 30 38 44
9 UG s 62,86 78,57 5 0 45 NI 45 24 NI 24 30 NI 30 40 46
10 UG s 69,84 87,3 5 0 50 NI 50 24 NI 24 30 NI 30 42 48
11 UG s 76,82 96,03 5 0 55 NI 55 24 NI 24 30 NI 30 44 50
12 UG s 83,81 104,76 5 0 60 NI 60 24 NI 24 30 NI 30 46 52
13 UG s 90,79 113,49 5 0 65 NI 65 24 NI 24 30 NI 30 48 54
14 UG s 97,78 122,22 5 0 70 NI 70 24 NI 24 30 NI 30 50 56
Manual de Procedimentos da Operação - Módulo 5 - Submódulo 5.11
 Cadastro de Informações Operacionais Código Revisão Item Vigência
Cadastro de Dados Operacionais de Equipamentos da Área 500/230 KV Maranhão CD-CT.NE.5MA.01 78 2.1.3. 05/03/2024
Referência: 31 / 51
Potência (MW)
Tempo 
Mínimo 
(minutos)
Tempos (minutos)
Sincronismo Potência Mínima Potência Máxima DesligamentoConfiguração / 
Quantidade de 
UGs 
Mín. Máx. Ton Toff
Fria
Morna
Quente
Fria
Morna
Quente
Fria
Morna
Quente
Potência 
Mín.
Potência 
Máx.
15 UG s 104,76 130,95 5 0 75 NI 75 24 NI 24 30 NI 30 52 58
16 UG s 111,74 139,68 5 0 80 NI 80 24 NI 24 30 NI 30 54 60
17 UG s 118,73 148,41 5 0 85 NI 85 24 NI 24 30 NI 30 56 62
18 UG s 125,71 157,14 5 0 90 NI 90 24 NI 24 30 NI 30 58 64
19 UG s 132,70 165,87 5 0 95 NI 95 24 NI 24 30 NI 30 60 66
UG Equivalente 
1 8 43,6 5 0 25 NI 25 24 NI 24 30 NI 30 32 38
UG Equivalente 
2 8 43,65 5 0 25 NI 25 24 NI 24 30 NI 30 32 38
UG Equivalente 
3 8 43,65 5 0 25 NI 25 24 NI 24 30 NI 30 32 38
UG Equivalente 
4 8 34,9 5 0 20 NI 20 24 NI 24 30 NI 30 30 36
Tempo entre solicitação de geração pelo ONS e início do processo de sincronização (minutos):
Estado Frio -Despachada pelo ONS pode-se iniciar o processo de partida em até 3 dias, tempo necessário para elevar a temperatura do combustivel para valores 
Manual de Procedimentos da Operação - Módulo 5 - Submódulo 5.11
 Cadastro de Informações Operacionais Código Revisão Item Vigência
Cadastro de Dados Operacionais de Equipamentos da Área 500/230 KV Maranhão CD-CT.NE.5MA.01 78 2.1.3. 05/03/2024
Referência: 32 / 51
Potência (MW)
Tempo 
Mínimo 
(minutos)
Tempos (minutos)
Sincronismo Potência Mínima Potência Máxima DesligamentoConfiguração / 
Quantidade de 
UGs 
Mín. Máx. Ton Toff
Fria
Morna
Quente
Fria
Morna
Quente
Fria
Morna
Quente
Potência 
Mín.
Potência 
Máx.
operacionais.
Estado Quente-Despachada pelo ONS pode-se iniciar o processo de partida em até 3 horas, tempo necessário para elevar a temperatura do equipamentos 
auxiliares dos motores para valores operacionais.
Tempo decorrido após o desligamento da unidade geradora, considerado pelo agente como critério adotado para definir a condição de (minutos):
Partida fria: 3 dias Partida morna: NI Partida quente: 3 horas
Restrições para operação isolada de turbina a gás (ciclo aberto) em usinas de ciclo combinado: NA
Restrições relacionadas ao processo de cogeração: NA
Quanto à quantidade de partidas por ano: Não existem restrições técnicas para o motor, no entanto quanto maior a quantidade de partidas, maior depreciação e 
manutenção no gerador.
Outros tipos de restrições: 
Quando as UG´s trabalham na potência mínima o consumo específico do motor é maior, diminuindo a eficiência da Usina.
As informações têm como referência os procedimentos operacionais da usina que visam garantir a integridade e confiabilidade do fornecimento de energia.
Considerações: 
Estado Frio: A Usina está com todo o combustível e equipamentos auxiliares dos motores em temperatura ambiente, uma vez despachada pelo ONS pode-se 
Manual de Procedimentos da Operação - Módulo 5 - Submódulo 5.11
 Cadastro de Informações Operacionais Código Revisão Item Vigência
Cadastro de Dados Operacionais de Equipamentos da Área 500/230 KV Maranhão CD-CT.NE.5MA.01 78 2.1.3. 05/03/2024
Referência: 33 / 51
Potência (MW)
Tempo 
Mínimo 
(minutos)
Tempos (minutos)
Sincronismo Potência Mínima Potência Máxima DesligamentoConfiguração / 
Quantidade de 
UGs 
Mín. Máx. Ton Toff
Fria
Morna
Quente
Fria
Morna
Quente
Fria
Morna
Quente
Potência 
Mín.
Potência 
Máx.
iniciar o processo de partida em até 3 dias, tempo necessário para elevar a temperatura do combustivel para valores operacionais.  
Estado Quente: A Usina está com o combustível em temperatura de operação e os equipamentos auxiliares dos motores em temperatura ambiente, uma vez 
despachada pelo ONS pode-se iniciar o processo de partida  em até 3 horas, tempo necessário para elevar a temperatura do equipamentos auxiliares dos motores 
para valores operacionais.
Entende-se por " Início do processo de sincronização" como o tempo de partida do 1° motor.
Entende-se por "Tempo para sincronismo" o tempo entre a partida do 1o motor e o fechamento do disjuntor do último motor da configuração.
5.1.3. DADOS RELACIONADOS A CONFIGURAÇÕES DE OPERAÇÃO DA UTE GERAMAR I – COMBUSTÍVEL SECUNDÁRIO
Não se aplica.
Manual de Procedimentos da Operação - Módulo 5 - Submódulo 5.11
 Cadastro de Informações Operacionais Código Revisão Item Vigência
Cadastro de Dados Operacionais de Equipamentos da Área 500/230 KV Maranhão CD-CT.NE.5MA.01 78 2.1.3. 05/03/2024
Referência: 34 / 51
5.1.4. CURVA DE CAPABILIDADE DAS UNIDADES GERADORAS DA UTE GERAMAR I

Manual de Procedimentos da Operação - Módulo 5 - Submódulo 5.11
 Cadastro de Informações Operacionais Código Revisão Item Vigência
Cadastro de Dados Operacionais de Equipamentos da Área 500/230 KV Maranhão CD-CT.NE.5MA.01 78 2.1.3. 05/03/2024
Referência: 35 / 51
5.2. UTE GERAMAR II (CEG: UTE.PE.MA.029668-6.01)
5.2.1. DADOS DAS UNIDADES GERADORAS DA UTE GERAMAR II
Tensão (kV) Potência Aparente 
(MVA) Potência Reativa (Mvar) Faixa de Operação (MW)
Unidade Geradora
Nom. Mín. Máx. Nom. FP Mín. Máx. Permitida Proibida Obs.
Todas as UGs (01 a 19) 13,8 13,11 14,49 10,91 0,8 NI NI NI 0-6,97 ---
Detalhes da configuração da usina: 19 UGs com motores Wartsila 20V32 - 165,87 MW - 3 Blocos de 5 UGs (43,65 MW) e 1 bloco de 4 UGs (34,92 MW)
Unidade Geradora Acionamento Operação Combustível
Principal
Combustível
Secundário Dispositivos de Sincronização
Todas as UGs (01 a 19) Motor (MOT) Ciclo Aberto (ABT) OC1B especial NE NI
5.2.2. DADOS RELACIONADOS A CONFIGURAÇÕES DE OPERAÇÃO DA UTE GERAMAR II – COMBUSTÍVEL PRINCIPAL
Potência (MW)
Tempo 
Mínimo 
(horas)
Tempos (minutos)
Sincronismo Potência Mínima Potência Máxima DesligamentoConfiguração / 
Quantidade de 
UGs 
Mín. Máx. Ton Toff
Fria
Morna
Quente
Fria
Morna
Quente
Fria
Morna
Quente
Potência 
Mín.
Potência 
Máx.
1 UG 6,98 8,73 5 0 5 NI 5 24 NI 24 30 NI 30 24 30
Manual de Procedimentos da Operação - Módulo 5 - Submódulo 5.11
 Cadastro de Informações Operacionais Código Revisão Item Vigência
Cadastro de Dados Operacionais de Equipamentos da Área 500/230 KV Maranhão CD-CT.NE.5MA.01 78 2.1.3. 05/03/2024
Referência: 36 / 51
Potência (MW)
Tempo 
Mínimo 
(horas)
Tempos (minutos)
Sincronismo Potência Mínima Potência Máxima DesligamentoConfiguração / 
Quantidade de 
UGs 
Mín. Máx. Ton Toff
Fria
Morna
Quente
Fria
Morna
Quente
Fria
Morna
Quente
Potência 
Mín.
Potência 
Máx.
2 UG s 13,97 17,46 5 0 10 NI 10 24 NI 24 30 NI 30 26 32
3 UG s 20,95 26,19 5 0 15 NI 15 24 NI 24 30 NI 30 28 34
4 UG s 27,94 34,92 5 0 20 NI 20 24 NI 24 30 NI 30 30 36
5 UG s 34,92 43,65 5 0 25 NI 25 24 NI 24 30 NI 30 32 38
6 UG s 41,90 52,38 5 0 30 NI 30 24 NI 24 30 NI 30 34 40
7 UG s 48,89 61,11 5 0 35 NI 35 24 NI 24 30 NI 30 36 42
8 UG s 55,87 69,84 5 0 40 NI 40 24 NI 24 30 NI 30 38 44
9 UG s 62,86 78,57 5 0 45 NI 45 24 NI 24 30 NI 30 40 46
10 UG s 69,84 87,3 5 0 50 NI 50 24 NI 24 30 NI 30 42 48
11 UG s 76,82 96,03 5 0 55 NI 55 24 NI 24 30 NI 30 44 50
12 UG s 83,81 104,76 5 0 60 NI 60 24 NI 24 30 NI 30 46 52
13 UG s 90,79 113,49 5 0 65 NI 65 24 NI 24 30 NI 30 48 54
14 UG s 97,78 122,22 5 0 70 NI 70 24 NI 24 30 NI 30 50 56
Manual de Procedimentos da Operação - Módulo 5 - Submódulo 5.11
 Cadastro de Informações Operacionais Código Revisão Item Vigência
Cadastro de Dados Operacionais de Equipamentos da Área 500/230 KV Maranhão CD-CT.NE.5MA.01 78 2.1.3. 05/03/2024
Referência: 37 / 51
Potência (MW)
Tempo 
Mínimo 
(horas)
Tempos (minutos)
Sincronismo Potência Mínima Potência Máxima DesligamentoConfiguração / 
Quantidade de 
UGs 
Mín. Máx. Ton Toff
Fria
Morna
Quente
Fria
Morna
Quente
Fria
Morna
Quente
Potência 
Mín.
Potência 
Máx.
15 UG s 104,76 130,95 5 0 75 NI 75 24 NI 24 30 NI 30 52 58
16 UG s 111,74 139,68 5 0 80 NI 80 24 NI 24 30 NI 30 54 60
17 UG s 118,73 148,41 5 0 85 NI 85 24 NI 24 30 NI 30 56 62
18 UG s 125,71 157,14 5 0 90 NI 90 24 NI 24 30 NI 30 58 64
19 UG s 132,70 165,87 5 0 95 NI 95 24 NI 24 30 NI 30 60 66
UG Equivalente 
1 8 43,6 5 0 25 NI 25 24 NI 24 30 NI 30 32 38
UG Equivalente 
2
8 34,9 5 0 20 NI 25 24 NI 24 30 NI 30 32 38
UG Equivalente 
3
8 43,6 5 0 25 NI 25 24 NI 24 30 NI 30 32 38
UG Equivalente 
4
8 43,6 5 0 25 NI 20 24 NI 24 30 NI 30 30 36
Tempo entre solicitação de geração pelo ONS e início do processo de sincronização (minutos): 
Estado Frio -Despachada pelo ONS pode-se iniciar o processo de partida em até 3 dias, tempo necessário para elevar a temperatura do combustível para valores 
Manual de Procedimentos da Operação - Módulo 5 - Submódulo 5.11
 Cadastro de Informações Operacionais Código Revisão Item Vigência
Cadastro de Dados Operacionais de Equipamentos da Área 500/230 KV Maranhão CD-CT.NE.5MA.01 78 2.1.3. 05/03/2024
Referência: 38 / 51
Potência (MW)
Tempo 
Mínimo 
(horas)
Tempos (minutos)
Sincronismo Potência Mínima Potência Máxima DesligamentoConfiguração / 
Quantidade de 
UGs 
Mín. Máx. Ton Toff
Fria
Morna
Quente
Fria
Morna
Quente
Fria
Morna
Quente
Potência 
Mín.
Potência 
Máx.
operacionais.
Estado Quente-Despachada pelo ONS pode-se iniciar o processo de partida em até 3 horas, tempo necessário para elevar a temperatura do equipamentos 
auxiliares dos motores para valores operacionais.
Tempo decorrido após o desligamento da unidade geradora, considerado pelo agente como critério adotado para definir a condição de (minutos):
Partida fria: 3 dias Partida morna: NI Partida quente: 3 horas
Restrições para operação isolada de turbina a gás (ciclo aberto) em usinas de ciclo combinado: NA
Restrições relacionadas ao processo de cogeração: NA
Quanto à quantidade de partidas por ano: Não existem restrições técnicas para o motor, no entanto quanto maior a quantidade de partidas, maior depreciação e 
manutenção no gerador.
Outros tipos de restrições: 
Quando as UG´s trabalham na potência mínima o consumo específico do motor é maior, diminuindo a eficiência da Usina.
As informações têm como referência os procedimentos operacionais da usina que visam garantir a integridade e confiabilidade do fornecimento de energia.
Considerações: 
Estado Frio: A Usina está com todo o combustível e equipamentos auxiliares dos motores em temperatura ambiente, uma vez despachada pelo ONS pode-se 
Manual de Procedimentos da Operação - Módulo 5 - Submódulo 5.11
 Cadastro de Informações Operacionais Código Revisão Item Vigência
Cadastro de Dados Operacionais de Equipamentos da Área 500/230 KV Maranhão CD-CT.NE.5MA.01 78 2.1.3. 05/03/2024
Referência: 39 / 51
Potência (MW)
Tempo 
Mínimo 
(horas)
Tempos (minutos)
Sincronismo Potência Mínima Potência Máxima DesligamentoConfiguração / 
Quantidade de 
UGs 
Mín. Máx. Ton Toff
Fria
Morna
Quente
Fria
Morna
Quente
Fria
Morna
Quente
Potência 
Mín.
Potência 
Máx.
iniciar o processo de partida em até 3 dias, tempo necessário para elevar a temperatura do combustivel para valores operacionais.  
Estado Quente: A Usina está com o combustível em temperatura de operação e os equipamentos auxiliares dos motores em temperatura ambiente, uma vez 
despachada pelo ONS pode-se iniciar o processo de partida  em até 3 horas, tempo necessário para elevar a temperatura do equipamentos auxiliares dos motores 
para valores operacionais.
Entende-se por " Início do processo de sincronização" como o tempo de partida do 1° motor.
Entende-se por "Tempo para sincronismo" o tempo entre a partida do 1o motor e o fechamento do disjuntor do último motor da configuração.
Configuração: 19 UGs com motores Wartsila 20V32 - 165,87 MW - 3 Blocos de 5 UGs (43.650 MW) e 1 bloco de 4 UGs (34.920 MW)
5.2.3. DADOS RELACIONADOS A CONFIGURAÇÕES DE OPERAÇÃO DA UTE GERAMAR II – COMBUSTÍVEL SECUNDÁRIO
Não se aplica.
Manual de Procedimentos da Operação - Módulo 5 - Submódulo 5.11
 Cadastro de Informações Operacionais Código Revisão Item Vigência
Cadastro de Dados Operacionais de Equipamentos da Área 500/230 KV Maranhão CD-CT.NE.5MA.01 78 2.1.3. 05/03/2024
Referência: 40 / 51
5.2.4. CURVA DE CAPABILIDADE DAS UNIDADES GERADORAS DA UTE GERAMAR II

Manual de Procedimentos da Operação - Módulo 5 - Submódulo 5.11
 Cadastro de Informações Operacionais Código Revisão Item Vigência
Cadastro de Dados Operacionais de Equipamentos da Área 500/230 KV Maranhão CD-CT.NE.5MA.01 78 2.1.3. 05/03/2024
Referência: 41 / 51
5.3. UTE PORTO DO ITAQUI (CEG: UTE.CM.MA.029700-3.01)
5.3.1. DADOS DAS UNIDADES GERADORAS DA UTE PORTO DO ITAQUI
Tensão (kV) Potência (MVA) Potência Reativa (Mvar) Faixa de Operação (MW)
Unidade Geradora
Nom. Mín. Máx. Nom. FP Mín. Máx. Permitida Proibida Obs.
UG 1 19 18,05 19,95 435 0,85 (1) (1) 300-360 0-300 ---
(1) Ver curva da capabilidade
Detalhes da configuração da usina: NI
Unidade Geradora Acionamento Operação Combustível
Principal
Combustível
Secundário Dispositivos de Sincronização
UG1 Turbina a 
vapor (TV) Ciclo Aberto (ABT) Carvão mineral NE (*) NI
(*) Utilização de diesel somente para partida da caldeira, até a operação de pelo menos dois moinhos a carvão (aprox. 200MW), equivalente a um consumo de 
aprox. 176 m3 (176.000 litros) para uma partida a frio. Os custos relacionados ao diesel utilizado nas partidas da UG não são remunerados no CVU do 
empreendimento.
Manual de Procedimentos da Operação - Módulo 5 - Submódulo 5.11
 Cadastro de Informações Operacionais Código Revisão Item Vigência
Cadastro de Dados Operacionais de Equipamentos da Área 500/230 KV Maranhão CD-CT.NE.5MA.01 78 2.1.3. 05/03/2024
Referência: 42 / 51
5.3.2. DADOS RELACIONADOS A CONFIGURAÇÕES DE OPERAÇÃO DA UTE PORTO DO ITAQUI – COMBUSTÍVEL PRINCIPAL
Potência (MW)
Tempo 
Mínimo 
(horas)
Tempos (minutos)
Sincronismo Potência Mínima Potência Máxima DesligamentoConfiguração / 
Quantidade de 
UGs 
Mín. Máx. Ton Toff
Fria
Morna
Quente
Fria
Morna
Quente
Fria
Morna
Quente
Potência 
Mín.
Potência 
Máx.
UG 1 240 360 168 48 600 540 300 240 240 240 300 300 300 240 300
Tempo entre solicitação de geração pelo ONS e início do processo de sincronização (minutos):
Caldeira em estado de conservação completa: 24 horas
Caldeira em estado de conservação parcial: 12 horas
Grupo gerador na condição fria: 3 horas
Grupo gerador na condição morna ou quente: 2 horas
Tempo decorrido após o desligamento da unidade geradora, considerado pelo agente como critério adotado para definir a condição de (minutos):
Partida fria: t > 48 horas de parada da unidade 
geradora
Partida morna: 8 horas < t < 48 horas de parada da 
unidade geradora
Partida quente: t < 8 horas de parada da unidade 
geradora
Restrições para operação isolada de turbina a gás (ciclo aberto) em usinas de ciclo combinado: NA
Restrições relacionadas ao processo de cogeração: NA
Quanto à quantidade de partidas por ano:
De modo a evitar-se a fadiga térmica dos equipamentos, deve ser atendido o número mínimo de horas de operação. Adicionalmente, em função do desgaste 
Manual de Procedimentos da Operação - Módulo 5 - Submódulo 5.11
 Cadastro de Informações Operacionais Código Revisão Item Vigência
Cadastro de Dados Operacionais de Equipamentos da Área 500/230 KV Maranhão CD-CT.NE.5MA.01 78 2.1.3. 05/03/2024
Referência: 43 / 51
Potência (MW)
Tempo 
Mínimo 
(horas)
Tempos (minutos)
Sincronismo Potência Mínima Potência Máxima DesligamentoConfiguração / 
Quantidade de 
UGs 
Mín. Máx. Ton Toff
Fria
Morna
Quente
Fria
Morna
Quente
Fria
Morna
Quente
Potência 
Mín.
Potência 
Máx.
excessivo dos equipamentos, associado ao número de partidas da UG, é extremamente importante minimizar tanto quanto possível o número de partidas por 
ano, visando evitar uma possível redução na confiabilidade do atendimento ao despacho do ONS. Não devem ser programados ciclos diários de paradas e partidas.
Outros tipos de restrições:
•Restrições para operação de turbina a vapor com combustível carvão mineral: 
O tempo mínimo de operação após o sincronismo da UG, considerando a análise de fadiga térmica dos equipamentos, é de 8,4 dias ou 12.096 minutos. Porém, 
tendo em vista que o despacho por ordem de mérito de custo tem periodicidade semanal, o empreendimento pode eventualmente assumir o ônus de considerar 
um tempo minimo de operação igual a 7 dias (10.080 minutos);
A parada do grupo deverá ser planejada de forma a se esvaziar os silos de carvão. Para cada grupo temos 04 silos de 350 ton. Estima-se que o tempo necessário 
para o esvaziamento completo dos silos de carvão, considerando um despacho anterior em base load, seja de até 15h.
•Periodo para o início da conservação da caldeira:
t > 60 dias de parada da unidade geradora: conservação completa.
t >15 dias de parada da unidade geradora: conservação parcial.
•Rampas de redução e elevação de geração:
As rampas de geração devem ser programadas segundo os valores fornecidos pelo Agente, e de modo a reduzir e elevar a geração de maneira contínua, sem 
mantê-la em patamares intermediários entre o mínimo e o máximo;
Manual de Procedimentos da Operação - Módulo 5 - Submódulo 5.11
 Cadastro de Informações Operacionais Código Revisão Item Vigência
Cadastro de Dados Operacionais de Equipamentos da Área 500/230 KV Maranhão CD-CT.NE.5MA.01 78 2.1.3. 05/03/2024
Referência: 44 / 51
Potência (MW)
Tempo 
Mínimo 
(horas)
Tempos (minutos)
Sincronismo Potência Mínima Potência Máxima DesligamentoConfiguração / 
Quantidade de 
UGs 
Mín. Máx. Ton Toff
Fria
Morna
Quente
Fria
Morna
Quente
Fria
Morna
Quente
Potência 
Mín.
Potência 
Máx.
A unidade geradora só pode operar abaixo de 240 MW em processos de partida e parada.
•Permanência da geração nos patamares mínimo e máximo:
Uma vez reduzida a geração da usina, por solicitação do ONS, esta deve permanecer neste valor mínimo por, ao menos, 3 horas. Da mesma forma, uma vez 
maximizada a geração da usina, por solicitação do ONS, esta deve permanecer no máximo por, ao menos, 3 horas.
5.3.3. DADOS RELACIONADOS A CONFIGURAÇÕES DE OPERAÇÃO DA UTE PORTO DO ITAQUI – COMBUSTÍVEL SECUNDÁRIO
Não se aplica.
Manual de Procedimentos da Operação - Módulo 5 - Submódulo 5.11
 Cadastro de Informações Operacionais Código Revisão Item Vigência
Cadastro de Dados Operacionais de Equipamentos da Área 500/230 KV Maranhão CD-CT.NE.5MA.01 78 2.1.3. 05/03/2024
Referência: 45 / 51
5.3.4. CURVA DE CAPABILIDADE DAS UNIDADES GERADORAS DA UTE PORTO DO ITAQUI

Manual de Procedimentos da Operação - Módulo 5 - Submódulo 5.11
 Cadastro de Informações Operacionais Código Revisão Item Vigência
Cadastro de Dados Operacionais de Equipamentos da 
Área 500/230 KV Maranhão CD-CT.NE.5MA.01 78 2.1.3. 05/03/2024
Referência: 46 / 51
6. DADOS OPERACIONAIS DE COMPENSADORES SÍNCRONOS
Orientações sobre os dados operacionais de compensadores:
•Campo “Identificação Operacional”: consta o código identificador do compensador, conforme 
diagrama unifilar do agente.
•Campo “Tensão Nominal (kV)”: indica a tensão nominal do compensador.
•Campo “Potência Nominal (Mvar)”: indica a potência reativa mínima e máxima, em Mvar, do 
compensador, podendo ser referenciada a sua curva de capabilidade.
•Campo “Barramento para Controle de Tensão”: indica o barramento de referência de tensão para 
o compensador.
•Campo “Tempo de Partida”: indica o tempo de partida do compensador, em minutos.
•Campo “Tempo de Resfriamento”: indica o tempo de resfriamento do compensador, em minutos.
•Campo “Tempo de Parada”: indica o tempo de parada do compensador sem freio e com freio, em 
minutos.
•Campo “Tempo de Parada com freio”: indica o tempo de parada do compensador, em minutos, 
considerando o uso de freios elétricos e mecânicos.
•Campo “Tempo de Parada sem freio”: indica o tempo de parada do compensador, em minutos, 
considerando a ausência de freios elétricos e mecânicos.
•Campo “Tempo para energização após desligamento”: é o tempo entre abertura dos disjuntores 
desconectando esse equipamento do sistema e o fechamento dos disjuntores reconectando o 
equipamento no sistema.
•Campo “Notas / Restrições”: campo opcional que indica informações relevantes a respeito do 
compensador.
Caso os dados operacionais não sejam informados pelo Agente, os campos são preenchidos com “NI” – não 
informado.
Caso os dados operacionais não se apliquem, os campos são preenchidos com hifens “---”.
6.1. SE IMPERATRIZ – COMPENSADORES SÍNCRONOS IZCS2-01 OU 02 (- 70 / +100 MVAR)
Tempo de Parada 
(min)Identificação 
Operacional
Tensão 
Nominal 
(kV)
Potência 
Nominal 
(Mvar)
Barramento 
Para Controle 
de Tensão Sem 
Freio
Com 
Freio
Tempo 
de 
partida 
(min)
Tempo para 
energização 
após 
desligamento 
(min)
IZCS2-01 ou 
02 13,8 - 70 / +100 230 kV 180 5 NI 9
Notas / Restrições: NI
Manual de Procedimentos da Operação - Módulo 5 - Submódulo 5.11
 Cadastro de Informações Operacionais Código Revisão Item Vigência
Cadastro de Dados Operacionais de Equipamentos da 
Área 500/230 KV Maranhão CD-CT.NE.5MA.01 78 2.1.3. 05/03/2024
Referência: 47 / 51
6.2. SE IMPERATRIZ – COMPENSADOR SÍNCRONO IZCS2-03 (- 70 / +100 MVAR)
Tempo de Parada 
(min)Identificação 
Operacional
Tensão 
Nominal 
(kV)
Potência 
Nominal 
(Mvar)
Barramento 
Para Controle 
de Tensão Sem 
Freio
Com 
Freio
Tempo 
de 
partida 
(min)
Tempo para 
energização 
após 
desligamento 
(min)
IZCS2-03 13,8 - 70 / +100 230 kV 180 8 NI 12
Notas / Restrições: NI
6.3. SE PRESIDENTE DUTRA – COMPENSADORES SÍNCRONOS PDCS2-01 OU 02 (- 70 / +100 MVAR)
Tempo de Parada 
(min)Identificação 
Operacional
Tensão 
Nominal 
(kV)
Potência 
Nominal 
(Mvar)
Barramento 
Para Controle 
de Tensão Sem 
Freio
Com 
Freio
Tempo 
de 
partida 
(min)
Tempo para 
energização 
após 
desligamento 
(min)
PDCS2-01 
ou 02 13,8 - 70 / +100 230 kV 180 8 NI 12
Notas / Restrições: NI
7. DADOS OPERACIONAIS DE COMPENSADORES ESTÁTICOS
Orientações sobre os dados operacionais de compensadores:
•Campo “Identificação Operacional”: consta o código identificador do compensador, conforme 
diagrama unifilar do agente.
•Campo “Tensão Nominal (kV)”: indica a tensão nominal do compensador.
•Campo “Potência Nominal (Mvar)”: indica a potência reativa mínima e máxima, em Mvar, do 
compensador, podendo ser referenciada a sua curva de capabilidade.
•Campo “Barramento para Controle de Tensão”: indica o barramento de referência de tensão para 
o compensador.
•Campo “Tempo de Resfriamento”: indica o tempo de resfriamento do compensador, em minutos.
•Campo “Tempo para energização após desligamento”: é o tempo entre abertura dos disjuntores 
desconectando esse equipamento do sistema e o fechamento dos disjuntores reconectando o 
equipamento no sistema.
•Campo “Notas / Restrições”: campo opcional que indica informações relevantes a respeito do 
compensador.
Caso os dados operacionais não sejam informados pelo Agente, os campos são preenchidos com “NI” – não 
informado.
Caso os dados operacionais não se apliquem, os campos são preenchidos com hifens “---”.
Manual de Procedimentos da Operação - Módulo 5 - Submódulo 5.11
 Cadastro de Informações Operacionais Código Revisão Item Vigência
Cadastro de Dados Operacionais de Equipamentos da 
Área 500/230 KV Maranhão CD-CT.NE.5MA.01 78 2.1.3. 05/03/2024
Referência: 48 / 51
7.1. SE SÃO LUÍS II – COMPENSADOR ESTÁTICO LDCE2-01 (-100 / + 150 MVAR)
Identificação 
Operacional
Tensão 
Nominal (kV)
Potência 
Nominal 
(Mvar)
Barramento 
para 
Controle de 
Tensão
Tempo de 
Resfriamento 
(min)
Tempo para 
energização 
após 
desligamento 
(min)
LDCE2-01 18,3 - 100 / + 150 230 kV NI 9
Notas / Restrições: NI
Modos de Operação em função de disponibilidade dos elementos
Modos
TCR 
LDRT2-
01/02 ( - 
160 
Mvar)
TSC 
LDCT2-01 
(+86 
Mvar)
Filtro de 
5ª 
harmônica 
LDFH2-01 
(+56 
Mvar)
Filtro de 
7ª 
harmônica 
LDFH2-02 
(+56 
Mvar)
TCR 
LDRT2-
03/04 ( - 
135 
Mvar)
TSC 
LDCT2-02 
(+143 
Mvar)
Filtro de 
5ª 
harmônica 
LDFH2-03 
(+24 
Mvar)
Faixa de 
Operação 
(Mvar)
Normal Ligado Ligado Ligado Ligado Ligado Ligado Ligado - 100 / + 
150
1 - 
Degradado Ligado Desligado Ligado Ligado Ligado Ligado Ligado
-100 / + 56 
e -100 / 
+150
2 - 
Degradado Ligado Ligado Ligado Ligado Ligado Desligado Ligado
-100 / + 
150 e -100 
/ + 56
3 - 
Degradado Ligado Desligado Ligado Ligado Ligado Desligado Ligado
-100 / + 56 
e -100 / + 
56
4 - 
Degradado Desligado Desligado Desligado Desligado Ligado Ligado Ligado -100 / + 
150
5 - 
Degradado Desligado Desligado Desligado Desligado Ligado Desligado Ligado -100 / + 56
6 - 
Degradado Ligado Ligado Ligado Ligado Desligado Desligado Desligado -100 / + 
150
7 - 
Degradado Ligado Desligado Ligado Ligado Desligado Desligado Desligado -100 / + 56
8 - 
Degradado Desligado Ligado Desligado Desligado Desligado Desligado Desligado 0 / + 86
Nota: Os modos degradados 1, 2 e 3 são para a operação paralela do CE-1 com o CE-2 com, pelo menos, um 
deles degradado. Nos demais modos, apenas um CE está em operação.
Manual de Procedimentos da Operação - Módulo 5 - Submódulo 5.11
 Cadastro de Informações Operacionais Código Revisão Item Vigência
Cadastro de Dados Operacionais de Equipamentos da 
Área 500/230 KV Maranhão CD-CT.NE.5MA.01 78 2.1.3. 05/03/2024
Referência: 49 / 51
7.2. SE SÃO LUÍS II – COMPENSADOR ESTÁTICO LDCE2-02 (-100 / + 150 MVAR)
Identificação 
Operacional
Tensão 
Nominal (kV)
Potência 
Nominal 
(Mvar)
Barramento 
para 
Controle de 
Tensão
Tempo de 
Resfriamento 
(min)
Tempo para 
energização 
após 
desligamento 
(min)
LDCE2-02 18,3 - 100 / + 150 230 kV NI 12
Notas / Restrições: NI
Modos de Operação em função de disponibilidade dos elementos
Modos
TCR 
LDRT2-
01/02 ( - 
160 
Mvar)
TSC 
LDCT2-01 
(+86 
Mvar)
Filtro de 
5ª 
harmônica 
LDFH2-01 
(+56 
Mvar)
Filtro de 
7ª 
harmônica 
LDFH2-02 
(+56 
Mvar)
TCR 
LDRT2-
03/04 ( - 
135 
Mvar)
TSC 
LDCT2-02 
(+143 
Mvar)
Filtro de 
5ª 
harmônica 
LDFH2-03 
(+24 
Mvar)
Faixa de 
Operação
Normal Ligado Ligado Ligado Ligado Ligado Ligado Ligado - 100 / + 
150
1 - 
Degradado Ligado Desligado Ligado Ligado Ligado Ligado Ligado
-100 / + 56 
e -100 / 
+150
2 - 
Degradado Ligado Ligado Ligado Ligado Ligado Desligado Ligado
-100 / + 
150 e -100 
/ + 56
3 - 
Degradado Ligado Desligado Ligado Ligado Ligado Desligado Ligado
-100 / + 56 
e -100 / + 
56
4 - 
Degradado Desligado Desligado Desligado Desligado Ligado Ligado Ligado -100 / + 
150
5 - 
Degradado Desligado Desligado Desligado Desligado Ligado Desligado Ligado -100 / + 56
6 - 
Degradado Ligado Ligado Ligado Ligado Desligado Desligado Desligado -100 / + 
150
7 - 
Degradado Ligado Desligado Ligado Ligado Desligado Desligado Desligado -100 / + 56
8 - 
Degradado Desligado Ligado Desligado Desligado Desligado Desligado Desligado 0 / + 86
Nota: Os modos degradados 1, 2 e 3 são para a operação paralela do CE-1 com o CE-2 com, pelo menos, um 
deles degradado. Nos demais modos, apenas um CE está em operação.
Manual de Procedimentos da Operação - Módulo 5 - Submódulo 5.11
 Cadastro de Informações Operacionais Código Revisão Item Vigência
Cadastro de Dados Operacionais de Equipamentos da 
Área 500/230 KV Maranhão CD-CT.NE.5MA.01 78 2.1.3. 05/03/2024
Referência: 50 / 51
8. DADOS OPERACIONAIS DE BANCOS DE CAPACITORES
Orientações sobre os dados operacionais de bancos de capacitores:
•Campo “Identificação Operacional”: identificação dos bancos de capacitores, conforme diagrama 
unifilar do agente.
•Campo “Tensão Nominal (kV)”: indica a tensão nominal dos bancos de capacitores.
•Campo “Potência Nominal (Mvar)”: indica a potência nominal dos bancos de capacitores.
•Campo “Tempo para energização após desligamento”: é o tempo entre abertura dos disjuntores 
desconectando esse equipamento do sistema e o fechamento dos disjuntores reconectando o 
equipamento no sistema.
•Campo “Notas / Restrições”: campo opcional que indica informações relevantes a respeito dos 
bancos de capacitores.
Caso os dados operacionais não sejam informados pelo Agente, os campos são preenchidos com “NI” – não 
informado.
Caso os dados operacionais não se apliquem, os campos são preenchidos com hifens “---”.
8.1. SE MIRANDA II – BANCOS DE CAPACITORES MRBC6-01 OU 02 230 KV / 20 MVAR
Identificação 
Operacional Tensão Nominal (kV) Potência Nominal 
(Mvar)
Tempo para 
Energização após 
Desligamento
MRBC6-01 ou 02 230 20 10 minutos
Notas / Restrições: NI
8.2. SE PERITORÓ – BANCO DE CAPACITORES PRBC6-01 230 KV / 20 MVAR
Identificação 
Operacional Tensão Nominal (kV) Potência Nominal 
(Mvar)
Tempo para 
Energização após 
Desligamento
PRBC6-01 230 20 10 minutos
Notas / Restrições: NI
8.3. SE SÃO LUÍS II – BANCO DE CAPACITORES LDBC6-01 230 KV / 50,8 MVAR
Identificação 
Operacional Tensão Nominal (kV) Potência Nominal 
(Mvar)
Tempo para 
Energização após 
Desligamento
LDBC6-01 230 50,8 10 minutos
Notas / Restrições: NI
8.4. SE SÃO LUÍS II – BANCO DE CAPACITORES LDBC6-02 230 KV / 61,1 MVAR
Identificação 
Operacional Tensão Nominal (kV) Potência Nominal 
(Mvar)
Tempo para 
Energização após 
Desligamento
LDBC6-02 230 61,1 10 minutos
Manual de Procedimentos da Operação - Módulo 5 - Submódulo 5.11
 Cadastro de Informações Operacionais Código Revisão Item Vigência
Cadastro de Dados Operacionais de Equipamentos da 
Área 500/230 KV Maranhão CD-CT.NE.5MA.01 78 2.1.3. 05/03/2024
Referência: 51 / 51
Identificação 
Operacional Tensão Nominal (kV) Potência Nominal 
(Mvar)
Tempo para 
Energização após 
Desligamento
Notas / Restrições: NI
8.5. SE SÃO LUÍS II – BANCO DE CAPACITORES LDBC6-03 230 KV / 55,5 MVAR
Identificação 
Operacional Tensão Nominal (kV) Potência Nominal 
(Mvar)
Tempo para 
Energização após 
Desligamento
LDBC6-03 230 55,5 10 minutos
Notas / Restrições: NI
8.6. SE SÃO LUÍS II – BANCO DE CAPACITORES LDBC6-04 230 KV / 55,5 MVAR
Identificação 
Operacional Tensão Nominal (kV) Potência Nominal 
(Mvar)
Tempo para 
Energização após 
Desligamento
LDBC6-04 230 55,5 10 minutos
Notas / Restrições: NI
