 
Manual de Procedimentos da Operação 
Módulo 5 - Submódulo 5.11 
 
Cadastro de Informações Operacionais 
Cadastro de Dados Operacionais de Equipamentos da área 230 kV Acre-Rondônia 
 
 
Código Revisão Item Vigência 
CD-CT.N.ACRO.01 64 2.1.4. 29/08/2024 
 
. 
 
MOTIVO DA REVISÃO 
• Inclusão dos Transformadores JRTF6-02 e 03 230/69/13,8 KV - 30 MVA da SE Jaru no item 4.6. 
LISTA DE DISTRIBUIÇÃO 
CNOS COSR-NCO Argo Celeo Redes 
EDP Eletronorte Energisa-Acre Energisa-Rondônia 
Eletrogoes Jauru Transmissora de 
Energia (JTE) 
SAESA  
(Santo Antônio) 
Termonorte 
 
Manual de Procedimentos da Operação - Módulo 5 - Submódulo 5.11 
Cadastro de Informações Operacionais Código Revisão Item Vigência 
Cadastro de Dados Operacionais de Equipamentos da 
área 230 kV Acre-Rondônia CD-CT.N.ACRO.01 64 2.1.4. 29/08/2024 
 
Referência: 2 / 52 
 
ÍNDICE 
1. OBJETIVO ................................ ................................ ................................ ................................ ..... 5 
2. CONSIDERAÇÕES GERAIS ................................ ................................ ................................ .............. 5 
3. DADOS OPERACIONAIS DE LINHAS DE TRANSMISSÃO ................................ ................................ .... 5 
3.1. LT 230 kV Abunã / Rio Branco I C1 ................................................................................................ 6 
3.2. LT 230 kV Abunã / Rio Branco I C3 ................................................................................................ 6 
3.3. LT 230 kV Abunã / Tucumã ............................................................................................................ 7 
3.4. LT 230 kV Ariquemes / Jaru ........................................................................................................... 8 
3.5. LT 230 kV Ariquemes / Ji Paraná C2 .............................................................................................. 8 
3.6. LT 230 kV Ariquemes / Ji-Paraná C3 .............................................................................................. 9 
3.7. LT 230 kV Ariquemes / Ji-Paraná C4 .............................................................................................. 9 
3.8. LT 230 kV Coletora Porto Velho / Porto Velho C1 ou C2 ............................................................. 10 
3.9. LT 230 kV Feijó / Rio Branco I ...................................................................................................... 10 
3.10. LT 230 kV Jaru / Ji Paraná ............................................................................................................ 10 
3.11. LT 230 kV Jauru / Vilhena C1 ....................................................................................................... 11 
3.12. LT 230 kV Jauru / Vilhena C2 ....................................................................................................... 12 
3.13. LT 230 kV Jauru / Vilhena C3 ....................................................................................................... 12 
3.14. LT 230 kV Ji-Paraná / Pimenta Bueno C1 ..................................................................................... 13 
3.15. LT 230 kV Ji-Paraná / Pimenta Bueno C2 ..................................................................................... 13 
3.16. LT 230 kV Ji-Paraná / Pimenta Bueno C3 ..................................................................................... 14 
3.17. LT 230 kV Pimenta Bueno / Vilhena C1 ....................................................................................... 14 
3.18. LT 230 kV Pimenta Bueno / Vilhena C2 ....................................................................................... 15 
3.19. LT 230 kV Pimenta Bueno / Vilhena C3 ....................................................................................... 15 
3.20. LT 230 kV Porto Velho / Abunã C1 .............................................................................................. 16 
3.21. LT 230 kV Porto Velho / Abunã C2 .............................................................................................. 16 
3.22. LT 230 kV Porto Velho / Termonorte II ........................................................................................ 17 
3.23. LT 230 kV Rio Branco I / Tucumã ................................................................................................. 17 
3.24. LT 230 kV Samuel / Porto Velho C1 ou C2 ................................................................................... 18 
3.25. LT 230 kV Samuel / Porto Velho C3 ............................................................................................. 18 
3.26. LT 230 kV Santo Antonio / Porto Velho C1 ou C2 ........................................................................ 19 
3.27. LT 230 kV Samuel / Ariquemes C1 ............................................................................................... 19 
3.28. LT 230 kV Samuel / Ariquemes C2 ............................................................................................... 20 
3.29. LT 230 kV Samuel / Ariquemes C3 ............................................................................................... 20 
3.30. LT 230 kV Samuel / Ariquemes C4 ............................................................................................... 21 
4. DADOS OPERACIONAIS DE TRANSFORMADORES ................................ ................................ ......... 21 
Manual de Procedimentos da Operação - Módulo 5 - Submódulo 5.11 
Cadastro de Informações Operacionais Código Revisão Item Vigência 
Cadastro de Dados Operacionais de Equipamentos da 
área 230 kV Acre-Rondônia CD-CT.N.ACRO.01 64 2.1.4. 29/08/2024 
 
Referência: 3 / 52 
 
4.1. SE Abunã - Autotransformador ANAT6-01 ou 02 230/138/13,8 kV - 55 MVA ............................ 22 
4.2. SE Ariquemes - Transformador AQTF6-01 ou 02 230/69/13,8 kV - 60 MVA .............................. 22 
4.3. SE Ariquemes - Transformador AQTF6-03 230/69/13,8 kV - 60 MVA ........................................ 22 
4.4. SE Coletora Porto Velho - Transformador TF-14 ou TF-15 230/69/13,8 kV - 100 MVA .............. 22 
4.5. SE Feijó - Transformador FJTR2-1 ou 2 230/69/13,8 KV - 20 MVA ............................................. 23 
4.6. SE Jaru - Transformador JRTF6-01 ou 02 ou 03 230/69/13,8 kV - 30 MVA ................................. 23 
4.7. SE Jaru - Autotransformador JRAT6-01 230/138/13,8 kV - 50 MVA ........................................... 23 
4.8. SE Ji-Paraná - Transformador JPTF6-01 ou 02 ou 03 230/69/13,8 kV - 60 MVA ......................... 23 
4.9. SE Ji-Paraná - Autotransformador JPAT6-01 ou 02 230/138/13,8 kV - 100 MVA ....................... 24 
4.10. SE Pimenta Bueno - Autotransformador PBAT6-01 ou 02 230/138/13,8 kV - 55 MVA .............. 24 
4.11. SE Porto Velho - Transformador PVTF6 - 01, 02, 03 ou 06 230/69/13,8 kV - 100 MVA ............. 24 
4.12. SE Rio Branco I - Transformador RBTF6-01 ou 02 230/69/13,8 kV – 100 MVA .......................... 24 
4.13. SE Rio Branco I - Transformador RBTF6-03 ou RBTF6-05 230/69/13,8 kV – 100 MVA ............... 25 
4.14. SE Rio Branco I - Autotransformador RBAT6-01 ou 02 230/138 kV – 55 MVA ........................... 25 
4.15. SE Tucumã - Autotransformador TR-01 ou 02 230/69/13,8 kV – 150 MVA................................ 25 
4.16. SE Vilhena - Transformador VNTF6-02 ou 03 230/69/13,8 kV – 60 MVA ................................... 25 
5. DADOS OPERACIONAIS DE UNIDADES GERADORAS HIDRAULICAS ................................ ................ 26 
5.1. UHE Samuel (CEG: UHE.PH.RO.002687-5.01).............................................................................. 27 
5.1.1. Dados das Unidades Geradoras da UHE Samuel ....................................................... 27 
5.1.2. Faixa Operativa das Unidades Geradoras da UHE Samuel ........................................ 27 
5.1.3. Curva de Capabilidade das Unidades Geradoras da UHE Samuel ............................. 28 
5.2. UHE Rondon II (CEG: UHE.PH.RO.027448-8.01) .......................................................................... 29 
5.2.1. Dados das Unidades Geradoras da UHE Rondon II ................................................... 29 
5.2.2. Faixa Operativa das Unidades Geradoras da UHE Rondon II .................................... 29 
5.2.3. Curva de Capabilidade das Unidades Geradoras da UHE Rondon II ......................... 31 
5.3. UHE Santo Antônio 230 kV (CEG: UHE.PH.RO.029707-0.01) ...................................................... 32 
5.3.1. Dados das Unidades Geradoras da UHE Santo Antônio ............................................ 32 
5.3.2. Curva de Capabilidade das Unidades Geradoras....................................................... 32 
6. DADOS OPERACIONAIS DE UNIDADES GERADORAS TÉRMICAS................................ .....................  33 
6.1. UTE Termonorte II (CEG: UTE.GN.RO.028033-0.01).................................................................... 35 
6.1.1. Dados das Unidades Geradoras da UTE Termonorte II ............................................. 35 
6.1.2. Dados relacionados à Configurações de Operação da ute termonorte II – Combustível 
Principal ..................................................................................................................... 36 
6.1.3. Dados relacionados à Configurações de Operação da ute termonorte ii– Combustível 
Secundário ................................................................................................................. 38 
Manual de Procedimentos da Operação - Módulo 5 - Submódulo 5.11 
Cadastro de Informações Operacionais Código Revisão Item Vigência 
Cadastro de Dados Operacionais de Equipamentos da 
área 230 kV Acre-Rondônia CD-CT.N.ACRO.01 64 2.1.4. 29/08/2024 
 
Referência: 4 / 52 
 
6.1.4. Curva de Capabilidade das Unidades Geradoras da UTE TERMOnorte II ................. 41 
7. DADOS OPERACIONAIS DE COMPENSADORES SÍNCRONOS ................................ ..........................  42 
7.1. SE Ariquemes – Compensador Síncrono AQCS2-01 (-90 / +150 Mvar) ....................................... 42 
7.2. SE Ji-Paraná – Compensador Síncrono JPCS2-01 (-90 / +150 Mvar) ........................................... 43 
8. DADOS OPERACIONAIS DE COMPENSADORES ESTÁTICOS ................................ ............................  44 
8.1. SE Vilhena – Compensador Estático VNCE2-01 (-50 / + 100 Mvar) ............................................. 44 
8.2. SE Rio Branco I – Compensador Estático RBCE2-01 (-20 / +55 Mvar) ......................................... 45 
9. DADOS OPERACIONAIS DE BANCOS DE CAPACITORES................................ ................................ .. 45 
9.1. SE Ji-Paraná – Bancos de Capacitores JPBC6-01, 02 e 03 230 kV / 18,5 Mvar ............................ 46 
9.2. SE Pimenta Bueno – Banco de Capacitores PBBC6-01, 02 e 03 230 kV / 18,5 Mvar .................. 46 
9.3. SE Rio Branco I – Bancos de Capacitores RBBC6-01 230 kV / 18,5 Mvar e RBBC6-02, 03, 04 e 05 
230 kV / 30 Mvar ......................................................................................................................... 46 
9.4. SE Vilhena – Bancos de Capacitores VNBC66-01, 02 e 03 230 kV / 18,5 Mvar ........................... 47 
10. DADOS OPERACIONAIS DE BANCOS DE CAPACITORES SÉRIE ................................ ........................  47 
10.1. SE Vilhena – Banco de Capacitor Série VNCL6-01 230 kV / 110 Mvar da LT 230 kV Jauru / 
Vilhena C1............ ........................................................................................................................ 48 
10.1.1. SE Vilhena – Banco de Capacitor Série VNCL6-01 230 kV / 110 Mvar da LT 230 kV 
Jauru / Vilhena C1 – Curva Característica Tensão x Corrente ................................... 48 
10.1.2. SE Vilhena – Banco de Capacitor Série VNCL6-01 230 kV / 110 Mvar da LT 230 kV 
Jauru / Vilhena C1 – Curva Resfriamento do Mov Temperatura x Tempo ............... 49 
10.2. SE Vilhena – Bancos de Capacitor Série VNCL6 - 02 230 kV / 110 Mvar da LT 230 kV Jauru / 
Vilhena C2.................. .................................................................................................................. 50 
10.2.1. SE Vilhena – Banco de Capacitor Série VNCL6-02 230 kV / 110 Mvar da LT 230 kV 
Jauru / Vilhena C2 – Curva Característica Tensão x Corrente ................................... 50 
10.2.2. SE Vilhena – Banco de Capacitor Série VNCL6-01 230 kV / 110 Mvar da LT 230 kV 
Jauru / Vilhena C1 – Curva Resfriamento do Mov Temperatura x Tempo ............... 51 
10.3. SE Vilhena – Bancos de Capacitor Série VNCL6-03 230 kV / 115,93 Mvar da LT 230 kV Jauru / 
Vilhena C3......................... ........................................................................................................... 52 
10.3.1. SE Vilhena – Banco de Capacitor Série VNCL6-03 230 kV / 115,93 Mvar da LT 230 kV 
Jauru / Vilhena C3 – Curva Característica Tensão x Corrente ................................... 52 
Manual de Procedimentos da Operação - Módulo 5 - Submódulo 5.11 
Cadastro de Informações Operacionais Código Revisão Item Vigência 
Cadastro de Dados Operacionais de Equipamentos da 
área 230 kV Acre-Rondônia CD-CT.N.ACRO.01 64 2.1.4. 29/08/2024 
 
Referência: RT-ONS DPL 0180/2024 - ESTUDOS PRÉ-OPERACIONAIS PARA INTEGRAÇÃO DA SE 230/69 KV TUCUMÃ 
E LT 230 KV ABUNÃ - RIO BRANCO C3 
5 / 52 
  
1. OBJETIVO 
Apresentar os Dados Operacionais de Equipamentos da área 230 kV Acre-Rondônia, a serem observados 
pelos operadores dos Centros de Operação do NOS e pela Operação dos Agentes envolvidos, de acordo com 
os Procedimentos de Rede. 
2. CONSIDERAÇÕES GERAIS 
2.1. Os dados de linhas de transmissão e equipamentos da Rede de Operação constantes neste Cadastro 
de Informações Operacionais devem ser observados pelos Centros de Operação do NOS para as ações 
de coordenação, supervisão e controle da operação, assim como pelos Agentes para as ações de 
comando e execução. 
2.2. As limitações técnicas para tentativas de religamento de equipamentos contidas neste documento 
têm caráter operacional. Poderão ser utilizadas para apuração da qualidade do serviço público de 
transmissão de energia elétrica (apuração de parcela variável) o  valor do “Tempo para energização 
após desligamento” de cada equipamento, desde que sejam atendidos os critérios estabelecidos na 
regulação vigente.  
3. DADOS OPERACIONAIS DE LINHAS DE TRANSMISSÃO 
Orientações sobre os dados operacionais de linhas de transmissão: 
Campo “Religamento Automático”: 
• Campo “Tipo”: indica o tipo de religamento utilizado em operação normal: monopolar, tripolar ou 
monopolar / tripolar; caso não exista religamento instalado, o campo é preenchido com “NE” – não 
existe. 
• Campo “Situação”: indica se o religamento está ligado ou desligado em operação normal; caso não 
exista religamento instalado, o campo é preenchido com “NE” – não existe. 
• Campo “Sentido”: para religamentos tripolares, indica em primeiro lugar a instalação onde se dá o 
fechamento inicial (terminal líder), e após a seta, a instalação de fechamento final (terminal 
seguidor); para religamentos monopolares ou caso não exista religamento instalado, o campo é 
preenchido com hifens (--- ). 
• Campo “Ajustes”: indica os ajustes de tempo morto, diferença de tensão, defasagem angular e 
diferença de frequência instalados para a função de verificação de sincronismo para o religamento 
automático; caso não exista religamento automático instalado, o campo é preenchi do com hifens 
(---). 
Campo “LT em Mesma Estrutura”: apresenta o nome da LT que compartilha estrutura, e quando disponível, 
a informação da extensão do trecho de compartilhamento e da quantidade de torres compartilhadas; caso 
não exista, o campo é preenchido com “NE” – não existe. 
Não deve ser considerado o compartilhamento de estrutura caso esse seja apenas na chegada às subestações 
envolvidas. 
Campo “Religamentos Manuais”: 
• Campo “Quantidade de Tentativas ”: indica quantos religamentos (ou tentativas de religamento) 
manuais são permitidos pelo Agente. 
• Campo “Intervalo entre os Religamentos (min)”: é o intervalo de tempo entre os religamentos, em 
minutos, a ser considerado entre a tentativa de fechamento não-bem-sucedida anterior (incluindo 
o religamento automático) e o novo fechamento do disjuntor. 
Manual de Procedimentos da Operação - Módulo 5 - Submódulo 5.11 
Cadastro de Informações Operacionais Código Revisão Item Vigência 
Cadastro de Dados Operacionais de Equipamentos da 
área 230 kV Acre-Rondônia CD-CT.N.ACRO.01 64 2.1.4. 29/08/2024 
 
Referência: RT-ONS DPL 0180/2024 - ESTUDOS PRÉ-OPERACIONAIS PARA INTEGRAÇÃO DA SE 230/69 KV TUCUMÃ 
E LT 230 KV ABUNÃ - RIO BRANCO C3 
6 / 52 
  
• Campo “ Dispositivo de Sincronismo ”: indica os terminais onde esses estão instalados e em 
funcionamento. Dispositivo de Sincronismo é o equipamento utilizado para verificação das 
condições de fechamento em anel ou paralelo entre dois pontos elétricos; caso não exista, o campo 
é preenchido com “NE” – não existe. Se em algum disjuntor do terminal não houver o dispositivo 
de sincronismo essa informação deve ser destacada. 
• Campo “ Ajustes”: indica os ajustes de diferença de tensão, defasagem angular e diferença de 
frequência instalados para a função de verificação de sincronismo para o religamento manual de 
cada terminal; caso não exista dispositivo de sincronismo, o campo é preenchido com hifens (---). 
Campo “Notas / Restrições” : campo opcional que indica informações relevantes a respeito da linha de 
transmissão. 
Caso os dados operacionais não sejam informados pelo Agente, os campos são preenchidos com “NI” – não 
informado. 
3.1. LT 230 KV ABUNÃ / RIO BRANCO I C1 
Religamento Automático 
LT em Mesma Estrutura 
Tipo Situação Sentido Ajustes 
Monopolar Ligado --- • Tempo morto: 1s NI 
Tripolar Ligado Abunã ➔ 
Rio Branco I 
V  46 kV 
   30° 
f   0,2 Hz 
• Tempo morto: 5s 
 
Notas / Restrições: 
O religamento automático tripolar da LT deve estar desligado na indisponibilidade do reator fixo do 
terminal de Abunã ou de Rio Branco I. 
 
Religamento Manual 
Sentido Quantidade de 
Tentativas 
Intervalo entre os 
religamentos (minutos) 
Dispositivo de 
sincronismo Ajustes 
--- 1 
Uma tentativa em sentido 
normal após 3 (três) 
minutos do religamento 
automático. 
Em ambos os 
terminais NI 
3.2. LT 230 KV ABUNÃ / RIO BRANCO I C3 
Religamento Automático 
LT em Mesma Estrutura 
Tipo Situação Sentido Ajustes 
Monopolar Ligado --- Tempo morto: 1s NI 
Manual de Procedimentos da Operação - Módulo 5 - Submódulo 5.11 
Cadastro de Informações Operacionais Código Revisão Item Vigência 
Cadastro de Dados Operacionais de Equipamentos da 
área 230 kV Acre-Rondônia CD-CT.N.ACRO.01 64 2.1.4. 29/08/2024 
 
Referência: RT-ONS DPL 0180/2024 - ESTUDOS PRÉ-OPERACIONAIS PARA INTEGRAÇÃO DA SE 230/69 KV TUCUMÃ 
E LT 230 KV ABUNÃ - RIO BRANCO C3 
7 / 52 
  
Religamento Automático 
LT em Mesma Estrutura 
Tipo Situação Sentido Ajustes 
Tripolar Ligado Abunã ➔ 
Rio Branco I 
V  46 kV 
   30° 
f   0,2 Hz 
Tempo morto: 6s 
NI 
Notas / Restrições: NI 
 
Religamento Manual 
Sentido Quantidade de 
Tentativas 
Intervalo entre os 
religamentos (minutos) 
Dispositivo de 
sincronismo Ajustes 
--- 1 
Uma tentativa em sentido 
normal após 3 (três) 
minutos do religamento 
automático. 
Em ambos os 
terminais NI 
3.3. LT 230 KV ABUNÃ / TUCUMÃ 
Religamento Automático 
LT em Mesma Estrutura 
Tipo Situação Sentido Ajustes 
Monopolar Ligado --- Tempo morto: 1s NI 
Tripolar Ligado Abunã ➔ 
Tucumã 
V  46 kV 
   30° 
f   0,2 Hz 
Tempo morto: 5s 
NI 
Notas / Restrições: 
O religamento automático tripolar da LT deve estar desligado na indisponibilidade da LT 230 KV Rio Branco 
I / Tucumã. 
 
Religamento Manual 
Sentido Quantidade de 
Tentativas 
Intervalo entre os 
religamentos (minutos) 
Dispositivo de 
sincronismo Ajustes 
--- 1 
Uma tentativa em sentido 
normal após 3 (três) 
minutos do religamento 
automático. 
Em ambos os 
terminais NI 
 
Manual de Procedimentos da Operação - Módulo 5 - Submódulo 5.11 
Cadastro de Informações Operacionais Código Revisão Item Vigência 
Cadastro de Dados Operacionais de Equipamentos da 
área 230 kV Acre-Rondônia CD-CT.N.ACRO.01 64 2.1.4. 29/08/2024 
 
Referência: RT-ONS DPL 0180/2024 - ESTUDOS PRÉ-OPERACIONAIS PARA INTEGRAÇÃO DA SE 230/69 KV TUCUMÃ 
E LT 230 KV ABUNÃ - RIO BRANCO C3 
8 / 52 
  
3.4. LT 230 KV ARIQUEMES / JARU 
Religamento Automático 
LT em Mesma Estrutura 
Tipo Situação Sentido Ajustes 
Tripolar Ligado Ariquemes 
➔ Jaru 
V  46 kV 
   30° 
f   0,2 Hz 
Tempo morto: 5s 
NI 
Notas / Restrições: NI 
 
Religamento Manual 
Sentido Quantidade de 
Tentativas 
Intervalo entre os 
religamentos (minutos) 
Dispositivo de 
sincronismo Ajustes 
--- 2 
Primeira tentativa, em 
sentido normal, após 3 
(três) minutos do 
religamento automático. 
A segunda tentativa, em 
sentido normal, após 12 
(doze) minutos da 
primeira tentativa. 
Em ambos os 
terminais NI 
3.5. LT 230 KV ARIQUEMES / JI PARANÁ C2 
Religamento Automático 
LT em Mesma Estrutura 
Tipo Situação Sentido Ajustes 
Tripolar Ligado Ariquemes 
➔ Ji-Paraná 
V  46 kV 
   30° 
f   0,2 Hz 
Tempo morto: 5s 
NI 
Notas / Restrições: 
O religamento automático da LT deve estar desligado na indisponibilidade de reator de linha. 
 
Religamento Manual 
Sentido Quantidade de 
Tentativas 
Intervalo entre os 
religamentos (minutos) 
Dispositivo de 
sincronismo Ajustes 
--- 2 NI Em ambos os 
terminais NI 
Manual de Procedimentos da Operação - Módulo 5 - Submódulo 5.11 
Cadastro de Informações Operacionais Código Revisão Item Vigência 
Cadastro de Dados Operacionais de Equipamentos da 
área 230 kV Acre-Rondônia CD-CT.N.ACRO.01 64 2.1.4. 29/08/2024 
 
Referência: RT-ONS DPL 0180/2024 - ESTUDOS PRÉ-OPERACIONAIS PARA INTEGRAÇÃO DA SE 230/69 KV TUCUMÃ 
E LT 230 KV ABUNÃ - RIO BRANCO C3 
9 / 52 
  
3.6. LT 230 KV ARIQUEMES / JI-PARANÁ C3 
Religamento Automático 
LT em Mesma Estrutura 
Tipo Situação Sentido Ajustes 
Tripolar Ligado Ariquemes 
➔ Ji-Paraná 
V  46 kV 
   30° 
f   0,2 Hz 
Tempo morto: 5s 
NI 
Notas / Restrições: 
O religamento automático da LT deve estar desligado na indisponibilidade de reator de linha. 
 
Religamento Manual 
Sentido Quantidade de 
Tentativas 
Intervalo entre os 
religamentos (minutos) 
Dispositivo de 
sincronismo Ajustes 
--- 1 
Uma tentativa, em 
sentido normal, após 3 
(três) minutos do 
religamento automático 
Em ambos os 
terminais NI 
3.7. LT 230 KV ARIQUEMES / JI-PARANÁ C4 
Religamento Automático 
LT em Mesma Estrutura 
Tipo Situação Sentido Ajustes 
Tripolar Ligado Ariquemes 
➔ Ji-Paraná 
V  46 kV 
   30° 
f   0,2 Hz 
Tempo morto: 5s 
NI 
Notas / Restrições: 
O religamento automático da LT deve estar desligado na indisponibilidade de reator de linha. 
 
Religamento Manual 
Sentido Quantidade de 
Tentativas 
Intervalo entre os 
religamentos (minutos) 
Dispositivo de 
sincronismo Ajustes 
--- 
2 tentativas 
(sentido 
normal) 
1 tentativa 
(sentido 
inverso) 
NI Em ambos os 
terminais NI 
Manual de Procedimentos da Operação - Módulo 5 - Submódulo 5.11 
Cadastro de Informações Operacionais Código Revisão Item Vigência 
Cadastro de Dados Operacionais de Equipamentos da 
área 230 kV Acre-Rondônia CD-CT.N.ACRO.01 64 2.1.4. 29/08/2024 
 
Referência: RT-ONS DPL 0180/2024 - ESTUDOS PRÉ-OPERACIONAIS PARA INTEGRAÇÃO DA SE 230/69 KV TUCUMÃ 
E LT 230 KV ABUNÃ - RIO BRANCO C3 
10 / 52 
  
3.8. LT 230 KV COLETORA PORTO VELHO / PORTO VELHO C1 OU C2 
Religamento Automático 
LT em Mesma Estrutura 
Tipo Situação Sentido Ajustes 
NE --- --- --- NI 
Notas / Restrições: NI 
 
Religamento Manual 
Sentido Quantidade de 
Tentativas 
Intervalo entre os 
religamentos (minutos) 
Dispositivo de 
sincronismo Ajustes 
--- 2 
Primeira tentativa, em 
sentido normal, imediata. 
A segunda tentativa, em 
sentido normal, após 3 
(três) minutos da primeira 
tentativa. 
NI NI 
3.9. LT 230 KV FEIJÓ / RIO BRANCO I 
Religamento Automático 
LT em Mesma Estrutura 
Tipo Situação Sentido Ajustes 
Monopolar Ligado --- Tempo morto: 1s 
 NE 
Notas / Restrições: NI 
 
Religamento Manual 
Sentido Quantidade de 
Tentativas 
Intervalo entre os 
religamentos (minutos) 
Dispositivo de 
sincronismo Ajustes 
--- NI NI NI NI 
3.10. LT 230 KV JARU / JI PARANÁ 
Religamento Automático 
LT em Mesma Estrutura 
Tipo Situação Sentido Ajustes 
Tripolar Ligado Ji Paraná ➔ 
Jaru 
V  46 kV 
   30° 
f   0,2 Hz 
Tempo morto: 5s 
NI 
Manual de Procedimentos da Operação - Módulo 5 - Submódulo 5.11 
Cadastro de Informações Operacionais Código Revisão Item Vigência 
Cadastro de Dados Operacionais de Equipamentos da 
área 230 kV Acre-Rondônia CD-CT.N.ACRO.01 64 2.1.4. 29/08/2024 
 
Referência: RT-ONS DPL 0180/2024 - ESTUDOS PRÉ-OPERACIONAIS PARA INTEGRAÇÃO DA SE 230/69 KV TUCUMÃ 
E LT 230 KV ABUNÃ - RIO BRANCO C3 
11 / 52 
  
Religamento Automático 
LT em Mesma Estrutura 
Tipo Situação Sentido Ajustes 
Notas / Restrições: 
O religamento automático da LT deve estar desligado na indisponibilidade de reator de linha. 
 
Religamento Manual 
Sentido Quantidade de 
Tentativas 
Intervalo entre os 
religamentos (minutos) 
Dispositivo de 
sincronismo Ajustes 
--- 2 
Primeira tentativa, em 
sentido normal, após 3 
(três) minutos do 
religamento automático. 
A segunda tentativa, em 
sentido normal, após 12 
(doze) minutos da 
primeira tentativa. 
Em ambos os 
terminais NI 
3.11. LT 230 KV JAURU / VILHENA C1 
Religamento Automático 
LT em Mesma Estrutura 
Tipo Situação Sentido Ajustes 
Tripolar Ligado Jauru ➔ 
Vilhena 
V  23 kV 
   40° 
f   0,2 Hz 
Tempo morto: 3s 
LT 230 KV Jauru / Vilhena C2 
Monopolar Ligado --- Tempo morto: 1s 
Notas / Restrições: 
O religamento automático da LT deve estar desligado na indisponibilidade de reator de linha. 
 
Religamento Manual 
Sentido Quantidade de 
Tentativas 
Intervalo entre os 
religamentos (minutos) 
Dispositivo de 
sincronismo Ajustes 
--- 2 NI Em ambos os 
terminais NI 
Manual de Procedimentos da Operação - Módulo 5 - Submódulo 5.11 
Cadastro de Informações Operacionais Código Revisão Item Vigência 
Cadastro de Dados Operacionais de Equipamentos da 
área 230 kV Acre-Rondônia CD-CT.N.ACRO.01 64 2.1.4. 29/08/2024 
 
Referência: RT-ONS DPL 0180/2024 - ESTUDOS PRÉ-OPERACIONAIS PARA INTEGRAÇÃO DA SE 230/69 KV TUCUMÃ 
E LT 230 KV ABUNÃ - RIO BRANCO C3 
12 / 52 
  
3.12. LT 230 KV JAURU / VILHENA C2 
Religamento Automático 
LT em Mesma Estrutura 
Tipo Situação Sentido Ajustes 
Tripolar Ligado Jauru ➔ 
Vilhena 
V  23 kV 
   40° 
f   0,2 Hz 
Tempo morto: 4s LT 230 KV Jauru / Vilhena C1 
Monopolar Ligado --- Tempo morto: 1s 
Notas / Restrições: 
O religamento automático da LT deve estar desligado na indisponibilidade de reator de linha. 
 
Religamento Manual 
Sentido Quantidade de 
Tentativas 
Intervalo entre os 
religamentos (minutos) 
Dispositivo de 
sincronismo Ajustes 
--- 2 NI Em ambos os 
terminais NI 
3.13. LT 230 KV JAURU / VILHENA C3 
Religamento Automático 
LT em Mesma Estrutura 
Tipo Situação Sentido Ajustes 
Tripolar Ligado Jauru ➔ 
Vilhena 
V  23 kV 
   40° 
f   0,2 Hz 
Tempo morto: 5s 
NI 
Monopolar Ligado --- Tempo morto: 1s 
Notas / Restrições: 
O religamento automático da LT deve estar desligado na indisponibilidade de reator de linha. 
 
Religamento Manual 
Sentido Quantidade de 
Tentativas 
Intervalo entre os 
religamentos (minutos) 
Dispositivo de 
sincronismo Ajustes 
--- 1 
Uma tentativa em sentido 
normal após 3 (três) 
minutos do religamento 
automático. 
Em ambos os 
terminais NI 
Manual de Procedimentos da Operação - Módulo 5 - Submódulo 5.11 
Cadastro de Informações Operacionais Código Revisão Item Vigência 
Cadastro de Dados Operacionais de Equipamentos da 
área 230 kV Acre-Rondônia CD-CT.N.ACRO.01 64 2.1.4. 29/08/2024 
 
Referência: RT-ONS DPL 0180/2024 - ESTUDOS PRÉ-OPERACIONAIS PARA INTEGRAÇÃO DA SE 230/69 KV TUCUMÃ 
E LT 230 KV ABUNÃ - RIO BRANCO C3 
13 / 52 
  
3.14. LT 230 KV JI-PARANÁ / PIMENTA BUENO C1 
Religamento Automático 
LT em Mesma Estrutura 
Tipo Situação Sentido Ajustes 
Tripolar Ligado 
Ji-Paraná ➔ 
Pimenta 
Bueno 
V  46 kV 
   20° 
f   0,2 Hz 
Tempo morto: 5s 
NI 
Notas / Restrições: 
O religamento automático da LT deve estar desligado na indisponibilidade de reator de linha. 
 
Religamento Manual 
Sentido Quantidade de 
Tentativas 
Intervalo entre os 
religamentos (minutos) 
Dispositivo de 
sincronismo Ajustes 
--- 2 
Primeira tentativa, em 
sentido normal, após 3 
(três) minutos do 
religamento automático. 
A segunda tentativa, em 
sentido normal, após 12 
(doze) minutos da 
primeira tentativa. 
Em ambos os 
terminais NI 
3.15. LT 230 KV JI-PARANÁ / PIMENTA BUENO C2 
Religamento Automático 
LT em Mesma Estrutura 
Tipo Situação Sentido Ajustes 
Tripolar Ligado 
Ji-Paraná ➔ 
Pimenta 
Bueno 
V  46 kV 
   20° 
f   0,2 Hz 
Tempo morto: 5s 
NI 
Notas / Restrições: 
O religamento automático da LT deve estar desligado na indisponibilidade de reator de linha. 
 
Religamento Manual 
Sentido Quantidade de 
Tentativas 
Intervalo entre os 
religamentos (minutos) 
Dispositivo de 
sincronismo Ajustes 
--- 2 NI Em ambos os 
terminais NI 
Manual de Procedimentos da Operação - Módulo 5 - Submódulo 5.11 
Cadastro de Informações Operacionais Código Revisão Item Vigência 
Cadastro de Dados Operacionais de Equipamentos da 
área 230 kV Acre-Rondônia CD-CT.N.ACRO.01 64 2.1.4. 29/08/2024 
 
Referência: RT-ONS DPL 0180/2024 - ESTUDOS PRÉ-OPERACIONAIS PARA INTEGRAÇÃO DA SE 230/69 KV TUCUMÃ 
E LT 230 KV ABUNÃ - RIO BRANCO C3 
14 / 52 
  
3.16. LT 230 KV JI-PARANÁ / PIMENTA BUENO C3 
Religamento Automático 
LT em Mesma Estrutura 
Tipo Situação Sentido Ajustes 
Tripolar Ligado 
Ji-Paraná 
➔ Pimenta 
Bueno 
V  46 kV 
   20° 
f   0,2 Hz 
Tempo morto: 5s 
NI 
Notas / Restrições: 
O religamento automático da LT deve estar desligado na indisponibilidade de reator de linha. 
 
Religamento Manual 
Sentido Quantidade de 
Tentativas 
Intervalo entre os 
religamentos (minutos) 
Dispositivo de 
sincronismo Ajustes 
--- 1 
Uma tentativa, em 
sentido normal, após 3 
(três) minutos do 
religamento automático. 
Em ambos os 
terminais NI 
3.17. LT 230 KV PIMENTA BUENO / VILHENA C1 
Religamento Automático 
LT em Mesma Estrutura 
Tipo Situação Sentido Ajustes 
Tripolar Ligado 
Vilhena ➔ 
Pimenta 
Bueno 
V  46 kV 
   25° 
f   0,2 Hz 
Tempo morto: 5s 
NI 
Notas / Restrições: 
O religamento automático da LT deve estar desligado na indisponibilidade de reator de linha. 
 
Religamento Manual 
Sentido Quantidade de 
Tentativas 
Intervalo entre os 
religamentos (minutos) 
Dispositivo de 
sincronismo Ajustes 
--- 1 
Uma tentativa em sentido 
normal após 3 (três) 
minutos do religamento 
automático. 
Em ambos os 
terminais NI 
Manual de Procedimentos da Operação - Módulo 5 - Submódulo 5.11 
Cadastro de Informações Operacionais Código Revisão Item Vigência 
Cadastro de Dados Operacionais de Equipamentos da 
área 230 kV Acre-Rondônia CD-CT.N.ACRO.01 64 2.1.4. 29/08/2024 
 
Referência: RT-ONS DPL 0180/2024 - ESTUDOS PRÉ-OPERACIONAIS PARA INTEGRAÇÃO DA SE 230/69 KV TUCUMÃ 
E LT 230 KV ABUNÃ - RIO BRANCO C3 
15 / 52 
  
3.18. LT 230 KV PIMENTA BUENO / VILHENA C2 
Religamento Automático 
LT em Mesma Estrutura 
Tipo Situação Sentido Ajustes 
Tripolar Ligado 
Vilhena ➔ 
Pimenta 
Bueno 
V  46 kV 
   25° 
f   0,2 Hz 
Tempo morto: 5s 
NI 
Notas / Restrições: 
O religamento automático da LT deve estar desligado nas indisponibilidade de reator de linha. 
 
Religamento Manual 
Sentido Quantidade de 
Tentativas 
Intervalo entre os 
religamentos (minutos) 
Dispositivo de 
sincronismo Ajustes 
--- 2 NI Em ambos os 
terminais NI 
3.19. LT 230 KV PIMENTA BUENO / VILHENA C3 
Religamento Automático 
LT em Mesma Estrutura 
Tipo Situação Sentido Ajustes 
Tripolar Ligado 
Vilhena ➔ 
Pimenta 
Bueno 
V  46 kV 
   25° 
f   0,2 Hz 
Tempo morto: 5s 
NI 
Notas / Restrições: 
O religamento automático da LT deve estar desligado na indisponibilidade de reator de linha. 
 
Religamento Manual 
Sentido Quantidade de 
Tentativas 
Intervalo entre os 
religamentos (minutos) 
Dispositivo de 
sincronismo Ajustes 
--- 1 
Uma tentativa, em 
sentido normal, após 3 
(três) minutos do 
religamento automático. 
Em ambos os 
terminais NI 
Manual de Procedimentos da Operação - Módulo 5 - Submódulo 5.11 
Cadastro de Informações Operacionais Código Revisão Item Vigência 
Cadastro de Dados Operacionais de Equipamentos da 
área 230 kV Acre-Rondônia CD-CT.N.ACRO.01 64 2.1.4. 29/08/2024 
 
Referência: RT-ONS DPL 0180/2024 - ESTUDOS PRÉ-OPERACIONAIS PARA INTEGRAÇÃO DA SE 230/69 KV TUCUMÃ 
E LT 230 KV ABUNÃ - RIO BRANCO C3 
16 / 52 
  
3.20. LT 230 KV PORTO VELHO / ABUNÃ C1 
Religamento Automático 
LT em Mesma Estrutura 
Tipo Situação Sentido Ajustes 
Tripolar Ligado Porto Velho 
➔ Abunã 
V  46 kV 
   20° 
f   0,2 Hz 
Tempo morto: 5s 
NI 
Notas / Restrições: 
O religamento automático tripolar da LT deve estar desligado nas seguintes situações: 
• Na indisponibilidade da LT 230 kV Porto Velho / Abunã C2. 
• Na indisponibilidade do reator fixo do terminal de Abunã. 
 
Religamento Manual 
Sentido Quantidade de 
Tentativas 
Intervalo entre os 
religamentos (minutos) 
Dispositivo de 
sincronismo Ajustes 
--- 2 
Primeira tentativa 
imediata. 
Segunda tentativa após 3 
(três) minutos da primeira 
tentativa. 
Em ambos os 
terminais NI 
3.21. LT 230 KV PORTO VELHO / ABUNÃ C2 
Religamento Automático 
LT em Mesma Estrutura 
Tipo Situação Sentido Ajustes 
Monopolar Ligado --- Tempo morto: 1s NE 
Tripolar Ligado Porto Velho 
➔ Abunã 
V  46 kV 
   30° 
f   0,2 Hz 
Tempo morto: 6s 
NE 
Notas / Restrições: 
O religamento automático tripolar da LT deve estar des ligado na na indisponibilidade da LT 230 kV Porto 
Velho / Abunã C1. 
 
Manual de Procedimentos da Operação - Módulo 5 - Submódulo 5.11 
Cadastro de Informações Operacionais Código Revisão Item Vigência 
Cadastro de Dados Operacionais de Equipamentos da 
área 230 kV Acre-Rondônia CD-CT.N.ACRO.01 64 2.1.4. 29/08/2024 
 
Referência: RT-ONS DPL 0180/2024 - ESTUDOS PRÉ-OPERACIONAIS PARA INTEGRAÇÃO DA SE 230/69 KV TUCUMÃ 
E LT 230 KV ABUNÃ - RIO BRANCO C3 
17 / 52 
  
Religamento Manual 
Sentido Quantidade de 
Tentativas 
Intervalo entre os 
religamentos (minutos) 
Dispositivo de 
sincronismo Ajustes 
--- 1 Após 3 (três) minutos do 
religamento automático. 
Em ambos os 
terminais NI 
3.22. LT 230 KV PORTO VELHO / TERMONORTE II 
Religamento Automático 
LT em Mesma Estrutura 
Tipo Situação Sentido Ajustes 
NE --- --- −− NI 
Notas / Restrições: NI 
 
Religamento Manual 
Sentido Quantidade de 
Tentativas 
Intervalo entre os 
religamentos (minutos) 
Dispositivo de 
sincronismo Ajustes 
--- 2 NI Em ambos os 
terminais NI 
3.23. LT 230 KV RIO BRANCO I / TUCUMÃ 
Religamento Automático 
LT em Mesma Estrutura 
Tipo Situação Sentido Ajustes 
Monopolar Ligado --- Tempo morto: 1s NI 
Tripolar Ligado Tucumã ➔ 
Rio Branco I  
V  46 kV 
   30° 
f   0,2 Hz 
Tempo morto: 5s 
NI 
Notas / Restrições: 
O religamento automático tripolar da LT deve estar desligado na indisponibilidade da LT 230 KV Abunã / 
Tucumã. 
 
Religamento Manual 
Sentido Quantidade de 
Tentativas 
Intervalo entre os 
religamentos (minutos) 
Dispositivo de 
sincronismo Ajustes 
--- 1 Uma tentativa em sentido 
normal após 3 (três) 
Em ambos os 
terminais NI 
Manual de Procedimentos da Operação - Módulo 5 - Submódulo 5.11 
Cadastro de Informações Operacionais Código Revisão Item Vigência 
Cadastro de Dados Operacionais de Equipamentos da 
área 230 kV Acre-Rondônia CD-CT.N.ACRO.01 64 2.1.4. 29/08/2024 
 
Referência: RT-ONS DPL 0180/2024 - ESTUDOS PRÉ-OPERACIONAIS PARA INTEGRAÇÃO DA SE 230/69 KV TUCUMÃ 
E LT 230 KV ABUNÃ - RIO BRANCO C3 
18 / 52 
  
Religamento Manual 
Sentido Quantidade de 
Tentativas 
Intervalo entre os 
religamentos (minutos) 
Dispositivo de 
sincronismo Ajustes 
minutos do religamento 
automático. 
3.24. LT 230 KV SAMUEL / PORTO VELHO C1 OU C2 
Religamento Automático 
LT em Mesma Estrutura 
Tipo Situação Sentido Ajustes 
Tripolar Ligado Samuel ➔ 
Porto Velho 
V  46 kV 
   20° 
f   0,2 Hz 
Tempo morto: 5s 
LT 230 kV Samuel / Porto Velho C1 e C2 
Notas / Restrições: NI 
 
Religamento Manual 
Sentido Quantidade de 
Tentativas 
Intervalo entre os 
religamentos (minutos) 
Dispositivo de 
sincronismo Ajustes 
- 1 
Após 3 (três) minutos do 
religamento automático. 
Em ambos os 
terminais NI 
3.25. LT 230 KV SAMUEL / PORTO VELHO C3 
 
Religamento Manual 
Sentido Quantidade de 
Tentativas 
Intervalo entre os 
religamentos (minutos) 
Dispositivo de 
sincronismo Ajustes 
--- 1 
Após 3 (três) minutos do 
religamento automático. 
Em ambos os 
terminais NI 
Religamento Automático 
LT em Mesma Estrutura 
Tipo Situação Sentido Ajustes 
Tripolar Ligado Samuel ➔ 
Porto Velho 
V  46 kV 
   20° 
f   0,2 Hz 
Tempo morto: 5s 
NI 
Notas / Restrições: NI 
Manual de Procedimentos da Operação - Módulo 5 - Submódulo 5.11 
Cadastro de Informações Operacionais Código Revisão Item Vigência 
Cadastro de Dados Operacionais de Equipamentos da 
área 230 kV Acre-Rondônia CD-CT.N.ACRO.01 64 2.1.4. 29/08/2024 
 
Referência: RT-ONS DPL 0180/2024 - ESTUDOS PRÉ-OPERACIONAIS PARA INTEGRAÇÃO DA SE 230/69 KV TUCUMÃ 
E LT 230 KV ABUNÃ - RIO BRANCO C3 
19 / 52 
  
3.26. LT 230 KV SANTO ANTONIO / PORTO VELHO C1 OU C2 
Religamento Automático 
LT em Mesma Estrutura 
Tipo Situação Sentido Ajustes 
Tripolar Ligado 
Santo 
Antônio ➔ 
Porto Velho 
V  46 kV 
   10° 
f   0,2 Hz 
Tempo morto: 5s 
(C1) e 20s (C2). 
LT 230 kV Santo Antônio / Porto Velho C1 e 
C2 
Notas / Restrições:  
O religamento automático da LT deve estar desligado na indisponibilidade do circuito paralelo. 
 
Religamento Manual 
Sentido Quantidade de 
Tentativas 
Intervalo entre os 
religamentos (minutos) 
Dispositivo de 
sincronismo Ajustes 
--- NI NI Em ambos os 
terminais NI 
3.27. LT 230 KV SAMUEL / ARIQUEMES C1 
Religamento Automático 
LT em Mesma Estrutura 
Tipo Situação Sentido Ajustes 
NE --- --- −− NI 
Notas / Restrições: NI 
 
Religamento Manual 
Sentido Quantidade de 
Tentativas 
Intervalo entre os 
religamentos (minutos) 
Dispositivo de 
sincronismo Ajustes 
--- 2 
Primeira tentativa  em 
sentido normal, imediata. 
Segunda tentativa em 
sentido normal, após 3  
(três) minutos da primeira 
tentativa. 
Em ambos os 
terminais NI 
Manual de Procedimentos da Operação - Módulo 5 - Submódulo 5.11 
Cadastro de Informações Operacionais Código Revisão Item Vigência 
Cadastro de Dados Operacionais de Equipamentos da 
área 230 kV Acre-Rondônia CD-CT.N.ACRO.01 64 2.1.4. 29/08/2024 
 
Referência: RT-ONS DPL 0180/2024 - ESTUDOS PRÉ-OPERACIONAIS PARA INTEGRAÇÃO DA SE 230/69 KV TUCUMÃ 
E LT 230 KV ABUNÃ - RIO BRANCO C3 
20 / 52 
  
3.28. LT 230 KV SAMUEL / ARIQUEMES C2 
Religamento Automático 
LT em Mesma Estrutura 
Tipo Situação Sentido Ajustes 
Tripolar Ligado Samuel ➔ 
Ariquemes 
V  46 kV 
   30° 
f   0,2 Hz 
Tempo morto: 5s 
NI 
Notas / Restrições: 
O religamento automático da LT deve estar desligado na Indisponibilidade de reator de linha. 
 
Religamento Manual 
Sentido Quantidade de 
Tentativas 
Intervalo entre os 
religamentos (minutos) 
Dispositivo de 
sincronismo Ajustes 
--- 2 NI Em ambos os 
terminais NI 
3.29. LT 230 KV SAMUEL / ARIQUEMES C3 
Religamento Automático 
LT em Mesma Estrutura 
Tipo Situação Sentido Ajustes 
Tripolar Ligado Samuel ➔ 
Ariquemes 
V  46 kV 
   30° 
f   0,2 Hz 
Tempo morto: 5s 
NI 
Notas / Restrições: 
O religamento automático da LT deve estar desligado na indisponibilidade de reator de linha. 
 
Religamento Manual 
Sentido Quantidade de 
Tentativas 
Intervalo entre os 
religamentos (minutos) 
Dispositivo de 
sincronismo Ajustes 
--- 1 
Uma tentativa, em 
sentido normal, a pós 3 
(três) minutos do 
religamento automático. 
Em ambos os 
terminais NI 
Manual de Procedimentos da Operação - Módulo 5 - Submódulo 5.11 
Cadastro de Informações Operacionais Código Revisão Item Vigência 
Cadastro de Dados Operacionais de Equipamentos da 
área 230 kV Acre-Rondônia CD-CT.N.ACRO.01 64 2.1.4. 29/08/2024 
 
Referência: RT-ONS DPL 0180/2024 - ESTUDOS PRÉ-OPERACIONAIS PARA INTEGRAÇÃO DA SE 230/69 KV TUCUMÃ 
E LT 230 KV ABUNÃ - RIO BRANCO C3 
21 / 52 
  
3.30. LT 230 KV SAMUEL / ARIQUEMES C4 
Religamento Automático 
LT em Mesma Estrutura Tipo Situação Sentido Ajustes 
Tripolar Ligado Samuel ➔ 
Ariquemes 
V  46 kV 
   30° 
f   0,2 Hz 
Tempo morto: 5s 
NI 
Notas / Restrições: NI 
 
Religamento Manual 
Sentido Quantidade de 
Tentativas 
Intervalo entre os 
religamentos (minutos) 
Dispositivo de 
sincronismo Ajustes 
--- 
2 tentativas 
(sentido normal) 
1 tentativa 
(sentido 
inverso) 
NI Em ambos os 
terminais NI 
4. DADOS OPERACIONAIS DE TRANSFORMADORES 
Orientações sobre os dados operacionais de transformadores: 
Campo “ Dispositivo de Sincronismo ”: indica os terminais onde estão instalados e em funcionamento . 
Dispositivo de Sincronismo é o equipamento utilizado para verificação das condições de fechamento em anel 
ou paralelo entre dois pontos elétricos, o campo é preenchido com “NE” – não existe. Se em algum disjuntor 
do terminal não houver o dispositivo de sincronismo essa informação deve ser destacada. 
Campo “Ajustes”: indica os ajustes de diferença de tensão, defasagem angular e diferença de frequência 
instalados para a função de verificação de sincronismo para o religamento manual de cada terminal;  caso 
não exista dispositivo de sincronismo, o campo é preenchido com hifens (---). 
Campo “Características dos Comutadores”:  
• Campo “Comutador sob carga”: indica o número de posições associando a tensão correspondente 
à identificação das posições mínima, máxima e nominal, bem como a variação de tensão entre cada 
posição, conforme os dados de placa do transformador. Caso os números das posições dos dados 
de placa do transformador sejam diferentes dos números das posições utilizadas no Sistema de 
Supervisão e Controle, incluir, além das posições dos dados de placa, também as posições utilizadas 
no SSC. Caso não exista comutador sob carga no transformador, o campo é preenchido com “NE” 
– não existe. 
• Campo “ Comutador em Vazio ”: indica as posições do comutador em vazio com os respectivos 
valores de tensão e sua posição em serviço. Caso não exista comutador em vazio no transformador, 
o campo é preenchido com “NE” – não existe. 
Campo “Notas / Restrições” : campo opcional que  indica informações relevantes a respeito do 
transformador. 
Caso os dados operacionais não sejam informados pelo Agente, os campos são preenchidos com “NI” – não 
informado. 
Manual de Procedimentos da Operação - Módulo 5 - Submódulo 5.11 
Cadastro de Informações Operacionais Código Revisão Item Vigência 
Cadastro de Dados Operacionais de Equipamentos da 
área 230 kV Acre-Rondônia CD-CT.N.ACRO.01 64 2.1.4. 29/08/2024 
 
Referência: RT-ONS DPL 0180/2024 - ESTUDOS PRÉ-OPERACIONAIS PARA INTEGRAÇÃO DA SE 230/69 KV TUCUMÃ 
E LT 230 KV ABUNÃ - RIO BRANCO C3 
22 / 52 
  
4.1. SE ABUNÃ - AUTOTRANSFORMADOR ANAT6-01 OU 02 230/138/13,8 KV - 55 MVA 
Dispositivo de 
Sincronismo Ajustes 
Características dos Comutadores 
Comutador sob Carga Comutador em Vazio 
NI NI 1 = 151,8 kV 
17 = 124,2 kV Tape único 
Notas / Restrições: NI 
4.2. SE ARIQUEMES - TRANSFORMADOR AQTF6-01 OU 02 230/69/13,8 KV - 60 MVA 
Dispositivo de 
Sincronismo Ajustes 
Características dos Comutadores 
Comutador sob Carga Comutador em Vazio 
NI NI 
1 = 253 kV 
17 = 207 kV 
1 = 241,5 kV 
2 = 235,7 kV 
3(N) = 230 kV 
4 = 224,2 kV 
5 = 218,5 kV 
Tape em serviço = 3 
Notas / Restrições: NI 
4.3. SE ARIQUEMES - TRANSFORMADOR AQTF6-03 230/69/13,8 KV - 60 MVA 
Dispositivo de 
Sincronismo Ajustes 
Características dos Comutadores 
Comutador sob Carga Comutador em Vazio 
NI NI 
1 = 253 kV 
17 = 207 kV 
1 = 241,5 kV 
2 = 235,7 kV 
3(N) = 230 kV 
4 = 224,2 kV 
5 = 218,5 kV 
Tape em serviço = 3 
Notas / Restrições: NI 
4.4. SE COLETORA PORTO VELHO - TRANSFORMADOR TF-14 OU TF-15 230/69/13,8 KV - 100 MVA 
Dispositivo de 
Sincronismo Ajustes 
Características dos Comutadores 
Comutador sob Carga Comutador em Vazio 
NI NI 
1 = 253 kV 
17 = 207 kV NE 
Notas / Restrições: NI 
Manual de Procedimentos da Operação - Módulo 5 - Submódulo 5.11 
Cadastro de Informações Operacionais Código Revisão Item Vigência 
Cadastro de Dados Operacionais de Equipamentos da 
área 230 kV Acre-Rondônia CD-CT.N.ACRO.01 64 2.1.4. 29/08/2024 
 
Referência: RT-ONS DPL 0180/2024 - ESTUDOS PRÉ-OPERACIONAIS PARA INTEGRAÇÃO DA SE 230/69 KV TUCUMÃ 
E LT 230 KV ABUNÃ - RIO BRANCO C3 
23 / 52 
  
4.5. SE FEIJÓ - TRANSFORMADOR FJTR2-1 OU 2 230/69/13,8 KV - 20 MVA 
Dispositivo de 
Sincronismo Ajustes 
Características dos Comutadores 
Comutador sob Carga Comutador em Vazio 
NI NI 01 = 264,5 kV 
21 = 195,5 kV NI 
Notas / Restrições: NI 
4.6. SE JARU - TRANSFORMADOR JRTF6-01 OU 02 OU 03 230/69/13,8 KV - 30 MVA 
Dispositivo de 
Sincronismo Ajustes 
Características dos Comutadores 
Comutador sob Carga Comutador em Vazio 
NI NI 
1 = 253 kV 
17 = 207 kV 
1 = 241,5 kV 
2 = 235,7 kV 
3(N) = 230 kV 
4 = 224,2 kV 
5 = 218,5 kV 
Tape em serviço = 3 
Notas / Restrições: NI 
4.7. SE JARU - AUTOTRANSFORMADOR JRAT6-01 230/138/13,8 KV - 50 MVA 
Dispositivo de 
Sincronismo Ajustes 
Características dos Comutadores 
Comutador sob Carga Comutador em Vazio 
Em ambos os 
terminais NI 
1 = 253 kV 
17 = 207 kV Tape único 
Notas / Restrições: Comutador sob carga no lado de alta 
4.8. SE JI-PARANÁ - TRANSFORMADOR JPTF6-01 OU 02 OU 03 230/69/13,8 KV - 60 MVA 
Dispositivo de 
Sincronismo Ajustes 
Características dos Comutadores 
Comutador sob Carga Comutador em Vazio 
NI NI 
1 = 253 kV 
17 = 207 kV 
1 = 241,5 kV 
2 = 235,7 kV 
3(N) = 230 kV 
4 = 224,2 kV 
5 = 218,5 kV 
Tape em serviço = 3 
Notas / Restrições: NI 
Manual de Procedimentos da Operação - Módulo 5 - Submódulo 5.11 
Cadastro de Informações Operacionais Código Revisão Item Vigência 
Cadastro de Dados Operacionais de Equipamentos da 
área 230 kV Acre-Rondônia CD-CT.N.ACRO.01 64 2.1.4. 29/08/2024 
 
Referência: RT-ONS DPL 0180/2024 - ESTUDOS PRÉ-OPERACIONAIS PARA INTEGRAÇÃO DA SE 230/69 KV TUCUMÃ 
E LT 230 KV ABUNÃ - RIO BRANCO C3 
24 / 52 
  
4.9. SE JI-PARANÁ - AUTOTRANSFORMADOR JPAT6-01 OU 02 230/138/13,8 KV - 100 MVA 
Dispositivo de 
Sincronismo Ajustes 
Características dos Comutadores 
Comutador sob Carga Comutador em Vazio 
NI NI 
1 = 151,8 kV 
17 = 124,2 kV Tape único 
Notas / Restrições: NI 
4.10. SE PIMENTA BUENO - AUTOTRANSFORMADOR PBAT6-01 OU 02 230/138/13,8 KV - 55 MVA 
Dispositivo de 
Sincronismo Ajustes 
Características dos Comutadores 
Comutador sob Carga Comutador em Vazio 
NI NI 
1 = 151,8 kV 
17 = 124,2 kV Tape único 
Notas / Restrições: NI 
4.11. SE PORTO VELHO - TRANSFORMADOR PVTF6 - 01, 02, 03 OU 06 230/69/13,8 KV - 100 MVA 
Dispositivo de 
Sincronismo Ajustes 
Características dos Comutadores 
Comutador sob Carga Comutador em Vazio 
NI NI 
1 = 75,9 kV 
17 = 62,1 kV 
1 = 241,5 kV 
2 = 235,7 kV 
3 = 230 kV 
4 = 224,2 kV 
5 = 218,5 kV 
Tape em serviço = 3 
Notas / Restrições: NI 
4.12. SE RIO BRANCO I - TRANSFORMADOR RBTF6-01 OU 02 230/69/13,8 KV – 100 MVA 
Dispositivo de 
Sincronismo Ajustes 
Características dos Comutadores 
Comutador sob Carga Comutador em Vazio 
NI NI 
1 = 75,9 kV 
17 = 62,1 kV 
1 = 241,5 kV 
2 = 235,7 kV 
3(N) = 230 kV 
4 = 224,2 kV 
5 = 218,5 kV 
Tape em serviço = 3 
Notas / Restrições: NI 
Manual de Procedimentos da Operação - Módulo 5 - Submódulo 5.11 
Cadastro de Informações Operacionais Código Revisão Item Vigência 
Cadastro de Dados Operacionais de Equipamentos da 
área 230 kV Acre-Rondônia CD-CT.N.ACRO.01 64 2.1.4. 29/08/2024 
 
Referência: RT-ONS DPL 0180/2024 - ESTUDOS PRÉ-OPERACIONAIS PARA INTEGRAÇÃO DA SE 230/69 KV TUCUMÃ 
E LT 230 KV ABUNÃ - RIO BRANCO C3 
25 / 52 
  
4.13. SE RIO BRANCO I - TRANSFORMADOR RBTF6-03 OU RBTF6-05 230/69/13,8 KV – 100 MVA 
Dispositivo de 
Sincronismo Ajustes 
Características dos Comutadores 
Comutador sob Carga Comutador em Vazio 
NI NI 
1 = 75,9 kV 
17 = 62,1 kV 
1 = 241,5 kV 
2 = 235,7 kV 
3 = 230 kV 
4 = 224,2 kV 
5 = 218,5 kV 
Tape em serviço = 3 
Notas / Restrições: NI 
4.14. SE RIO BRANCO I - AUTOTRANSFORMADOR RBAT6-01 OU 02 230/138 KV – 55 MVA 
Dispositivo de 
Sincronismo Ajustes 
Características dos Comutadores 
Comutador sob Carga Comutador em Vazio 
NI NI 1 = 151,8 kV 
17 = 124,2 kV Tape único 
Notas / Restrições: NI 
4.15. SE TUCUMÃ - AUTOTRANSFORMADOR TR-01 OU 02 230/69/13,8 KV – 150 MVA 
Dispositivo de 
Sincronismo Ajustes 
Características dos Comutadores 
Comutador sob Carga Comutador em Vazio 
NI NI 
1 = 257,6 kV 
29 = 193,2 kV Tape único 
Notas / Restrições: NI 
4.16. SE VILHENA - TRANSFORMADOR VNTF6-02 OU 03 230/69/13,8 KV – 60 MVA 
Dispositivo de 
Sincronismo Ajustes 
Características dos Comutadores 
Comutador sob Carga Comutador em Vazio 
NI NI 
1 = 75,9 kV 
17 = 62,1 kV 
1 = 241,5 kV 
2 = 235,7 kV 
3(N) = 230 kV 
4 = 224,2 kV 
5 = 218,5 kV 
Tape em serviço = 3 
Notas / Restrições: NI 
 
Manual de Procedimentos da Operação - Módulo 5 - Submódulo 5.11 
 Cadastro de Informações Operacionais Código Revisão Item Vigência 
Cadastro de Dados Operacionais de Equipamentos da área 230 kV Acre-Rondônia CD-CT.N.ACRO.01 64 2.1.4. 29/08/2024 
 
Referência:  26 / 52 
 
5. DADOS OPERACIONAIS DE UNIDADES GERADORAS HIDRAULICAS 
Orientações sobre os dados operacionais de unidades geradoras de usinas hidrelétricas:  
Código Único de Empreendimentos em Geração – CEG: está apresentado ao lado do nome da usina. O CEG permanece associado ao  empreendimento, 
independentemente de alteração de atributos ou de proprietários da usina. O número CEG é obtido no site da ANEEL. 
Campo “Unidade Geradora”: identifica cada unidade geradora conforme diagrama unifilar do Agente. 
Campo “Faixa de Tensão (kV)”: 
• Campo “Nom.”: indica a tensão nominal da unidade geradora, em kV. 
• Campo “Mín.”: indica a tensão mínima da unidade geradora, em kV. 
• Campo “Máx.”: indica a tensão máxima da unidade geradora, em kV. 
Campo “Potência Aparente (MVA)”: 
• Campo “Nom.”: indica a potência aparente nominal da unidade geradora, em MVA. 
• Campo “FP”: indica o fator de potência nominal da unidade geradora. 
Campo “Potência Reativa (Mvar)”: 
• Campo “Mín.”: indica a potência reativa mínima da unidade geradora, em Mvar, podendo ser referenciada a curva de capabilidade da unidade geradora. 
• Campo “Máx.”: indica a potência reativa máxima da unidade geradora, em Mvar, podendo ser referenciada a curva de capabilidade da unidade geradora. 
Campo “Faixa de Operação (MW)”: 
• Campo “Permitida”: indica a faixa de potência ativa permitida da unidade geradora, em MW, associada a um determinado nível do reservatório , caso 
necessário. 
• Campo “ Proibida”: indica a faixa de potência ativa máxima da unidade geradora , em MW, associada a um determinado nível do reservatório , caso 
necessário. 
Campo “Dispositivos de Sincronismo”: indica o disjuntor onde é efetuado o sincronismo da unidade geradora. 
Campo “Operação como Compensador Síncrono”: 
Manual de Procedimentos da Operação - Módulo 5 - Submódulo 5.11 
 Cadastro de Informações Operacionais Código Revisão Item Vigência 
Cadastro de Dados Operacionais de Equipamentos da área 230 kV Acre-Rondônia CD-CT.N.ACRO.01 64 2.1.4. 29/08/2024 
 
Referência:  27 / 52 
 
• Campo “Unidade Geradora”: indica a identificação de cada unidade geradora conforme diagrama unifilar do agente. 
• Campo “Conversão / Reversão (min)”: indica o tempo necessário para realizar a conversão de gerador para síncrono e síncrono para gerador, em minutos. 
Campo “Notas / Restrições”: campo opcional que indica informações relevantes a respeito da usina. 
Caso os dados operacionais não sejam informados pelo Agente, os campos são preenchidos com “NI” – não informado. 
Caso os dados operacionais não se apliquem, os campos são preenchidos com hifens “---”. 
5.1. UHE SAMUEL (CEG: UHE.PH.RO.002687-5.01) 
5.1.1. DADOS DAS UNIDADES GERADORAS DA UHE SAMUEL 
Unidade 
Geradora 
Tensão (kV)  Potência Aparente 
(MVA)  Potência Reativa (Mvar) Faixa de Operação 
(MW) Dispositivo 
de 
Sincronismo 
Operação como 
Compensador Síncrono 
Nom. Mín. Máx. Nom. FP Mín. Máx. Permitida Proibida Unidade 
Geradora 
Conversão 
/ Reversão 
(min) 
01 a 05 13,8 13,1 14,5 59,5 0,85 Ver curva capabilidade (*) (*) NI ---- ---- 
5.1.2. FAIXA OPERATIVA DAS UNIDADES GERADORAS DA UHE SAMUEL 
Queda Líquida 
(metros) 
Faixa Proibida 
(MW) 
Faixa Permitida 
(MW) 
Faixa Ótima 
(MW) 
21 0,0 – 20,0 20,0 – 29,9 20,0 – 29,9 
22 0,0 – 20,0 20,0 – 31,2 20,0 – 31,2 
23 0,0 – 20,0 20,0 – 32,6 20,0 – 32,6 
Manual de Procedimentos da Operação - Módulo 5 - Submódulo 5.11 
 Cadastro de Informações Operacionais Código Revisão Item Vigência 
Cadastro de Dados Operacionais de Equipamentos da área 230 kV Acre-Rondônia CD-CT.N.ACRO.01 64 2.1.4. 29/08/2024 
 
Referência:  28 / 52 
 
Queda Líquida 
(metros) 
Faixa Proibida 
(MW) 
Faixa Permitida 
(MW) 
Faixa Ótima 
(MW) 
24 0,0 – 20,0 20,0 – 34,0 20,0 – 34,0 
25 0,0 – 20,0 20,0 – 35,4 20,0 – 35,4 
26 0,0 – 20,0 20,0 – 36,7 20,0 – 36,7 
27 0,0 – 20,0 20,0 – 38,1 20,4 – 38,1 
28 0,0 – 20,0 20,0 – 39,5 20,7 – 39,5 
29 0,0 – 20,0 20,0 – 40,8 21,0 – 40,8 
30 0,0 – 20,0 20,0 – 42,2 21,3 – 42,2 
31 0,0 – 20,0 20,0 – 43,2 21,6 – 43,2 
32 0,0 – 20,0 20,0 – 43,2 22,0 – 43,2 
33 0,0 – 20,0 20,0 – 43,2 22,2 – 43,2 
5.1.3. CURVA DE CAPABILIDADE DAS UNIDADES GERADORAS DA UHE SAMUEL 
NI 
Manual de Procedimentos da Operação - Módulo 5 - Submódulo 5.11 
 Cadastro de Informações Operacionais Código Revisão Item Vigência 
Cadastro de Dados Operacionais de Equipamentos da área 230 kV Acre-Rondônia CD-CT.N.ACRO.01 64 2.1.4. 29/08/2024 
 
Referência:  29 / 52 
 
5.2. UHE RONDON II (CEG: UHE.PH.RO.027448-8.01) 
5.2.1. DADOS DAS UNIDADES GERADORAS DA UHE RONDON II 
Unidade 
Geradora 
Tensão (kV)  Potência Aparente 
(MVA)  Potência Reativa (Mvar) Faixa de Operação 
(MW) Dispositivo 
de 
Sincronismo 
Operação como 
Compensador Síncrono 
Nom. Mín. Máx. Nom. FP Mín. Máx. Permitida Proibida Unidade 
Geradora 
Conversão 
/ Reversão 
(min) 
01 a 03 13,8 13,1 14,5 27,23 0,9 Ver curva capabilidade (*) (*) NI --- --- 
5.2.2. FAIXA OPERATIVA DAS UNIDADES GERADORAS DA UHE RONDON II 
A capacidade nominal de geração de cada uma das unidades geradoras é 27,23 MVA, com o fator de potência nominal igual a 0,90. 
Estas unidades devem operar preferencialmente na faixa ótima, conforme tabela abaixo: 
Queda Líquida (metros) Faixa Proibida (MW) Faixa Permitida (MW) Faixa Ótima (MW) 
53,9 0 – 10 ou 21,00 – 22,05 10,00 – 21,00 --- 
54,0 0 – 10 ou 21,06 – 22,11 10,00 – 21,06 --- 
54,9 0 – 10 ou 21,59 – 22,67 10,00 – 21,56 17,20 – 19,70 
55,0 0 – 10 ou 21,65 – 22,73 10,00 – 21,62 17,23 – 19,76 
56,0 0 – 10 ou 22,24 – 23,35 10,00 – 22,18 17,53 – 20,32 
57,0 0 – 10 ou 22,82 – 23,96 10,00 – 22,75 17,83 – 20,88 
58,0 0 – 10 ou 23,41 – 24,58 10,00 – 23,31 18,12 – 21,43 
Manual de Procedimentos da Operação - Módulo 5 - Submódulo 5.11 
 Cadastro de Informações Operacionais Código Revisão Item Vigência 
Cadastro de Dados Operacionais de Equipamentos da área 230 kV Acre-Rondônia CD-CT.N.ACRO.01 64 2.1.4. 29/08/2024 
 
Referência:  30 / 52 
 
Queda Líquida (metros) Faixa Proibida (MW) Faixa Permitida (MW) Faixa Ótima (MW) 
59,0 0 – 10 ou 24,00 – 25,20 10,00 – 23,87 18,42 – 21,99 
60,0 0 – 10 ou 24,50 – 25,73 10,00 – 24,44 18,72 – 22,55 
61,0 0 – 10 ou 25,00 – 26,25 10,00 – 25,00  19,02 – 23,11 
62,0 0 – 10 ou 25,00 – 26,25 10,00 – 25,00  19,31 – 23,67 
63,0 0 – 10 ou 25,00 – 26,25 10,00 – 25,00 19,61 – 24,23  
63,25 0 – 10 ou 25,00 – 26,25  10,00 – 25,00 19,69 – 24,37 
63,3 --- --- 19,70 – 24,40 
 
Manual de Procedimentos da Operação - Módulo 5 - Submódulo 5.11 
 Cadastro de Informações Operacionais Código Revisão Item Vigência 
Cadastro de Dados Operacionais de Equipamentos da área 230 kV Acre-Rondônia CD-CT.N.ACRO.01 64 2.1.4. 29/08/2024 
 
Referência:  31 / 52 
 
5.2.3. CURVA DE CAPABILIDADE DAS UNIDADES GERADORAS DA UHE RONDON II 
 

Manual de Procedimentos da Operação - Módulo 5 - Submódulo 5.11 
 Cadastro de Informações Operacionais Código Revisão Item Vigência 
Cadastro de Dados Operacionais de Equipamentos da área 230 kV Acre-Rondônia CD-CT.N.ACRO.01 64 2.1.4. 29/08/2024 
 
Referência:  32 / 52 
 
5.3. UHE SANTO ANTÔNIO 230 KV (CEG: UHE.PH.RO.029707-0.01) 
5.3.1. DADOS DAS UNIDADES GERADORAS DA UHE SANTO ANTÔNIO 
Unidade 
Geradora 
Tensão (kV)  Potência Aparente 
(MVA)  Potência Reativa (Mvar) Faixa de Operação 
(MW) Dispositivo 
de 
Sincronismo 
Operação como 
Compensador Síncrono 
Nom. Mín. Máx. Nom. FP Mín. Máx. Permitida Proibida Unidade 
Geradora 
Conversão 
/ Reversão 
(min) 
45 a 50 13,8 13,1 14,5 82,25 0,90 Ver curva capabilidade --- --- NI NE --- 
5.3.2. CURVA DE CAPABILIDADE DAS UNIDADES GERADORAS 
 
  

Manual de Procedimentos da Operação - Módulo 5 - Submódulo 5.11 
 Cadastro de Informações Operacionais Código Revisão Item Vigência 
Cadastro de Dados Operacionais de Equipamentos da área 230 kV Acre-Rondônia CD-CT.N.ACRO.01 64 2.1.4. 29/08/2024 
 
Referência:  33 / 52 
 
6. DADOS OPERACIONAIS DE UNIDADES GERADORAS TÉRMICAS 
Orientações sobre os dados operacionais de unidades geradoras de usinas termelétricas:  
Código Único de Empreendimentos em Geração – CEG: está apresentado ao lado do nome da usina. O CEG permanece associado ao empreendimento, 
independentemente de alteração de atributos ou de proprietários da usina. O número CEG é obtido no site da ANEEL. 
Campo “Unidade Geradora”: indica a identificação de cada unidade geradora conforme diagrama unifilar do agente. 
Campo “Faixa de Tensão (kV)”: 
• Campo “Nom.”: indica a tensão nominal da unidade geradora, em kV. 
• Campo “Mín.”: indica a tensão mínima da unidade geradora, em kV. 
• Campo “Máx.”: indica a tensão máxima da unidade geradora, em kV. 
Campo “Potência Aparente (MVA)”: 
• Campo “Nom.”: indica a potência aparente nominal da unidade geradora, em MVA. 
• Campo “FP”: indica o fator de potência nominal da unidade geradora. 
Campo “Potência Reativa (Mvar)”: 
• Campo “Mín.”: indica a potência reativa mínima da unidade geradora, em Mvar, podendo ser referenciada a curva de capabilidade da unidade geradora. 
• Campo “Máx.”: indica a potência reativa máxima da unidade geradora, em Mvar, podendo ser referenciada a curva de capabilidade da unidade geradora. 
Campo “Faixa de Operação (MW)”: 
• • Campo “Permitida”: indica a faixa de potência ativa permitida da unidade geradora, em MW. 
• • Campo “Proibida”: indica a faixa de potência ativa máxima da unidade geradora, em MW. 
Campo “Acionamento”: indica o tipo de acionamento como: Motor (MOT), Turbina a Gás (TG), Turbina a Gás Heavy-Duty (TGHD), Turbina a Vapor (TV) ou cogeração 
(COG). 
Campo “Operação”: indica o tipo de operação como: Ciclo Aberto (ABT) ou Ciclo Combinado (CBN). 
Campo “Combustível Principal”: indica o tipo de combustível principal. 
Campo “Combustível Secundário”: indica o tipo de combustível secundário, caso exista. 
Manual de Procedimentos da Operação - Módulo 5 - Submódulo 5.11 
 Cadastro de Informações Operacionais Código Revisão Item Vigência 
Cadastro de Dados Operacionais de Equipamentos da área 230 kV Acre-Rondônia CD-CT.N.ACRO.01 64 2.1.4. 29/08/2024 
 
Referência:  34 / 52 
 
Campo “Dispositivos de Sincronismo” indica o disjuntor onde é efetuado o sincronismo da unidade geradora. 
Caso os dados operacionais não sejam informados pelo Agente, os campos são preenchidos com “NI” – não informado. 
Caso os dados operacionais não se apliquem, os campos são preenchidos com hifens “---”. 
Campo “ Configuração / Quantidade de UGs ”: indica cada configuração operacional possível para a usina. Para cada configuração operacional informada, são 
fornecidas as informações referentes às demais colunas da tabela. 
Campo “Potência (MW)”: 
• Campo “Mín.”: indica a potência mínima da unidade geradora, em MW, utilizado no DESSEM.  
• Campo “Máx.”: indicar a potência máxima da unidade geradora, em MW, utilizado no DESSEM. 
Campo “Tempo mínimo (horas)”: 
• Campo “Ton”: tempo mínimo, utilizado no DESSEM, que a usina deve permanecer em operação, inclui o tempo para atingir potência mínima (considerando 
partida fria) e tempo para desligamento a partir da potência mínima. 
• Campo “Toff”: tempo mínimo, utilizado no DESSEM, que a usina tem que permanecer desligada. 
Campo “Tempos (minutos)”: 
• Campo “Sincronismo” – indica o tempo necessário entre a partida da configuração / quantidade de unidades geradoras em condições fria, morna e quente, 
até o sincronismo com o SIN. 
• Campo “Potência Mínima” – indica o tempo necessário entre o sincronismo da configuração / quantidade de unidades geradoras em condições fria, morna 
e quente, até alcançar sua potência mínima. 
• Campo “Potência Máxima” – indica o tempo necessário entre o sincronismo das configurações / quantidade de unidades geradoras em condições fria, 
morna e quente, até alcançar sua potência máxima. 
• Campo “Desligamento” – indica o tempo necessário para o desligamento da unidade geradora a partir da potência mínima e máxima. 
Caso os dados operacionais não sejam informados pelo Agente, os campos são preenchidos com “NI” – não informado. 
Caso os dados operacionais não se apliquem, os campos são preenchidos com hifens “---”. 
Manual de Procedimentos da Operação - Módulo 5 - Submódulo 5.11 
 Cadastro de Informações Operacionais Código Revisão Item Vigência 
Cadastro de Dados Operacionais de Equipamentos da área 230 kV Acre-Rondônia CD-CT.N.ACRO.01 64 2.1.4. 29/08/2024 
 
Referência:  35 / 52 
 
6.1. UTE TERMONORTE II (CEG: UTE.GN.RO.028033-0.01) 
6.1.1. DADOS DAS UNIDADES GERADORAS DA UTE TERMONORTE II 
Unidade Geradora 
Tensão (kV) Potência 
Aparente(MVA) Potência Reativa (Mvar) Faixa de Operação (MW) 
Nom Mín Máx Nom FP Mín Máx Permitida Proibida Obs. 
TNUGG-01 a 03 13,8 13,1 14,5 85,9 0,9 35,74 (capacit.) 
24,29 (indut.) 
35,74 (capacit.) 
24,29 (indut.) > 37,5 < 37,5 (*) 
TNUGV 13,8 13,11 14,49 130,4 0,9 57,44 (capacit.) 
38,98 (indut.) 
57,44 (capacit.) 
38,98 (indut.) > 40 < 40 --- 
Detalhes da configuração da usina: 
(*) – 75,5 MW com combustível principal e 73,8 MW com combustível secundário. 
Nota 1: Tempo para nominação/contratação de combustível: 5 dias. 
Nota 2: Tempo para entrega de combustível: 3 dias. 
Nota 3: Tempo para preparação de usina que esteja em estado de conservação: Ciclo Simples: 1 dia e Ciclo Combinado: 7 dias. 
Unidade Geradora Acionamento Operação Combustível 
Principal 
Combustível 
Secundário Dispositivos de Sincronização 
TNUGG-01 a 03 Turbina a Gás Ciclo Aberto Gás natural OCTE – Óelo Destildado NI 
TNUGV Turbina a 
Vapor Ciclo Combinado Vapor Vapor NI 
Manual de Procedimentos da Operação - Módulo 5 - Submódulo 5.11 
 Cadastro de Informações Operacionais Código Revisão Item Vigência 
Cadastro de Dados Operacionais de Equipamentos da área 230 kV Acre-Rondônia CD-CT.N.ACRO.01 64 2.1.4. 29/08/2024 
 
Referência:  36 / 52 
 
6.1.2. DADOS RELACIONADOS À CONFIGURAÇÕES DE OPERAÇÃO DA UTE TERMONORTE II – COMBUSTÍVEL PRINCIPAL 
Configuração /  
Quantidade de UGs  
Potência (MW) Tempo Mínimo 
(horas) Tempos (minutos) 
Mín. Máx. Ton Toff 
Sincronismo  Potência 
Mínima  
Potência 
Máxima  Desligamento 
Fria 
Morna 
Quente 
Fria 
Morna 
Quente 
Fria 
Morna 
Quente 
Potência 
Mín. 
Potência 
Máx. 
TNUGG-01 37,6 75,9 12 12 60 60 60 60 60 60 60 60 60 6 10 
TNUGG-02 37,6 75,9 12 12 60 60 60 60 60 60 60 60 60 6 10 
TNUGG-03 37,6 75,9 12 12 60 60 60 60 60 60 60 60 60 6 10 
TNUGG-01 e TNUGG-02 75,2 151,80 12 12 60 60 60 60 60 60 60 60 60 6 10 
TNUGG-01; TNUGG-02 e TNUGG-03 112,8 227,70 12 12 60 60 60 60 60 60 60 60 60 6 10 
TNUGG-01; TNUGG-02 e TNUGV 155 232,67 12 12 300 300 150 300 300 150 300 300 150 6 9 
TNUGG-01; TNUGG-03 e TNUGV 155 232,67 12 12 300 300 150 300 300 150 300 300 150 6 9 
TNUGG-02; TNUGG-03 e TNUGV 155 232,67 12 12 300 300 150 300 300 150 300 300 150 6 9 
TNUGG-01; TNUGG-02; TNUGG-03 e TNUGV 233 349,00 12 12 300 300 150 300 300 150 300 300 150 6 9 
Tempo entre solicitação de geração pelo ONS e início do processo de sincronização (minutos): 
Após 30 dias sem ser despachada a planta entrará em processo de conservação. 
Caso a turbina a gás esteja a mais de 30 dias sem despachar, o tempo para partida será de 24 hs. 
Manual de Procedimentos da Operação - Módulo 5 - Submódulo 5.11 
 Cadastro de Informações Operacionais Código Revisão Item Vigência 
Cadastro de Dados Operacionais de Equipamentos da área 230 kV Acre-Rondônia CD-CT.N.ACRO.01 64 2.1.4. 29/08/2024 
 
Referência:  37 / 52 
 
Configuração /  
Quantidade de UGs  
Potência (MW) Tempo Mínimo 
(horas) Tempos (minutos) 
Mín. Máx. Ton Toff 
Sincronismo  Potência 
Mínima  
Potência 
Máxima  Desligamento 
Fria 
Morna 
Quente 
Fria 
Morna 
Quente 
Fria 
Morna 
Quente 
Potência 
Mín. 
Potência 
Máx. 
Caso o ciclo combinado esteja entre 30 e 60 dias parado, o tempo para a partida será de até 3 dias. 
Se o período não despachado for superior a 60 dias, o tempo para a partida será de até 7 dias. 
Os prazos citados são os necessários para que a planta saia do processo de conservação e reinicie a operação normal. 
Tempo decorrido após o desligamento da unidade geradora, considerado pelo agente como critério adotado para definir a condição de (minutos):NI 
Partida fria: NI Partida morna: NI Partida quente: NI 
Restrições para operação isolada de turbina a gás (ciclo aberto) em usinas de ciclo combinado: Não se Aplica 
Restrições relacionadas ao processo de cogeração: Não se Aplica 
Restrições quanto à quantidade de partidas por ano: 
1) Partida a Frio das Cadeiras Recuperadoras: 6 ao ano. 
2) Partida da Turbina a Vapor ao ano: Frio: 7 / Morna: 78 / Quente: 25. 
Outros tipos de restrições: 
Tempo máximo parado entre período de operação em situação de emergência: 2 horas. 
Tempo mínimo parado entre período de operação despachados pelo solicitante: 12 horas. 
Tempo mínimo de operação após partida despachada pelo solicitante: 12 horas. 
Manual de Procedimentos da Operação - Módulo 5 - Submódulo 5.11 
 Cadastro de Informações Operacionais Código Revisão Item Vigência 
Cadastro de Dados Operacionais de Equipamentos da área 230 kV Acre-Rondônia CD-CT.N.ACRO.01 64 2.1.4. 29/08/2024 
 
Referência:  38 / 52 
 
Configuração /  
Quantidade de UGs  
Potência (MW) Tempo Mínimo 
(horas) Tempos (minutos) 
Mín. Máx. Ton Toff 
Sincronismo  Potência 
Mínima  
Potência 
Máxima  Desligamento 
Fria 
Morna 
Quente 
Fria 
Morna 
Quente 
Fria 
Morna 
Quente 
Potência 
Mín. 
Potência 
Máx. 
Os tempos apresentados acima, são de condições normais de operação e nas condições de referência do projeto: (i) Temp. = 32ºC , (ii) Umid. Relativa = 80%, (iii) 
Altitude – 65 metros acima do nível do mar e (iv) Fator de potência = 0,9 atrasado. 
6.1.3. DADOS RELACIONADOS À CONFIGURAÇÕES DE OPERAÇÃO DA UTE TERMONORTE II– COMBUSTÍVEL SECUNDÁRIO 
Configuração / 
Quantidade de UGs 
Potência 
(MW) 
Tempo Mínimo 
(horas) Tempos (minutos) 
Mín. Máx. Ton Toff 
Sincronismo  Potência 
Mínima  Potência Máxima  Desligamento 
Fria 
Morna 
Quente 
Fria 
Morna 
Quente 
Fria 
Morna 
Quente 
Potência 
Mín. 
Potência 
Máx 
TNUGG-01 37,6 75,9 12 12 60 60 60 60 60 60 60 60 60 6 10 
TNUGG-02 37,6 75,9 12 12 60 60 60 60 60 60 60 60 60 6 10 
TNUGG-03 37,6 75,9 12 12 60 60 60 60 60 60 60 60 60 6 10 
Manual de Procedimentos da Operação - Módulo 5 - Submódulo 5.11 
 Cadastro de Informações Operacionais Código Revisão Item Vigência 
Cadastro de Dados Operacionais de Equipamentos da área 230 kV Acre-Rondônia CD-CT.N.ACRO.01 64 2.1.4. 29/08/2024 
 
Referência:  39 / 52 
 
Configuração / 
Quantidade de UGs 
Potência 
(MW) 
Tempo Mínimo 
(horas) Tempos (minutos) 
Mín. Máx. Ton Toff 
Sincronismo  Potência 
Mínima  Potência Máxima  Desligamento 
Fria 
Morna 
Quente 
Fria 
Morna 
Quente 
Fria 
Morna 
Quente 
Potência 
Mín. 
Potência 
Máx 
TNUGG-01 e TNUGG-02 75,2 151,80 12 12 60 60 60 60 60 60 60 60 60 6 10 
TNUGG-01; TNUGG-02 e TNUGG-03 112,8 227,70 12 12 60 60 60 60 60 60 60 60 60 6 10 
TNUGG-01; TNUGG-02 e TNUGV 155 232,67 12 12 300 300 150 300 300 150 300 300 150 6 9 
TNUGG-01; TNUGG-03 e TNUGV 155 232,67 12 12 300 300 150 300 300 150 300 300 150 6 9 
TNUGG-02; TNUGG-03 e TNUGV 155 232,67 12 12 300 300 150 300 300 150 300 300 150 6 9 
TNUGG-01; TNUGG-02; TNUGG-03 e 
TNUGV 233 349,00 12 12 300 300 150 300 300 150 300 300 150 6 9 
Tempo entre solicitação de geração pelo ONS e início do processo de sincronização (minutos):  
Após 30 dias sem ser despachada a planta entrará em processo de conservação.  
Caso a turbina a gás esteja a mais de 30 dias sem despachar, o tempo para partida será de 24 hs. 
Caso o ciclo combinado esteja entre 30 e 60 dias parado, o tempo para a partida será de até 3 dias.  
Se o período não despachado for superior a 60 dias, o tempo para a partida será de até 7 dias.  
Os prazos citados são os necessários para que a planta saia do processo de conservação e reinicie a operação normal. 
Tempo decorrido após o desligamento da unidade geradora, considerado pelo agente como critério adotado para definir a condição de (minutos):NI 
Manual de Procedimentos da Operação - Módulo 5 - Submódulo 5.11 
 Cadastro de Informações Operacionais Código Revisão Item Vigência 
Cadastro de Dados Operacionais de Equipamentos da área 230 kV Acre-Rondônia CD-CT.N.ACRO.01 64 2.1.4. 29/08/2024 
 
Referência:  40 / 52 
 
Configuração / 
Quantidade de UGs 
Potência 
(MW) 
Tempo Mínimo 
(horas) Tempos (minutos) 
Mín. Máx. Ton Toff 
Sincronismo  Potência 
Mínima  Potência Máxima  Desligamento 
Fria 
Morna 
Quente 
Fria 
Morna 
Quente 
Fria 
Morna 
Quente 
Potência 
Mín. 
Potência 
Máx 
Partida fria: NI Partida morna: NI Partida quente: NI 
Restrições para operação isolada de turbina a gás(ciclo aberto) em usinas de ciclo combinado: Não se Aplica 
Restrições relacionadas ao processo de cogeração: Não se Aplica 
Restrições quanto à quantidade de partidas por ano:  
1) Partida a Frio das Cadeiras Recuperadoras: 6 ao ano. 
2) Partida da Turbina a Vapor ao ano: Frio: 7 / Morna: 78 / Quente: 25. 
Outros tipos de restrições: 
Tempo máximo parado entre período de operação em situação de emergência: 2 horas. 
Tempo mínimo parado entre período de operação despachados pelo solicitante: 12 horas. 
Tempo mínimo de operação após partida despachada pelo solicitante: 12 horas. 
Os tempos apresentados acima, são de condições normais de operação e nas condições de referência do projeto: (i) Temp. = 32ºC , (ii) Umid. Relativa = 80%, (iii) 
Altitude – 65 metros acima do nível do mar e (iv) Fator de potencia = 0,9 atrasado. 
 
Manual de Procedimentos da Operação - Módulo 5 - Submódulo 5.11 
 Cadastro de Informações Operacionais Código Revisão Item Vigência 
Cadastro de Dados Operacionais de Equipamentos da área 230 kV Acre-Rondônia CD-CT.N.ACRO.01 64 2.1.4. 29/08/2024 
 
Referência:  41 / 52 
 
6.1.4. CURVA DE CAPABILIDADE DAS UNIDADES GERADORAS DA UTE TERMONORTE II 
NI 
 
Manual de Procedimentos da Operação - Módulo 5 - Submódulo 5.11 
 Cadastro de Informações Operacionais Código Revisão Item Vigência 
Cadastro de Dados Operacionais de Equipamentos da 
área 230 kV Acre-Rondônia CD-CT.N.ACRO.01 64 2.1.4. 29/08/2024 
 
Referência: E-mail da Eletronorte do dia 05/05/2023. 42 / 52 
  
7. DADOS OPERACIONAIS DE COMPENSADORES SÍNCRONOS 
Orientações sobre os dados operacionais de compensadores: 
• Campo “ Identificação Operacional ”: consta o código identificador do compensador, conforme 
diagrama unifilar do agente. 
• Campo “Tensão Nominal (kV)”: indica a tensão nominal do compensador 
• Campo “Potência Nominal (Mvar) ”: indica a potência reativa mínima e máxima, em Mvar , do 
compensador, podendo ser referenciada a sua curva de capabilidade. 
• Campo “Barramento para Controle de Tensão”: indica o barramento de referência de tensão para 
o compensador. 
• Campo “Tempo de Partida”: indica o tempo de partida do compensador, em minutos. 
• Campo “Tempo de Resfriamento”: indica o tempo de resfriamento do compensador, em minutos. 
• Campo “Tempo de Parada”: indica o tempo de parada do compensador sem freio e com freio, em 
minutos. 
• Campo “Tempo de Parada com freio” : indica o tempo de parada do compensador, em minutos, 
considerando o uso de freios elétricos e mecânicos.  
• Campo “Tempo de Parada sem freio” : indica o tempo de parada do compensador, em minutos, 
considerando a ausência de freios elétricos e mecânicos. Campo “Tempo para energização após 
desligamento”: é o tempo entre abertura dos disjuntores desconectando esse equipamento do 
sistema e o fechamento dos disjuntores reconectando o equipamento no sistema. 
• Campo “Notas /  Restrições”: campo opcional que  indica informações relevantes a respeito do 
compensador. 
Caso os dados operacionais não sejam informados pelo Agente, os campos são preenchidos com “NI” – não 
informado. 
Caso os dados operacionais não se apliquem, os campos são preenchidos com hifens “---”. 
7.1. SE ARIQUEMES – COMPENSADOR SÍNCRONO AQCS2-01 (-90 / +150 MVAR) 
Instalação Identificação 
Operacional 
Potência 
Nominal 
(Mvar) 
Barramento 
para controle 
de tensão 
Tempo de 
Parada 
(min) 
Tempo de 
partida 
(min) 
Tempo para 
energização após 
desligamento 
(min) Sem 
Freio 
Com 
Freio  
SE 
Ariquemes AQCS2-01 -90 /+150 230 kV 180 30 10 40 (vide obs.) 
Notas / Restrições: 
Caso os freios (com regeneração) e mecânico estejam disponíveis, o tempo de parada é de 30 minutos. 
Caso o freio elétrico (com regeneração) esteja indisponível, o tempo de parada com freio mecânico (sem 
regeneração) é de 45 minutos. Caso o freio elétrico opere e o freio mecânico não, o tempo de parada é de até 
60 minutos. 
Caso ambos os tipos de frenagem (elétrica e mecânica) estejam indisponíveis, o tempo de parada é de até 180 
Manual de Procedimentos da Operação - Módulo 5 - Submódulo 5.11 
 Cadastro de Informações Operacionais Código Revisão Item Vigência 
Cadastro de Dados Operacionais de Equipamentos da 
área 230 kV Acre-Rondônia CD-CT.N.ACRO.01 64 2.1.4. 29/08/2024 
 
Referência: E-mail da Eletronorte do dia 05/05/2023. 43 / 52 
  
Instalação Identificação 
Operacional 
Potência 
Nominal 
(Mvar) 
Barramento 
para controle 
de tensão 
Tempo de 
Parada 
(min) 
Tempo de 
partida 
(min) 
Tempo para 
energização após 
desligamento 
(min) Sem 
Freio 
Com 
Freio  
minutos. 
No caso de desligamento da rede os compensadores síncronos entrarão em processo de parada por inércia, 
sem regeneração de potência e com aplicação de freio mecânico a partir da rotação de 30% da velocidade 
nominal. 
A sua partida só será possível após o término deste processo e consequente comando de partida, com energia 
da rede disponível e conectada no barramento blindado dos compensadores síncronos. 
A partida do s compensadores síncronos é sujeita à condiç ão de permissão, conhecida como “controle para 
preparação de partida”. Após o comando de religamento da máquina, a entrada dos compensadores síncronos 
no sistema é completamente automática. 
O processo total desde o comando de religamento da máquina até sua efetiva sincronização dura até 10 
minutos. 
Considerando que todos os sistemas auxiliares já estejam em operação, o processo de partida suave, desde a 
retirada da inércia até a sincronização no sistema tem duração em torno de 5 minutos. 
Obs: O tempo para energização após desligamento leva em consideração o tempo de parada com freio 
acrescido do tempo desde o comando religamento da máquina até sua efetiva sincronização. 
7.2. SE JI-PARANÁ – COMPENSADOR SÍNCRONO JPCS2-01 (-90 / +150 MVAR) 
Instalação Identificação 
Operacional 
Potência 
Nominal 
(Mvar) 
Barramento 
para controle 
de tensão 
Tempo de 
Parada 
(min) 
Tempo de 
partida 
(min) 
Tempo para 
energização após 
desligamento 
(min) Sem 
Freio 
Com 
Freio  
SE Ji-Paraná JPCS2-01 -90 /+150 230 kV 180 30 10 40 (vide obs.) 
Notas / Restrições: 
Caso os freios (com regeneração) e mecânico estejam disponíveis, o tempo de parada é de 30 minutos. 
Caso o freio elétrico (com regeneração) esteja indisponível, o tempo de parada com freio mecânico (sem 
regeneração) é de 45 minutos. 
Caso o freio elétrico opere e o freio mecânico não, o tempo de parada é de até 60 minutos. 
Caso ambos os tipos de frenagem (elétrica e mecânica) estejam indisponíveis, o tempo de parada é de até 180 
minutos. 
No caso de desligamento da rede os compensadores síncronos entrarão em processo de parada por inércia, 
sem regeneração de potência e com aplicação de freio mecânico a partir da rotação de 30% da velocidade 
nominal. 
A sua partida só será possível após o término deste processo e consequente comando de partida, com energia 
da rede disponível e conectada no barramento blindado dos compensadores síncronos. 
Manual de Procedimentos da Operação - Módulo 5 - Submódulo 5.11 
 Cadastro de Informações Operacionais Código Revisão Item Vigência 
Cadastro de Dados Operacionais de Equipamentos da 
área 230 kV Acre-Rondônia CD-CT.N.ACRO.01 64 2.1.4. 29/08/2024 
 
Referência: E-mail da Eletronorte do dia 05/05/2023. 44 / 52 
  
Instalação Identificação 
Operacional 
Potência 
Nominal 
(Mvar) 
Barramento 
para controle 
de tensão 
Tempo de 
Parada 
(min) 
Tempo de 
partida 
(min) 
Tempo para 
energização após 
desligamento 
(min) Sem 
Freio 
Com 
Freio  
A partida do s compensadores síncronos é sujeita à condiç ão de permissão, conhecida como “controle para 
preparação de partida”. Após o comando de religamento da máquina, a entrada dos compensadores síncronos 
no sistema é completamente automática. 
O processo total desde o comando de religamento da máquina até sua efetiva sincronização dura até 10 
minutos. 
Considerando que todos os sistemas auxiliares já estejam em operação, o processo de partida suave, desde a 
retirada da inércia até a sincronização no sistema tem duração em torno de 5 minutos. 
Obs: O tempo para energização após desligamento leva em consideração o tempo de parada com freio 
acrescido do tempo desde o comando religamento da máquina até sua efetiva sincronização. 
8. DADOS OPERACIONAIS DE COMPENSADORES ESTÁTICOS 
Orientações sobre os dados operacionais de compensadores: 
• Campo “ Identificação Operacional ”: consta o código identificador do compensador, conforme 
diagrama unifilar do agente. 
• Campo “Tensão Nominal (kV)”: indica a tensão nominal do compensador. 
• Campo “Potência Nominal (Mvar) ”: indica a potência reativa mínima e máxima, em Mvar , do 
compensador, podendo ser referenciada a sua curva de capabilidade. 
• Campo “Barramento para Controle de Tensão”: indica o barramento de referência de tensão para 
o compensador. 
• Campo “Tempo de Resfriamento”: indica o tempo de resfriamento do compensador, em minutos. 
• Campo “Tempo para energização após desligamento ”: é o tempo entre abertura dos disjuntores 
desconectando esse equipamento do sistema e o fechamento dos disjuntores reconectando o 
equipamento no sistema. 
• Campo “ Notas / Restrições ”: campo opcional que  indica informações relevantes a respeito do 
compensador. 
Caso os dados operacionais não sejam informados pelo Agente, os campos são preenchidos com “NI” – não 
informado. 
Caso os dados operacionais não se apliquem, os campos são preenchidos com hifens “---”. 
8.1. SE VILHENA – COMPENSADOR ESTÁTICO VNCE2-01 (-50 / + 100 MVAR) 
Identificação 
Operacional 
Tensão 
Nominal (kV) 
Potência 
Nominal 
(Mvar) 
Barramento 
para Controle de 
Tensão 
Tempo de 
Resfriamento 
(min) 
Tempo para 
energização após 
desligamento (min) 
VNCE2-01 22 kV - 50 / + 100 230 kV 10 10 
Manual de Procedimentos da Operação - Módulo 5 - Submódulo 5.11 
 Cadastro de Informações Operacionais Código Revisão Item Vigência 
Cadastro de Dados Operacionais de Equipamentos da 
área 230 kV Acre-Rondônia CD-CT.N.ACRO.01 64 2.1.4. 29/08/2024 
 
Referência: E-mail da Eletronorte do dia 05/05/2023. 45 / 52 
  
Identificação 
Operacional 
Tensão 
Nominal (kV) 
Potência 
Nominal 
(Mvar) 
Barramento 
para Controle de 
Tensão 
Tempo de 
Resfriamento 
(min) 
Tempo para 
energização após 
desligamento (min) 
Notas / Restrições: Tempo necessário para acesso a parte ativa para manutenção: 10 min após 
desligamento. 
 
Modos de Operação em função de disponibilidade dos elementos 
Modos TCR F1 – Filtro de 5º 
harmônico 
F2 – Filtro de 7º 
harmônico 
Faixa de Operação 
(MVar) 
1 - Normal Ligado Ligado Ligado - 50 / + 100 
8.2. SE RIO BRANCO I – COMPENSADOR ESTÁTICO RBCE2-01 (-20 / +55 MVAR) 
Identificação 
Operacional 
Tensão 
Nominal (kV) 
Potência 
Nominal 
(Mvar) 
Barramento 
para Controle de 
Tensão 
Tempo de 
Resfriamento 
(min) 
Tempo para 
energização após 
desligamento (min) 
RBCE2-01 13,9 kV - 20 / + 55 230 kV 10 10 
Notas / Restrições: Tempo necessário para acesso a parte ativa para manutenção: 35 min após 
desligamento. 
 
Modos de Operação em função de disponibilidade dos elementos 
Modos TCR F1  F2 
Faixa de Operação 
(MVar) 
1 - Normal Ligado Ligado Ligado - 20 / + 55 
9. DADOS OPERACIONAIS DE BANCOS DE CAPACITORES 
Orientações sobre os dados operacionais de banco de capacitores: 
• Campo “Identificação Operacional ”: identificação do banco de capacitores, conforme diagrama 
unifilar do agente. 
• Campo “Tensão Nominal (kV)”: indica a tensão nominal dos bancos de capacitores. 
• Campo “Potência Nominal (Mvar)”: indica a potência nominal dos bancos de capacitores. 
• Campo “Tempo para energização após desligamento” : é o tempo entre abertura dos disjuntores 
desconectando esse equipamento do sistema e o fechamento dos disjuntores reconectando o 
equipamento no sistema. 
• Campo “Notas / Restrições” : campo opcional que indica informações relevantes a respeito dos 
bancos de capacitores.  
Manual de Procedimentos da Operação - Módulo 5 - Submódulo 5.11 
 Cadastro de Informações Operacionais Código Revisão Item Vigência 
Cadastro de Dados Operacionais de Equipamentos da 
área 230 kV Acre-Rondônia CD-CT.N.ACRO.01 64 2.1.4. 29/08/2024 
 
Referência: E-mail da Eletronorte do dia 05/05/2023. 46 / 52 
  
Caso os dados operacionais não sejam informados pelo Agente, os campos são preenchidos com “NI” – não 
informado.  
Caso os dados operacionais não se apliquem, os campos são preenchidos com hifens “---”. 
9.1. SE JI-PARANÁ – BANCOS DE CAPACITORES JPBC6-01, 02 E 03 230 KV / 18,5 MVAR  
Identificação 
Operacional Tensão Nominal (kV) Potência Nominal 
(Mvar) 
Tempo para Energização 
após desligamento 
JPBC6-01 230 18,5 10 minutos 
JPBC6-02 230 18,5 10 minutos 
JPBC6-03 230 18,5 10 minutos 
Notas / Restrições: NI 
9.2. SE PIMENTA BUENO – BANCO DE CAPACITORES PBBC6-01, 02 E 03 230 KV / 18,5 MVAR 
Identificação 
Operacional Tensão Nominal (kV) Potência Nominal 
(Mvar) 
Tempo para Energização 
após desligamento 
PBBC6-01 230 18,5 10 minutos 
PBBC6-02 230 18,5 10 minutos 
PBBC6-03 230 18,5 10 minutos 
Notas / Restrições: NI 
9.3. SE RIO BRANCO I – BANCOS DE CAPACITORES RBBC6-01 230 KV / 18,5 MVAR E RBBC6-02, 03, 04 E 
05 230 KV / 30 MVAR 
Identificação 
Operacional Tensão Nominal (kV) Potência Nominal 
(Mvar) 
Tempo para Energização 
após desligamento 
RBBC6-01 230 18,5 10 minutos 
RBBC6-02 230 30 10 minutos 
RBBC6-03 230 30 10 minutos 
RBBC6-04 230 30 10 minutos 
RBBC6-05 230 30 10 minutos 
Notas / Restrições: NI 
Manual de Procedimentos da Operação - Módulo 5 - Submódulo 5.11 
 Cadastro de Informações Operacionais Código Revisão Item Vigência 
Cadastro de Dados Operacionais de Equipamentos da 
área 230 kV Acre-Rondônia CD-CT.N.ACRO.01 64 2.1.4. 29/08/2024 
 
Referência: E-mail da Eletronorte do dia 05/05/2023. 47 / 52 
  
9.4. SE VILHENA – BANCOS DE CAPACITORES VNBC66-01, 02 E 03 230 KV / 18,5 MVAR  
Identificação 
Operacional Tensão Nominal (kV) Potência Nominal 
(Mvar) 
Tempo para Energização 
após desligamento 
VNBC6-01 230 18,5 10 minutos 
VNBC6-02 230 18,5 10 minutos 
VNBC6-03 230 18,5 10 minutos 
Notas / Restrições: NI 
10. DADOS OPERACIONAIS DE BANCOS DE CAPACITORES SÉRIE 
Orientações sobre os dados operacionais de banco de capacitores:  
• Campo “Identificação Operacional ”: identificação do banco de capacitores, conforme diagrama 
unifilar do agente. 
• Campo “Tensão Nominal (kV)”: indica a tensão nominal dos bancos de capacitores. 
• Campo “Potência Nominal (Mvar)”: indica a potência nominal dos bancos de capacitores. 
• Campo “Tempo para energização após desligamento” : é o tempo entre abertura dos disjuntores 
desconectando esse equipamento do sistema e o fechamento dos disjuntores reconectando o 
equipamento no sistema. 
• Campo “Notas / Restrições” : campo opcional que indica informações relevantes a respeito dos 
bancos de capacitores.  
Caso os dados operacionais não sejam informados pelo Agente, os campos são preenchidos com “NI” – não 
informado.  
Caso os dados operacionais não se apliquem, os campos são preenchidos com hifens “---”. 
Manual de Procedimentos da Operação - Módulo 5 - Submódulo 5.11 
 Cadastro de Informações Operacionais Código Revisão Item Vigência 
Cadastro de Dados Operacionais de Equipamentos da 
área 230 kV Acre-Rondônia CD-CT.N.ACRO.01 64 2.1.4. 29/08/2024 
 
Referência: E-mail da Eletronorte do dia 05/05/2023. 48 / 52 
  
10.1. SE VILHENA – BANCO DE CAPACITOR SÉRIE VNCL6-01 230 KV / 110 MVAR DA LT 230 KV JAURU / 
VILHENA C1............ 
Identificação 
Operacional Tensão Nominal (kV) Potência Nominal 
(Mvar) 
Tempo para Energização 
após desligamento 
VNCL6-01 230 110 Ver itens a seguir 
Notas / Restrições: NI 
10.1.1. SE VILHENA – BANCO DE CAPACITOR SÉRIE VNCL6-01 230 KV / 110 MVAR DA LT 230 KV JAURU / 
VILHENA C1 – CURVA CARACTERÍSTICA TENSÃO X CORRENTE  
 

Manual de Procedimentos da Operação - Módulo 5 - Submódulo 5.11 
 Cadastro de Informações Operacionais Código Revisão Item Vigência 
Cadastro de Dados Operacionais de Equipamentos da 
área 230 kV Acre-Rondônia CD-CT.N.ACRO.01 64 2.1.4. 29/08/2024 
 
Referência: E-mail da Eletronorte do dia 05/05/2023. 49 / 52 
  
10.1.2. SE VILHENA – BANCO DE CAPACITOR SÉRIE VNCL6-01 230 KV / 110 MVAR DA LT 230 KV JAURU / 
VILHENA C1 – CURVA RESFRIAMENTO DO MOV TEMPERATURA X TEMPO  
 

Manual de Procedimentos da Operação - Módulo 5 - Submódulo 5.11 
 Cadastro de Informações Operacionais Código Revisão Item Vigência 
Cadastro de Dados Operacionais de Equipamentos da 
área 230 kV Acre-Rondônia CD-CT.N.ACRO.01 64 2.1.4. 29/08/2024 
 
Referência: E-mail da Eletronorte do dia 05/05/2023. 50 / 52 
  
10.2. SE VILHENA – BANCOS DE CAPACITOR SÉRIE VNCL6 - 02 230 KV / 110 MVAR DA LT 230 KV JAURU / 
VILHENA C2.................. 
Identificação 
Operacional Tensão Nominal (kV) Potência Nominal 
(Mvar) 
Tempo para Energização 
após desligamento 
VNCL6-02 230 110 Ver itens a seguir 
Notas / Restrições: NI 
10.2.1. SE VILHENA – BANCO DE CAPACITOR SÉRIE VNCL6-02 230 KV / 110 MVAR DA LT 230 KV JAURU / 
VILHENA C2 – CURVA CARACTERÍSTICA TENSÃO X CORRENTE  
 

Manual de Procedimentos da Operação - Módulo 5 - Submódulo 5.11 
 Cadastro de Informações Operacionais Código Revisão Item Vigência 
Cadastro de Dados Operacionais de Equipamentos da 
área 230 kV Acre-Rondônia CD-CT.N.ACRO.01 64 2.1.4. 29/08/2024 
 
Referência: E-mail da Eletronorte do dia 05/05/2023. 51 / 52 
  
10.2.2. SE VILHENA – BANCO DE CAPACITOR SÉRIE VNCL6-01 230 KV / 110 MVAR DA LT 230 KV JAURU / 
VILHENA C1 – CURVA RESFRIAMENTO DO MOV TEMPERATURA X TEMPO  
 

Manual de Procedimentos da Operação - Módulo 5 - Submódulo 5.11 
 Cadastro de Informações Operacionais Código Revisão Item Vigência 
Cadastro de Dados Operacionais de Equipamentos da 
área 230 kV Acre-Rondônia CD-CT.N.ACRO.01 64 2.1.4. 29/08/2024 
 
Referência: E-mail da Eletronorte do dia 05/05/2023. 52 / 52 
  
10.3. SE VILHENA – BANCOS DE CAPACITOR SÉRIE VNCL6-03 230 KV / 115,93 MVAR DA LT 230 KV JAURU 
/ VILHENA C3......................... 
Identificação 
Operacional Tensão Nominal (kV) Potência Nominal 
(Mvar) 
Tempo para Energização 
após desligamento 
VNCL6-03 230 115,93 Ver itens a seguir 
Notas / Restrições: NI 
10.3.1. SE VILHENA – BANCO DE CAPACITOR SÉRIE VNCL6-03 230 KV / 115,93 MVAR DA LT 230 KV JAURU / 
VILHENA C3 – CURVA CARACTERÍSTICA TENSÃO X CORRENTE 
 
 

