Manual de Procedimentos da Operação
Módulo 5 - Submódulo 5.11
Cadastro de Informações Operacionais.
CADASTRO DE LIMITES OPERACIONAIS DE LINHAS DE TRANSMISSÃO E 
TRANSFORMADORES DA ÁREA 500/230 KV DO MARANHÃO
Código Revisão Item Vigência
CD-CT.NE.5MA.02 54 2.2.3 08/01/2024
MOTIVO DA REVISÃO
- Exclusão da LT 138 kV Coletora Delta 3 / Elevadora Paulino Neves;
- Início da Operação do Transformador MRTF6-03 230/69 kV da SE Miranda II, incluindo o subitem 5.25.
LISTA DE DISTRIBUIÇÃO
ARGO CNOS COSR-NCO COTESA EDPC
ELETRONORTE ENCRUZO GERANORTE STEAG UTE PORTO DO ITAQUI
Manual de Procedimentos da Operação - Módulo 5 - Submódulo 5.11
 Cadastro de Informações Operacionais Código Revisão Item Vigência
CADASTRO DE LIMITES OPERACIONAIS DE LINHAS DE 
TRANSMISSÃO E TRANSFORMADORES DA ÁREA 
500/230 KV DO MARANHÃO
CD-
CT.NE.5MA.02 54 2.2.3 08/01/2024
Referência: 2 / 55
ÍNDICE
1. OBJETIVO.........................................................................................................................................5
2. CONCEITOS ......................................................................................................................................5
3. CONSIDERAÇÕES GERAIS .................................................................................................................7
4. LIMITES DE CARREGAMENTO DE LINHAS DE TRANSMISSÃO.............................................................9
4.1. LT 500 kV Bacabeira / São Luís II C1 ..............................................................................................9
4.2. LT 500 kV Bacabeira / São Luís II C2 ..............................................................................................9
4.3. LT 500 kV Miranda II / Elevadora Paulino Neves.........................................................................10
4.4. LT 500 kV Miranda II / São Luís II C3............................................................................................10
4.5. LT 500 kV São Luís II / São Luís IV C1 ...........................................................................................11
4.6. LT 500 kV São Luís II / São Luís IV C2 ...........................................................................................11
4.7. LT 230 kV Caxias II / Coelho Neto................................................................................................12
4.8. LT 230 kV Chapadinha II / Coelho Neto.......................................................................................12
4.9. LT 230 kV Chapadinha II / Miranda II ..........................................................................................12
4.10. LT 230 kV Coelho Neto / Teresina ...............................................................................................13
4.11. LT 230 kV Geranorte / Miranda II................................................................................................13
4.12. LT 230 kV Imperatriz / Porto Franco C1 ......................................................................................14
4.13. LT 230 kV Imperatriz / Porto Franco C2 ......................................................................................14
4.14. LT 230 kV Miranda II / Encruzo Novo ..........................................................................................14
4.15. LT 230 kV Miranda II / Peritoró ...................................................................................................15
4.16. LT 230 kV Peritoró / Caxias II.......................................................................................................15
4.17. LT 230 kV Presidente Dutra / Peritoró ........................................................................................16
4.18. LT 230 kV Ribeiro Gonçalves / Balsas ..........................................................................................16
4.19. LT 230 kV São Luís II / Miranda II.................................................................................................16
4.20. LT 230 kV São Luís II / São Luís I – C1 ..........................................................................................17
4.21. LT 230 kV São Luís II / São Luís I – C2 ..........................................................................................17
4.22. LT 230 kV São Luís II / São Luís III C1 ...........................................................................................18
4.23. LT 230 kV São Luís II / São Luís III C2 ...........................................................................................18
4.24. LT 230 kV São Luís II / São Luís IV ................................................................................................18
4.25. LT 230 kV UTE Porto do Itaqui / São Luís IV ................................................................................19
Manual de Procedimentos da Operação - Módulo 5 - Submódulo 5.11
 Cadastro de Informações Operacionais Código Revisão Item Vigência
CADASTRO DE LIMITES OPERACIONAIS DE LINHAS DE 
TRANSMISSÃO E TRANSFORMADORES DA ÁREA 
500/230 KV DO MARANHÃO
CD-
CT.NE.5MA.02 54 2.2.3 08/01/2024
Referência: 3 / 55
5. LIMITES DE CARREGAMENTO DE TRANSFORMADORES ..................................................................20
5.1. SE Balsas – Autotransformador BSTF6 - 01 de 230/69/13,8 kV – 100 MVA................................20
5.2. SE Balsas – Autotransformador BSTF6 - 02 de 230/69/13,8 kV – 100 MVA................................20
5.3. SE Caxias II - Transformador CXTF6-01 de 230/69/13,8 kV - 100 MVA .......................................21
5.4. SE Caxias II - Transformador CXTF6-02 de 230/69/13,8 kV - 100 MVA .......................................22
5.5. SE Chapadinha II –  Transformador TR1 de 230/69/13,8 kV - 100 MVA .....................................22
5.6. SE Chapadinha II –  Transformador TR2 de 230/69/13,8 kV - 100 MVA .....................................23
5.7. SE Coelho Neto – Transformador CHTF6 - 01 de 230/69/13,8 kV – 65 MVA ..............................24
5.8. SE Coelho Neto – Transformador CHTF6 - 02 de 230/69/13,8 kV – 65 MVA ..............................24
5.9. SE Elevadora Paulino Neves – Autotransformador 05T1 de 500/138/13,8 KV - 360 MVA .........25
5.10. SE Elevadora Paulino Neves – Autotransformador 05T2 de 500/138/13,8 KV - 360 MVA .........26
5.11. SE Encruzo Novo – Autotransformador 7TR01 de 230/69/13,8 kV – 100 MVA ..........................26
5.12. SE Encruzo Novo – Autotransformador 7TR02 de 230/69/13,8 kV – 100 MVA ..........................27
5.13. SE Imperatriz –  Autotransformador IZAT7-01 de 550/230/13,8 kV - 600 MVA .........................28
5.14. SE Imperatriz –  Autotransformador IZAT7-02 de 550/242/13,8 kV - 450 MVA .........................28
5.15. SE Imperatriz – Transformador IZTF6 - 03 de 230/69/13,8 KV - 100 MVA..................................29
5.16. SE Imperatriz – Transformador IZTF6 - 04 de 230/69/13,8 KV - 100 MVA..................................30
5.17. SE Imperatriz – Transformador IZTF6 - 05 de 230/69/13,8 KV - 100 MVA..................................30
5.18. SE Miranda II –  Autotransformador MRAT6 – 01 de 230/138/13,8 kV - 100 MVA ....................31
5.19. SE Miranda II –  Autotransformador MRAT6 – 02 de 230/138/13,8 kV - 100 MVA ....................32
5.20. SE Miranda II –  Autotransformador MRAT6 – 03 de 230/138/13,8 kV - 100 MVA ....................32
5.21. SE Miranda II – Autotransformador MRAT7 - 01 de 500/230/13,8 kV - 450 MVA ......................33
5.22. SE Miranda II – Autotransformador MRAT7 - 02 de 500/230/13,8 kV - 450 MVA ......................34
5.23. SE Miranda II – Transformador MRTF6 - 01 de 230/69/13,8 kV - 100 MVA................................34
5.24. SE Miranda II – Transformador MRTF6 - 02 de 230/69/13,8 kV - 100 MVA................................35
5.25. SE Miranda II – Transformador MRTF6 - 03 de 230/69 kV - 100 MVA ........................................36
5.26. SE Peritoró – Transformador PRTF6 - 01 de 230/69/13,8 kV - 100 MVA ....................................36
5.27. SE Peritoró – Transformador PRTF6 - 02 de 230/69/13,8 kV - 100 MVA ....................................37
5.28. SE Peritoró – Transformador PRTF6 - 03 de 230/69/13,8 kV - 100 MVA ....................................38
5.29. SE Porto Franco –  Autotransformador PFAT6 - 01 de 230/138/13,8 kV – 100 MVA..................38
Manual de Procedimentos da Operação - Módulo 5 - Submódulo 5.11
 Cadastro de Informações Operacionais Código Revisão Item Vigência
CADASTRO DE LIMITES OPERACIONAIS DE LINHAS DE 
TRANSMISSÃO E TRANSFORMADORES DA ÁREA 
500/230 KV DO MARANHÃO
CD-
CT.NE.5MA.02 54 2.2.3 08/01/2024
Referência: 4 / 55
5.30. SE Porto Franco –  Autotransformador PFAT6 - 02 de 230/138/13,8 kV – 100 MVA..................39
5.31. SE Porto Franco –  Autotransformador PFAT6 - 03 de 230/138/13,8 kV – 100 MVA..................40
5.32. SE Porto Franco –  Transformador PFTF6 - 01 de 230/69 kV – 33 MVA......................................40
5.33. SE Porto Franco –  Transformador PFTF6 - 02 de 230/69 kV – 33 MVA......................................41
5.34. SE Porto Franco –  Transformador PFTF6 - 03 de 230/69 kV – 33 MVA......................................42
5.35. SE Presidente Dutra – Autotransformador PDAT7-01 de 550/242/13,8 kV - 300 MVA ..............42
5.36. SE Presidente Dutra – Transformador PDTF6 - 01 de 230/69/13,8 kV - 50 MVA........................43
5.37. SE Presidente Dutra – Transformador PDTF6 - 04 de 230/69/13,8 kV - 50 MVA........................44
5.38. SE Presidente Dutra – Transformador PDTF6 - 05 de 230/69/13,8 kV - 50 MVA........................44
5.39. SE Presidente Dutra - Transformador PDTF6-06 de 230/69/13,8 kV - 100 MVA ........................45
5.40. SE São Luís I –  Transformador LITF6 - 01 de 230/69 kV - 100 MVA............................................46
5.41. SE São Luís I –  Transformador LITF6 - 02 de 230/69 kV - 100 MVA............................................46
5.42. SE São Luís I –  Transformador LITF6 - 03 de 230/69 kV - 100 MVA............................................47
5.43. SE São Luís I –  Transformador LITF6 - 04 de 230/69 kV - 100 MVA............................................48
5.44. SE São Luís II – Autotransformador LDAT7 – 01 de 500/230/13,8 kV - 600 MVA .......................48
5.45. SE São Luís II – Autotransformador LDAT7 – 02 de 500/230/13,8 kV - 600 MVA .......................49
5.46. SE São Luís II – Autotransformador LDAT7 – 03 de 500/230/13,8 kV - 600 MVA .......................50
5.47. SE São Luís II – Autotransformador LDAT7 – 04 de 550/230/13,8 kV - 600 MVA .......................50
5.48. SE São Luís III –  Transformador LTTF6-01 de 230/69 kV - 150 MVA...........................................51
5.49. SE São Luís III –  Transformador LTTF6-02 de 230/69 kV - 150 MVA...........................................52
5.50. SE São Luís III –  Transformador LTTF6-03 de 230/69 kV - 150 MVA...........................................52
5.51. SE São Luís IV - Autotransformador 9ATF-01 de 500/230/13,8 kV - 600 MVA............................53
5.52. SE São Luís IV - Autotransformador 9ATF-02 de 500/230/13,8 kV - 600 MVA............................54
5.53. SE São Luís IV - Transformador 7TR-01 de 230/69/13,8 kV - 200 MVA.......................................54
5.54. SE São Luís IV - Transformador 7TR-02 de 230/69/13,8 kV - 200 MVA.......................................55
Manual de Procedimentos da Operação - Módulo 5 - Submódulo 5.11
 Cadastro de Informações Operacionais Código Revisão Item Vigência
CADASTRO DE LIMITES OPERACIONAIS DE LINHAS DE 
TRANSMISSÃO E TRANSFORMADORES DA ÁREA 
500/230 KV DO MARANHÃO
CD-
CT.NE.5MA.02 54 2.2.3 08/01/2024
Referência: 5 / 55
1. OBJETIVO
Apresentar os limites operacionais de linhas de transmissão e de transformadores da Rede de Operação a 
serem controlados pelos operadores dos Centros de Operação do ONS e pela Operação dos Agentes 
envolvidos.
2. CONCEITOS
2.1. Limite Operacional: Corresponde ao limite de carregamento do equipamento que deve ser 
observado pelo ONS e pelos Agentes, em condição normal de operação e ou em condição de 
emergência.
2.2. Alteração dos Limites Operacionais: É a alteração de limite na qual são estabelecidos novos valores, 
decorrentes de eventos que alteraram a capacidade operativa do equipamento, como por exemplo 
recapacitação, substituição de TC, modificação de característica de proteção, indisponibilidade do 
sistema de refrigeração, flexibilização por parte do Agente, etc.
2.3. Fator Limitante: Fator que impede um equipamento de atingir um limite operacional superior ao 
estabelecido de projeto. Um fator limitante ativo provoca aumento no custo de operação ou de 
expansão do SIN.
2.4. Limites de linhas de transmissão
2.4.1. Condição Normal de Operação
Situação de carregamento em que a linha de transmissão conduz continuamente corrente em valor igual ou 
inferior ao seu valor operacional, em sua condição de carregamento nominal, para a qual foi projetada.
2.4.2. Condição de Emergência de Operação
Situação de carregamento em que a linha de transmissão conduz corrente acima do seu valor operacional, 
em sua condição de carregamento superior ao nominal para a qual foi projetada, por um tempo não 
superior a 4 dias (96 horas) contínuos, ou um somatório máximo de 18 dias (432 horas) intermitentes (se 
somados em base anual todos os períodos contínuos inferiores a 4 dias).
As linhas de transmissão que se enquadrarem nessa situação terão o campo duração nas tabelas 
apresentadas neste cadastro preenchido com (*).
2.4.3. Condição Sazonal de Operação
Situação de carregamento em que a linha de transmissão transporta continuamente corrente em valor 
igual ou inferior ao seu valor operacional, em condição normal de operação e ou em condição de 
emergência, em condições de operação temporárias e específicas para diferentes períodos do ano, tais 
como verão-dia, verão-noite, inverno-dia e inverno-noite ou outro período específico do ano (meses ou 
estações do ano).
2.4.4. Limite Diurno 
Limite operacional a ser considerado para o período diurno. O período diurno é o intervalo entre o horário 
do amanhecer e do crepúsculo, conforme disposto nos Procedimentos de Rede.
Quando o período não for definido pelo agente, deve ser considerado o período entre às 06h00min até às 
17h59, sempre tomando como referência o horário oficial de Brasília.
Manual de Procedimentos da Operação - Módulo 5 - Submódulo 5.11
 Cadastro de Informações Operacionais Código Revisão Item Vigência
CADASTRO DE LIMITES OPERACIONAIS DE LINHAS DE 
TRANSMISSÃO E TRANSFORMADORES DA ÁREA 
500/230 KV DO MARANHÃO
CD-
CT.NE.5MA.02 54 2.2.3 08/01/2024
Referência: 6 / 55
2.4.5. Limite Noturno 
Limite operacional a ser considerado para o período noturno. O período noturno é o intervalo de tempo 
entre o horário do crepúsculo e do amanhecer, conforme disposto nos Procedimentos de Rede.
Quando o período não for definido pelo agente, deve ser considerado o período das 18h00 até às 05h59, 
sempre tomando como referência o horário oficial de Brasília.
2.5. Limites de Transformadores
2.5.1. Condição Normal de Operação 
Situação de carregamento em que o transformador conduz continuamente até a sua corrente nominal. 
Mesmo que em algum momento seja ultrapassada a sua corrente nominal, não deve ser excedida a 
temperatura máxima do óleo e ou do enrolamento, conforme limites estabelecidos na NBR 5356-7, 
respeitadas as condições, valores e prazos admitidos pelo agente.
2.5.2. Condição de Emergência de Longa Duração 
Situação de carregamento em que o transformador conduz continuamente uma corrente superior à sua 
corrente nominal, com duração não superior a 4 (quatro) horas. Mesmo que em algum momento seja 
ultrapassada a sua corrente de emergência de longa duração, não deve ser excedida a temperatura máxima 
do óleo e ou do enrolamento, conforme limites estabelecidos na NBR 5356-7, respeitadas as condições, 
valores e prazos admitidos pelo agente.
2.5.3. Condição de Emergência de Curta Duração 
Situação de carregamento em que o transformador conduz continuamente uma corrente superior à sua 
corrente de emergência de longa duração, com duração não superior a 30 (trinta) minutos. Após esse 
intervalo de tempo, deve-se retornar à condição de carregamento de longa duração.
Mesmo que em algum momento seja ultrapassada a sua corrente de emergência de curta duração, não 
deve ser excedida a temperatura máxima do óleo e ou do enrolamento, conforme limites estabelecidos na 
NBR 5356-7, respeitadas as condições, valores e prazos admitidos pelo agente. Esta condição deve ser 
utilizada como último recurso antes de se efetuar corte de carga.
2.6. Preenchimento das Tabelas de Limites
2.6.1. Linhas de Transmissão
O campo “Valor Operacional” deve ser preenchido com o valor limite do equipamento a ser considerado na 
operação em tempo real.
O campo “Duração (hh:mm)” indica o período admissível para operação da linha de transmissão na 
condição de emergência.
Nas tabelas em que for detalhado o tempo de operação em determinada condição de operação de 
equipamento, deve-se utilizar tantas linhas quanto forem necessárias para o detalhamento de 
carregamento por período de tempo informado pelo Agente.
Os campos “Valor Operacional” e “Duração” das tabelas, cujos valores dependem de informação do Agente 
e não estão disponíveis para o ONS, devem ser preenchidas com “NI” (Não Informado pelo Agente).
Manual de Procedimentos da Operação - Módulo 5 - Submódulo 5.11
 Cadastro de Informações Operacionais Código Revisão Item Vigência
CADASTRO DE LIMITES OPERACIONAIS DE LINHAS DE 
TRANSMISSÃO E TRANSFORMADORES DA ÁREA 
500/230 KV DO MARANHÃO
CD-
CT.NE.5MA.02 54 2.2.3 08/01/2024
Referência: 7 / 55
O campo “Valor Operacional” das tabelas, referentes a valores de emergência que não são permitidos pelo 
Agente, devem ser preenchidos com “NP” (Não Permitido pelo Agente). Para esse caso, também deve ser 
preenchido o campo “Fator Limitante”.
O campo “Período do Ano” indica, quando for o caso, a sazonalidade anual definida para determinação dos 
valores operacionais em condição normal e de emergência.
O campo “Período do Dia” indica, quando for o caso, a sazonalidade diária definida para determinação dos 
valores operacionais em condição normal e de emergência.
2.6.2. Transformadores
O campo “Enrolamento (kV)” indica o terminal e a tensão de referência ai quais está relacionado o limite 
operacional nas condições normal, emergência de longa duração e emergência de curta duração.
O campo “Valor Operacional (A)” indica o valor de corrente limite do transformador para condição normal, 
emergência de longa duração e de curta duração, considerando como tensão nominal a indicada no campo 
“Enrolamento (kV)”.
O campo “Duração (hh:mm)” indica o período admissível para operação do transformador na condição de 
emergência de longa e emergência de curta duração.
Nas tabelas em que for detalhado o tempo de operação em determinada condição de operação de 
equipamento, deve-se utilizar tantas linhas quanto forem necessárias para o detalhamento de 
carregamento por período de tempo informado pelo Agente.
Os campos “Valor Operacional” e “Duração” das tabelas, cujos valores dependem de informação do Agente 
e não estão disponíveis para o ONS, devem ser preenchidas com “NI” (Não Informado pelo Agente).
O campo “Valor Operacional” das tabelas referentes a valores de emergência, que não são permitidos pelo 
Agente, devem ser preenchidos com “NP” (Não Permitido pelo Agente). Para esse caso, também deve ser 
preenchido o campo “Fator Limitante”.
3. CONSIDERAÇÕES GERAIS
3.1. Este Cadastro de Informações Operacionais apresenta os limites operacionais de carregamento das 
linhas de transmissão e dos transformadores da Rede de Operação, de acordo com as definições 
estabelecidas entre ANEEL, ONS e agentes, cujo processo de atualização é descrito pela RO-
CD.BR.01 - Controle de Limites de Carregamento de Linhas de Transmissão e Transformadores.
3.2. Os operadores dos Centros de Operação do ONS, nas ações de coordenação, supervisão e controle 
devem observar os limites operacionais constantes neste Cadastro de Informações Operacionais.
3.3. A operação dos agentes, em suas ações de comando e execução, deve observar os limites 
operacionais constantes neste Cadastro de Informações Operacionais.
3.4. Cabe ao agente comunicar de imediato ao Centro de Operação com o qual se relaciona qualquer 
alteração de limite que imponha restrições à operação de linha de transmissão ou de 
transformador.
Manual de Procedimentos da Operação - Módulo 5 - Submódulo 5.11
 Cadastro de Informações Operacionais Código Revisão Item Vigência
CADASTRO DE LIMITES OPERACIONAIS DE LINHAS DE 
TRANSMISSÃO E TRANSFORMADORES DA ÁREA 
500/230 KV DO MARANHÃO
CD-
CT.NE.5MA.02 54 2.2.3 08/01/2024
Referência: 8 / 55
3.5. Toda e qualquer alteração nos valores de limites operacionais constantes neste Cadastro de 
Informações Operacionais deverá ser solicitada formalmente e devidamente justificada e 
caracterizada pelo agente responsável pelo equipamento ao Centro de Operação do ONS de seu 
relacionamento. 
3.6. Caso a operação em tempo real venha a verificar qualquer possibilidade de violação do limite 
estabelecido para o equipamento, caberá ao Centro de Operação do ONS responsável tomar as 
medidas corretivas cabíveis, para que esse não ultrapasse esses valores, que só podem ser 
ultrapassados com anuência do agente.
3.7. Os valores de Limites Operacionais dos equipamentos da Rede de Operação, constantes neste 
Cadastro de Informações Operacionais, são os valores informados oficialmente e formalmente pelo 
agente.
3.8. Os limites de transformadores que constam neste Cadastro de Informações Operacionais 
consideram todos os estágios de refrigeração disponíveis. Os limites considerando os estágios de 
refrigeração indisponíveis constam nos Cadastros de Informações Operacionais de Dados de 
Equipamentos.
Manual de Procedimentos da Operação - Módulo 5 - Submódulo 5.11
 Cadastro de Informações Operacionais Código Revisão Item Vigência
CADASTRO DE LIMITES OPERACIONAIS DE LINHAS DE 
TRANSMISSÃO E TRANSFORMADORES DA ÁREA 
500/230 KV DO MARANHÃO
CD-
CT.NE.5MA.02 54 2.2.3 08/01/2024
Referência: 9 / 55
4. LIMITES DE CARREGAMENTO DE LINHAS DE TRANSMISSÃO
4.1. LT 500 KV BACABEIRA / SÃO LUÍS II C1
Limites de condição normal de operação (Longa duração)
Período do ano Período 
do dia
Valor
operacional (A) Fator limitante
01/Jan a 31/Dez Diurno / 
Noturno 2.344 -
Limites de condição de emergência (Curta duração)
Período do ano Período 
do dia
Valor
operacional (A)
Duração 
(Hh:mm) Fator limitante
01/Jan a 
31/Dez
Diurno / 
Noturno 2.953 (*) -
4.2. LT 500 KV BACABEIRA / SÃO LUÍS II C2
Limites de condição normal de operação (Longa duração)
Período do ano Período 
do dia
Valor
operacional (A) Fator limitante
01/Jan a 31/Dez Diurno / 
Noturno 3.000 -
Limites de condição de emergência (Curta duração)
Período do ano Período 
do dia
Valor
operacional (A)
Duração 
(Hh:mm) Fator limitante
01/Jan a 
31/Dez
Diurno / 
Noturno 3.600 (*) TC
Manual de Procedimentos da Operação - Módulo 5 - Submódulo 5.11
 Cadastro de Informações Operacionais Código Revisão Item Vigência
CADASTRO DE LIMITES OPERACIONAIS DE LINHAS DE 
TRANSMISSÃO E TRANSFORMADORES DA ÁREA 
500/230 KV DO MARANHÃO
CD-
CT.NE.5MA.02 54 2.2.3 08/01/2024
Referência: 10 / 55
4.3. LT 500 KV MIRANDA II / ELEVADORA PAULINO NEVES
Limites de condição normal de operação (Longa duração)
Período do ano Período 
do dia
Valor
operacional (A) Fator limitante
01/Jan a 31/Dez Diurno / 
Noturno 1.154 Cabo condutor
Limites de condição de emergência (Curta duração)
Período do ano Período 
do dia
Valor
operacional (A)
Duração 
(Hh:mm) Fator limitante
01/Jan a 
31/Dez
Diurno / 
Noturno 2.729 (*) Cabo condutor
4.4. LT 500 KV MIRANDA II / SÃO LUÍS II C3
Limites de condição normal de operação (Longa duração)
Período do ano Período 
do dia
Valor
operacional (A) Fator limitante
01/Jan a 31/Dez Diurno          3.408 .
01/Jan a 31/Dez Noturno         4.300 .
Limites de condição de emergência (Curta duração)
Período do ano Período 
do dia
Valor
operacional (A)
Duração 
(Hh:mm) Fator limitante
01/Jan a 
31/Dez Diurno          4.052 (*) .
01/Jan a 
31/Dez Noturno         4.668 (*) .
Manual de Procedimentos da Operação - Módulo 5 - Submódulo 5.11
 Cadastro de Informações Operacionais Código Revisão Item Vigência
CADASTRO DE LIMITES OPERACIONAIS DE LINHAS DE 
TRANSMISSÃO E TRANSFORMADORES DA ÁREA 
500/230 KV DO MARANHÃO
CD-
CT.NE.5MA.02 54 2.2.3 08/01/2024
Referência: 11 / 55
4.5. LT 500 KV SÃO LUÍS II / SÃO LUÍS IV C1
Limites de condição normal de operação (Longa duração)
Período do ano Período 
do dia
Valor
operacional (A) Fator limitante
01/Jan a 31/Dez Diurno          3.508 .
01/Jan a 31/Dez Noturno         4.304 .
Limites de condição de emergência (Curta duração)
Período do ano Período 
do dia
Valor
operacional (A)
Duração 
(Hh:mm) Fator limitante
01/Jan a 
31/Dez Diurno          4.136 (*) .
01/Jan a 
31/Dez Noturno         4.672 (*) .
4.6. LT 500 KV SÃO LUÍS II / SÃO LUÍS IV C2
Limites de condição normal de operação (Longa duração)
Período do ano Período 
do dia
Valor
operacional (A) Fator limitante
01/Jan a 31/Dez Diurno          3.508 .
01/Jan a 31/Dez Noturno         4.304 .
Limites de condição de emergência (Curta duração)
Período do ano Período 
do dia
Valor
operacional (A)
Duração 
(Hh:mm) Fator limitante
01/Jan a 
31/Dez Diurno          4.136 (*) .
01/Jan a 
31/Dez Noturno         4.672 (*) .
Manual de Procedimentos da Operação - Módulo 5 - Submódulo 5.11
 Cadastro de Informações Operacionais Código Revisão Item Vigência
CADASTRO DE LIMITES OPERACIONAIS DE LINHAS DE 
TRANSMISSÃO E TRANSFORMADORES DA ÁREA 
500/230 KV DO MARANHÃO
CD-
CT.NE.5MA.02 54 2.2.3 08/01/2024
Referência: 12 / 55
4.7. LT 230 KV CAXIAS II / COELHO NETO
Limites de condição normal de operação (Longa duração)
Período do ano Período 
do dia
Valor
operacional (A) Fator limitante
01/Jan a 31/Dez Diurno / 
Noturno 586 .
Limites de condição de emergência (Curta duração)
Período do ano Período 
do dia
Valor
operacional (A)
Duração 
(Hh:mm) Fator limitante
01/Jan a 
31/Dez
Diurno / 
Noturno 738 (*) .
4.8. LT 230 KV CHAPADINHA II / COELHO NETO
Limites de condição normal de operação (Longa duração)
Período do ano Período 
do dia
Valor
operacional (A) Fator limitante
01/Jan a 31/Dez Diurno / 
Noturno 830 Capacidade Nominal
Limites de condição de emergência (Curta duração)
Período do ano Período 
do dia
Valor
operacional (A)
Duração 
(Hh:mm) Fator limitante
01/Jan a 
31/Dez
Diurno / 
Noturno 1.030 (*) -
4.9. LT 230 KV CHAPADINHA II / MIRANDA II
Limites de condição normal de operação (Longa duração)
Período do ano Período 
do dia
Valor
operacional (A) Fator limitante
01/Jan a 31/Dez Diurno / 
Noturno 830 Capacidade Nominal
Manual de Procedimentos da Operação - Módulo 5 - Submódulo 5.11
 Cadastro de Informações Operacionais Código Revisão Item Vigência
CADASTRO DE LIMITES OPERACIONAIS DE LINHAS DE 
TRANSMISSÃO E TRANSFORMADORES DA ÁREA 
500/230 KV DO MARANHÃO
CD-
CT.NE.5MA.02 54 2.2.3 08/01/2024
Referência: 13 / 55
Limites de condição de emergência (Curta duração)
Período do ano Período 
do dia
Valor
operacional (A)
Duração 
(Hh:mm) Fator limitante
01/Jan a 
31/Dez
Diurno / 
Noturno 1.030 (*) -
4.10. LT 230 KV COELHO NETO / TERESINA
Limites de condição normal de operação (Longa duração)
Período do ano Período 
do dia
Valor
operacional (A) Fator limitante
01/Jan a 31/Dez Diurno / 
Noturno 586 -
Limites de condição de emergência (Curta duração)
Período do 
ano
Período 
do dia
Valor
operacional (A)
Duração 
(Hh:mm) Fator limitante
01/Jan a 
31/Dez
Diurno / 
Noturno 600 (*) Interferência na faixa de servidão
4.11. LT 230 KV GERANORTE / MIRANDA II
Limites de condição normal de operação (Longa duração)
Período do ano Período 
do dia
Valor
operacional (A) Fator limitante
01/Jan a 31/Dez Diurno / 
Noturno NP -
Limites de condição de emergência (Curta duração)
Período do ano Período 
do dia
Valor
operacional (A)
Duração 
(Hh:mm) Fator limitante
01/Jan a 
31/Dez
Diurno / 
Noturno NP - -
Manual de Procedimentos da Operação - Módulo 5 - Submódulo 5.11
 Cadastro de Informações Operacionais Código Revisão Item Vigência
CADASTRO DE LIMITES OPERACIONAIS DE LINHAS DE 
TRANSMISSÃO E TRANSFORMADORES DA ÁREA 
500/230 KV DO MARANHÃO
CD-
CT.NE.5MA.02 54 2.2.3 08/01/2024
Referência: 14 / 55
4.12. LT 230 KV IMPERATRIZ / PORTO FRANCO C1
Limites de condição normal de operação (Longa duração)
Período do ano Período 
do dia
Valor
operacional (A) Fator limitante
01/Jan a 31/Dez Diurno / 
Noturno 586 -
Limites de condição de emergência (Curta duração)
Período do ano Período 
do dia
Valor
operacional (A)
Duração 
(Hh:mm) Fator limitante
01/Jan a 
31/Dez
Diurno / 
Noturno 738 (*) -
4.13. LT 230 KV IMPERATRIZ / PORTO FRANCO C2
Limites de condição normal de operação (Longa duração)
Período do ano Período 
do dia
Valor
operacional (A) Fator limitante
01/Jan a 31/Dez Diurno / 
Noturno 620 -
Limites de condição de emergência (Curta duração)
Período do ano Período 
do dia
Valor
operacional (A)
Duração 
(Hh:mm) Fator limitante
01/Jan a 
31/Dez
Diurno / 
Noturno 775 (*) -
4.14. LT 230 KV MIRANDA II / ENCRUZO NOVO
Limites de condição normal de operação (Longa duração)
Período do ano Período 
do dia
Valor
operacional (A) Fator limitante
01/Jan a 31/Dez Diurno / 
Noturno 640 -
Manual de Procedimentos da Operação - Módulo 5 - Submódulo 5.11
 Cadastro de Informações Operacionais Código Revisão Item Vigência
CADASTRO DE LIMITES OPERACIONAIS DE LINHAS DE 
TRANSMISSÃO E TRANSFORMADORES DA ÁREA 
500/230 KV DO MARANHÃO
CD-
CT.NE.5MA.02 54 2.2.3 08/01/2024
Referência: 15 / 55
Limites de condição de emergência (Curta duração)
Período do ano Período 
do dia
Valor
operacional (A)
Duração 
(Hh:mm) Fator limitante
01/Jan a 
31/Dez
Diurno / 
Noturno 850 (*) -
4.15. LT 230 KV MIRANDA II / PERITORÓ
Limites de condição normal de operação (Longa duração)
Período do ano Período 
do dia
Valor
operacional (A) Fator limitante
01/Jan a 31/Dez Diurno / 
Noturno 586 -
Limites de condição de emergência (Curta duração)
Período do ano Período 
do dia
Valor
operacional (A)
Duração 
(Hh:mm) Fator limitante
01/Jan a 
31/Dez
Diurno / 
Noturno 720 (*) -
4.16. LT 230 KV PERITORÓ / CAXIAS II
Limites de condição normal de operação (Longa duração)
Período do ano Período 
do dia
Valor
operacional (A) Fator limitante
01/Jan a 31/Dez Diurno / 
Noturno 586 .
Limites de condição de emergência (Curta duração)
Período do ano Período 
do dia
Valor
operacional (A)
Duração 
(Hh:mm) Fator limitante
01/Jan a 
31/Dez
Diurno / 
Noturno 738 (*) .
Manual de Procedimentos da Operação - Módulo 5 - Submódulo 5.11
 Cadastro de Informações Operacionais Código Revisão Item Vigência
CADASTRO DE LIMITES OPERACIONAIS DE LINHAS DE 
TRANSMISSÃO E TRANSFORMADORES DA ÁREA 
500/230 KV DO MARANHÃO
CD-
CT.NE.5MA.02 54 2.2.3 08/01/2024
Referência: 16 / 55
4.17. LT 230 KV PRESIDENTE DUTRA / PERITORÓ
Limites de condição normal de operação (Longa duração)
Período do ano Período 
do dia
Valor
operacional (A) Fator limitante
01/Jan a 31/Dez Diurno / 
Noturno 668 -
Limites de condição de emergência (Curta duração)
Período do ano Período 
do dia
Valor
operacional (A)
Duração 
(Hh:mm) Fator limitante
01/Jan a 
31/Dez
Diurno / 
Noturno 843 (*) -
4.18. LT 230 KV RIBEIRO GONÇALVES / BALSAS
Limites de condição normal de operação (Longa duração)
Período do ano Período 
do dia
Valor
operacional (A) Fator limitante
01/Jan a 31/Dez Diurno / 
Noturno 510 -
Limites de condição de emergência (Curta duração)
Período do ano Período 
do dia
Valor
operacional (A)
Duração 
(Hh:mm) Fator limitante
01/Jan a 
31/Dez
Diurno / 
Noturno 630 (*) -
4.19. LT 230 KV SÃO LUÍS II / MIRANDA II
Limites de condição normal de operação (Longa duração)
Período do ano Período 
do dia
Valor
operacional (A) Fator limitante
01/Jan a 31/Dez Diurno / 
Noturno 586 -
Manual de Procedimentos da Operação - Módulo 5 - Submódulo 5.11
 Cadastro de Informações Operacionais Código Revisão Item Vigência
CADASTRO DE LIMITES OPERACIONAIS DE LINHAS DE 
TRANSMISSÃO E TRANSFORMADORES DA ÁREA 
500/230 KV DO MARANHÃO
CD-
CT.NE.5MA.02 54 2.2.3 08/01/2024
Referência: 17 / 55
Limites de condição de emergência (Curta duração)
Período do 
ano
Período 
do dia
Valor
operacional (A)
Duração 
(Hh:mm) Fator limitante
01/Jan a 
31/Dez
Diurno / 
Noturno 600 (*) Interferência na faixa de servidão
4.20. LT 230 KV SÃO LUÍS II / SÃO LUÍS I – C1
Limites de condição normal de operação (Longa duração)
Período do ano Período 
do dia
Valor
operacional (A) Fator limitante
01/Jan a 31/Dez Diurno / 
Noturno 1.074 Limite térmico do barramento
Limites de condição de emergência (Curta duração)
Período do 
ano
Período 
do dia
Valor
operacional (A)
Duração 
(Hh:mm) Fator limitante
01/Jan a 
31/Dez
Diurno / 
Noturno 1.202 (*) Limite térmico do barramento
4.21. LT 230 KV SÃO LUÍS II / SÃO LUÍS I – C2
Limites de condição normal de operação (Longa duração)
Período do ano Período 
do dia
Valor
operacional (A) Fator limitante
01/Jan a 31/Dez Diurno / 
Noturno 1.074 Limite térmico do barramento
Limites de condição de emergência (Curta duração)
Período do 
ano
Período 
do dia
Valor
operacional (A)
Duração 
(Hh:mm) Fator limitante
01/Jan a 
31/Dez
Diurno / 
Noturno 1.202 (*) Limite térmico do barramento
Manual de Procedimentos da Operação - Módulo 5 - Submódulo 5.11
 Cadastro de Informações Operacionais Código Revisão Item Vigência
CADASTRO DE LIMITES OPERACIONAIS DE LINHAS DE 
TRANSMISSÃO E TRANSFORMADORES DA ÁREA 
500/230 KV DO MARANHÃO
CD-
CT.NE.5MA.02 54 2.2.3 08/01/2024
Referência: 18 / 55
4.22. LT 230 KV SÃO LUÍS II / SÃO LUÍS III C1
Limites de condição normal de operação (Longa duração)
Período do ano Período 
do dia
Valor
operacional (A) Fator limitante
01/Jan a 31/Dez Diurno / 
Noturno 1.104 -
Limites de condição de emergência (Curta duração)
Período do ano Período 
do dia
Valor
operacional (A)
Duração 
(Hh:mm) Fator limitante
01/Jan a 
31/Dez
Diurno / 
Noturno 1.534 (*) -
4.23. LT 230 KV SÃO LUÍS II / SÃO LUÍS III C2
Limites de condição normal de operação (Longa duração)
Período do ano Período 
do dia
Valor
operacional (A) Fator limitante
01/Jan a 31/Dez Diurno / 
Noturno 1.104 .
Limites de condição de emergência (Curta duração)
Período do ano Período 
do dia
Valor
operacional (A)
Duração 
(Hh:mm) Fator limitante
01/Jan a 
31/Dez
Diurno / 
Noturno 1.534 (*) .
4.24. LT 230 KV SÃO LUÍS II / SÃO LUÍS IV
Limites de condição normal de operação (Longa duração)
Período do ano Período 
do dia
Valor
operacional (A) Fator limitante
01/Jan a 31/Dez Diurno          1.380 .
01/Jan a 31/Dez Noturno         1.760 .
Manual de Procedimentos da Operação - Módulo 5 - Submódulo 5.11
 Cadastro de Informações Operacionais Código Revisão Item Vigência
CADASTRO DE LIMITES OPERACIONAIS DE LINHAS DE 
TRANSMISSÃO E TRANSFORMADORES DA ÁREA 
500/230 KV DO MARANHÃO
CD-
CT.NE.5MA.02 54 2.2.3 08/01/2024
Referência: 19 / 55
Limites de condição de emergência (Curta duração)
Período do ano Período 
do dia
Valor
operacional (A)
Duração 
(Hh:mm) Fator limitante
01/Jan a 
31/Dez Diurno          1.740 (*) .
01/Jan a 
31/Dez Noturno         1.984 (*) .
4.25. LT 230 KV UTE PORTO DO ITAQUI / SÃO LUÍS IV
Limites de condição normal de operação (Longa duração)
Período do ano Período 
do dia
Valor
operacional (A) Fator limitante
01/Jan a 31/Dez Diurno          1.380 .
01/Jan a 31/Dez Noturno         1.760 .
Limites de condição de emergência (Curta duração)
Período do ano Período 
do dia
Valor
operacional (A)
Duração 
(Hh:mm) Fator limitante
01/Jan a 
31/Dez Diurno          1.740 (*) .
01/Jan a 
31/Dez Noturno         1.984 (*) .
Manual de Procedimentos da Operação - Módulo 5 - Submódulo 5.11
 Cadastro de Informações Operacionais Código Revisão Item Vigência
CADASTRO DE LIMITES OPERACIONAIS DE LINHAS DE 
TRANSMISSÃO E TRANSFORMADORES DA ÁREA 
500/230 KV DO MARANHÃO
CD-
CT.NE.5MA.02 54 2.2.3 08/01/2024
Referência: 20 / 55
5. LIMITES DE CARREGAMENTO DE TRANSFORMADORES
5.1. SE BALSAS – AUTOTRANSFORMADOR BSTF6 - 01 DE 230/69/13,8 KV – 100 MVA
Limites de Condição Normal de Operação
Enrolamento (kV) Valor
operacional (A) Fator limitante
69 837 -
230 251 -
Limites de Condição de Emergência de Longa Duração
Enrolamento 
(kV)
Valor
operacional (A)
Duração 
(Hh:mm) Fator limitante
69 861 04:00 .
230 258 04:00 .
Limites de Condição de Emergência de Curta Duração
Enrolamento 
(kV)
Valor
operacional (A)
Duração 
(Hh:mm) Fator limitante
69 1.004 00:30 .
230 301 00:30 .
5.2. SE BALSAS – AUTOTRANSFORMADOR BSTF6 - 02 DE 230/69/13,8 KV – 100 MVA
Limites de Condição Normal de Operação
Enrolamento (kV) Valor
operacional (A) Fator limitante
69 837 -
230 251 -
Manual de Procedimentos da Operação - Módulo 5 - Submódulo 5.11
 Cadastro de Informações Operacionais Código Revisão Item Vigência
CADASTRO DE LIMITES OPERACIONAIS DE LINHAS DE 
TRANSMISSÃO E TRANSFORMADORES DA ÁREA 
500/230 KV DO MARANHÃO
CD-
CT.NE.5MA.02 54 2.2.3 08/01/2024
Referência: 21 / 55
Limites de Condição de Emergência de Longa Duração
Enrolamento 
(kV)
Valor
operacional (A)
Duração 
(Hh:mm) Fator limitante
69 1.004 04:00 -
230 301 04:00 -
Limites de Condição de Emergência de Curta Duração
Enrolamento 
(kV)
Valor
operacional (A)
Duração 
(Hh:mm) Fator limitante
69 1.171 00:30 -
230 351 00:30 -
5.3. SE CAXIAS II - TRANSFORMADOR CXTF6-01 DE 230/69/13,8 KV - 100 MVA
Limites de Condição Normal de Operação
Enrolamento (kV) Valor
operacional (A) Fator limitante
69 837 .
230 251 .
Limites de Condição de Emergência de Longa Duração
Enrolamento 
(kV)
Valor
operacional (A)
Duração 
(Hh:mm) Fator limitante
69 1.005 04:00 .
230 302 04:00 .
Limites de Condição de Emergência de Curta Duração
Enrolamento 
(kV)
Valor
operacional (A)
Duração 
(Hh:mm) Fator limitante
69 1.172 00:30 .
230 352 00:30 .
Manual de Procedimentos da Operação - Módulo 5 - Submódulo 5.11
 Cadastro de Informações Operacionais Código Revisão Item Vigência
CADASTRO DE LIMITES OPERACIONAIS DE LINHAS DE 
TRANSMISSÃO E TRANSFORMADORES DA ÁREA 
500/230 KV DO MARANHÃO
CD-
CT.NE.5MA.02 54 2.2.3 08/01/2024
Referência: 22 / 55
5.4. SE CAXIAS II - TRANSFORMADOR CXTF6-02 DE 230/69/13,8 KV - 100 MVA
Limites de Condição Normal de Operação
Enrolamento (kV) Valor
operacional (A) Fator limitante
69 837 .
230 251 .
Limites de Condição de Emergência de Longa Duração
Enrolamento 
(kV)
Valor
operacional (A)
Duração 
(Hh:mm) Fator limitante
69 1.005 04:00 .
230 302 04:00 .
Limites de Condição de Emergência de Curta Duração
Enrolamento 
(kV)
Valor
operacional (A)
Duração 
(Hh:mm) Fator limitante
69 1.172 00:30 .
230 352 00:30 .
5.5. SE CHAPADINHA II –  TRANSFORMADOR TR1 DE 230/69/13,8 KV - 100 MVA
Limites de Condição Normal de Operação
Enrolamento (kV) Valor
operacional (A) Fator limitante
69 836,7 Capacidade Nominal.
230 251 Capacidade Nominal.
Limites de Condição de Emergência de Longa Duração
Enrolamento 
(kV)
Valor
operacional (A)
Duração 
(Hh:mm) Fator limitante
69 1.004 04:00 -
230 301,2 04:00 -
Manual de Procedimentos da Operação - Módulo 5 - Submódulo 5.11
 Cadastro de Informações Operacionais Código Revisão Item Vigência
CADASTRO DE LIMITES OPERACIONAIS DE LINHAS DE 
TRANSMISSÃO E TRANSFORMADORES DA ÁREA 
500/230 KV DO MARANHÃO
CD-
CT.NE.5MA.02 54 2.2.3 08/01/2024
Referência: 23 / 55
Limites de Condição de Emergência de Curta Duração
Enrolamento 
(kV)
Valor
operacional (A)
Duração 
(Hh:mm) Fator limitante
69 1.171,3 00:30 -
230 351,4 00:30 -
5.6. SE CHAPADINHA II –  TRANSFORMADOR TR2 DE 230/69/13,8 KV - 100 MVA
Limites de Condição Normal de Operação
Enrolamento (kV) Valor
operacional (A) Fator limitante
69 836,7 Capacidade Nominal.
230 251 Capacidade Nominal.
Limites de Condição de Emergência de Longa Duração
Enrolamento 
(kV)
Valor
operacional (A)
Duração 
(Hh:mm) Fator limitante
69 1.004 04:00 -
230 301,2 04:00 -
Limites de Condição de Emergência de Curta Duração
Enrolamento 
(kV)
Valor
operacional (A)
Duração 
(Hh:mm) Fator limitante
69 1.171,3 00:30 -
230 351,4 00:30 -
Manual de Procedimentos da Operação - Módulo 5 - Submódulo 5.11
 Cadastro de Informações Operacionais Código Revisão Item Vigência
CADASTRO DE LIMITES OPERACIONAIS DE LINHAS DE 
TRANSMISSÃO E TRANSFORMADORES DA ÁREA 
500/230 KV DO MARANHÃO
CD-
CT.NE.5MA.02 54 2.2.3 08/01/2024
Referência: 24 / 55
5.7. SE COELHO NETO – TRANSFORMADOR CHTF6 - 01 DE 230/69/13,8 KV – 65 MVA
Limites de Condição Normal de Operação
Enrolamento (kV) Valor
operacional (A) Fator limitante
69 544 -
230 163 -
Limites de Condição de Emergência de Longa Duração
Enrolamento 
(kV)
Valor
operacional (A)
Duração 
(Hh:mm) Fator limitante
69 571 04:00 -
230 171 04:00 -
Limites de Condição de Emergência de Curta Duração
Enrolamento 
(kV)
Valor
operacional (A)
Duração 
(Hh:mm) Fator limitante
69 653 00:30 -
230 196 00:30 -
5.8. SE COELHO NETO – TRANSFORMADOR CHTF6 - 02 DE 230/69/13,8 KV – 65 MVA
Limites de Condição Normal de Operação
Enrolamento (kV) Valor
operacional (A) Fator limitante
69 544 -
230 163 -
Limites de Condição de Emergência de Longa Duração
Enrolamento 
(kV)
Valor
operacional (A)
Duração 
(Hh:mm) Fator limitante
69 571 04:00 -
230 171 04:00 -
Manual de Procedimentos da Operação - Módulo 5 - Submódulo 5.11
 Cadastro de Informações Operacionais Código Revisão Item Vigência
CADASTRO DE LIMITES OPERACIONAIS DE LINHAS DE 
TRANSMISSÃO E TRANSFORMADORES DA ÁREA 
500/230 KV DO MARANHÃO
CD-
CT.NE.5MA.02 54 2.2.3 08/01/2024
Referência: 25 / 55
Limites de Condição de Emergência de Curta Duração
Enrolamento 
(kV)
Valor
operacional (A)
Duração 
(Hh:mm) Fator limitante
69 653 00:30 -
230 196 00:30 -
5.9. SE ELEVADORA PAULINO NEVES – AUTOTRANSFORMADOR 05T1 DE 500/138/13,8 KV - 360 MVA
Limites de Condição Normal de Operação
Enrolamento (kV) Valor
operacional (A) Fator limitante
138 1.506 -
500 416 -
Limites de Condição de Emergência de Longa Duração
Enrolamento 
(kV)
Valor
operacional (A)
Duração 
(Hh:mm) Fator limitante
138 1.807 04:00 -
500 499 04:00 -
Limites de Condição de Emergência de Curta Duração
Enrolamento 
(kV)
Valor
operacional (A)
Duração 
(Hh:mm) Fator limitante
138 2.108 00:30 -
500 582 00:30 -
Manual de Procedimentos da Operação - Módulo 5 - Submódulo 5.11
 Cadastro de Informações Operacionais Código Revisão Item Vigência
CADASTRO DE LIMITES OPERACIONAIS DE LINHAS DE 
TRANSMISSÃO E TRANSFORMADORES DA ÁREA 
500/230 KV DO MARANHÃO
CD-
CT.NE.5MA.02 54 2.2.3 08/01/2024
Referência: 26 / 55
5.10. SE ELEVADORA PAULINO NEVES – AUTOTRANSFORMADOR 05T2 DE 500/138/13,8 KV - 360 MVA
Limites de Condição Normal de Operação
Enrolamento (kV) Valor
operacional (A) Fator limitante
138 1.506 -
500 416 -
Limites de Condição de Emergência de Longa Duração
Enrolamento 
(kV)
Valor
operacional (A)
Duração 
(Hh:mm) Fator limitante
138 1.807 04:00 -
500 499 04:00 -
Limites de Condição de Emergência de Curta Duração
Enrolamento 
(kV)
Valor
operacional (A)
Duração 
(Hh:mm) Fator limitante
138 2.108 00:30 -
500 582 00:30 -
5.11. SE ENCRUZO NOVO – AUTOTRANSFORMADOR 7TR01 DE 230/69/13,8 KV – 100 MVA
Limites de Condição Normal de Operação
Enrolamento (kV) Valor
operacional (A) Fator limitante
69 837 -
230 251 -
Limites de Condição de Emergência de Longa Duração
Enrolamento 
(kV)
Valor
operacional (A)
Duração 
(Hh:mm) Fator limitante
69 1.004 04:00 -
230 301 04:00 -
Manual de Procedimentos da Operação - Módulo 5 - Submódulo 5.11
 Cadastro de Informações Operacionais Código Revisão Item Vigência
CADASTRO DE LIMITES OPERACIONAIS DE LINHAS DE 
TRANSMISSÃO E TRANSFORMADORES DA ÁREA 
500/230 KV DO MARANHÃO
CD-
CT.NE.5MA.02 54 2.2.3 08/01/2024
Referência: 27 / 55
Limites de Condição de Emergência de Curta Duração
Enrolamento 
(kV)
Valor
operacional (A)
Duração 
(Hh:mm) Fator limitante
69 1.171 00:30 -
230 351 00:30 -
5.12. SE ENCRUZO NOVO – AUTOTRANSFORMADOR 7TR02 DE 230/69/13,8 KV – 100 MVA
Limites de Condição Normal de Operação
Enrolamento (kV) Valor
operacional (A) Fator limitante
69 837 -
230 251 -
Limites de Condição de Emergência de Longa Duração
Enrolamento 
(kV)
Valor
operacional (A)
Duração 
(Hh:mm) Fator limitante
69 1.004 04:00 -
230 301 04:00 -
Limites de Condição de Emergência de Curta Duração
Enrolamento 
(kV)
Valor
operacional (A)
Duração 
(Hh:mm) Fator limitante
69 1.171 00:30 -
230 351 00:30 -
Manual de Procedimentos da Operação - Módulo 5 - Submódulo 5.11
 Cadastro de Informações Operacionais Código Revisão Item Vigência
CADASTRO DE LIMITES OPERACIONAIS DE LINHAS DE 
TRANSMISSÃO E TRANSFORMADORES DA ÁREA 
500/230 KV DO MARANHÃO
CD-
CT.NE.5MA.02 54 2.2.3 08/01/2024
Referência: 28 / 55
5.13. SE IMPERATRIZ –  AUTOTRANSFORMADOR IZAT7-01 DE 550/230/13,8 KV - 600 MVA
Limites de Condição Normal de Operação
Enrolamento (kV) Valor
operacional (A) Fator limitante
230 1.506 -
550 630 -
Limites de Condição de Emergência de Longa Duração
Enrolamento 
(kV)
Valor
operacional (A)
Duração 
(Hh:mm) Fator limitante
230 1.551 04:00 -
550 649 04:00 -
Limites de Condição de Emergência de Curta Duração
Enrolamento 
(kV)
Valor
operacional (A)
Duração 
(Hh:mm) Fator limitante
230 1.807 00:30 -
550 756 00:30 -
5.14. SE IMPERATRIZ –  AUTOTRANSFORMADOR IZAT7-02 DE 550/242/13,8 KV - 450 MVA
Limites de Condição Normal de Operação
Enrolamento (kV) Valor
operacional (A) Fator limitante
242 1.074 -
550 472 -
Limites de Condição de Emergência de Longa Duração
Enrolamento 
(kV)
Valor
operacional (A)
Duração 
(Hh:mm) Fator limitante
242 1.106 04:00 -
550 487 04:00 -
Manual de Procedimentos da Operação - Módulo 5 - Submódulo 5.11
 Cadastro de Informações Operacionais Código Revisão Item Vigência
CADASTRO DE LIMITES OPERACIONAIS DE LINHAS DE 
TRANSMISSÃO E TRANSFORMADORES DA ÁREA 
500/230 KV DO MARANHÃO
CD-
CT.NE.5MA.02 54 2.2.3 08/01/2024
Referência: 29 / 55
Limites de Condição de Emergência de Curta Duração
Enrolamento 
(kV)
Valor
operacional (A)
Duração 
(Hh:mm) Fator limitante
242 1.288 00:30 -
550 567 00:30 -
5.15. SE IMPERATRIZ – TRANSFORMADOR IZTF6 - 03 DE 230/69/13,8 KV - 100 MVA
Limites de Condição Normal de Operação
Enrolamento (kV) Valor
operacional (A) Fator limitante
69 837 -
230 251 -
Limites de Condição de Emergência de Longa Duração
Enrolamento 
(kV)
Valor
operacional (A)
Duração 
(Hh:mm) Fator limitante
69 862 04:00 -
230 259 04:00 -
Limites de Condição de Emergência de Curta Duração
Enrolamento 
(kV)
Valor
operacional (A)
Duração 
(Hh:mm) Fator limitante
69 1.004 00:30 -
230 301 00:30 -
Manual de Procedimentos da Operação - Módulo 5 - Submódulo 5.11
 Cadastro de Informações Operacionais Código Revisão Item Vigência
CADASTRO DE LIMITES OPERACIONAIS DE LINHAS DE 
TRANSMISSÃO E TRANSFORMADORES DA ÁREA 
500/230 KV DO MARANHÃO
CD-
CT.NE.5MA.02 54 2.2.3 08/01/2024
Referência: 30 / 55
5.16. SE IMPERATRIZ – TRANSFORMADOR IZTF6 - 04 DE 230/69/13,8 KV - 100 MVA
Limites de Condição Normal de Operação
Enrolamento (kV) Valor
operacional (A) Fator limitante
69 837 -
230 251 -
Limites de Condição de Emergência de Longa Duração
Enrolamento 
(kV)
Valor
operacional (A)
Duração 
(Hh:mm) Fator limitante
69 862 04:00 -
230 259 04:00 -
Limites de Condição de Emergência de Curta Duração
Enrolamento 
(kV)
Valor
operacional (A)
Duração 
(Hh:mm) Fator limitante
69 1.004 00:30 -
230 301 00:30 -
5.17. SE IMPERATRIZ – TRANSFORMADOR IZTF6 - 05 DE 230/69/13,8 KV - 100 MVA
Limites de Condição Normal de Operação
Enrolamento (kV) Valor
operacional (A) Fator limitante
69 837 -
230 251 -
Limites de Condição de Emergência de Longa Duração
Enrolamento 
(kV)
Valor
operacional (A)
Duração 
(Hh:mm) Fator limitante
69 862 04:00 -
230 259 04:00 -
Manual de Procedimentos da Operação - Módulo 5 - Submódulo 5.11
 Cadastro de Informações Operacionais Código Revisão Item Vigência
CADASTRO DE LIMITES OPERACIONAIS DE LINHAS DE 
TRANSMISSÃO E TRANSFORMADORES DA ÁREA 
500/230 KV DO MARANHÃO
CD-
CT.NE.5MA.02 54 2.2.3 08/01/2024
Referência: 31 / 55
Limites de Condição de Emergência de Curta Duração
Enrolamento 
(kV)
Valor
operacional (A)
Duração 
(Hh:mm) Fator limitante
69 1.004 00:30 -
230 301 00:30 -
5.18. SE MIRANDA II –  AUTOTRANSFORMADOR MRAT6 – 01 DE 230/138/13,8 KV - 100 MVA
Limites de Condição Normal de Operação
Enrolamento (kV) Valor
operacional (A) Fator limitante
138 418 -
230 251 -
Limites de Condição de Emergência de Longa Duração
Enrolamento 
(kV)
Valor
operacional (A)
Duração 
(Hh:mm) Fator limitante
138 431 04:00 -
230 259 04:00 -
Limites de Condição de Emergência de Curta Duração
Enrolamento 
(kV)
Valor
operacional (A)
Duração 
(Hh:mm) Fator limitante
138 502 00:30 -
230 301 00:30 -
Manual de Procedimentos da Operação - Módulo 5 - Submódulo 5.11
 Cadastro de Informações Operacionais Código Revisão Item Vigência
CADASTRO DE LIMITES OPERACIONAIS DE LINHAS DE 
TRANSMISSÃO E TRANSFORMADORES DA ÁREA 
500/230 KV DO MARANHÃO
CD-
CT.NE.5MA.02 54 2.2.3 08/01/2024
Referência: 32 / 55
5.19. SE MIRANDA II –  AUTOTRANSFORMADOR MRAT6 – 02 DE 230/138/13,8 KV - 100 MVA
Limites de Condição Normal de Operação
Enrolamento (kV) Valor
operacional (A) Fator limitante
138 418 -
230 251 -
Limites de Condição de Emergência de Longa Duração
Enrolamento 
(kV)
Valor
operacional (A)
Duração 
(Hh:mm) Fator limitante
138 431 04:00 -
230 259 04:00 -
Limites de Condição de Emergência de Curta Duração
Enrolamento 
(kV)
Valor
operacional (A)
Duração 
(Hh:mm) Fator limitante
138 502 00:30 -
230 301 00:30 -
5.20. SE MIRANDA II –  AUTOTRANSFORMADOR MRAT6 – 03 DE 230/138/13,8 KV - 100 MVA
Limites de Condição Normal de Operação
Enrolamento (kV) Valor
operacional (A) Fator limitante
138 418 -
230 251 -
Limites de Condição de Emergência de Longa Duração
Enrolamento 
(kV)
Valor
operacional (A)
Duração 
(Hh:mm) Fator limitante
138 431 04:00 -
230 259 04:00 -
Manual de Procedimentos da Operação - Módulo 5 - Submódulo 5.11
 Cadastro de Informações Operacionais Código Revisão Item Vigência
CADASTRO DE LIMITES OPERACIONAIS DE LINHAS DE 
TRANSMISSÃO E TRANSFORMADORES DA ÁREA 
500/230 KV DO MARANHÃO
CD-
CT.NE.5MA.02 54 2.2.3 08/01/2024
Referência: 33 / 55
Limites de Condição de Emergência de Curta Duração
Enrolamento 
(kV)
Valor
operacional (A)
Duração 
(Hh:mm) Fator limitante
138 502 00:30 -
230 301 00:30 -
5.21. SE MIRANDA II – AUTOTRANSFORMADOR MRAT7 - 01 DE 500/230/13,8 KV - 450 MVA
Limites de Condição Normal de Operação
Enrolamento (kV) Valor
operacional (A) Fator limitante
230 1.130 -
500 520 -
Limites de Condição de Emergência de Longa Duração
Enrolamento 
(kV)
Valor
operacional (A)
Duração 
(Hh:mm) Fator limitante
230 1.163 04:00 -
500 535 04:00 -
Limites de Condição de Emergência de Curta Duração
Enrolamento 
(kV)
Valor
operacional (A)
Duração 
(Hh:mm) Fator limitante
230 1.355 00:30 -
500 623 00:30 -
Manual de Procedimentos da Operação - Módulo 5 - Submódulo 5.11
 Cadastro de Informações Operacionais Código Revisão Item Vigência
CADASTRO DE LIMITES OPERACIONAIS DE LINHAS DE 
TRANSMISSÃO E TRANSFORMADORES DA ÁREA 
500/230 KV DO MARANHÃO
CD-
CT.NE.5MA.02 54 2.2.3 08/01/2024
Referência: 34 / 55
5.22. SE MIRANDA II – AUTOTRANSFORMADOR MRAT7 - 02 DE 500/230/13,8 KV - 450 MVA
Limites de Condição Normal de Operação
Enrolamento (kV) Valor
operacional (A) Fator limitante
230 1.130 -
500 520 -
Limites de Condição de Emergência de Longa Duração
Enrolamento 
(kV)
Valor
operacional (A)
Duração 
(Hh:mm) Fator limitante
230 1.355 04:00 -
500 623 04:00 -
Limites de Condição de Emergência de Curta Duração
Enrolamento 
(kV)
Valor
operacional (A)
Duração 
(Hh:mm) Fator limitante
230 1.581 00:30 -
500 727 00:30 -
5.23. SE MIRANDA II – TRANSFORMADOR MRTF6 - 01 DE 230/69/13,8 KV - 100 MVA
Limites de Condição Normal de Operação
Enrolamento (kV) Valor
operacional (A) Fator limitante
69 837 -
230 251 -
Limites de Condição de Emergência de Longa Duração
Enrolamento 
(kV)
Valor
operacional (A)
Duração 
(Hh:mm) Fator limitante
69 862 04:00 -
230 259 04:00 -
Manual de Procedimentos da Operação - Módulo 5 - Submódulo 5.11
 Cadastro de Informações Operacionais Código Revisão Item Vigência
CADASTRO DE LIMITES OPERACIONAIS DE LINHAS DE 
TRANSMISSÃO E TRANSFORMADORES DA ÁREA 
500/230 KV DO MARANHÃO
CD-
CT.NE.5MA.02 54 2.2.3 08/01/2024
Referência: 35 / 55
Limites de Condição de Emergência de Curta Duração
Enrolamento 
(kV)
Valor
operacional (A)
Duração 
(Hh:mm) Fator limitante
69 1.004 00:30 -
230 301 00:30 -
5.24. SE MIRANDA II – TRANSFORMADOR MRTF6 - 02 DE 230/69/13,8 KV - 100 MVA
Limites de Condição Normal de Operação
Enrolamento (kV) Valor
operacional (A) Fator limitante
69 837 -
230 251 -
Limites de Condição de Emergência de Longa Duração
Enrolamento 
(kV)
Valor
operacional (A)
Duração 
(Hh:mm) Fator limitante
69 1.004 04:00 .
230 301 04:00 .
Limites de Condição de Emergência de Curta Duração
Enrolamento 
(kV)
Valor
operacional (A)
Duração 
(Hh:mm) Fator limitante
69 1.172 00:30 .
230 352 00:30 .
Manual de Procedimentos da Operação - Módulo 5 - Submódulo 5.11
 Cadastro de Informações Operacionais Código Revisão Item Vigência
CADASTRO DE LIMITES OPERACIONAIS DE LINHAS DE 
TRANSMISSÃO E TRANSFORMADORES DA ÁREA 
500/230 KV DO MARANHÃO
CD-
CT.NE.5MA.02 54 2.2.3 08/01/2024
Referência: 36 / 55
5.25. SE MIRANDA II – TRANSFORMADOR MRTF6 - 03 DE 230/69 KV - 100 MVA
Limites de Condição Normal de Operação
Enrolamento (kV) Valor
operacional (A) Fator limitante
69 837 -
230 251 -
Limites de Condição de Emergência de Longa Duração
Enrolamento 
(kV)
Valor
operacional (A)
Duração 
(Hh:mm) Fator limitante
69 1.004 04:00 -
230 301 04:00 -
Limites de Condição de Emergência de Curta Duração
Enrolamento 
(kV)
Valor
operacional (A)
Duração 
(Hh:mm) Fator limitante
69 1.172 00:30 -
230 352 00:30 -
5.26. SE PERITORÓ – TRANSFORMADOR PRTF6 - 01 DE 230/69/13,8 KV - 100 MVA
Limites de Condição Normal de Operação
Enrolamento (kV) Valor
operacional (A) Fator limitante
69 837 -
230 251 -
Limites de Condição de Emergência de Longa Duração
Enrolamento 
(kV)
Valor
operacional (A)
Duração 
(Hh:mm) Fator limitante
69 862 04:00 -
230 259 04:00 -
Manual de Procedimentos da Operação - Módulo 5 - Submódulo 5.11
 Cadastro de Informações Operacionais Código Revisão Item Vigência
CADASTRO DE LIMITES OPERACIONAIS DE LINHAS DE 
TRANSMISSÃO E TRANSFORMADORES DA ÁREA 
500/230 KV DO MARANHÃO
CD-
CT.NE.5MA.02 54 2.2.3 08/01/2024
Referência: 37 / 55
Limites de Condição de Emergência de Curta Duração
Enrolamento 
(kV)
Valor
operacional (A)
Duração 
(Hh:mm) Fator limitante
69 1.004 00:30 -
230 301 00:30 -
5.27. SE PERITORÓ – TRANSFORMADOR PRTF6 - 02 DE 230/69/13,8 KV - 100 MVA
Limites de Condição Normal de Operação
Enrolamento (kV) Valor
operacional (A) Fator limitante
69 837 -
230 251 -
Limites de Condição de Emergência de Longa Duração
Enrolamento 
(kV)
Valor
operacional (A)
Duração 
(Hh:mm) Fator limitante
69 862 04:00 -
230 259 04:00 -
Limites de Condição de Emergência de Curta Duração
Enrolamento 
(kV)
Valor
operacional (A)
Duração 
(Hh:mm) Fator limitante
69 1.004 00:30 -
230 301 00:30 -
Manual de Procedimentos da Operação - Módulo 5 - Submódulo 5.11
 Cadastro de Informações Operacionais Código Revisão Item Vigência
CADASTRO DE LIMITES OPERACIONAIS DE LINHAS DE 
TRANSMISSÃO E TRANSFORMADORES DA ÁREA 
500/230 KV DO MARANHÃO
CD-
CT.NE.5MA.02 54 2.2.3 08/01/2024
Referência: 38 / 55
5.28. SE PERITORÓ – TRANSFORMADOR PRTF6 - 03 DE 230/69/13,8 KV - 100 MVA
Limites de Condição Normal de Operação
Enrolamento (kV) Valor
operacional (A) Fator limitante
69 837 -
230 251 -
Limites de Condição de Emergência de Longa Duração
Enrolamento 
(kV)
Valor
operacional (A)
Duração 
(Hh:mm) Fator limitante
69 862 04:00 -
230 259 04:00 -
Limites de Condição de Emergência de Curta Duração
Enrolamento 
(kV)
Valor
operacional (A)
Duração 
(Hh:mm) Fator limitante
69 1.004 00:30 -
230 301 00:30 -
5.29. SE PORTO FRANCO –  AUTOTRANSFORMADOR PFAT6 - 01 DE 230/138/13,8 KV – 100 MVA
Limites de Condição Normal de Operação
Enrolamento (kV) Valor
operacional (A) Fator limitante
138 418 Capacidade Nominal
230 251 Capacidade Nominal
Limites de Condição de Emergência de Longa Duração
Enrolamento 
(kV)
Valor
operacional (A)
Duração 
(Hh:mm) Fator limitante
138 431 (*) -
230 259 (*) -
Manual de Procedimentos da Operação - Módulo 5 - Submódulo 5.11
 Cadastro de Informações Operacionais Código Revisão Item Vigência
CADASTRO DE LIMITES OPERACIONAIS DE LINHAS DE 
TRANSMISSÃO E TRANSFORMADORES DA ÁREA 
500/230 KV DO MARANHÃO
CD-
CT.NE.5MA.02 54 2.2.3 08/01/2024
Referência: 39 / 55
Limites de Condição de Emergência de Curta Duração
Enrolamento 
(kV)
Valor
operacional (A)
Duração 
(Hh:mm) Fator limitante
138 502 (*) -
230 301 (*) -
5.30. SE PORTO FRANCO –  AUTOTRANSFORMADOR PFAT6 - 02 DE 230/138/13,8 KV – 100 MVA
Limites de Condição Normal de Operação
Enrolamento (kV) Valor
operacional (A) Fator limitante
138 418 Capacidade Nominal
230 251 Capacidade Nominal
Limites de Condição de Emergência de Longa Duração
Enrolamento 
(kV)
Valor
operacional (A)
Duração 
(Hh:mm) Fator limitante
138 431 04:00 -
230 259 04:00 -
Limites de Condição de Emergência de Curta Duração
Enrolamento 
(kV)
Valor
operacional (A)
Duração 
(Hh:mm) Fator limitante
138 502 00:30 -
230 301 00:30 -
Manual de Procedimentos da Operação - Módulo 5 - Submódulo 5.11
 Cadastro de Informações Operacionais Código Revisão Item Vigência
CADASTRO DE LIMITES OPERACIONAIS DE LINHAS DE 
TRANSMISSÃO E TRANSFORMADORES DA ÁREA 
500/230 KV DO MARANHÃO
CD-
CT.NE.5MA.02 54 2.2.3 08/01/2024
Referência: 40 / 55
5.31. SE PORTO FRANCO –  AUTOTRANSFORMADOR PFAT6 - 03 DE 230/138/13,8 KV – 100 MVA
Limites de Condição Normal de Operação
Enrolamento (kV) Valor
operacional (A) Fator limitante
138 418 -
230 251 -
Limites de Condição de Emergência de Longa Duração
Enrolamento 
(kV)
Valor
operacional (A)
Duração 
(Hh:mm) Fator limitante
138 502 04:00 -
230 301 04:00 -
Limites de Condição de Emergência de Curta Duração
Enrolamento 
(kV)
Valor
operacional (A)
Duração 
(Hh:mm) Fator limitante
138 586 00:30 -
230 351 00:30 -
5.32. SE PORTO FRANCO –  TRANSFORMADOR PFTF6 - 01 DE 230/69 KV – 33 MVA
Limites de Condição Normal de Operação
Enrolamento (kV) Valor
operacional (A) Fator limitante
69 276 -
230 83 -
Limites de Condição de Emergência de Longa Duração
Enrolamento 
(kV)
Valor
operacional (A)
Duração 
(Hh:mm) Fator limitante
69 284 04:00 -
230 85 04:00 -
Manual de Procedimentos da Operação - Módulo 5 - Submódulo 5.11
 Cadastro de Informações Operacionais Código Revisão Item Vigência
CADASTRO DE LIMITES OPERACIONAIS DE LINHAS DE 
TRANSMISSÃO E TRANSFORMADORES DA ÁREA 
500/230 KV DO MARANHÃO
CD-
CT.NE.5MA.02 54 2.2.3 08/01/2024
Referência: 41 / 55
Limites de Condição de Emergência de Curta Duração
Enrolamento 
(kV)
Valor
operacional (A)
Duração 
(Hh:mm) Fator limitante
69 331 00:30 -
230 99 00:30 -
5.33. SE PORTO FRANCO –  TRANSFORMADOR PFTF6 - 02 DE 230/69 KV – 33 MVA
Limites de Condição Normal de Operação
Enrolamento (kV) Valor
operacional (A) Fator limitante
69 276 -
230 83 -
Limites de Condição de Emergência de Longa Duração
Enrolamento 
(kV)
Valor
operacional (A)
Duração 
(Hh:mm) Fator limitante
69 283 04:00 -
230 85 04:00 -
Limites de Condição de Emergência de Curta Duração
Enrolamento 
(kV)
Valor
operacional (A)
Duração 
(Hh:mm) Fator limitante
69 331 00:30 -
230 100 00:30 -
Manual de Procedimentos da Operação - Módulo 5 - Submódulo 5.11
 Cadastro de Informações Operacionais Código Revisão Item Vigência
CADASTRO DE LIMITES OPERACIONAIS DE LINHAS DE 
TRANSMISSÃO E TRANSFORMADORES DA ÁREA 
500/230 KV DO MARANHÃO
CD-
CT.NE.5MA.02 54 2.2.3 08/01/2024
Referência: 42 / 55
5.34. SE PORTO FRANCO –  TRANSFORMADOR PFTF6 - 03 DE 230/69 KV – 33 MVA
Limites de Condição Normal de Operação
Enrolamento (kV) Valor
operacional (A) Fator limitante
69 276 ---
230 83 ---
Limites de Condição de Emergência de Longa Duração
Enrolamento 
(kV)
Valor
operacional (A)
Duração 
(Hh:mm) Fator limitante
69 331 04:00 ---
230 100 04:00 ---
Limites de Condição de Emergência de Curta Duração
Enrolamento 
(kV)
Valor
operacional (A)
Duração 
(Hh:mm) Fator limitante
69 386 00:30 ---
230 116 00:30 ---
5.35. SE PRESIDENTE DUTRA – AUTOTRANSFORMADOR PDAT7-01 DE 550/242/13,8 KV - 300 MVA
Limites de Condição Normal de Operação
Enrolamento (kV) Valor
operacional (A) Fator limitante
242 716 -
550 315 -
Limites de Condição de Emergência de Longa Duração
Enrolamento 
(kV)
Valor
operacional (A)
Duração 
(Hh:mm) Fator limitante
242 737 04:00 -
550 324 04:00 -
Manual de Procedimentos da Operação - Módulo 5 - Submódulo 5.11
 Cadastro de Informações Operacionais Código Revisão Item Vigência
CADASTRO DE LIMITES OPERACIONAIS DE LINHAS DE 
TRANSMISSÃO E TRANSFORMADORES DA ÁREA 
500/230 KV DO MARANHÃO
CD-
CT.NE.5MA.02 54 2.2.3 08/01/2024
Referência: 43 / 55
Limites de Condição de Emergência de Curta Duração
Enrolamento 
(kV)
Valor
operacional (A)
Duração 
(Hh:mm) Fator limitante
242 859 00:30 -
550 378 00:30 -
5.36. SE PRESIDENTE DUTRA – TRANSFORMADOR PDTF6 - 01 DE 230/69/13,8 KV - 50 MVA
Limites de Condição Normal de Operação
Enrolamento (kV) Valor
operacional (A) Fator limitante
69 418 -
230 126 -
Limites de Condição de Emergência de Longa Duração
Enrolamento 
(kV)
Valor
operacional (A)
Duração 
(Hh:mm) Fator limitante
69 431 04:00 -
230 129 04:00 -
Limites de Condição de Emergência de Curta Duração
Enrolamento 
(kV)
Valor
operacional (A)
Duração 
(Hh:mm) Fator limitante
69 502 00:30 -
230 151 00:30 -
Manual de Procedimentos da Operação - Módulo 5 - Submódulo 5.11
 Cadastro de Informações Operacionais Código Revisão Item Vigência
CADASTRO DE LIMITES OPERACIONAIS DE LINHAS DE 
TRANSMISSÃO E TRANSFORMADORES DA ÁREA 
500/230 KV DO MARANHÃO
CD-
CT.NE.5MA.02 54 2.2.3 08/01/2024
Referência: 44 / 55
5.37. SE PRESIDENTE DUTRA – TRANSFORMADOR PDTF6 - 04 DE 230/69/13,8 KV - 50 MVA
Limites de Condição Normal de Operação
Enrolamento (kV) Valor
operacional (A) Fator limitante
69 418 -
230 126 -
Limites de Condição de Emergência de Longa Duração
Enrolamento 
(kV)
Valor
operacional (A)
Duração 
(Hh:mm) Fator limitante
69 431 04:00 -
230 129 04:00 -
Limites de Condição de Emergência de Curta Duração
Enrolamento 
(kV)
Valor
operacional (A)
Duração 
(Hh:mm) Fator limitante
69 502 00:30 -
230 151 00:30 -
5.38. SE PRESIDENTE DUTRA – TRANSFORMADOR PDTF6 - 05 DE 230/69/13,8 KV - 50 MVA
Limites de Condição Normal de Operação
Enrolamento (kV) Valor
operacional (A) Fator limitante
69 418 -
230 126 -
Limites de Condição de Emergência de Longa Duração
Enrolamento 
(kV)
Valor
operacional (A)
Duração 
(Hh:mm) Fator limitante
69 431 04:00 -
230 129 04:00 -
Manual de Procedimentos da Operação - Módulo 5 - Submódulo 5.11
 Cadastro de Informações Operacionais Código Revisão Item Vigência
CADASTRO DE LIMITES OPERACIONAIS DE LINHAS DE 
TRANSMISSÃO E TRANSFORMADORES DA ÁREA 
500/230 KV DO MARANHÃO
CD-
CT.NE.5MA.02 54 2.2.3 08/01/2024
Referência: 45 / 55
Limites de Condição de Emergência de Curta Duração
Enrolamento 
(kV)
Valor
operacional (A)
Duração 
(Hh:mm) Fator limitante
69 502 00:30 -
230 151 00:30 -
5.39. SE PRESIDENTE DUTRA - TRANSFORMADOR PDTF6-06 DE 230/69/13,8 KV - 100 MVA
Limites de Condição Normal de Operação
Enrolamento (kV) Valor
operacional (A) Fator limitante
69 837 .
230 251 .
Limites de Condição de Emergência de Longa Duração
Enrolamento 
(kV)
Valor
operacional (A)
Duração 
(Hh:mm) Fator limitante
69 1.005 04:00 .
230 302 04:00 .
Limites de Condição de Emergência de Curta Duração
Enrolamento 
(kV)
Valor
operacional (A)
Duração 
(Hh:mm) Fator limitante
69 1.172 00:30 .
230 352 00:30 .
Manual de Procedimentos da Operação - Módulo 5 - Submódulo 5.11
 Cadastro de Informações Operacionais Código Revisão Item Vigência
CADASTRO DE LIMITES OPERACIONAIS DE LINHAS DE 
TRANSMISSÃO E TRANSFORMADORES DA ÁREA 
500/230 KV DO MARANHÃO
CD-
CT.NE.5MA.02 54 2.2.3 08/01/2024
Referência: 46 / 55
5.40. SE SÃO LUÍS I –  TRANSFORMADOR LITF6 - 01 DE 230/69 KV - 100 MVA
Limites de Condição Normal de Operação
Enrolamento (kV) Valor
operacional (A) Fator limitante
69 837 -
230 251 -
Limites de Condição de Emergência de Longa Duração
Enrolamento 
(kV)
Valor
operacional (A)
Duração 
(Hh:mm) Fator limitante
69 904 04:00 -
230 271 04:00 -
Limites de Condição de Emergência de Curta Duração
Enrolamento 
(kV)
Valor
operacional (A)
Duração 
(Hh:mm) Fator limitante
69 1.004 00:30 -
230 301 00:30 -
5.41. SE SÃO LUÍS I –  TRANSFORMADOR LITF6 - 02 DE 230/69 KV - 100 MVA
Limites de Condição Normal de Operação
Enrolamento (kV) Valor
operacional (A) Fator limitante
69 837 -
230 251 -
Limites de Condição de Emergência de Longa Duração
Enrolamento 
(kV)
Valor
operacional (A)
Duração 
(Hh:mm) Fator limitante
69 904 04:00 -
230 271 04:00 -
Manual de Procedimentos da Operação - Módulo 5 - Submódulo 5.11
 Cadastro de Informações Operacionais Código Revisão Item Vigência
CADASTRO DE LIMITES OPERACIONAIS DE LINHAS DE 
TRANSMISSÃO E TRANSFORMADORES DA ÁREA 
500/230 KV DO MARANHÃO
CD-
CT.NE.5MA.02 54 2.2.3 08/01/2024
Referência: 47 / 55
Limites de Condição de Emergência de Curta Duração
Enrolamento 
(kV)
Valor
operacional (A)
Duração 
(Hh:mm) Fator limitante
69 1.004 00:30 -
230 301 00:30 -
5.42. SE SÃO LUÍS I –  TRANSFORMADOR LITF6 - 03 DE 230/69 KV - 100 MVA
Limites de Condição Normal de Operação
Enrolamento (kV) Valor
operacional (A) Fator limitante
69 837 -
230 251 -
Limites de Condição de Emergência de Longa Duração
Enrolamento 
(kV)
Valor
operacional (A)
Duração 
(Hh:mm) Fator limitante
69 904 04:00 -
230 271 04:00 -
Limites de Condição de Emergência de Curta Duração
Enrolamento 
(kV)
Valor
operacional (A)
Duração 
(Hh:mm) Fator limitante
69 1.004 00:30 -
230 301 00:30 -
Manual de Procedimentos da Operação - Módulo 5 - Submódulo 5.11
 Cadastro de Informações Operacionais Código Revisão Item Vigência
CADASTRO DE LIMITES OPERACIONAIS DE LINHAS DE 
TRANSMISSÃO E TRANSFORMADORES DA ÁREA 
500/230 KV DO MARANHÃO
CD-
CT.NE.5MA.02 54 2.2.3 08/01/2024
Referência: 48 / 55
5.43. SE SÃO LUÍS I –  TRANSFORMADOR LITF6 - 04 DE 230/69 KV - 100 MVA
Limites de Condição Normal de Operação
Enrolamento (kV) Valor
operacional (A) Fator limitante
69 837 -
230 251 -
Limites de Condição de Emergência de Longa Duração
Enrolamento 
(kV)
Valor
operacional (A)
Duração 
(Hh:mm) Fator limitante
69 904 04:00 -
230 271 04:00 -
Limites de Condição de Emergência de Curta Duração
Enrolamento 
(kV)
Valor
operacional (A)
Duração 
(Hh:mm) Fator limitante
69 1.004 00:30 -
230 301 00:30 -
5.44. SE SÃO LUÍS II – AUTOTRANSFORMADOR LDAT7 – 01 DE 500/230/13,8 KV - 600 MVA
Limites de Condição Normal de Operação
Enrolamento (kV) Valor
operacional (A) Fator limitante
230 1.506 -
500 693 -
Limites de Condição de Emergência de Longa Duração
Enrolamento 
(kV)
Valor
operacional (A)
Duração 
(Hh:mm) Fator limitante
230 1.612 04:00 -
500 741 04:00 -
Manual de Procedimentos da Operação - Módulo 5 - Submódulo 5.11
 Cadastro de Informações Operacionais Código Revisão Item Vigência
CADASTRO DE LIMITES OPERACIONAIS DE LINHAS DE 
TRANSMISSÃO E TRANSFORMADORES DA ÁREA 
500/230 KV DO MARANHÃO
CD-
CT.NE.5MA.02 54 2.2.3 08/01/2024
Referência: 49 / 55
Limites de Condição de Emergência de Curta Duração
Enrolamento 
(kV)
Valor
operacional (A)
Duração 
(Hh:mm) Fator limitante
230 1.807 00:30 -
500 832 00:30 -
5.45. SE SÃO LUÍS II – AUTOTRANSFORMADOR LDAT7 – 02 DE 500/230/13,8 KV - 600 MVA
Limites de Condição Normal de Operação
Enrolamento (kV) Valor
operacional (A) Fator limitante
230 1.506 -
500 693 -
Limites de Condição de Emergência de Longa Duração
Enrolamento 
(kV)
Valor
operacional (A)
Duração 
(Hh:mm) Fator limitante
230 1.612 04:00 -
500 741 04:00 -
Limites de Condição de Emergência de Curta Duração
Enrolamento 
(kV)
Valor
operacional (A)
Duração 
(Hh:mm) Fator limitante
230 1.807 00:30 -
500 832 00:30 -
Manual de Procedimentos da Operação - Módulo 5 - Submódulo 5.11
 Cadastro de Informações Operacionais Código Revisão Item Vigência
CADASTRO DE LIMITES OPERACIONAIS DE LINHAS DE 
TRANSMISSÃO E TRANSFORMADORES DA ÁREA 
500/230 KV DO MARANHÃO
CD-
CT.NE.5MA.02 54 2.2.3 08/01/2024
Referência: 50 / 55
5.46. SE SÃO LUÍS II – AUTOTRANSFORMADOR LDAT7 – 03 DE 500/230/13,8 KV - 600 MVA
Limites de Condição Normal de Operação
Enrolamento (kV) Valor
operacional (A) Fator limitante
230 1.506 -
500 693 -
Limites de Condição de Emergência de Longa Duração
Enrolamento 
(kV)
Valor
operacional (A)
Duração 
(Hh:mm) Fator limitante
230 1.612 04:00 -
500 741 04:00 -
Limites de Condição de Emergência de Curta Duração
Enrolamento 
(kV)
Valor
operacional (A)
Duração 
(Hh:mm) Fator limitante
230 1.807 00:30 -
500 832 00:30 -
5.47. SE SÃO LUÍS II – AUTOTRANSFORMADOR LDAT7 – 04 DE 550/230/13,8 KV - 600 MVA
Limites de Condição Normal de Operação
Enrolamento (kV) Valor
operacional (A) Fator limitante
230 1.506 -
550 630 -
Limites de Condição de Emergência de Longa Duração
Enrolamento 
(kV)
Valor
operacional (A)
Duração 
(Hh:mm) Fator limitante
230 1.807 04:00 -
550 756 04:00 -
Manual de Procedimentos da Operação - Módulo 5 - Submódulo 5.11
 Cadastro de Informações Operacionais Código Revisão Item Vigência
CADASTRO DE LIMITES OPERACIONAIS DE LINHAS DE 
TRANSMISSÃO E TRANSFORMADORES DA ÁREA 
500/230 KV DO MARANHÃO
CD-
CT.NE.5MA.02 54 2.2.3 08/01/2024
Referência: 51 / 55
Limites de Condição de Emergência de Curta Duração
Enrolamento 
(kV)
Valor
operacional (A)
Duração 
(Hh:mm) Fator limitante
230 2.109 00:30 -
550 882 00:30 -
5.48. SE SÃO LUÍS III –  TRANSFORMADOR LTTF6-01 DE 230/69 KV - 150 MVA
Limites de Condição Normal de Operação
Enrolamento (kV) Valor
operacional (A) Fator limitante
69 1.255 -
230 377 -
Limites de Condição de Emergência de Longa Duração
Enrolamento 
(kV)
Valor
operacional (A)
Duração 
(Hh:mm) Fator limitante
69 1.339 04:00 -
230 402 04:00 -
Limites de Condição de Emergência de Curta Duração
Enrolamento 
(kV)
Valor
operacional (A)
Duração 
(Hh:mm) Fator limitante
69 1.506 00:30 -
230 452 00:30 -
Manual de Procedimentos da Operação - Módulo 5 - Submódulo 5.11
 Cadastro de Informações Operacionais Código Revisão Item Vigência
CADASTRO DE LIMITES OPERACIONAIS DE LINHAS DE 
TRANSMISSÃO E TRANSFORMADORES DA ÁREA 
500/230 KV DO MARANHÃO
CD-
CT.NE.5MA.02 54 2.2.3 08/01/2024
Referência: 52 / 55
5.49. SE SÃO LUÍS III –  TRANSFORMADOR LTTF6-02 DE 230/69 KV - 150 MVA
Limites de Condição Normal de Operação
Enrolamento (kV) Valor
operacional (A) Fator limitante
69 1.255 -
230 377 -
Limites de Condição de Emergência de Longa Duração
Enrolamento 
(kV)
Valor
operacional (A)
Duração 
(Hh:mm) Fator limitante
69 1.339 04:00 -
230 402 04:00 -
Limites de Condição de Emergência de Curta Duração
Enrolamento 
(kV)
Valor
operacional (A)
Duração 
(Hh:mm) Fator limitante
69 1.506 00:30 -
230 452 00:30 -
5.50. SE SÃO LUÍS III –  TRANSFORMADOR LTTF6-03 DE 230/69 KV - 150 MVA
Limites de Condição Normal de Operação
Enrolamento (kV) Valor
operacional (A) Fator limitante
69 1.255 .
230 377 .
Limites de Condição de Emergência de Longa Duração
Enrolamento 
(kV)
Valor
operacional (A)
Duração 
(Hh:mm) Fator limitante
69 1.506 04:00 .
230 453 04:00 .
Manual de Procedimentos da Operação - Módulo 5 - Submódulo 5.11
 Cadastro de Informações Operacionais Código Revisão Item Vigência
CADASTRO DE LIMITES OPERACIONAIS DE LINHAS DE 
TRANSMISSÃO E TRANSFORMADORES DA ÁREA 
500/230 KV DO MARANHÃO
CD-
CT.NE.5MA.02 54 2.2.3 08/01/2024
Referência: 53 / 55
Limites de Condição de Emergência de Curta Duração
Enrolamento 
(kV)
Valor
operacional (A)
Duração 
(Hh:mm) Fator limitante
69 1.757 00:30 .
230 528 00:30 .
5.51. SE SÃO LUÍS IV - AUTOTRANSFORMADOR 9ATF-01 DE 500/230/13,8 KV - 600 MVA
Limites de Condição Normal de Operação
Enrolamento (kV) Valor
operacional (A) Fator limitante
230 1.506 .
500 693 .
Limites de Condição de Emergência de Longa Duração
Enrolamento 
(kV)
Valor
operacional (A)
Duração 
(Hh:mm) Fator limitante
230 1.807 04:00 .
500 831 04:00 .
Limites de Condição de Emergência de Curta Duração
Enrolamento 
(kV)
Valor
operacional (A)
Duração 
(Hh:mm) Fator limitante
230 2.108 00:30 .
500 970 00:30 .
Manual de Procedimentos da Operação - Módulo 5 - Submódulo 5.11
 Cadastro de Informações Operacionais Código Revisão Item Vigência
CADASTRO DE LIMITES OPERACIONAIS DE LINHAS DE 
TRANSMISSÃO E TRANSFORMADORES DA ÁREA 
500/230 KV DO MARANHÃO
CD-
CT.NE.5MA.02 54 2.2.3 08/01/2024
Referência: 54 / 55
5.52. SE SÃO LUÍS IV - AUTOTRANSFORMADOR 9ATF-02 DE 500/230/13,8 KV - 600 MVA
Limites de Condição Normal de Operação
Enrolamento (kV) Valor
operacional (A) Fator limitante
230 1.506 .
500 693 .
Limites de Condição de Emergência de Longa Duração
Enrolamento 
(kV)
Valor
operacional (A)
Duração 
(Hh:mm) Fator limitante
230 1.807 04:00 .
500 831 04:00 .
Limites de Condição de Emergência de Curta Duração
Enrolamento 
(kV)
Valor
operacional (A)
Duração 
(Hh:mm) Fator limitante
230 2.108 00:30 .
500 970 00:30 .
5.53. SE SÃO LUÍS IV - TRANSFORMADOR 7TR-01 DE 230/69/13,8 KV - 200 MVA
Limites de Condição Normal de Operação
Enrolamento (kV) Valor
operacional (A) Fator limitante
69 1.673 .
230 502 .
Limites de Condição de Emergência de Longa Duração
Enrolamento 
(kV)
Valor
operacional (A)
Duração 
(Hh:mm) Fator limitante
69 2.007 04:00 .
230 602 04:00 .
Manual de Procedimentos da Operação - Módulo 5 - Submódulo 5.11
 Cadastro de Informações Operacionais Código Revisão Item Vigência
CADASTRO DE LIMITES OPERACIONAIS DE LINHAS DE 
TRANSMISSÃO E TRANSFORMADORES DA ÁREA 
500/230 KV DO MARANHÃO
CD-
CT.NE.5MA.02 54 2.2.3 08/01/2024
Referência: 55 / 55
Limites de Condição de Emergência de Curta Duração
Enrolamento 
(kV)
Valor
operacional (A)
Duração 
(Hh:mm) Fator limitante
69 2.342 00:30 .
230 703 00:30 .
5.54. SE SÃO LUÍS IV - TRANSFORMADOR 7TR-02 DE 230/69/13,8 KV - 200 MVA
Limites de Condição Normal de Operação
Enrolamento (kV) Valor
operacional (A) Fator limitante
69 1.673 .
230 502 .
Limites de Condição de Emergência de Longa Duração
Enrolamento 
(kV)
Valor
operacional (A)
Duração 
(Hh:mm) Fator limitante
69 2.007 04:00 .
230 602 04:00 .
Limites de Condição de Emergência de Curta Duração
Enrolamento 
(kV)
Valor
operacional (A)
Duração 
(Hh:mm) Fator limitante
69 2.342 00:30 .
230 703 00:30 .
