 
Alterado pela(s) MOP(s): 
MOP/ONS 463-S/2024;  
 
Manual de Procedimentos da Operação 
Módulo 10 - Submódulo 10.18 
 
Cadastro de Informações Operacionais 
CADASTRO DE LIMITES OPERACIONAIS DE LINHAS DE TRANSMISSÃO E 
TRANSFORMADORES DA INTERLIGAÇÃO SUL / SUDESTE 
 
 
Código Revisão Item Vigência 
CD-CT.SSE.02 27 2.2.1 09/01/2023 
 
 
MOTIVO DA REVISÃO 
Alteração do Limite de Condição de Emergência de Curta Duração do autotransformador AT02 de 
765/512/69 kV - 1650 MVA da SE Ivaiporã. 
 
 
LISTA DE DISTRIBUIÇÃO 
ATE CNOS COPEL GeT COSR-S COSR-SE 
ELETROSUL FURNAS ITAIPU   
  
Manual de Procedimentos da Operação - Módulo 10 - Submódulo 10.18 
 Cadastro de Informações Operacionais Código Revisão Item Vigência 
CADASTRO DE LIMITES OPERACIONAIS DE LINHAS DE 
TRANSMISSÃO E TRANSFORMADORES DA 
INTERLIGAÇÃO SUL / SUDESTE 
CD-CT.SSE.02 27 2.2.1 09/01/2023 
 
e-mail Furnas de 09/01/2023 
 
2 / 28 
 
Alterado pela(s) MOP(s): 
MOP/ONS 463-S/2024;  
ÍNDICE 
1. OBJETIVO ................................ ................................ ................................ ................................ ..... 4 
2. CONCEITOS ................................ ................................ ................................ ................................ ... 4 
3. CONSIDERAÇÕES GERAIS ................................ ................................ ................................ .............. 6 
4. LIMITES DE CARREGAMENTO DE LINHAS DE TRANSMISSÃO ................................ ...........................  7 
4.1. LT 765 kV Foz do Iguaçu / Ivaiporã C1 ........................................................................................... 7 
4.2. LT 765 kV Foz do Iguaçu / Ivaiporã C2 ........................................................................................... 7 
4.3. LT 765 kV Foz do Iguaçu / Ivaiporã C3 ........................................................................................... 8 
4.4. LT 765 kV Itaberá / Ivaiporã C1...................................................................................................... 8 
4.5. LT 765 kV Itaberá / Ivaiporã C2...................................................................................................... 9 
4.6. LT 765 kV Itaberá / Ivaiporã C3...................................................................................................... 9 
4.7. LT 765 kV Itaberá / Tijuco Preto C1 ............................................................................................. 10 
4.8. LT 765 kV Itaberá / Tijuco Preto C2 ............................................................................................. 11 
4.9. LT 765 kV Itaberá / Tijuco Preto C3 ............................................................................................. 11 
4.10. LT 525 kV Cascavel Oeste / Foz do Iguaçu 60Hz .......................................................................... 12 
4.11. LT 525 kV Londrina / Assis C1 ...................................................................................................... 12 
4.12. LT 525 kV Londrina / Assis C2 ...................................................................................................... 13 
4.13. LT 500 kV Ibiúna / Bateias C1 ...................................................................................................... 13 
4.14. LT 500 kV Ibiúna / Bateias C2 ...................................................................................................... 13 
4.15. LT 500 kV Itaipu 60 Hz / Foz do Iguaçu 60 Hz C1 ......................................................................... 14 
4.16. LT 500 kV Itaipu 60 Hz / Foz do Iguaçu 60 Hz C2 ......................................................................... 14 
4.17. LT 500 kV Itaipu 60 Hz / Foz do Iguaçu 60 Hz C3 ......................................................................... 15 
4.18. LT 500 kV Itaipu 60 Hz / Foz do Iguaçu 60 Hz C4 ......................................................................... 15 
4.19. LT 500 kV Itatiba / Bateias ........................................................................................................... 16 
4.20. LT 525 kV Foz do Iguaçu 60 Hz / Guaíra C1 ................................................................................. 16 
4.21. LT 525 kV Foz do Iguaçu 60 Hz / Guaíra C2 ................................................................................. 17 
5. LIMITES DE CARREGAMENTO DE TRANSFORMADORES ................................ ................................  18 
5.1. SE Foz do Iguaçu 60Hz - Autotransformador AT1 de 765/512/69 kV - 1650 MVA ..................... 18 
5.2. SE Foz do Iguaçu 60Hz - Autotransformador AT2 de 765/512/69 kV - 1650 MVA ..................... 18 
5.3. SE Foz do Iguaçu 60Hz - Autotransformador AT3 de 765/512/69 kV - 1650 MVA ..................... 19 
5.4. SE Foz do Iguaçu 60Hz - Autotransformador AT4 de 765/525/69 kV - 1650 MVA ..................... 19 
5.5. SE Foz do Iguaçu 60Hz - Autotransformador AT5 de 765/525/69 kV - 1650 MVA ..................... 20 
5.6. SE Ibiúna - Transformador 500/345 kV - ATR1 ............................................................................ 21 
5.7. SE Ibiúna - Transformador 500/345 kV - ATR2 ............................................................................ 21 
Manual de Procedimentos da Operação - Módulo 10 - Submódulo 10.18 
 Cadastro de Informações Operacionais Código Revisão Item Vigência 
CADASTRO DE LIMITES OPERACIONAIS DE LINHAS DE 
TRANSMISSÃO E TRANSFORMADORES DA 
INTERLIGAÇÃO SUL / SUDESTE 
CD-CT.SSE.02 27 2.2.1 09/01/2023 
 
e-mail Furnas de 09/01/2023 
 
3 / 28 
 
Alterado pela(s) MOP(s): 
MOP/ONS 463-S/2024;  
5.8. SE Ibiuna - Transformador 500/345 kV - ATR3 ............................................................................ 22 
5.9. SE Ivaipora - Autotransformador AT01 de 765/512/69 kV - 1650 MVA ..................................... 22 
5.10. SE Ivaipora - Autotransformador AT02 de 765/512/69 kV - 1650 MVA ..................................... 23 
5.11. SE Ivaipora - Autotransformador AT03 de 765/512/69 kV - 1650 MVA ..................................... 24 
5.12. SE Tijuco Preto - Autotransformador AT01 de 765/512/69 kV - 1650 MVA ............................... 24 
5.13. SE Tijuco Preto - Autotransformador AT02 de 765/512/69 kV - 1650 MVA ............................... 25 
5.14. SE Tijuco Preto - Autotransformador AT03 de 765/512/69 kV - 1650 MVA ............................... 25 
5.15. SE Tijuco Preto - Autotransformador AT04 de 765/345/20 kV - 1500 MVA ............................... 26 
5.16. SE Tijuco Preto - Autotransformador AT05 de 765/345/20 kV - 1500 MVA ............................... 27 
5.17. SE Tijuco Preto - Autotransformador AT06 de 765/345/20 kV - 1500 MVA ............................... 27 
5.18. SE Tijuco Preto - Autotransformador AT07 de 765/345/20 kV - 1500 MVA ............................... 28 
 
  
Manual de Procedimentos da Operação - Módulo 10 - Submódulo 10.18 
 Cadastro de Informações Operacionais Código Revisão Item Vigência 
CADASTRO DE LIMITES OPERACIONAIS DE LINHAS DE 
TRANSMISSÃO E TRANSFORMADORES DA 
INTERLIGAÇÃO SUL / SUDESTE 
CD-CT.SSE.02 27 2.2.1 09/01/2023 
 
e-mail Furnas de 09/01/2023 
 
4 / 28 
 
Alterado pela(s) MOP(s): 
MOP/ONS 463-S/2024;  
1. OBJETIVO 
Apresentar os limites operacionais de linhas de transmissão e de transfo rmadores da Rede de Operação a 
serem controlados pelos operadores dos Centros de Operação do ONS e pela Operação dos Agentes 
envolvidos. 
2. CONCEITOS 
2.1. Limite Operacional: Corresponde ao limite de carregamento do equipamento que deve ser observado 
pelo ONS e Agentes, em condição normal de operação e ou em condição de emergência. 
2.2. Alteração dos Limites Operacionais: É a alteração de limite na qual são estabelecidos novos valores, 
decorrentes de eventos que alteraram a capacidade operativa do equipamento, como por exemplo 
recapacitação, trocas de TC, troca de característica de proteção, indisponibili dade do sistema de 
refrigeração, flexibilização por parte do Agente, etc. 
2.3. Fator Limitante:  Fator que impede um equipamento de atingir um limite operacional superior ao 
estabelecido de projeto. Um fator limitante ativo provoca aumento no custo de operação ou de 
expansão do SIN. 
2.4. Limites de linhas de transmissão 
2.4.1. Condição Normal de Operação 
Situação de carregamento em que a linha de transmissão transporta continuamente corrente em valor igual 
ou inferior ao seu valor operacional, em sua condição de carregamento nominal, para a qual foi projetada. 
2.4.2. Condição de Emergência de Operação 
Situação de carregamento em que a linha de transmissão transporta corrente acima do seu valor operacional, 
em sua condição de carregamento superior ao nominal para a qual foi projetada, por um tempo não superior 
a 4 dias (96 horas) contínuos, ou um somatório máximo de 18 dias (432 horas) intermitentes (se somados 
em base anual todos os períodos contínuos inferiores a 4 dias). 
As linhas de transmissão que se enquadrarem nessa situação terão o campo duração nas tabelas 
apresentadas neste cadastro preenchido com (*). 
2.4.3. Condição Sazonal de Operação 
Situação de carregamento em que a linha de transmissão transporta continuamente corrente em valor igual 
ou inferior ao seu valor operacional, em condição normal de operação e ou em condição de emergência, em 
condições de operação temporárias e específicas para diferentes períodos do ano, tais como verão -dia, 
verão-noite, inverno-dia e inverno-noite ou outro período específico do ano (meses ou estações do ano). 
2.4.4. Limite Diurno  
Limite operacional a ser considerado para o período diurno. O período diurno é o intervalo entre o horário 
do amanhecer e do crepúsculo, conforme disposto nos Procedimentos de Rede. 
Quando o período não for definido pelo agente , deve ser considerado o período entre 06h00min até 
17h59min fora do horário de verão e entre 07h00min e 18h59min no horário de verão, sempre tomando 
como referência o horário oficial de Brasília. 
2.4.5. Limite Noturno  
Limite operacional a ser considerado para o período noturno. O período noturno é o intervalo de tempo 
entre o horário do crepúsculo e do amanhecer, conforme disposto nos Procedimentos de Rede. 
Quando o período não for definido pelo agente, deve ser considerado o período de 18h00min até 05h59min 
fora do horário de verão e entre 19h00min e 06h59min no horário de verão, sempre tomando como 
Manual de Procedimentos da Operação - Módulo 10 - Submódulo 10.18 
 Cadastro de Informações Operacionais Código Revisão Item Vigência 
CADASTRO DE LIMITES OPERACIONAIS DE LINHAS DE 
TRANSMISSÃO E TRANSFORMADORES DA 
INTERLIGAÇÃO SUL / SUDESTE 
CD-CT.SSE.02 27 2.2.1 09/01/2023 
 
e-mail Furnas de 09/01/2023 
 
5 / 28 
 
Alterado pela(s) MOP(s): 
MOP/ONS 463-S/2024;  
referência o horário oficial de Brasília. 
2.5. Limites de Transformadores 
2.5.1. Condição Normal de Operação  
Situação de carregamento em que o transformador opera continuamente com sua corrente nominal. Mesmo 
que em algum momento seja ultrapassada a sua corrente nominal, não deve ser excedida a temperatura 
máxima do óleo e ou do enrolamento, conforme limites estabelecidos na NBR 5416, respeitadas as 
condições, valores e prazos admitidos pelo agente. 
2.5.2. Condição de Emergência de Longa Duração  
Situação de carregamento em que o transformador opera continuamente com corrente superior a sua 
corrente nominal, com duração não superior a 04 (quatro) horas. Mesmo que em algum momento seja 
ultrapassada a sua corrente de emergência de longa duração, não deve ser excedida a temperatura máxima 
do óleo e ou do enrolamento, conforme limites estabelecidos na NBR 5416, respeitadas as condições, valores 
e prazos admitidos pelo agente. 
2.5.3. Condição de Emergência de Curta Duração  
Situação de carregamento em que o transformador opera continuamente com corrente superior a sua 
corrente de emergência de longa duração, com duração não superior a 30 (trinta) minutos. Após esse 
intervalo de tempo, deve-se retornar à condição de carregamento de longa duração. 
Mesmo que em algum momento seja ultrapassada a sua corrente de emergência de curta duração, não deve 
ser excedida a temperatura máxima do óleo e ou do enrolamento, conforme limites estabelecidos na NBR 
5416, respeitadas as condições, valores e prazos admit idos pelo agente. Esta condição deve ser utilizada 
como último recurso antes do corte de carga. 
2.6. Preenchimento das Tabelas de Limites 
2.6.1. Linhas de Transmissão 
O campo “Valor Operacional” deve ser preenchido com o valor limite do equipamento a ser considerado na 
operação em tempo real. 
O campo “Duração (HH:MM)” indica o período admissível para operação da LT na condição de emergência. 
Nas tabelas em que for detalhado o tempo de operação em determinada condição de operação de 
equipamento, deve-se utilizar tantas linhas quanto forem necessárias para o detalhamento de carregamento 
por período de tempo informado pelo Agente. 
Os campos “Valor Operacional” e “Duração” das tabelas cujos valores dependem de informação do Agente 
e não estão disponíveis para o ONS, devem ser preenchidas com “NI” (Não Informado pelo Agente). 
O campo “Valor Operacional” das tabelas referentes a valores de emergência que não são permitidos pelo 
Agente, devem ser preenchidos com “NP” (Não Permitido pelo Agente). Para este caso também deve ser 
preenchido o campo “Fator Limitante”. 
O campo “Período do ano” indica, quando for o caso, a sazonalidade anual definida para determinação dos 
valores operacionais em condição normal e emergência. 
O campo “Período do dia” indica, quando for o caso, a sazonalidade diária definida para determinação dos 
valores operacionais em condição normal e emergência. 
2.6.2. Transformadores 
O campo “Enrolamento (kV)” indica o terminal ao qual está relacionado o limite operacional nas condições 
normal, emergência de longa duração e de curta duração. 
Manual de Procedimentos da Operação - Módulo 10 - Submódulo 10.18 
 Cadastro de Informações Operacionais Código Revisão Item Vigência 
CADASTRO DE LIMITES OPERACIONAIS DE LINHAS DE 
TRANSMISSÃO E TRANSFORMADORES DA 
INTERLIGAÇÃO SUL / SUDESTE 
CD-CT.SSE.02 27 2.2.1 09/01/2023 
 
e-mail Furnas de 09/01/2023 
 
6 / 28 
 
Alterado pela(s) MOP(s): 
MOP/ONS 463-S/2024;  
O campo “Valor Operacional (A)” indica o valor de corrente limite do transformador para condição normal, 
emergência de longa duração e de curta duração. 
O campo “Duração (HH:MM)” indica o período admissível para operação do transformador na condição de 
emergência de longa e curta duração. 
Nas tabelas em que for detalhado o tempo de operação em determinada condição de operação de 
equipamento, deve-se utilizar tantas linhas quanto forem necessárias para o detalhamento de carregamento 
por período de tempo informado pelo Agente. 
Os campos “Valor Operacional” e “Duração” das tabelas cujos valores dependem de informação do Agente 
e não estão disponíveis para o ONS, devem ser preenchidas com “NI” (Não Informado pelo Agente). 
O campo “Valor Operacional” das tabelas referentes a valores de emergência que não são permitidos pelo 
Agente, devem ser preenchidos com “NP” (Não Permitido pelo Agente). Para este caso também deve ser 
preenchido o campo “Fator Limitante”. 
3. CONSIDERAÇÕES GERAIS 
3.1. Este Cadastro de Informações Operacionais apresenta os limites operacionais de carregamento de 
linhas de transmissão e dos transformadores da Rede de Operação, de acordo com as definições 
estabelecidas entre ANEEL, ONS e agentes, cujo processo de atualização é descrito pela RO-CD.BR.01 
- Controle de Limites de Carregamento de Linhas de Transmissão e Transformadores. 
3.2. Os operadores dos Centros de Operação do ONS, nas ações de coordenação, supervisão e controle 
devem observar os limites operacionais constantes deste Cadastro de Informações Operacionais. 
3.3. A operação dos agentes, em suas ações de comando e execução, deve observar os limites 
operacionais constantes deste Cadastro de Informações Operacionais. 
3.4. Cabe ao agente comunicar de imediato ao Centro de Operação com o qual se relaciona qualquer 
alteração de limite que imponha restrições à operação da linha ou transformador. 
3.5. Toda e qualquer alteração dos valores de limites operacionais constantes deste Cadastro de 
Informações Operacionais deverá ser solicitada formalmente e devidamente justificada e 
caracterizada pelo agente responsável pelo equipamento  ao Centro de Operação do ONS de seu 
relacionamento.  
3.6. Caso a operação em tempo real venha a verificar qualquer possibilidade de violação do limite 
estabelecido para o equipamento, caberá ao Centro de Operação do ONS responsável tomar as 
medidas corretivas cabíveis para que o mesmo não ultrapasse estes valores , que só podem ser 
ultrapassados com anuência do agente. 
3.7. Os valores de Limites Operacionais dos equipamentos da Rede de Operação, constantes deste 
Cadastro de Informações Operacionais, são os valores informados oficial e formalmente pelo agente. 
3.8. Os limites de transformadores que constam neste Cadastro de Informações Operacionais consideram 
todos os estágios de refrigeração disponíveis. Os limites considerando os estágios de refrigeração 
indisponíveis constam nos Cadastros de Informações Operacionais de Dados de Equipamentos. 
  
Manual de Procedimentos da Operação - Módulo 10 - Submódulo 10.18 
 Cadastro de Informações Operacionais Código Revisão Item Vigência 
CADASTRO DE LIMITES OPERACIONAIS DE LINHAS DE 
TRANSMISSÃO E TRANSFORMADORES DA 
INTERLIGAÇÃO SUL / SUDESTE 
CD-CT.SSE.02 27 2.2.1 09/01/2023 
 
e-mail Furnas de 09/01/2023 
 
7 / 28 
 
Alterado pela(s) MOP(s): 
MOP/ONS 463-S/2024;  
4. LIMITES DE CARREGAMENTO DE LINHAS DE TRANSMISSÃO 
4.1. LT 765 KV FOZ DO IGUAÇU / IVAIPORÃ C1 
Limites de condição normal de operação (Longa duração) 
Período do ano Período 
do dia 
Valor 
operacional (A) Fator limitante 
01/Jan a 31/Dez Diurno / 
Noturno 2.780 Capacitor Série Fixo, estando a LT operando com o mesmo 
inserido 
01/Jan a 31/Dez Diurno / 
Noturno 3.119 Cabo condutor, estando a LT operando com o banco de 
capacitor série baipassado 
 
Limites de condição de emergência (Curta duração) 
Período do ano Período 
do dia 
Valor 
operacional (A) 
Duração 
(Hh:mm) Fator limitante 
01/Jan a 31/Dez Diurno / 
Noturno 3.150 (*) DJ, TC e SC, estando a LT operando com o banco 
de capacitor série baipassado 
01/Jan a 31/Dez Diurno / 
Noturno 3.058 08:00 Capacitor Série Fixo, estando a LT operando 
com o mesmo inserido 
01/Jan a 31/Dez Diurno / 
Noturno 3.150 04:00 Capacitor Série Fixo, estando a LT operando 
com o mesmo inserido 
 
4.2. LT 765 KV FOZ DO IGUAÇU / IVAIPORÃ C2 
Limites de condição normal de operação (Longa duração) 
Período do ano Período 
do dia 
Valor 
operacional (A) Fator limitante 
01/Jan a 31/Dez Diurno / 
Noturno 2.780 Capacitor Série Fixo, estando a LT operando com o mesmo 
inserido 
01/Jan a 31/Dez Diurno / 
Noturno 3.119 Cabo condutor, estando a LT operando com o banco de 
capacitor série baipassado 
 
Limites de condição de emergência (Curta duração) 
Período do ano Período 
do dia 
Valor 
operacional (A) 
Duração 
(Hh:mm) Fator limitante 
01/Jan a 31/Dez Diurno / 
Noturno 3.150 (*) DJ, TC e SC, estando a LT operando com o banco 
de capacitor série baipassado 
01/Jan a 31/Dez Diurno / 
Noturno 3.058 08:00 Capacitor Série Fixo, estando a LT operando 
com o mesmo inserido 
Manual de Procedimentos da Operação - Módulo 10 - Submódulo 10.18 
 Cadastro de Informações Operacionais Código Revisão Item Vigência 
CADASTRO DE LIMITES OPERACIONAIS DE LINHAS DE 
TRANSMISSÃO E TRANSFORMADORES DA 
INTERLIGAÇÃO SUL / SUDESTE 
CD-CT.SSE.02 27 2.2.1 09/01/2023 
 
e-mail Furnas de 09/01/2023 
 
8 / 28 
 
Alterado pela(s) MOP(s): 
MOP/ONS 463-S/2024;  
Limites de condição de emergência (Curta duração) 
Período do ano Período 
do dia 
Valor 
operacional (A) 
Duração 
(Hh:mm) Fator limitante 
01/Jan a 31/Dez Diurno / 
Noturno 3.150 04:00 Capacitor Série Fixo, estando a LT operando 
com o mesmo inserido 
 
4.3. LT 765 KV FOZ DO IGUAÇU / IVAIPORÃ C3 
Limites de condição normal de operação (Longa duração) 
Período do ano Período 
do dia 
Valor 
operacional (A) Fator limitante 
01/Jan a 31/Dez Diurno / 
Noturno 2.780 Capacitor Série Fixo, estando a LT operando com o mesmo 
inserido 
01/Jan a 31/Dez Diurno / 
Noturno 3.119 Cabo condutor, estando a LT operando com o banco de 
capacitor série baipassado 
 
Limites de condição de emergência (Curta duração) 
Período do ano Período 
do dia 
Valor 
operacional (A) 
Duração 
(Hh:mm) Fator limitante 
01/Jan a 31/Dez Diurno / 
Noturno 3.150 (*) DJ, TC e SC, estando a LT operando com o banco 
de capacitor série baipassado 
01/Jan a 31/Dez Diurno / 
Noturno 3.058 08:00 Capacitor Série Fixo, estando a LT operando 
com o mesmo inserido 
01/Jan a 31/Dez Diurno / 
Noturno 3.150 04:00 Capacitor Série Fixo, estando a LT operando 
com o mesmo inserido 
 
4.4. LT 765 KV ITABERÁ / IVAIPORÃ C1 
Limites de condição normal de operação (Longa duração) 
Período do ano Período 
do dia 
Valor 
operacional (A) Fator limitante 
01/Jan a 31/Dez Diurno / 
Noturno 2.780 Capacitor Série Fixo, estando a LT operando com o mesmo 
inserido 
01/Jan a 31/Dez Diurno / 
Noturno 3.119 Cabo condutor, estando a LT operando com o banco de 
capacitor série baipassado 
 
Manual de Procedimentos da Operação - Módulo 10 - Submódulo 10.18 
 Cadastro de Informações Operacionais Código Revisão Item Vigência 
CADASTRO DE LIMITES OPERACIONAIS DE LINHAS DE 
TRANSMISSÃO E TRANSFORMADORES DA 
INTERLIGAÇÃO SUL / SUDESTE 
CD-CT.SSE.02 27 2.2.1 09/01/2023 
 
e-mail Furnas de 09/01/2023 
 
9 / 28 
 
Alterado pela(s) MOP(s): 
MOP/ONS 463-S/2024;  
Limites de condição de emergência (Curta duração) 
Período do ano Período 
do dia 
Valor 
operacional (A) 
Duração 
(Hh:mm) Fator limitante 
01/Jan a 31/Dez Diurno / 
Noturno 3.150 (*) DJ, TC e SC, estando a LT operando com o banco 
de capacitor série baipassado 
01/Jan a 31/Dez Diurno / 
Noturno 3.058 08:00 Capacitor Série Fixo, estando a LT operando 
com o mesmo inserido 
01/Jan a 31/Dez Diurno / 
Noturno 3.150 04:00 Capacitor Série Fixo, estando a LT operando 
com o mesmo inserido 
 
4.5. LT 765 KV ITABERÁ / IVAIPORÃ C2 
Limites de condição normal de operação (Longa duração) 
Período do ano Período 
do dia 
Valor 
operacional (A) Fator limitante 
01/Jan a 31/Dez Diurno / 
Noturno 2.780 Capacitor Série Fixo, estando a LT operando com o mesmo 
inserido 
01/Jan a 31/Dez Diurno / 
Noturno 3.119 Cabo condutor, estando a LT operando com o banco de 
capacitor série baipassado 
 
Limites de condição de emergência (Curta duração) 
Período do ano Período 
do dia 
Valor 
operacional (A) 
Duração 
(Hh:mm) Fator limitante 
01/Jan a 31/Dez Diurno / 
Noturno 3.150 (*) DJ, TC e SC, estando a LT operando com o banco 
de capacitor série baipassado 
01/Jan a 31/Dez Diurno / 
Noturno 3.058 08:00 Capacitor Série Fixo, estando a LT operando 
com o mesmo inserido 
01/Jan a 31/Dez Diurno / 
Noturno 3.150 04:00 Capacitor Série Fixo, estando a LT operando 
com o mesmo inserido 
 
4.6. LT 765 KV ITABERÁ / IVAIPORÃ C3 
Limites de condição normal de operação (Longa duração) 
Período do ano Período 
do dia 
Valor 
operacional (A) Fator limitante 
01/Jan a 31/Dez Diurno / 
Noturno 2.780 Capacitor Série Fixo, estando a LT operando com o mesmo 
inserido 
Manual de Procedimentos da Operação - Módulo 10 - Submódulo 10.18 
 Cadastro de Informações Operacionais Código Revisão Item Vigência 
CADASTRO DE LIMITES OPERACIONAIS DE LINHAS DE 
TRANSMISSÃO E TRANSFORMADORES DA 
INTERLIGAÇÃO SUL / SUDESTE 
CD-CT.SSE.02 27 2.2.1 09/01/2023 
 
e-mail Furnas de 09/01/2023 
 
10 / 28 
 
Alterado pela(s) MOP(s): 
MOP/ONS 463-S/2024;  
Limites de condição normal de operação (Longa duração) 
Período do ano Período 
do dia 
Valor 
operacional (A) Fator limitante 
01/Jan a 31/Dez Diurno / 
Noturno 3.119 Cabo condutor, estando a LT operando com o banco de 
capacitor série baipassado 
 
Limites de condição de emergência (Curta duração) 
Período do ano Período 
do dia 
Valor 
operacional (A) 
Duração 
(Hh:mm) Fator limitante 
01/Jan a 31/Dez Diurno / 
Noturno 3.150 (*) DJ, TC e SC, estando a LT operando com o banco 
de capacitor série baipassado 
01/Jan a 31/Dez Diurno / 
Noturno 3.058 08:00 Capacitor Série Fixo, estando a LT operando 
com o mesmo inserido 
01/Jan a 31/Dez Diurno / 
Noturno 3.150 04:00 Capacitor Série Fixo, estando a LT operando 
com o mesmo inserido 
 
4.7. LT 765 KV ITABERÁ / TIJUCO PRETO C1 
Limites de condição normal de operação (Longa duração) 
Período do ano Período 
do dia 
Valor 
operacional (A) Fator limitante 
01/Jan a 31/Dez Diurno / 
Noturno 2.780 Capacitor Série Fixo, estando a LT operando com o mesmo 
inserido 
01/Jan a 31/Dez Diurno / 
Noturno 3.119 Cabo condutor, estando a LT operando com o banco de 
capacitor série baipassado 
 
Limites de condição de emergência (Curta duração) 
Período do ano Período 
do dia 
Valor 
operacional (A) 
Duração 
(Hh:mm) Fator limitante 
01/Jan a 31/Dez Diurno / 
Noturno 3.150 (*) DJ, TC e SC, estando a LT operando com o banco 
de capacitor série baipassado 
01/Jan a 31/Dez Diurno / 
Noturno 3.058 08:00 Capacitor Série Fixo, estando a LT operando 
com o mesmo inserido 
01/Jan a 31/Dez Diurno / 
Noturno 3.150 04:00 Capacitor Série Fixo, estando a LT operando 
com o mesmo inserido 
 
Manual de Procedimentos da Operação - Módulo 10 - Submódulo 10.18 
 Cadastro de Informações Operacionais Código Revisão Item Vigência 
CADASTRO DE LIMITES OPERACIONAIS DE LINHAS DE 
TRANSMISSÃO E TRANSFORMADORES DA 
INTERLIGAÇÃO SUL / SUDESTE 
CD-CT.SSE.02 27 2.2.1 09/01/2023 
 
e-mail Furnas de 09/01/2023 
 
11 / 28 
 
Alterado pela(s) MOP(s): 
MOP/ONS 463-S/2024;  
4.8. LT 765 KV ITABERÁ / TIJUCO PRETO C2 
Limites de condição normal de operação (Longa duração) 
Período do ano Período 
do dia 
Valor 
operacional (A) Fator limitante 
01/Jan a 31/Dez Diurno / 
Noturno 2.780 Capacitor Série Fixo, estando a LT operando com o mesmo 
inserido 
01/Jan a 31/Dez Diurno / 
Noturno 3.119 Cabo condutor, estando a LT operando com o banco de 
capacitor série baipassado 
 
Limites de condição de emergência (Curta duração) 
Período do ano Período 
do dia 
Valor 
operacional (A) 
Duração 
(Hh:mm) Fator limitante 
01/Jan a 31/Dez Diurno / 
Noturno 3.150 (*) DJ, TC e SC, estando a LT operando com o banco 
de capacitor série baipassado 
01/Jan a 31/Dez Diurno / 
Noturno 3.058 08:00 Capacitor Série Fixo, estando a LT operando 
com o mesmo inserido 
01/Jan a 31/Dez Diurno / 
Noturno 3.150 04:00 Capacitor Série Fixo, estando a LT operando 
com o mesmo inserido 
 
4.9. LT 765 KV ITABERÁ / TIJUCO PRETO C3 
Limites de condição normal de operação (Longa duração) 
Período do ano Período 
do dia 
Valor 
operacional (A) Fator limitante 
01/Jan a 31/Dez Diurno / 
Noturno 2.780 Capacitor Série Fixo, estando a LT operando com o mesmo 
inserido 
01/Jan a 31/Dez Diurno / 
Noturno 3.119 Cabo condutor, estando a LT operando com o banco de 
capacitor série baipassado 
 
Limites de condição de emergência (Curta duração) 
Período do ano Período 
do dia 
Valor 
operacional (A) 
Duração 
(Hh:mm) Fator limitante 
01/Jan a 31/Dez Diurno / 
Noturno 3.150 (*) DJ, TC e SC, estando a LT operando com o banco 
de capacitor série baipassado 
01/Jan a 31/Dez Diurno / 
Noturno 3.058 08:00 Capacitor Série Fixo, estando a LT operando 
com o mesmo inserido 
Manual de Procedimentos da Operação - Módulo 10 - Submódulo 10.18 
 Cadastro de Informações Operacionais Código Revisão Item Vigência 
CADASTRO DE LIMITES OPERACIONAIS DE LINHAS DE 
TRANSMISSÃO E TRANSFORMADORES DA 
INTERLIGAÇÃO SUL / SUDESTE 
CD-CT.SSE.02 27 2.2.1 09/01/2023 
 
e-mail Furnas de 09/01/2023 
 
12 / 28 
 
Alterado pela(s) MOP(s): 
MOP/ONS 463-S/2024;  
Limites de condição de emergência (Curta duração) 
Período do ano Período 
do dia 
Valor 
operacional (A) 
Duração 
(Hh:mm) Fator limitante 
01/Jan a 31/Dez Diurno / 
Noturno 3.150 04:00 Capacitor Série Fixo, estando a LT operando 
com o mesmo inserido 
 
4.10. LT 525 KV CASCAVEL OESTE / FOZ DO IGUAÇU 60HZ 
Limites de condição normal de operação (Longa duração) 
Período do ano Período 
do dia 
Valor 
operacional (A) Fator limitante 
01/Jan a 31/Dez Diurno / 
Noturno 3.800 Cabo condutor 
 
Limites de condição de emergência (Curta duração) 
Período do ano Período 
do dia 
Valor 
operacional (A) 
Duração 
(Hh:mm) Fator limitante 
01/Jan a 31/Dez Diurno / 
Noturno 4.525 (*) Flecha 
 
4.11. LT 525 KV LONDRINA / ASSIS C1 
Limites de condição normal de operação (Longa duração) 
Período do ano Período 
do dia 
Valor 
operacional (A) Fator limitante 
01/Jan a 31/Dez Diurno / 
Noturno 2.200 Cabos Condutores 
 
Limites de condição de emergência (Curta duração) 
Período do ano Período 
do dia 
Valor 
operacional (A) 
Duração 
(Hh:mm) Fator limitante 
01/Jan a 31/Dez Diurno / 
Noturno 2.200 (*) Cabos Condutores 
 
Manual de Procedimentos da Operação - Módulo 10 - Submódulo 10.18 
 Cadastro de Informações Operacionais Código Revisão Item Vigência 
CADASTRO DE LIMITES OPERACIONAIS DE LINHAS DE 
TRANSMISSÃO E TRANSFORMADORES DA 
INTERLIGAÇÃO SUL / SUDESTE 
CD-CT.SSE.02 27 2.2.1 09/01/2023 
 
e-mail Furnas de 09/01/2023 
 
13 / 28 
 
Alterado pela(s) MOP(s): 
MOP/ONS 463-S/2024;  
4.12. LT 525 KV LONDRINA / ASSIS C2 
Limites de condição normal de operação (Longa duração) 
Período do ano Período 
do dia 
Valor 
operacional (A) Fator limitante 
01/Jan a 31/Dez Diurno / 
Noturno 3.120 Cabo condutor 
 
Limites de condição de emergência (Curta duração) 
Período do ano Período 
do dia 
Valor 
operacional (A) 
Duração 
(Hh:mm) Fator limitante 
01/Jan a 31/Dez Diurno / 
Noturno 3.930 00:30 Cabo condutor 
 
4.13. LT 500 KV IBIÚNA / BATEIAS C1 
Limites de condição normal de operação (Longa duração) 
Período do ano Período 
do dia 
Valor 
operacional (A) Fator limitante 
01/Jan a 31/Dez Diurno / 
Noturno 1.500 Cabo condutor 
 
Limites de condição de emergência (Curta duração) 
Período do ano Período 
do dia 
Valor 
operacional (A) 
Duração 
(Hh:mm) Fator limitante 
01/Jan a 31/Dez Diurno / 
Noturno 2.600 04:00 Capacitor Série Fixo, estando a LT operando 
com o mesmo inserido 
01/Jan a 31/Dez Diurno / 
Noturno 2.600 (*) Cabo condutor, estando a LT operando com o 
banco de capacitor série baipassado 
 
4.14. LT 500 KV IBIÚNA / BATEIAS C2 
Limites de condição normal de operação (Longa duração) 
Período do ano Período 
do dia 
Valor 
operacional (A) Fator limitante 
01/Jan a 31/Dez Diurno / 
Noturno 1.500 Cabo condutor 
 
Manual de Procedimentos da Operação - Módulo 10 - Submódulo 10.18 
 Cadastro de Informações Operacionais Código Revisão Item Vigência 
CADASTRO DE LIMITES OPERACIONAIS DE LINHAS DE 
TRANSMISSÃO E TRANSFORMADORES DA 
INTERLIGAÇÃO SUL / SUDESTE 
CD-CT.SSE.02 27 2.2.1 09/01/2023 
 
e-mail Furnas de 09/01/2023 
 
14 / 28 
 
Alterado pela(s) MOP(s): 
MOP/ONS 463-S/2024;  
Limites de condição de emergência (Curta duração) 
Período do ano Período 
do dia 
Valor 
operacional (A) 
Duração 
(Hh:mm) Fator limitante 
01/Jan a 31/Dez Diurno / 
Noturno 2.600 04:00 Capacitor Série Fixo, estando a LT operando 
com o mesmo inserido 
01/Jan a 31/Dez Diurno / 
Noturno 2.600 (*) Cabo condutor, estando a LT operando com o 
banco de capacitor série baipassado 
 
4.15. LT 500 KV ITAIPU 60 HZ / FOZ DO IGUAÇU 60 HZ C1 
Limites de condição normal de operação (Longa duração) 
Período do ano Período 
do dia 
Valor 
operacional (A) Fator limitante 
01/Jan a 31/Dez Diurno           3.150 Capacidade das seccionadoras de linha na SE Foz do 
Iguaçu 
01/Jan a 31/Dez Noturno          3.150 Capacidade das seccionadoras de linha na SE Foz do 
Iguaçu 
 
Limites de condição de emergência (Curta duração) 
Período do ano Período 
do dia 
Valor 
operacional (A) 
Duração 
(Hh:mm) Fator limitante 
01/Jan a 31/Dez Diurno / 
Noturno 3.150 (*) Capacidade das seccionadoras de linha na SE 
Foz do Iguaçu 
 
4.16. LT 500 KV ITAIPU 60 HZ / FOZ DO IGUAÇU 60 HZ C2 
Limites de condição normal de operação (Longa duração) 
Período do ano Período 
do dia 
Valor 
operacional (A) Fator limitante 
01/Jan a 31/Dez Diurno           3.150 Capacidade das seccionadoras de linha na SE Foz do 
Iguaçu 
01/Jan a 31/Dez Noturno          3.150 Capacidade das seccionadoras de linha na SE Foz do 
Iguaçu 
 
Manual de Procedimentos da Operação - Módulo 10 - Submódulo 10.18 
 Cadastro de Informações Operacionais Código Revisão Item Vigência 
CADASTRO DE LIMITES OPERACIONAIS DE LINHAS DE 
TRANSMISSÃO E TRANSFORMADORES DA 
INTERLIGAÇÃO SUL / SUDESTE 
CD-CT.SSE.02 27 2.2.1 09/01/2023 
 
e-mail Furnas de 09/01/2023 
 
15 / 28 
 
Alterado pela(s) MOP(s): 
MOP/ONS 463-S/2024;  
Limites de condição de emergência (Curta duração) 
Período do ano Período 
do dia 
Valor 
operacional (A) 
Duração 
(Hh:mm) Fator limitante 
01/Jan a 31/Dez Diurno / 
Noturno 3.150 (*) Capacidade das seccionadoras de linha na SE 
Foz do Iguaçu 
 
4.17. LT 500 KV ITAIPU 60 HZ / FOZ DO IGUAÇU 60 HZ C3 
Limites de condição normal de operação (Longa duração) 
Período do ano Período 
do dia 
Valor 
operacional (A) Fator limitante 
01/Jan a 31/Dez Diurno           3.150 Capacidade das seccionadoras de linha na SE Foz do 
Iguaçu 
01/Jan a 31/Dez Noturno          3.150 Capacidade das seccionadoras de linha na SE Foz do 
Iguaçu 
 
Limites de condição de emergência (Curta duração) 
Período do ano Período 
do dia 
Valor 
operacional (A) 
Duração 
(Hh:mm) Fator limitante 
01/Jan a 31/Dez Diurno / 
Noturno 3.150 (*) Capacidade das seccionadoras de linha na SE 
Foz do Iguaçu 
 
4.18. LT 500 KV ITAIPU 60 HZ / FOZ DO IGUAÇU 60 HZ C4 
Limites de condição normal de operação (Longa duração) 
Período do ano Período 
do dia 
Valor 
operacional (A) Fator limitante 
01/Jan a 31/Dez Diurno           3.150 Capacidade das seccionadoras de linha na SE Foz do 
Iguaçu 
01/Jan a 31/Dez Noturno          3.150 Capacidade das seccionadoras de linha na SE Foz do 
Iguaçu 
 
Limites de condição de emergência (Curta duração) 
Período do ano Período 
do dia 
Valor 
operacional (A) 
Duração 
(Hh:mm) Fator limitante 
01/Jan a 31/Dez Diurno / 
Noturno 3.150 (*) Capacidade das seccionadoras de linha na SE 
Foz do Iguaçu 
 
Manual de Procedimentos da Operação - Módulo 10 - Submódulo 10.18 
 Cadastro de Informações Operacionais Código Revisão Item Vigência 
CADASTRO DE LIMITES OPERACIONAIS DE LINHAS DE 
TRANSMISSÃO E TRANSFORMADORES DA 
INTERLIGAÇÃO SUL / SUDESTE 
CD-CT.SSE.02 27 2.2.1 09/01/2023 
 
e-mail Furnas de 09/01/2023 
 
16 / 28 
 
Alterado pela(s) MOP(s): 
MOP/ONS 463-S/2024;  
4.19. LT 500 KV ITATIBA / BATEIAS 
Limites de condição normal de operação (Longa duração) 
Período do ano Período 
do dia 
Valor 
operacional (A) Fator limitante 
01/Jan a 31/Dez Diurno / 
Noturno 2.309 Capacitor Série Fixo 
01/Jan a 31/Dez Diurno / 
Noturno 3.360 Cabo Condutor 
 
Limites de condição de emergência (Curta duração) 
Período do ano Período 
do dia 
Valor 
operacional (A) 
Duração 
(Hh:mm) Fator limitante 
01/Jan a 31/Dez Diurno / 
Noturno 3.117 00:30 Capacitor Série Fixo 
01/Jan a 31/Dez Diurno / 
Noturno 4.235 (*) Cabo condutor 
 
4.20. LT 525 KV FOZ DO IGUAÇU 60 HZ / GUAÍRA C1 
Limites de condição normal de operação (Longa duração) 
Período do ano Período 
do dia 
Valor 
operacional (A) Fator limitante 
01/Jan a 31/Dez Diurno / 
Noturno 3.200 Cabo Condutor 
 
Limites de condição de emergência (Curta duração) 
Período do ano Período 
do dia 
Valor 
operacional (A) 
Duração 
(Hh:mm) Fator limitante 
01/Jan a 31/Dez Diurno / 
Noturno 3.985 (*) Cabo condutor 
 
Manual de Procedimentos da Operação - Módulo 10 - Submódulo 10.18 
 Cadastro de Informações Operacionais Código Revisão Item Vigência 
CADASTRO DE LIMITES OPERACIONAIS DE LINHAS DE 
TRANSMISSÃO E TRANSFORMADORES DA 
INTERLIGAÇÃO SUL / SUDESTE 
CD-CT.SSE.02 27 2.2.1 09/01/2023 
 
e-mail Furnas de 09/01/2023 
 
17 / 28 
 
Alterado pela(s) MOP(s): 
MOP/ONS 463-S/2024;  
4.21. LT 525 KV FOZ DO IGUAÇU 60 HZ / GUAÍRA C2 
Limites de condição normal de operação (Longa duração) 
Período do ano Período 
do dia 
Valor 
operacional (A) Fator limitante 
01/Jan a 31/Dez Diurno / 
Noturno 3.200 Cabo condutor 
 
Limites de condição de emergência (Curta duração) 
Período do ano Período 
do dia 
Valor 
operacional (A) 
Duração 
(Hh:mm) Fator limitante 
01/Jan a 31/Dez Diurno / 
Noturno 3.985 (*) Cabo condutor 
 
  
Manual de Procedimentos da Operação - Módulo 10 - Submódulo 10.18 
 Cadastro de Informações Operacionais Código Revisão Item Vigência 
CADASTRO DE LIMITES OPERACIONAIS DE LINHAS DE 
TRANSMISSÃO E TRANSFORMADORES DA 
INTERLIGAÇÃO SUL / SUDESTE 
CD-CT.SSE.02 27 2.2.1 09/01/2023 
 
e-mail Furnas de 09/01/2023 
 
18 / 28 
 
Alterado pela(s) MOP(s): 
MOP/ONS 463-S/2024;  
5. LIMITES DE CARREGAMENTO DE TRANSFORMADORES 
5.1. SE FOZ DO IGUAÇU 60HZ - AUTOTRANSFORMADOR AT1 DE 765/512/69 KV - 1650 MVA 
Limites de Condição Normal de Operação 
Enrolamento (kV) Valor 
operacional (A) Fator limitante 
512 1.815 Capacidade Nominal 
765 1.245 Capacidade Nominal 
 
Limites de Condição de Emergência de Longa Duração 
Enrolamento 
(kV) 
Valor 
operacional (A) 
Duração 
(Hh:mm) Fator limitante 
512 1.997 4:00 --- 
765 1.370 4:00 --- 
 
Limites de Condição de Emergência de Curta Duração 
Enrolamento 
(kV) 
Valor 
operacional (A) 
Duração 
(Hh:mm) Fator limitante 
512 2.069 0:30 --- 
765 1.419 0:30 --- 
 
5.2. SE FOZ DO IGUAÇU 60HZ - AUTOTRANSFORMADOR AT2 DE 765/512/69 KV - 1650 MVA 
Limites de Condição Normal de Operação 
Enrolamento (kV) Valor 
operacional (A) Fator limitante 
512 1.815 Capacidade nominal 
765 1.245 Capacidade nominal 
 
Limites de Condição de Emergência de Longa Duração 
Enrolamento 
(kV) 
Valor 
operacional (A) 
Duração 
(Hh:mm) Fator limitante 
512 1.997 4:00 - 
765 1.370 4:00 - 
 
Manual de Procedimentos da Operação - Módulo 10 - Submódulo 10.18 
 Cadastro de Informações Operacionais Código Revisão Item Vigência 
CADASTRO DE LIMITES OPERACIONAIS DE LINHAS DE 
TRANSMISSÃO E TRANSFORMADORES DA 
INTERLIGAÇÃO SUL / SUDESTE 
CD-CT.SSE.02 27 2.2.1 09/01/2023 
 
e-mail Furnas de 09/01/2023 
 
19 / 28 
 
Alterado pela(s) MOP(s): 
MOP/ONS 463-S/2024;  
Limites de Condição de Emergência de Curta Duração 
Enrolamento 
(kV) 
Valor 
operacional (A) 
Duração 
(Hh:mm) Fator limitante 
512 2.069 0:30 - 
765 1.419 0:30 - 
 
5.3. SE FOZ DO IGUAÇU 60HZ - AUTOTRANSFORMADOR AT3 DE 765/512/69 KV - 1650 MVA 
Limites de Condição Normal de Operação 
Enrolamento (kV) Valor 
operacional (A) Fator limitante 
512 1.815 Capacidade nominal 
765 1.245 Capacidade nominal 
 
Limites de Condição de Emergência de Longa Duração 
Enrolamento 
(kV) 
Valor 
operacional (A) 
Duração 
(Hh:mm) Fator limitante 
512 1.997 4:00 - 
765 1.370 4:00 - 
 
Limites de Condição de Emergência de Curta Duração 
Enrolamento 
(kV) 
Valor 
operacional (A) 
Duração 
(Hh:mm) Fator limitante 
512 2.069 0:30 - 
765 1.419 0:30 - 
 
5.4. SE FOZ DO IGUAÇU 60HZ - AUTOTRANSFORMADOR AT4 DE 765/525/69 KV - 1650 MVA 
Limites de Condição Normal de Operação 
Enrolamento (kV) Valor 
operacional (A) Fator limitante 
525 1.815 Capacidade nominal 
765 1.245 Capacidade nominal 
 
Manual de Procedimentos da Operação - Módulo 10 - Submódulo 10.18 
 Cadastro de Informações Operacionais Código Revisão Item Vigência 
CADASTRO DE LIMITES OPERACIONAIS DE LINHAS DE 
TRANSMISSÃO E TRANSFORMADORES DA 
INTERLIGAÇÃO SUL / SUDESTE 
CD-CT.SSE.02 27 2.2.1 09/01/2023 
 
e-mail Furnas de 09/01/2023 
 
20 / 28 
 
Alterado pela(s) MOP(s): 
MOP/ONS 463-S/2024;  
Limites de Condição de Emergência de Longa Duração 
Enrolamento 
(kV) 
Valor 
operacional (A) 
Duração 
(Hh:mm) Fator limitante 
525 1.997 4:00 - 
765 1.370 4:00 - 
 
Limites de Condição de Emergência de Curta Duração 
Enrolamento 
(kV) 
Valor 
operacional (A) 
Duração 
(Hh:mm) Fator limitante 
525 2.069 0:30 - 
765 1.419 0:30 - 
 
5.5. SE FOZ DO IGUAÇU 60HZ - AUTOTRANSFORMADOR AT5 DE 765/525/69 KV - 1650 MVA 
Limites de Condição Normal de Operação 
Enrolamento (kV) Valor 
operacional (A) Fator limitante 
525 1.815 Capacidade nominal 
765 1.245 Capacidade nominal 
 
Limites de Condição de Emergência de Longa Duração 
Enrolamento 
(kV) 
Valor 
operacional (A) 
Duração 
(Hh:mm) Fator limitante 
525 2.177 04:00 - 
765 1.494 04:00 - 
 
Limites de Condição de Emergência de Curta Duração 
Enrolamento 
(kV) 
Valor 
operacional (A) 
Duração 
(Hh:mm) Fator limitante 
525 2.540 00:30 - 
765 1.743 00:30 - 
 
Manual de Procedimentos da Operação - Módulo 10 - Submódulo 10.18 
 Cadastro de Informações Operacionais Código Revisão Item Vigência 
CADASTRO DE LIMITES OPERACIONAIS DE LINHAS DE 
TRANSMISSÃO E TRANSFORMADORES DA 
INTERLIGAÇÃO SUL / SUDESTE 
CD-CT.SSE.02 27 2.2.1 09/01/2023 
 
e-mail Furnas de 09/01/2023 
 
21 / 28 
 
Alterado pela(s) MOP(s): 
MOP/ONS 463-S/2024;  
5.6. SE IBIÚNA - TRANSFORMADOR 500/345 KV - ATR1 
Limites de Condição Normal de Operação 
Enrolamento (kV) Valor 
operacional (A) Fator limitante 
345 1.255 --- 
500 825 --- 
 
Limites de Condição de Emergência de Longa Duração 
Enrolamento 
(kV) 
Valor 
operacional (A) 
Duração 
(Hh:mm) Fator limitante 
345 1.255 4:00 --- 
500 825 4:00 --- 
 
Limites de Condição de Emergência de Curta Duração 
Enrolamento 
(kV) 
Valor 
operacional (A) 
Duração 
(Hh:mm) Fator limitante 
345 1.255 00:30 Enxofre corrosivo no óleo isolante 
500 825 00:30 Enxofre corrosivo no óleo isolante 
 
5.7. SE IBIÚNA - TRANSFORMADOR 500/345 KV - ATR2 
Limites de Condição Normal de Operação 
Enrolamento (kV) Valor 
operacional (A) Fator limitante 
345 1.255 - 
500 825 - 
 
Limites de Condição de Emergência de Longa Duração 
Enrolamento 
(kV) 
Valor 
operacional (A) 
Duração 
(Hh:mm) Fator limitante 
345 1.255 4:00 - 
500 825 4:00 - 
 
Manual de Procedimentos da Operação - Módulo 10 - Submódulo 10.18 
 Cadastro de Informações Operacionais Código Revisão Item Vigência 
CADASTRO DE LIMITES OPERACIONAIS DE LINHAS DE 
TRANSMISSÃO E TRANSFORMADORES DA 
INTERLIGAÇÃO SUL / SUDESTE 
CD-CT.SSE.02 27 2.2.1 09/01/2023 
 
e-mail Furnas de 09/01/2023 
 
22 / 28 
 
Alterado pela(s) MOP(s): 
MOP/ONS 463-S/2024;  
Limites de Condição de Emergência de Curta Duração 
Enrolamento 
(kV) 
Valor 
operacional (A) 
Duração 
(Hh:mm) Fator limitante 
345 1.255 00:30 Enxofre corrosivo no óleo isolante 
500 825 00:30 Enxofre corrosivo no óleo isolante 
 
5.8. SE IBIUNA - TRANSFORMADOR 500/345 KV - ATR3 
Limites de Condição Normal de Operação 
Enrolamento (kV) Valor 
operacional (A) Fator limitante 
345 1.255 - 
500 824 - 
 
Limites de Condição de Emergência de Longa Duração 
Enrolamento 
(kV) 
Valor 
operacional (A) 
Duração 
(Hh:mm) Fator limitante 
345 1.506 04:00 - 
500 989 04:00 - 
 
Limites de Condição de Emergência de Curta Duração 
Enrolamento 
(kV) 
Valor 
operacional (A) 
Duração 
(Hh:mm) Fator limitante 
345 1.757 00:30 - 
500 1.154 00:30 - 
 
5.9. SE IVAIPORA - AUTOTRANSFORMADOR AT01 DE 765/512/69 KV - 1650 MVA 
Limites de Condição Normal de Operação 
Enrolamento (kV) Valor 
operacional (A) Fator limitante 
512 1.861 Capacidade Nominal 
765 1.245 Capacidade Nominal 
 
Manual de Procedimentos da Operação - Módulo 10 - Submódulo 10.18 
 Cadastro de Informações Operacionais Código Revisão Item Vigência 
CADASTRO DE LIMITES OPERACIONAIS DE LINHAS DE 
TRANSMISSÃO E TRANSFORMADORES DA 
INTERLIGAÇÃO SUL / SUDESTE 
CD-CT.SSE.02 27 2.2.1 09/01/2023 
 
e-mail Furnas de 09/01/2023 
 
23 / 28 
 
Alterado pela(s) MOP(s): 
MOP/ONS 463-S/2024;  
Limites de Condição de Emergência de Longa Duração 
Enrolamento 
(kV) 
Valor 
operacional (A) 
Duração 
(Hh:mm) Fator limitante 
512 2.047 4:00 - 
765 1.370 4:00 --- 
 
Limites de Condição de Emergência de Curta Duração 
Enrolamento 
(kV) 
Valor 
operacional (A) 
Duração 
(Hh:mm) Fator limitante 
512 2.251 0:30 - 
765 1.506 0:30 --- 
 
5.10. SE IVAIPORA - AUTOTRANSFORMADOR AT02 DE 765/512/69 KV - 1650 MVA 
Limites de Condição Normal de Operação 
Enrolamento (kV) Valor 
operacional (A) Fator limitante 
512 1.861 Capacidade Nominal 
765 1.245 Capacidade Nominal 
 
Limites de Condição de Emergência de Longa Duração 
Enrolamento 
(kV) 
Valor 
operacional (A) 
Duração 
(Hh:mm) Fator limitante 
512 2.047 04:00 - 
765 1.370 04:00 - 
 
Limites de Condição de Emergência de Curta Duração 
Enrolamento 
(kV) 
Valor 
operacional (A) 
Duração 
(Hh:mm) Fator limitante 
512 2.120 00:30 - 
765 1.419 00:30 - 
 
Manual de Procedimentos da Operação - Módulo 10 - Submódulo 10.18 
 Cadastro de Informações Operacionais Código Revisão Item Vigência 
CADASTRO DE LIMITES OPERACIONAIS DE LINHAS DE 
TRANSMISSÃO E TRANSFORMADORES DA 
INTERLIGAÇÃO SUL / SUDESTE 
CD-CT.SSE.02 27 2.2.1 09/01/2023 
 
e-mail Furnas de 09/01/2023 
 
24 / 28 
 
Alterado pela(s) MOP(s): 
MOP/ONS 463-S/2024;  
5.11. SE IVAIPORA - AUTOTRANSFORMADOR AT03 DE 765/512/69 KV - 1650 MVA 
Limites de Condição Normal de Operação 
Enrolamento (kV) Valor 
operacional (A) Fator limitante 
512 1.861 Capacidade Nominal 
765 1.245 Capacidade Nominal 
 
Limites de Condição de Emergência de Longa Duração 
Enrolamento 
(kV) 
Valor 
operacional (A) 
Duração 
(Hh:mm) Fator limitante 
512 2.066 4:00 --- 
765 1.382 4:00 --- 
 
Limites de Condição de Emergência de Curta Duração 
Enrolamento 
(kV) 
Valor 
operacional (A) 
Duração 
(Hh:mm) Fator limitante 
512 2.141 0:30 - 
765 1.432 0:30 --- 
 
5.12. SE TIJUCO PRETO - AUTOTRANSFORMADOR AT01 DE 765/512/69 KV - 1650 MVA 
Limites de Condição Normal de Operação 
Enrolamento (kV) Valor 
operacional (A) Fator limitante 
512 1.861 Capacidade Nominal 
765 1.245 Capacidade Nominal 
 
Limites de Condição de Emergência de Longa Duração 
Enrolamento 
(kV) 
Valor 
operacional (A) 
Duração 
(Hh:mm) Fator limitante 
512 1.861 4:00 Óleo com exofre corrosivo 
765 1.245 4:00 Óleo com exofre corrosivo 
 
Manual de Procedimentos da Operação - Módulo 10 - Submódulo 10.18 
 Cadastro de Informações Operacionais Código Revisão Item Vigência 
CADASTRO DE LIMITES OPERACIONAIS DE LINHAS DE 
TRANSMISSÃO E TRANSFORMADORES DA 
INTERLIGAÇÃO SUL / SUDESTE 
CD-CT.SSE.02 27 2.2.1 09/01/2023 
 
e-mail Furnas de 09/01/2023 
 
25 / 28 
 
Alterado pela(s) MOP(s): 
MOP/ONS 463-S/2024;  
Limites de Condição de Emergência de Curta Duração 
Enrolamento 
(kV) 
Valor 
operacional (A) 
Duração 
(Hh:mm) Fator limitante 
512 1.861 0:30 Óleo com exofre corrosivo 
765 1.245 0:30 Óleo com exofre corrosivo 
 
5.13. SE TIJUCO PRETO - AUTOTRANSFORMADOR AT02 DE 765/512/69 KV - 1650 MVA 
Limites de Condição Normal de Operação 
Enrolamento (kV) Valor 
operacional (A) Fator limitante 
512 1.861 Capacidade Nominal 
765 1.245 Capacidade Nominal 
 
Limites de Condição de Emergência de Longa Duração 
Enrolamento 
(kV) 
Valor 
operacional (A) 
Duração 
(Hh:mm) Fator limitante 
512 2.047 04:00 - 
765 1.370 04:00 - 
 
Limites de Condição de Emergência de Curta Duração 
Enrolamento 
(kV) 
Valor 
operacional (A) 
Duração 
(Hh:mm) Fator limitante 
512 2.047 00:30 - 
765 1.370 00:30 - 
 
5.14. SE TIJUCO PRETO - AUTOTRANSFORMADOR AT03 DE 765/512/69 KV - 1650 MVA 
Limites de Condição Normal de Operação 
Enrolamento (kV) Valor 
operacional (A) Fator limitante 
512 1.861 Capacidade Nominal 
765 1.245 Capacidade Nominal 
 
Manual de Procedimentos da Operação - Módulo 10 - Submódulo 10.18 
 Cadastro de Informações Operacionais Código Revisão Item Vigência 
CADASTRO DE LIMITES OPERACIONAIS DE LINHAS DE 
TRANSMISSÃO E TRANSFORMADORES DA 
INTERLIGAÇÃO SUL / SUDESTE 
CD-CT.SSE.02 27 2.2.1 09/01/2023 
 
e-mail Furnas de 09/01/2023 
 
26 / 28 
 
Alterado pela(s) MOP(s): 
MOP/ONS 463-S/2024;  
Limites de Condição de Emergência de Longa Duração 
Enrolamento 
(kV) 
Valor 
operacional (A) 
Duração 
(Hh:mm) Fator limitante 
512 2.047 04:00 - 
765 1.370 04:00 - 
 
Limites de Condição de Emergência de Curta Duração 
Enrolamento 
(kV) 
Valor 
operacional (A) 
Duração 
(Hh:mm) Fator limitante 
512 2.251 00:30 - 
765 1.506 00:30 - 
 
5.15. SE TIJUCO PRETO - AUTOTRANSFORMADOR AT04 DE 765/345/20 KV - 1500 MVA 
Limites de Condição Normal de Operação 
Enrolamento (kV) Valor 
operacional (A) Fator limitante 
345 2.510 Capacidade Nominal 
765 1.132 Capacidade Nominal 
 
Limites de Condição de Emergência de Longa Duração 
Enrolamento 
(kV) 
Valor 
operacional (A) 
Duração 
(Hh:mm) Fator limitante 
345 2.761 04:00 - 
765 1.245 04:00 - 
 
Limites de Condição de Emergência de Curta Duração 
Enrolamento 
(kV) 
Valor 
operacional (A) 
Duração 
(Hh:mm) Fator limitante 
345 2.761 00:30 - 
765 1.245 00:30 - 
 
Manual de Procedimentos da Operação - Módulo 10 - Submódulo 10.18 
 Cadastro de Informações Operacionais Código Revisão Item Vigência 
CADASTRO DE LIMITES OPERACIONAIS DE LINHAS DE 
TRANSMISSÃO E TRANSFORMADORES DA 
INTERLIGAÇÃO SUL / SUDESTE 
CD-CT.SSE.02 27 2.2.1 09/01/2023 
 
e-mail Furnas de 09/01/2023 
 
27 / 28 
 
Alterado pela(s) MOP(s): 
MOP/ONS 463-S/2024;  
5.16. SE TIJUCO PRETO - AUTOTRANSFORMADOR AT05 DE 765/345/20 KV - 1500 MVA 
Limites de Condição Normal de Operação 
Enrolamento (kV) Valor 
operacional (A) Fator limitante 
345 2.510 Capacidade nominal 
765 1.132 Capacidade nominal 
 
Limites de Condição de Emergência de Longa Duração 
Enrolamento 
(kV) 
Valor 
operacional (A) 
Duração 
(Hh:mm) Fator limitante 
345 2.761 04:00 - 
765 1.245 04:00 - 
 
Limites de Condição de Emergência de Curta Duração 
Enrolamento 
(kV) 
Valor 
operacional (A) 
Duração 
(Hh:mm) Fator limitante 
345 2.761 00:30 - 
765 1.245 00:30 - 
 
5.17. SE TIJUCO PRETO - AUTOTRANSFORMADOR AT06 DE 765/345/20 KV - 1500 MVA 
Limites de Condição Normal de Operação 
Enrolamento (kV) Valor 
operacional (A) Fator limitante 
345 2.510 Capacidade Nominal 
765 1.132 Capacidade Nominal 
 
Limites de Condição de Emergência de Longa Duração 
Enrolamento 
(kV) 
Valor 
operacional (A) 
Duração 
(Hh:mm) Fator limitante 
345 2.761 04:00 - 
765 1.245 04:00 - 
 
Manual de Procedimentos da Operação - Módulo 10 - Submódulo 10.18 
 Cadastro de Informações Operacionais Código Revisão Item Vigência 
CADASTRO DE LIMITES OPERACIONAIS DE LINHAS DE 
TRANSMISSÃO E TRANSFORMADORES DA 
INTERLIGAÇÃO SUL / SUDESTE 
CD-CT.SSE.02 27 2.2.1 09/01/2023 
 
e-mail Furnas de 09/01/2023 
 
28 / 28 
 
Alterado pela(s) MOP(s): 
MOP/ONS 463-S/2024;  
Limites de Condição de Emergência de Curta Duração 
Enrolamento 
(kV) 
Valor 
operacional (A) 
Duração 
(Hh:mm) Fator limitante 
345 2.761 00:30 - 
765 1.245 00:30 - 
 
5.18. SE TIJUCO PRETO - AUTOTRANSFORMADOR AT07 DE 765/345/20 KV - 1500 MVA 
Limites de Condição Normal de Operação 
Enrolamento (kV) Valor 
operacional (A) Fator limitante 
345 2.510 Capacidade Nominal 
765 1.132 Capacidade Nominal 
 
Limites de Condição de Emergência de Longa Duração 
Enrolamento 
(kV) 
Valor 
operacional (A) 
Duração 
(Hh:mm) Fator limitante 
345 3.012 04:00 - 
765 1.358 04:00 - 
 
Limites de Condição de Emergência de Curta Duração 
Enrolamento 
(kV) 
Valor 
operacional (A) 
Duração 
(Hh:mm) Fator limitante 
345 3.012 00:30 - 
765 1.358 00:30 - 
 
