 
Alterado pela(s) MOP(s): 
MOP/ONS 462-S/2024;  
 
Manual de Procedimentos da Operação 
Módulo 5 - Submódulo 5.11 
 
Cadastro de Informações Operacionais. 
CADASTRO DE LIMITES OPERACIONAIS DE LINHAS DE TRANSMISSÃO E 
TRANSFORMADORES DA ÁREA 500 KV DA REGIÃO SUDESTE 
 
Código Revisão Item Vigência 
CD-CT.SE.5SE.02 57 2.2.2 16/06/2024 
 
 
MOTIVO DA REVISÃO 
- Entrada em operação da transformação 500 / 345 kV da SE Nova Ponte. 
 
 
LISTA DE DISTRIBUIÇÃO 
ARARAQUARA CELEO CEMIG CNOS COPEL GeT 
COSR-SE COTESA CPFL CPTE CTEEP 
EDP BRASIL ETIM FURNAS FURNAS.CTRM.O LTT 
MSG PCTE RPTE TAESA TME 
TMT     
  
Manual de Procedimentos da Operação - Módulo 5 - Submódulo 5.11 
 Cadastro de Informações Operacionais Código Revisão Item Vigência 
CADASTRO DE LIMITES OPERACIONAIS DE LINHAS DE 
TRANSMISSÃO E TRANSFORMADORES DA ÁREA 500 KV 
DA REGIÃO SUDESTE 
CD-CT.SE.5SE.02 57 2.2.2 16/06/2024 
 
RT ONS 0306/2023 - rev.2 
 
2 / 46 
 
Alterado pela(s) MOP(s): 
MOP/ONS 462-S/2024;  
ÍNDICE 
1. OBJETIVO ................................ ................................ ................................ ................................ ..... 5 
2. CONCEITOS ................................ ................................ ................................ ................................ ... 5 
3. CONSIDERAÇÕES GERAIS ................................ ................................ ................................ .............. 7 
4. LIMITES DE CARREGAMENTO DE LINHAS DE TRANSMISSÃO ................................ ...........................  8 
4.1. LT 500 kV Assis / Araraquara ......................................................................................................... 8 
4.2. LT 500 kV Araraquara / Campinas ................................................................................................. 8 
4.3. LT 500 kV Araraquara / Marimbondo II - C1.................................................................................. 8 
4.4. LT 500 kV Araraquara / Marimbondo II - C2.................................................................................. 9 
4.5. LT 500 kV Araraquara / Poços de Caldas ....................................................................................... 9 
4.6. LT 500 kV Araraquara 2 / Araraquara - C1................................................................................... 10 
4.7. LT 500 kV Araraquara 2 / Araraquara - C2................................................................................... 10 
4.8. LT 500 kV Araraquara 2 / Fernão Dias ......................................................................................... 10 
4.9. LT 500 kV Araraquara 2 / Itatiba.................................................................................................. 11 
4.10. LT 500 kV Araraquara 2 / Taubate ............................................................................................... 11 
4.11. LT 500 kV Cachoeira Paulista / Fernão Dias ................................................................................ 12 
4.12. LT 500 kV Cachoeira Paulista / Itajubá 3 ..................................................................................... 12 
4.13. LT 500 kV Cachoeira Paulista / Lorena ........................................................................................ 12 
4.14. LT 500 kV Cachoeira Paulista / Taubaté ...................................................................................... 13 
4.15. LT 500 kV Cachoeira Paulista / Tijuco Preto ................................................................................ 13 
4.16. LT 500 kV Campinas / Fernão Dias .............................................................................................. 14 
4.17. LT 500 kV Campinas / Itatiba C1 .................................................................................................. 14 
4.18. LT 500 kV Campinas / Itatiba C2 .................................................................................................. 14 
4.19. LT 500 kV Emborcação / Itumbiara ............................................................................................. 15 
4.20. LT 500 kV Emborcação / Nova Ponte - C1 ................................................................................... 15 
4.21. LT 500 kV Emborcação / Nova Ponte - C2 ................................................................................... 16 
4.22. LT 500 kV Estreito / Cachoeira Paulista - C1 ................................................................................ 16 
4.23. LT 500 kV Estreito / Cachoeira Paulista - C2 ................................................................................ 17 
4.24. LT 500 kV Estreito / Fernão Dias C1 ............................................................................................. 17 
4.25. LT 500 kV Estreito / Fernão Dias C2 ............................................................................................. 18 
4.26. LT 500 kV Estreito / Ribeirão Preto ............................................................................................. 18 
4.27. LT 500 kV Fernão Dias / Terminal Rio .......................................................................................... 19 
4.28. LT 500 kV Ibiúna / Itatiba ............................................................................................................. 19 
4.29. LT 500 kV Itumbiara / Marimbondo ............................................................................................ 20 
Manual de Procedimentos da Operação - Módulo 5 - Submódulo 5.11 
 Cadastro de Informações Operacionais Código Revisão Item Vigência 
CADASTRO DE LIMITES OPERACIONAIS DE LINHAS DE 
TRANSMISSÃO E TRANSFORMADORES DA ÁREA 500 KV 
DA REGIÃO SUDESTE 
CD-CT.SE.5SE.02 57 2.2.2 16/06/2024 
 
RT ONS 0306/2023 - rev.2 
 
3 / 46 
 
Alterado pela(s) MOP(s): 
MOP/ONS 462-S/2024;  
4.30. LT 500 kV Itumbiara / São Simão ................................................................................................. 20 
4.31. LT 500 kV Jaguara / Estreito ........................................................................................................ 21 
4.32. LT 500 kV Jaguara / Nova Ponte .................................................................................................. 21 
4.33. LT 500 kV Jaguara / São Simão .................................................................................................... 21 
4.34. LT 500 kV Marimbondo / Água Vermelha ................................................................................... 22 
4.35. LT 500 kV Marimbondo / Marimbondo II - C1............................................................................. 22 
4.36. LT 500 kV Marimbondo / Marimbondo II - C2............................................................................. 23 
4.37. LT 500 kV Marimbondo / Marimbondo II - C3............................................................................. 24 
4.38. LT 500 kV Marimbondo / Morro Agudo ...................................................................................... 24 
4.39. LT 500 kV Marimbondo II / Assis ................................................................................................. 25 
4.40. LT 500 kV Marimbondo II / São Simão ........................................................................................ 25 
4.41. LT 500 kV Morro Agudo / Ribeirão Preto .................................................................................... 26 
4.42. LT 500 kV Nova Ponte / Estreito .................................................................................................. 26 
4.43. LT 500 kV Nova Ponte / Itumbiara............................................................................................... 26 
4.44. LT 500 kV Poços de Caldas / Itajubá 3 ......................................................................................... 27 
4.45. LT 500 kV Ribeirão Preto / Poços de Caldas ................................................................................ 27 
4.46. LT 500 kV São Simão / Água Vermelha ........................................................................................ 28 
4.47. LT 500 kV Tijuco Preto / Lorena ................................................................................................... 28 
4.48. LT 500 kV Tijuco Preto / Taubaté................................................................................................. 29 
5. LIMITES DE CARREGAMENTO DE TRANSFORMADORES ................................ ................................  30 
5.1. SE Água Vermelha - Transformador 500/440 kV - TR4 (CTEEP) .................................................. 30 
5.2. SE Água Vermelha - Transformador 500/440 kV - TR9 (CTEEP) .................................................. 30 
5.3. SE Água Vermelha - Transformador 550/460 kV - TR8 (FURNAS) ............................................... 31 
5.4. SE Araraquara 2 - Transformador 500/440 kV - TR2 - 1250 MVA ............................................... 31 
5.5. SE Araraquara 2 - Transformador 500/440 kV - TR3 - 1250 MVA ............................................... 32 
5.6. SE Araraquara 2 - Transformador 500/440 kV - TR4 - 1250 MVA ............................................... 32 
5.7. SE Assis - Transformador TR5 de 525/440/13,8 kV - 1500 MVA ................................................. 33 
5.8. SE Campinas - Transformador 525/345 kV - TR51 - 560 MVA..................................................... 34 
5.9. SE Campinas - Transformador 525/345 kV - TR54 - 560 MVA..................................................... 34 
5.10. SE Estreito - Transformador 500/345 kV - 9AT01 - 900 MVA ...................................................... 34 
5.11. SE Estreito - Transformador 500/345 kV - 9AT02 - 900 MVA ...................................................... 35 
5.12. SE Fernão Dias - Transformador 500/440 kV - 1.200 MVA - BTF1 .............................................. 36 
5.13. SE Fernão Dias - Transformador 500/440 kV - 1.200 MVA - BTF2 .............................................. 36 
5.14. SE Fernão Dias - Transformador 500/440 kV - 1.200 MVA - BTF3 .............................................. 37 
Manual de Procedimentos da Operação - Módulo 5 - Submódulo 5.11 
 Cadastro de Informações Operacionais Código Revisão Item Vigência 
CADASTRO DE LIMITES OPERACIONAIS DE LINHAS DE 
TRANSMISSÃO E TRANSFORMADORES DA ÁREA 500 KV 
DA REGIÃO SUDESTE 
CD-CT.SE.5SE.02 57 2.2.2 16/06/2024 
 
RT ONS 0306/2023 - rev.2 
 
4 / 46 
 
Alterado pela(s) MOP(s): 
MOP/ONS 462-S/2024;  
5.15. SE Itatiba - Transformador 500/138 kV - 400 MVA - AT01 .......................................................... 38 
5.16. SE Itatiba - Transformador 500/138 kV - 400 MVA - AT02 .......................................................... 38 
5.17. SE Itatiba - Transformador 500/138 kV - 400 MVA - AT03 .......................................................... 39 
5.18. SE Jaguara - Transformador 500/345 kV - TR11 - 400 MVA ........................................................ 39 
5.19. SE Jaguara - Transformador 500/345 kV - TR12 - 400 MVA ........................................................ 40 
5.20. SE Jaguara - Transformador 500/345 kV - TR13 - 400 MVA ........................................................ 41 
5.21. SE Lorena - Transformador 500/230 kV - TR3 ............................................................................. 41 
5.22. SE Morro Agudo - Transformador 500/138 kV - TR1 - 400 MVA................................................. 42 
5.23. SE Morro Agudo - Transformador 500/138 kV - TR2 - 400 MVA................................................. 42 
5.24. SE Nova Ponte - Transformador TR-1 500/345/13,8 kV - 300 MVA ............................................ 43 
5.25. SE Nova Ponte - Transformador TR-2 500/345/13,8 kV - 300 MVA ............................................ 44 
5.26. SE Poços de Caldas - Transformador 525/345 kV - TR51 - 560 MVA .......................................... 44 
5.27. SE Ribeirão Preto - Transformador 500/440 kV - 9AT01 - 1200 MVA ......................................... 45 
5.28. SE Ribeirão Preto - Transformador 500/440 kV - 9AT02 - 1200 MVA ......................................... 45 
5.29. SE Taubaté - Transformador 500/440 kV - TR10 ......................................................................... 46 
5.30. SE Taubaté - Transformador 500/440 kV - TR9 ........................................................................... 46 
 
  
Manual de Procedimentos da Operação - Módulo 5 - Submódulo 5.11 
 Cadastro de Informações Operacionais Código Revisão Item Vigência 
CADASTRO DE LIMITES OPERACIONAIS DE LINHAS DE 
TRANSMISSÃO E TRANSFORMADORES DA ÁREA 500 KV 
DA REGIÃO SUDESTE 
CD-CT.SE.5SE.02 57 2.2.2 16/06/2024 
 
RT ONS 0306/2023 - rev.2 
 
5 / 46 
 
Alterado pela(s) MOP(s): 
MOP/ONS 462-S/2024;  
1. OBJETIVO 
Apresentar os limites operacionais de linhas de transmissão e de transfo rmadores da Rede de Operação a 
serem controlados pelos operadores dos Centros de Operação do ONS e pela Operação dos Agentes 
envolvidos. 
2. CONCEITOS 
2.1. Limite Operacional: Corresponde ao limite de carregamento do equipamento que deve ser observado 
pelo ONS e Agentes, em condição normal de operação e ou em condição de emergência. 
2.2. Alteração dos Limites Operacionais: É a alteração de limite na qual são estabelecidos novos valores, 
decorrentes de eventos que alteraram a capacidade operativa do equipamento, como por exemplo 
recapacitação, trocas de TC, troca de característica de proteção, indisponibili dade do sistema de 
refrigeração, flexibilização por parte do Agente, etc. 
2.3. Fator Limitante:  Fator que impede um equipamento de atingir um limite operacional superior ao 
estabelecido de projeto. Um fator limitante ativo provoca aumento no custo de operação ou de 
expansão do SIN. 
2.4. Limites de linhas de transmissão 
2.4.1. Condição Normal de Operação 
Situação de carregamento em que a linha de transmissão transporta continuamente corrente em valor igual 
ou inferior ao seu valor operacional, em sua condição de carregamento nominal, para a qual foi projetada. 
2.4.2. Condição de Emergência de Operação 
Situação de carregamento em que a linha de transmissão transporta corrente acima do seu valor operacional, 
em sua condição de carregamento superior ao nominal para a qual foi projetada, por um tempo não superior 
a 4 dias (96 horas) contínuos, ou um somatório máximo de 18 dias (432 horas) intermitentes (se somados 
em base anual todos os períodos contínuos inferiores a 4 dias). 
As linhas de transmissão que se enquadrarem nessa situação terão o campo duração nas tabelas 
apresentadas neste cadastro preenchido com (*). 
2.4.3. Condição Sazonal de Operação 
Situação de carregamento em que a linha de transmissão transporta continuamente corrente em valor igual 
ou inferior ao seu valor operacional, em condição normal de operação e ou em condição de emergência, em 
condições de operação temporárias e específicas para diferentes períodos do ano, tais como verão -dia, 
verão-noite, inverno-dia e inverno-noite ou outro período específico do ano (meses ou estações do ano). 
2.4.4. Limite Diurno  
Limite operacional a ser considerado para o período diurno. O período diurno é o intervalo entre o horário 
do amanhecer e do crepúsculo, conforme disposto nos Procedimentos de Rede. 
Quando o período não for definido pelo agente , deve ser considerado o período entre 06h00min até 
17h59min, sempre tomando como referência o horário oficial de Brasília. 
2.4.5. Limite Noturno  
Limite operacional a ser considerado para o período noturno. O período noturno é o intervalo de tempo 
entre o horário do crepúsculo e do amanhecer, conforme disposto nos Procedimentos de Rede. 
Quando o período não for definido pelo agente, deve ser considerado o período de 18h00min até 05h59min, 
sempre tomando como referência o horário oficial de Brasília. 
Manual de Procedimentos da Operação - Módulo 5 - Submódulo 5.11 
 Cadastro de Informações Operacionais Código Revisão Item Vigência 
CADASTRO DE LIMITES OPERACIONAIS DE LINHAS DE 
TRANSMISSÃO E TRANSFORMADORES DA ÁREA 500 KV 
DA REGIÃO SUDESTE 
CD-CT.SE.5SE.02 57 2.2.2 16/06/2024 
 
RT ONS 0306/2023 - rev.2 
 
6 / 46 
 
Alterado pela(s) MOP(s): 
MOP/ONS 462-S/2024;  
2.5. Limites de Transformadores 
2.5.1. Condição Normal de Operação  
Situação de carregamento em que o transformador opera continuamente com sua corrente nominal. Mesmo 
que em algum momento seja ultrapassada a sua corrente nominal, não deve ser excedida a temperatura 
máxima do óleo e ou do enrolamento, conforme limites estabelecidos na NBR 5356-7, respeitadas as 
condições, valores e prazos admitidos pelo agente. 
2.5.2. Condição de Emergência de Longa Duração  
Situação de carregamento em que o transformador opera continuamente com corrente superior a  sua 
corrente nominal, com duração não superior a 04 (quatro) horas. Mesmo que em algum momento seja 
ultrapassada a sua corrente de emergência de longa duração, não deve ser excedida a temperatura máxima 
do óleo e ou do enrolamento, conforme limites estabe lecidos na NBR 5356-7, respeitadas as condições, 
valores e prazos admitidos pelo agente. 
2.5.3. Condição de Emergência de Curta Duração  
Situação de carregamento em que o transformador opera continuamente com corrente superior a sua 
corrente de emergência de longa duração, com duração não superior a 30 (trinta) minutos. Após esse 
intervalo de tempo, deve-se retornar à condição de carregamento de longa duração. 
Mesmo que em algum momento seja ultrapassada a sua corrente de emergência de curta duração, não deve 
ser excedida a temperatura máxima do óleo e ou do enrolamento, conforme limites estabelecidos na NBR 
5356-7, respeitadas as condições, valores e prazos admitidos pelo agente. Esta condição deve ser utilizada 
como último recurso antes do corte de carga. 
2.6. Preenchimento das Tabelas de Limites 
2.6.1. Linhas de Transmissão 
O campo “Valor Operacional” deve ser preenchido com o valor limite do equipamento a ser considerado na 
operação em tempo real. 
O campo “Duração (HH:MM)” indica o período admissível para operação da LT na condição de emergência. 
Nas tabelas em que for detalhado o tempo de operação em determinada condição de operação de 
equipamento, deve-se utilizar tantas linhas quanto forem necessárias para o detalhamento de carregamento 
por período de tempo informado pelo Agente. 
Os campos “Valor Operacional” e “Duração” das tabelas cujos valores dependem de informação do Agente 
e não estão disponíveis para o ONS, devem ser preenchidas com “NI” (Não Informado pelo Agente). 
O campo “Valor Operacional” das tabelas referentes a valores de emergência que não são permitidos pelo 
Agente, devem ser preenchidos com “NP” (Não Permitido pelo Agente). Para este caso também deve ser 
preenchido o campo “Fator Limitante”. 
O campo “Período do ano” indica, quando for o caso, a sazonalidade anual definida para determinação dos 
valores operacionais em condição normal e emergência. 
O campo “Período do dia” indica, quando for o caso, a sazonalidade diária definida para determinação dos 
valores operacionais em condição normal e emergência. 
2.6.2. Transformadores 
O campo “Enrolamento (kV)” indica o terminal e a tensão de  referência aos quais está relacionado o limite 
operacional nas condições normal, emergência de longa duração e de curta duração. 
O campo “Valor Operacional (A)” indica o valor de corrente limite do transformador para condição normal, 
Manual de Procedimentos da Operação - Módulo 5 - Submódulo 5.11 
 Cadastro de Informações Operacionais Código Revisão Item Vigência 
CADASTRO DE LIMITES OPERACIONAIS DE LINHAS DE 
TRANSMISSÃO E TRANSFORMADORES DA ÁREA 500 KV 
DA REGIÃO SUDESTE 
CD-CT.SE.5SE.02 57 2.2.2 16/06/2024 
 
RT ONS 0306/2023 - rev.2 
 
7 / 46 
 
Alterado pela(s) MOP(s): 
MOP/ONS 462-S/2024;  
emergência de longa duração e de curta duração , considerando como tensão nominal a indicada no 
descritivo do equipamento apresentado no subitem. 
O campo “Duração (HH:MM)” indica o período admissível para operação do transformador na condição de 
emergência de longa e curta duração. 
Nas tabelas em que for detalhado o tempo de operação em determinada condição de operação de 
equipamento, deve-se utilizar tantas linhas quanto forem necessárias para o detalhamento de carregamento 
por período de tempo informado pelo Agente. 
Os campos “Valor Operacional” e “Duração” das tabelas cujos valores dependem de informação do Agente 
e não estão disponíveis para o ONS, devem ser preenchidas com “NI” (Não Informado pelo Agente). 
O campo “Valor Operacional” das tabelas referentes a valores de emergência que não são permitidos pelo 
Agente, devem ser preenchidos com “NP” (Não Permitido pelo Agente). Para este caso também deve ser 
preenchido o campo “Fator Limitante”. 
3. CONSIDERAÇÕES GERAIS 
3.1. Este Cadastro de Informações Operacionais apresenta os limites operacionais de carregamento de 
linhas de transmissão e dos transformadores da Rede de Operação, de acordo com as definições 
estabelecidas entre ANEEL, ONS e agentes, cujo processo de atualização é descrito pela RO-CD.BR.01 
- Controle de Limites de Carregamento de Linhas de Transmissão e Transformadores. 
3.2. Os operadores dos Centros de Operação do ONS, nas ações de coordenação, supervisão e controle 
devem observar os limites operacionais constantes deste Cadastro de Informações Operacionais. 
3.3. A operação dos agentes, em suas ações de comando e execução, deve observar os limites 
operacionais constantes deste Cadastro de Informações Operacionais. 
3.4. Cabe ao agente comunicar de imediato ao Centro de Operação com o qual se relaciona qualquer 
alteração de limite que imponha restrições à operação da linha ou transformador. 
3.5. Toda e qualquer alteração dos valores de limites operacionais constantes deste Cadastro de 
Informações Operacionais deverá ser solicitada formalmente e devidamente justificada e 
caracterizada pelo agente responsável pelo equipamento  ao Centro de Operação do ONS de seu 
relacionamento.  
3.6. Caso a operação em tempo real venha a verificar qualquer possibilidade de violação do limite 
estabelecido para o equipamento, caberá ao Centro de Operação do ONS responsável tomar as 
medidas corretivas cabíveis para que o mesmo não ultrapasse estes valores , que só podem ser 
ultrapassados com anuência do agente. 
3.7. Os valores de Limites Operacionais dos equipamentos da Rede de Operação, constantes deste 
Cadastro de Informações Operacionais, são os valores informados oficial e formalmente pelo agente. 
3.8. Os limites de transformadores que constam neste Cadastro de Informações Operacionais consideram 
todos os estágios de refrigeração disponíveis. Os limites considerando os estágios de refrigeração 
indisponíveis constam nos Cadastros de Informações Operacionais de Dados de Equipamentos. 
  
Manual de Procedimentos da Operação - Módulo 5 - Submódulo 5.11 
 Cadastro de Informações Operacionais Código Revisão Item Vigência 
CADASTRO DE LIMITES OPERACIONAIS DE LINHAS DE 
TRANSMISSÃO E TRANSFORMADORES DA ÁREA 500 KV 
DA REGIÃO SUDESTE 
CD-CT.SE.5SE.02 57 2.2.2 16/06/2024 
 
RT ONS 0306/2023 - rev.2 
 
8 / 46 
 
Alterado pela(s) MOP(s): 
MOP/ONS 462-S/2024;  
4. LIMITES DE CARREGAMENTO DE LINHAS DE TRANSMISSÃO 
4.1. LT 500 KV ASSIS / ARARAQUARA 
Limites de condição normal de operação (Longa duração) 
Período do ano Período 
do dia 
Valor 
operacional (A) Fator limitante 
01/Jan a 31/Dez Diurno           2.200 Cabos Condutores 
01/Jan a 31/Dez Noturno          2.200 Cabos Condutores 
 
Limites de condição de emergência (Curta duração) 
Período do ano Período 
do dia 
Valor 
operacional (A) 
Duração 
(Hh:mm) Fator limitante 
01/Jan a 31/Dez Diurno           NP - Cabos Condutores 
01/Jan a 31/Dez Noturno          NP - Cabos Condutores 
 
4.2. LT 500 KV ARARAQUARA / CAMPINAS 
Limites de condição normal de operação (Longa duração) 
Período do ano Período 
do dia 
Valor 
operacional (A) Fator limitante 
01/Jan a 31/Dez Diurno           2.142 Cabos Condutores 
01/Jan a 31/Dez Noturno          2.142 Cabos Condutores 
 
Limites de condição de emergência (Curta duração) 
Período do ano Período 
do dia 
Valor 
operacional (A) 
Duração 
(Hh:mm) Fator limitante 
01/Jan a 31/Dez Diurno           2.699 04:00 Cabos Condutores 
01/Jan a 31/Dez Noturno          2.699 04:00 Cabos Condutores 
 
4.3. LT 500 KV ARARAQUARA / MARIMBONDO II - C1 
Limites de condição normal de operação (Longa duração) 
Período do ano Período 
do dia 
Valor 
operacional (A) Fator limitante 
01/Jan a 31/Dez Diurno / 
Noturno 2.142 Cabo condutor. 
Manual de Procedimentos da Operação - Módulo 5 - Submódulo 5.11 
 Cadastro de Informações Operacionais Código Revisão Item Vigência 
CADASTRO DE LIMITES OPERACIONAIS DE LINHAS DE 
TRANSMISSÃO E TRANSFORMADORES DA ÁREA 500 KV 
DA REGIÃO SUDESTE 
CD-CT.SE.5SE.02 57 2.2.2 16/06/2024 
 
RT ONS 0306/2023 - rev.2 
 
9 / 46 
 
Alterado pela(s) MOP(s): 
MOP/ONS 462-S/2024;  
 
Limites de condição de emergência (Curta duração) 
Período do ano Período 
do dia 
Valor 
operacional (A) 
Duração 
(Hh:mm) Fator limitante 
01/Jan a 31/Dez Diurno / 
Noturno 2.699 04:00 Cabo condutor 
 
4.4. LT 500 KV ARARAQUARA / MARIMBONDO II - C2 
Limites de condição normal de operação (Longa duração) 
Período do ano Período 
do dia 
Valor 
operacional (A) Fator limitante 
01/Jan a 31/Dez Diurno / 
Noturno 2.142 Cabo condutor 
 
Limites de condição de emergência (Curta duração) 
Período do ano Período 
do dia 
Valor 
operacional (A) 
Duração 
(Hh:mm) Fator limitante 
01/Jan a 31/Dez Diurno / 
Noturno 2.699 04:00 Cabo condutor 
 
4.5. LT 500 KV ARARAQUARA / POÇOS DE CALDAS 
Limites de condição normal de operação (Longa duração) 
Período do ano Período 
do dia 
Valor 
operacional (A) Fator limitante 
01/Jan a 31/Dez Diurno           2.142 Cabos Condutores 
01/Jan a 31/Dez Noturno          2.142 Cabos Condutores 
 
Limites de condição de emergência (Curta duração) 
Período do ano Período 
do dia 
Valor 
operacional (A) 
Duração 
(Hh:mm) Fator limitante 
01/Jan a 31/Dez Diurno           2.699 04:00 Cabos Condutores 
01/Jan a 31/Dez Noturno          2.699 04:00 Cabos Condutores 
 
Manual de Procedimentos da Operação - Módulo 5 - Submódulo 5.11 
 Cadastro de Informações Operacionais Código Revisão Item Vigência 
CADASTRO DE LIMITES OPERACIONAIS DE LINHAS DE 
TRANSMISSÃO E TRANSFORMADORES DA ÁREA 500 KV 
DA REGIÃO SUDESTE 
CD-CT.SE.5SE.02 57 2.2.2 16/06/2024 
 
RT ONS 0306/2023 - rev.2 
 
10 / 46 
 
Alterado pela(s) MOP(s): 
MOP/ONS 462-S/2024;  
4.6. LT 500 KV ARARAQUARA 2 / ARARAQUARA - C1 
Limites de condição normal de operação (Longa duração) 
Período do ano Período 
do dia 
Valor 
operacional (A) Fator limitante 
01/Jan a 31/Dez Diurno           1.848 Cabos Condutores 
01/Jan a 31/Dez Noturno          1.848 Cabos Condutores 
 
Limites de condição de emergência (Curta duração) 
Período do ano Período 
do dia 
Valor 
operacional (A) 
Duração 
(Hh:mm) Fator limitante 
01/Jan a 31/Dez Diurno           3.700 (*) Cabos Condutores 
01/Jan a 31/Dez Noturno          3.700 (*) Cabos Condutores 
 
4.7. LT 500 KV ARARAQUARA 2 / ARARAQUARA - C2 
Limites de condição normal de operação (Longa duração) 
Período do ano Período 
do dia 
Valor 
operacional (A) Fator limitante 
01/Jan a 31/Dez Diurno           1.848 Cabos Condutores 
01/Jan a 31/Dez Noturno          1.848 Cabos Condutores 
 
Limites de condição de emergência (Curta duração) 
Período do ano Período 
do dia 
Valor 
operacional (A) 
Duração 
(Hh:mm) Fator limitante 
01/Jan a 31/Dez Diurno           3.700 (*) Cabos Condutores 
01/Jan a 31/Dez Noturno          3.700 (*) Cabos Condutores 
 
4.8. LT 500 KV ARARAQUARA 2 / FERNÃO DIAS 
Limites de condição normal de operação (Longa duração) 
Período do ano Período 
do dia 
Valor 
operacional (A) Fator limitante 
01/Jan a 31/Dez Diurno / 
Noturno 3.360 Cabo condutor 
 
Manual de Procedimentos da Operação - Módulo 5 - Submódulo 5.11 
 Cadastro de Informações Operacionais Código Revisão Item Vigência 
CADASTRO DE LIMITES OPERACIONAIS DE LINHAS DE 
TRANSMISSÃO E TRANSFORMADORES DA ÁREA 500 KV 
DA REGIÃO SUDESTE 
CD-CT.SE.5SE.02 57 2.2.2 16/06/2024 
 
RT ONS 0306/2023 - rev.2 
 
11 / 46 
 
Alterado pela(s) MOP(s): 
MOP/ONS 462-S/2024;  
Limites de condição de emergência (Curta duração) 
Período do ano Período 
do dia 
Valor 
operacional (A) 
Duração 
(Hh:mm) Fator limitante 
01/Jan a 31/Dez Diurno / 
Noturno 4.235 (*) Cabo condutor 
 
4.9. LT 500 KV ARARAQUARA 2 / ITATIBA 
Limites de condição normal de operação (Longa duração) 
Período do ano Período 
do dia 
Valor 
operacional (A) Fator limitante 
01/Jan a 31/Dez Diurno / 
Noturno 3.360 Cabos Condutores 
 
Limites de condição de emergência (Curta duração) 
Período do ano Período 
do dia 
Valor 
operacional (A) 
Duração 
(Hh:mm) Fator limitante 
01/Jan a 31/Dez Diurno / 
Noturno 4.235 (*) Cabos Condutores 
 
4.10. LT 500 KV ARARAQUARA 2 / TAUBATE 
Limites de condição normal de operação (Longa duração) 
Período do ano Período 
do dia 
Valor 
operacional (A) Fator limitante 
01/Jan a 31/Dez Diurno / 
Noturno 2.770 Cabos Condutores 
 
Limites de condição de emergência (Curta duração) 
Período do ano Período 
do dia 
Valor 
operacional (A) 
Duração 
(Hh:mm) Fator limitante 
01/Jan a 31/Dez Diurno / 
Noturno 3.580 (*) Cabos Condutores 
 
Manual de Procedimentos da Operação - Módulo 5 - Submódulo 5.11 
 Cadastro de Informações Operacionais Código Revisão Item Vigência 
CADASTRO DE LIMITES OPERACIONAIS DE LINHAS DE 
TRANSMISSÃO E TRANSFORMADORES DA ÁREA 500 KV 
DA REGIÃO SUDESTE 
CD-CT.SE.5SE.02 57 2.2.2 16/06/2024 
 
RT ONS 0306/2023 - rev.2 
 
12 / 46 
 
Alterado pela(s) MOP(s): 
MOP/ONS 462-S/2024;  
4.11. LT 500 KV CACHOEIRA PAULISTA / FERNÃO DIAS 
Limites de condição normal de operação (Longa duração) 
Período do ano Período 
do dia 
Valor 
operacional (A) Fator limitante 
01/Jan a 31/Dez Diurno / 
Noturno 2.142 Cabo Condutor 
 
Limites de condição de emergência (Curta duração) 
Período do ano Período 
do dia 
Valor 
operacional (A) 
Duração 
(Hh:mm) Fator limitante 
01/Jan a 31/Dez Diurno / 
Noturno 2.699 04:00 Cabo Condutor 
 
4.12. LT 500 KV CACHOEIRA PAULISTA / ITAJUBÁ 3 
Limites de condição normal de operação (Longa duração) 
Período do ano Período 
do dia 
Valor 
operacional (A) Fator limitante 
01/Jan a 31/Dez Diurno           2.142 Cabos Condutores 
01/Jan a 31/Dez Noturno          2.142 Cabos Condutores 
 
Limites de condição de emergência (Curta duração) 
Período do ano Período 
do dia 
Valor 
operacional (A) 
Duração 
(Hh:mm) Fator limitante 
01/Jan a 31/Dez Diurno           2.699 04:00 Cabos Condutores 
01/Jan a 31/Dez Noturno          2.699 04:00 Cabos Condutores 
 
4.13. LT 500 KV CACHOEIRA PAULISTA / LORENA 
Limites de condição normal de operação (Longa duração) 
Período do ano Período 
do dia 
Valor 
operacional (A) Fator limitante 
01/Jan a 31/Dez Diurno / 
Noturno 3.150 Cabos condutores 
 
Manual de Procedimentos da Operação - Módulo 5 - Submódulo 5.11 
 Cadastro de Informações Operacionais Código Revisão Item Vigência 
CADASTRO DE LIMITES OPERACIONAIS DE LINHAS DE 
TRANSMISSÃO E TRANSFORMADORES DA ÁREA 500 KV 
DA REGIÃO SUDESTE 
CD-CT.SE.5SE.02 57 2.2.2 16/06/2024 
 
RT ONS 0306/2023 - rev.2 
 
13 / 46 
 
Alterado pela(s) MOP(s): 
MOP/ONS 462-S/2024;  
Limites de condição de emergência (Curta duração) 
Período do ano Período 
do dia 
Valor 
operacional (A) 
Duração 
(Hh:mm) Fator limitante 
01/Jan a 31/Dez Diurno / 
Noturno NP - Cabos condutores 
 
4.14. LT 500 KV CACHOEIRA PAULISTA / TAUBATÉ 
Limites de condição normal de operação (Longa duração) 
Período do ano Período 
do dia 
Valor 
operacional (A) Fator limitante 
01/Jan a 31/Dez Diurno           2.142 TC e BB na SE Taubaté 
01/Jan a 31/Dez Noturno          2.142 TC e BB na SE Taubaté 
 
Limites de condição de emergência (Curta duração) 
Período do ano Período 
do dia 
Valor 
operacional (A) 
Duração 
(Hh:mm) Fator limitante 
01/Jan a 31/Dez Diurno           2.600 04:00 Destino: TC/BB 
01/Jan a 31/Dez Noturno          2.600 04:00 Destino: TC/BB 
 
4.15. LT 500 KV CACHOEIRA PAULISTA / TIJUCO PRETO 
Limites de condição normal de operação (Longa duração) 
Período do ano Período 
do dia 
Valor 
operacional (A) Fator limitante 
01/Jan a 31/Dez Diurno           2.142 Cabos Condutores 
01/Jan a 31/Dez Noturno          2.142 Cabos Condutores 
 
Limites de condição de emergência (Curta duração) 
Período do ano Período 
do dia 
Valor 
operacional (A) 
Duração 
(Hh:mm) Fator limitante 
01/Jan a 31/Dez Diurno           2.699 04:00 Filtros de ondas 
01/Jan a 31/Dez Noturno          2.699 04:00 Filtros de ondas 
 
Manual de Procedimentos da Operação - Módulo 5 - Submódulo 5.11 
 Cadastro de Informações Operacionais Código Revisão Item Vigência 
CADASTRO DE LIMITES OPERACIONAIS DE LINHAS DE 
TRANSMISSÃO E TRANSFORMADORES DA ÁREA 500 KV 
DA REGIÃO SUDESTE 
CD-CT.SE.5SE.02 57 2.2.2 16/06/2024 
 
RT ONS 0306/2023 - rev.2 
 
14 / 46 
 
Alterado pela(s) MOP(s): 
MOP/ONS 462-S/2024;  
4.16. LT 500 KV CAMPINAS / FERNÃO DIAS 
Limites de condição normal de operação (Longa duração) 
Período do ano Período 
do dia 
Valor 
operacional (A) Fator limitante 
01/Jan a 31/Dez Diurno / 
Noturno 2.142 Cabo Condutor 
 
Limites de condição de emergência (Curta duração) 
Período do ano Período 
do dia 
Valor 
operacional (A) 
Duração 
(Hh:mm) Fator limitante 
01/Jan a 31/Dez Diurno / 
Noturno 2.699 04:00 Cabo Condutor 
 
4.17. LT 500 KV CAMPINAS / ITATIBA C1 
Limites de condição normal de operação (Longa duração) 
Período do ano Período 
do dia 
Valor 
operacional (A) Fator limitante 
01/Jan a 31/Dez Diurno / 
Noturno 2.142 Cabos Condutores 
 
Limites de condição de emergência (Curta duração) 
Período do ano Período 
do dia 
Valor 
operacional (A) 
Duração 
(Hh:mm) Fator limitante 
01/Jan a 31/Dez Diurno / 
Noturno 2.699 04:00 Cabos Condutores 
 
4.18. LT 500 KV CAMPINAS / ITATIBA C2 
Limites de condição normal de operação (Longa duração) 
Período do ano Período 
do dia 
Valor 
operacional (A) Fator limitante 
01/Jan a 31/Dez Diurno / 
Noturno 2.860 Cabos Condutores 
 
Manual de Procedimentos da Operação - Módulo 5 - Submódulo 5.11 
 Cadastro de Informações Operacionais Código Revisão Item Vigência 
CADASTRO DE LIMITES OPERACIONAIS DE LINHAS DE 
TRANSMISSÃO E TRANSFORMADORES DA ÁREA 500 KV 
DA REGIÃO SUDESTE 
CD-CT.SE.5SE.02 57 2.2.2 16/06/2024 
 
RT ONS 0306/2023 - rev.2 
 
15 / 46 
 
Alterado pela(s) MOP(s): 
MOP/ONS 462-S/2024;  
Limites de condição de emergência (Curta duração) 
Período do ano Período 
do dia 
Valor 
operacional (A) 
Duração 
(Hh:mm) Fator limitante 
01/Jan a 31/Dez Diurno / 
Noturno 4.000 (*) Cabos condutores 
 
4.19. LT 500 KV EMBORCAÇÃO / ITUMBIARA 
Limites de condição normal de operação (Longa duração) 
Período do ano Período 
do dia 
Valor 
operacional (A) Fator limitante 
01/Jan a 31/Dez Diurno           2.000 Enrolamento de medição do TC em Itumbiara de relação 
2000:5 
01/Jan a 31/Dez Noturno          2.000 Enrolamento de medição do TC em Itumbiara de relação 
2000:5 
 
Limites de condição de emergência (Curta duração) 
Período do ano Período 
do dia 
Valor 
operacional (A) 
Duração 
(Hh:mm) Fator limitante 
01/Jan a 31/Dez Diurno           NP - Enrolamento de medição do TC em Itumbiara 
de relação 2000:5 
01/Jan a 31/Dez Noturno          NP - Enrolamento de medição do TC em Itumbiara 
de relação 2000:5 
 
4.20. LT 500 KV EMBORCAÇÃO / NOVA PONTE - C1 
Limites de condição normal de operação (Longa duração) 
Período do ano Período 
do dia 
Valor 
operacional (A) Fator limitante 
01/Jan a 31/Dez Diurno           2.820 Cabos Condutores 
01/Jan a 31/Dez Noturno          2.820 Cabos Condutores 
 
Manual de Procedimentos da Operação - Módulo 5 - Submódulo 5.11 
 Cadastro de Informações Operacionais Código Revisão Item Vigência 
CADASTRO DE LIMITES OPERACIONAIS DE LINHAS DE 
TRANSMISSÃO E TRANSFORMADORES DA ÁREA 500 KV 
DA REGIÃO SUDESTE 
CD-CT.SE.5SE.02 57 2.2.2 16/06/2024 
 
RT ONS 0306/2023 - rev.2 
 
16 / 46 
 
Alterado pela(s) MOP(s): 
MOP/ONS 462-S/2024;  
Limites de condição de emergência (Curta duração) 
Período do ano Período 
do dia 
Valor 
operacional (A) 
Duração 
(Hh:mm) Fator limitante 
01/Jan a 31/Dez Diurno           3.000 (*) 
Bobina de Bloqueio dos dois terminais, 
Disjuntor e Seccionadora no terminal de 
Emborcação 
01/Jan a 31/Dez Noturno          3.000 (*) 
Bobina de Bloqueio dos dois terminais, 
Disjuntor e Seccionadora no terminal de 
Emborcação 
 
4.21. LT 500 KV EMBORCAÇÃO / NOVA PONTE - C2 
Limites de condição normal de operação (Longa duração) 
Período do ano Período 
do dia 
Valor 
operacional (A) Fator limitante 
01/Jan a 31/Dez Diurno           2.925 Cabos Condutores 
01/Jan a 31/Dez Noturno          2.925 Cabos Condutores 
 
Limites de condição de emergência (Curta duração) 
Período do ano Período 
do dia 
Valor 
operacional (A) 
Duração 
(Hh:mm) Fator limitante 
01/Jan a 31/Dez Diurno           NP - Cabos Condutores 
01/Jan a 31/Dez Noturno          NP - Cabos Condutores 
 
4.22. LT 500 KV ESTREITO / CACHOEIRA PAULISTA - C1 
Limites de condição normal de operação (Longa duração) 
Período do ano Período 
do dia 
Valor 
operacional (A) Fator limitante 
01/Abr a 30/Set Diurno           4.011 Cabo condutor 
01/Out a 31/Mar Diurno           2.820 Cabo condutor 
01/Abr a 30/Set Noturno          5.264 Cabo condutor 
01/Out a 31/Mar Noturno          5.035 (1) Cabo condutor 
Notas: 
(1) - Caso a LT esteja operando pelo disjuntor 9482 (Furnas), o limite da LT a ser considerado é de 3000 A 
para o período diurno, entre 01/04 a 30/09, e para o período noturno, ao longo de todo o ano.. 
 
Manual de Procedimentos da Operação - Módulo 5 - Submódulo 5.11 
 Cadastro de Informações Operacionais Código Revisão Item Vigência 
CADASTRO DE LIMITES OPERACIONAIS DE LINHAS DE 
TRANSMISSÃO E TRANSFORMADORES DA ÁREA 500 KV 
DA REGIÃO SUDESTE 
CD-CT.SE.5SE.02 57 2.2.2 16/06/2024 
 
RT ONS 0306/2023 - rev.2 
 
17 / 46 
 
Alterado pela(s) MOP(s): 
MOP/ONS 462-S/2024;  
Limites de condição de emergência (Curta duração) 
Período do ano Período 
do dia 
Valor 
operacional (A) 
Duração 
(Hh:mm) Fator limitante 
01/Abr a 30/Set Diurno           5.100 (*) Cabo condutor 
01/Out a 31/Mar Diurno           4.000 (1) (*) Cabo condutor 
01/Abr a 30/Set Noturno          5.879 (*) Cabo condutor 
01/Out a 31/Mar Noturno          5.635 (*) Cabo condutor 
Notas: 
(1) - Caso a LT esteja operando pelo disjuntor 9482 (Furnas), o limite a ser considerado é de 3900A ao longo 
de todo ano.. 
 
4.23. LT 500 KV ESTREITO / CACHOEIRA PAULISTA - C2 
Limites de condição normal de operação (Longa duração) 
Período do ano Período 
do dia 
Valor 
operacional (A) Fator limitante 
01/Abr a 30/Set Diurno           4.011 Cabo condutor 
01/Out a 31/Mar Diurno           2.820 Cabo condutor 
01/Abr a 30/Set Noturno          5.264 Cabo condutor 
01/Out a 31/Mar Noturno          5.035 Cabo condutor 
 
Limites de condição de emergência (Curta duração) 
Período do ano Período 
do dia 
Valor 
operacional (A) 
Duração 
(Hh:mm) Fator limitante 
01/Abr a 30/Set Diurno           5.100 (*) Cabo condutor 
01/Out a 31/Mar Diurno           4.000 (*) Cabo condutor 
01/Abr a 30/Set Noturno          5.879 (*) Cabo condutor 
01/Out a 31/Mar Noturno          5.635 (*) Cabo condutor 
 
4.24. LT 500 KV ESTREITO / FERNÃO DIAS C1 
Limites de condição normal de operação (Longa duração) 
Período do ano Período 
do dia 
Valor 
operacional (A) Fator limitante 
01/Jan a 31/Dez Diurno           3.400 Cabos Condutores 
Manual de Procedimentos da Operação - Módulo 5 - Submódulo 5.11 
 Cadastro de Informações Operacionais Código Revisão Item Vigência 
CADASTRO DE LIMITES OPERACIONAIS DE LINHAS DE 
TRANSMISSÃO E TRANSFORMADORES DA ÁREA 500 KV 
DA REGIÃO SUDESTE 
CD-CT.SE.5SE.02 57 2.2.2 16/06/2024 
 
RT ONS 0306/2023 - rev.2 
 
18 / 46 
 
Alterado pela(s) MOP(s): 
MOP/ONS 462-S/2024;  
Limites de condição normal de operação (Longa duração) 
Período do ano Período 
do dia 
Valor 
operacional (A) Fator limitante 
01/Jan a 31/Dez Noturno          3.400 Cabos Condutores 
 
Limites de condição de emergência (Curta duração) 
Período do ano Período 
do dia 
Valor 
operacional (A) 
Duração 
(Hh:mm) Fator limitante 
01/Jan a 31/Dez Diurno           4.285 (*) Cabos Condutores 
01/Jan a 31/Dez Noturno          4.285 (*) Cabos Condutores 
 
4.25. LT 500 KV ESTREITO / FERNÃO DIAS C2 
Limites de condição normal de operação (Longa duração) 
Período do ano Período 
do dia 
Valor 
operacional (A) Fator limitante 
01/Jan a 31/Dez Diurno           3.400 Cabos Condutores 
01/Jan a 31/Dez Noturno          3.400 Cabos Condutores 
 
Limites de condição de emergência (Curta duração) 
Período do ano Período 
do dia 
Valor 
operacional (A) 
Duração 
(Hh:mm) Fator limitante 
01/Jan a 31/Dez Diurno           4.285 (*) Cabos Condutores 
01/Jan a 31/Dez Noturno          4.285 (*) Cabos Condutores 
 
4.26. LT 500 KV ESTREITO / RIBEIRÃO PRETO 
Limites de condição normal de operação (Longa duração) 
Período do ano Período 
do dia 
Valor 
operacional (A) Fator limitante 
01/Jan a 31/Dez Diurno           2.300 Cabos Condutores 
01/Jan a 31/Dez Noturno          2.300 Cabos Condutores 
 
Manual de Procedimentos da Operação - Módulo 5 - Submódulo 5.11 
 Cadastro de Informações Operacionais Código Revisão Item Vigência 
CADASTRO DE LIMITES OPERACIONAIS DE LINHAS DE 
TRANSMISSÃO E TRANSFORMADORES DA ÁREA 500 KV 
DA REGIÃO SUDESTE 
CD-CT.SE.5SE.02 57 2.2.2 16/06/2024 
 
RT ONS 0306/2023 - rev.2 
 
19 / 46 
 
Alterado pela(s) MOP(s): 
MOP/ONS 462-S/2024;  
Limites de condição de emergência (Curta duração) 
Período do ano Período 
do dia 
Valor 
operacional (A) 
Duração 
(Hh:mm) Fator limitante 
01/Jan a 31/Dez Diurno           2.760 (*) Cabos Condutores 
01/Jan a 31/Dez Noturno          2.760 (*) Cabos Condutores 
 
4.27. LT 500 KV FERNÃO DIAS / TERMINAL RIO 
Limites de condição normal de operação (Longa duração) 
Período do ano Período 
do dia 
Valor 
operacional (A) Fator limitante 
01/Jan a 31/Dez Diurno / 
Noturno 3.584,5 Cabo condutor 
 
Limites de condição de emergência (Curta duração) 
Período do ano Período 
do dia 
Valor 
operacional (A) 
Duração 
(Hh:mm) Fator limitante 
01/Jan a 31/Dez Diurno / 
Noturno 4.158,2 (1) (*) Cabo condutor 
Notas: 
(1) - Caso o DJ9192 na SE Terminal Rio esteja fora de operação, o limite passa a der de 4000 A devido à 
capacidade dos equipamentos do vão do DJ9202 da SE Terminal Rio. 
 
4.28. LT 500 KV IBIÚNA / ITATIBA 
Limites de condição normal de operação (Longa duração) 
Período do ano Período 
do dia 
Valor 
operacional (A) Fator limitante 
01/Jan a 31/Dez Diurno           2.142 Cabos Condutores 
01/Jan a 31/Dez Noturno          2.142 Cabos Condutores 
 
Limites de condição de emergência (Curta duração) 
Período do ano Período 
do dia 
Valor 
operacional (A) 
Duração 
(Hh:mm) Fator limitante 
01/Jan a 31/Dez Diurno           2.699 04:00 Cabos Condutores 
01/Jan a 31/Dez Noturno          2.699 04:00 Cabos Condutores 
Manual de Procedimentos da Operação - Módulo 5 - Submódulo 5.11 
 Cadastro de Informações Operacionais Código Revisão Item Vigência 
CADASTRO DE LIMITES OPERACIONAIS DE LINHAS DE 
TRANSMISSÃO E TRANSFORMADORES DA ÁREA 500 KV 
DA REGIÃO SUDESTE 
CD-CT.SE.5SE.02 57 2.2.2 16/06/2024 
 
RT ONS 0306/2023 - rev.2 
 
20 / 46 
 
Alterado pela(s) MOP(s): 
MOP/ONS 462-S/2024;  
 
4.29. LT 500 KV ITUMBIARA / MARIMBONDO 
Limites de condição normal de operação (Longa duração) 
Período do ano Período 
do dia 
Valor 
operacional (A) Fator limitante 
01/Jan a 31/Dez Diurno           2.000 Cabos Condutores 
01/Jan a 31/Dez Noturno          2.000 Cabos Condutores 
 
Limites de condição de emergência (Curta duração) 
Período do ano Período 
do dia 
Valor 
operacional (A) 
Duração 
(Hh:mm) Fator limitante 
01/Jan a 31/Dez Diurno           NP - Cabos Condutores 
01/Jan a 31/Dez Noturno          NP - Cabos Condutores 
 
4.30. LT 500 KV ITUMBIARA / SÃO SIMÃO 
Limites de condição normal de operação (Longa duração) 
Período do ano Período 
do dia 
Valor 
operacional (A) Fator limitante 
01/Jan a 31/Dez Diurno / 
Noturno 2.142 (1) Cabos Condutores 
Notas: 
(1) - Estando aberto um dos três disjuntores no terminal da UHE Itumbiara, o limite passa a ser de 2000 A 
devido à capacidade do TC. 
 
Limites de condição de emergência (Curta duração) 
Período do ano Período 
do dia 
Valor 
operacional (A) 
Duração 
(Hh:mm) Fator limitante 
01/Jan a 31/Dez Diurno / 
Noturno 2.699 (1) 04:00 Cabos Condutores 
Notas: 
(1) - Estando aberto um dos três disjuntores no terminal da UHE Itumbiara, o limite passa a ser de 2000 A 
devido à capacidade do TC. 
 
Manual de Procedimentos da Operação - Módulo 5 - Submódulo 5.11 
 Cadastro de Informações Operacionais Código Revisão Item Vigência 
CADASTRO DE LIMITES OPERACIONAIS DE LINHAS DE 
TRANSMISSÃO E TRANSFORMADORES DA ÁREA 500 KV 
DA REGIÃO SUDESTE 
CD-CT.SE.5SE.02 57 2.2.2 16/06/2024 
 
RT ONS 0306/2023 - rev.2 
 
21 / 46 
 
Alterado pela(s) MOP(s): 
MOP/ONS 462-S/2024;  
4.31. LT 500 KV JAGUARA / ESTREITO 
Limites de condição normal de operação (Longa duração) 
Período do ano Período 
do dia 
Valor 
operacional (A) Fator limitante 
01/Jan a 31/Dez Diurno           2.300 Cabos Condutores 
01/Jan a 31/Dez Noturno          2.300 Cabos Condutores 
 
Limites de condição de emergência (Curta duração) 
Período do ano Período 
do dia 
Valor 
operacional (A) 
Duração 
(Hh:mm) Fator limitante 
01/Jan a 31/Dez Diurno           2.760 (*) Cabos Condutores 
01/Jan a 31/Dez Noturno          2.760 (*) Cabos Condutores 
 
4.32. LT 500 KV JAGUARA / NOVA PONTE 
Limites de condição normal de operação (Longa duração) 
Período do ano Período 
do dia 
Valor 
operacional (A) Fator limitante 
01/Jan a 31/Dez Diurno           2.820 Cabos Condutores 
01/Jan a 31/Dez Noturno          2.820 Cabos Condutores 
 
Limites de condição de emergência (Curta duração) 
Período do ano Período 
do dia 
Valor 
operacional (A) 
Duração 
(Hh:mm) Fator limitante 
01/Jan a 31/Dez Diurno           3.000 (*) Bobinas de Bloqueio nos dois terminais e 
Seccionadora no terminal de Jaguara 
01/Jan a 31/Dez Noturno          3.000 (*) Bobinas de Bloqueio nos dois terminais e 
Seccionadora no terminal de Jaguara 
 
4.33. LT 500 KV JAGUARA / SÃO SIMÃO 
Limites de condição normal de operação (Longa duração) 
Período do ano Período 
do dia 
Valor 
operacional (A) Fator limitante 
01/Jan a 31/Dez Diurno / 
Noturno 2.547 Cabos Condutores 
Manual de Procedimentos da Operação - Módulo 5 - Submódulo 5.11 
 Cadastro de Informações Operacionais Código Revisão Item Vigência 
CADASTRO DE LIMITES OPERACIONAIS DE LINHAS DE 
TRANSMISSÃO E TRANSFORMADORES DA ÁREA 500 KV 
DA REGIÃO SUDESTE 
CD-CT.SE.5SE.02 57 2.2.2 16/06/2024 
 
RT ONS 0306/2023 - rev.2 
 
22 / 46 
 
Alterado pela(s) MOP(s): 
MOP/ONS 462-S/2024;  
 
Limites de condição de emergência (Curta duração) 
Período do ano Período 
do dia 
Valor 
operacional (A) 
Duração 
(Hh:mm) Fator limitante 
01/Jan a 31/Dez Diurno / 
Noturno 3.000 (*) Bobina de Bloqueio 
 
4.34. LT 500 KV MARIMBONDO / ÁGUA VERMELHA 
Limites de condição normal de operação (Longa duração) 
Período do ano Período 
do dia 
Valor 
operacional (A) Fator limitante 
01/Jan a 31/Dez Diurno / 
Noturno 2.000 (1) TC na UHE Água Vermelha. 
Notas: 
(1) - Estando aberto um dos dois disjuntores no terminal da UHE Marimbondo, o limite passa a ser de 1800 
A devido à capacidade do TC. 
 
 Estando aberto um dos dois disjuntores no terminal da UHE Água Vermelha, o limite passa a ser de 1000 A 
devido à capacidade do TC. 
 
Limites de condição de emergência (Curta duração) 
Período do ano Período 
do dia 
Valor 
operacional (A) 
Duração 
(Hh:mm) Fator limitante 
01/Jan a 31/Dez Diurno / 
Noturno NP - - 
 
4.35. LT 500 KV MARIMBONDO / MARIMBONDO II - C1 
Limites de condição normal de operação (Longa duração) 
Período do ano Período 
do dia 
Valor 
operacional (A) Fator limitante 
01/Jan a 31/Dez Diurno / 
Noturno 2.142 (1) Cabo condutor 
Notas: 
(1) - Estando aberto um dos dois disjuntores no terminal da UHE Marimbondo, o limite passa a ser de 1800 
A devido à capacidade do TC de proteção de fio piloto das unidades geradoras adjacentes.. 
 
Manual de Procedimentos da Operação - Módulo 5 - Submódulo 5.11 
 Cadastro de Informações Operacionais Código Revisão Item Vigência 
CADASTRO DE LIMITES OPERACIONAIS DE LINHAS DE 
TRANSMISSÃO E TRANSFORMADORES DA ÁREA 500 KV 
DA REGIÃO SUDESTE 
CD-CT.SE.5SE.02 57 2.2.2 16/06/2024 
 
RT ONS 0306/2023 - rev.2 
 
23 / 46 
 
Alterado pela(s) MOP(s): 
MOP/ONS 462-S/2024;  
Limites de condição de emergência (Curta duração) 
Período do ano Período 
do dia 
Valor 
operacional (A) 
Duração 
(Hh:mm) Fator limitante 
01/Jan a 31/Dez Diurno / 
Noturno 2.699 (1) 04:00 Cabo condutor 
Notas: 
(1) - Estando aberto um dos dois disjuntores no terminal da UHE Marimbondo, o limite passa a ser de 1800 
A devido à capacidade do TC de proteção de fio piloto das unidades geradoras adjacentes.. 
 
4.36. LT 500 KV MARIMBONDO / MARIMBONDO II - C2 
Limites de condição normal de operação (Longa duração) 
Período do ano Período 
do dia 
Valor 
operacional (A) Fator limitante 
01/Jan a 31/Dez Diurno / 
Noturno 2.142 (1) Cabo Condutor 
Notas: 
(1) - Caso a LT esteja operando, na SE Marimbondo, somente com o disjuntor DJ9052 ou DJ9062 o limite 
passa a ser de 1800 A devido à capacidade do TC de proteção de fio piloto da unidade geradora adjacente. 
Caso a LT esteja operando somente com o DJ9452 o limite de 2.142 A não se altera. 
 
Limites de condição de emergência (Curta duração) 
Período do ano Período 
do dia 
Valor 
operacional (A) 
Duração 
(Hh:mm) Fator limitante 
01/Jan a 31/Dez Diurno / 
Noturno 2.699 (1) 04:00 Cabo condutor. 
Notas: 
(1) - Caso a LT esteja operando, na SE Marimbondo, somente com o disjuntor DJ9052 ou DJ9062 o limite 
passa a ser de 1800 A devido à capacidade do TC de proteção de fio piloto da unidade geradora adjacente. 
Caso a LT esteja operando somente com o DJ9452 o limite de 2.699 A não se altera. 
 
Manual de Procedimentos da Operação - Módulo 5 - Submódulo 5.11 
 Cadastro de Informações Operacionais Código Revisão Item Vigência 
CADASTRO DE LIMITES OPERACIONAIS DE LINHAS DE 
TRANSMISSÃO E TRANSFORMADORES DA ÁREA 500 KV 
DA REGIÃO SUDESTE 
CD-CT.SE.5SE.02 57 2.2.2 16/06/2024 
 
RT ONS 0306/2023 - rev.2 
 
24 / 46 
 
Alterado pela(s) MOP(s): 
MOP/ONS 462-S/2024;  
4.37. LT 500 KV MARIMBONDO / MARIMBONDO II - C3 
Limites de condição normal de operação (Longa duração) 
Período do ano Período 
do dia 
Valor 
operacional (A) Fator limitante 
01/Jan a 31/Dez Diurno / 
Noturno 2.300 (1) Cabo Condutor. 
Notas: 
(1) - Caso a LT esteja operando, na SE Marimbondo, somente com o disjuntor DJ9072 ou DJ9782 o limite 
passa a ser de 1800 A devido à capacidade do TC de proteção de fio piloto da unidade geradora adjacente. 
Caso a LT esteja operando somente com o DJ9452 o limite de 2.300 A não se altera. 
 
Limites de condição de emergência (Curta duração) 
Período do ano Período 
do dia 
Valor 
operacional (A) 
Duração 
(Hh:mm) Fator limitante 
01/Jan a 31/Dez Diurno / 
Noturno 2.760 (1) 04:00 Cabo Condutor. 
Notas: 
(1) - Caso a LT esteja operando, na SE Marimbondo, somente com o disjuntor DJ9072 ou DJ9782 o limite 
passa a ser de 1800 A devido à capacidade do TC de proteção de fio piloto da unidade geradora adjacente. 
Caso a LT esteja operando somente com o DJ9452 o limite de 2.760 A não se altera. 
 
4.38. LT 500 KV MARIMBONDO / MORRO AGUDO 
Limites de condição normal de operação (Longa duração) 
Período do ano Período 
do dia 
Valor 
operacional (A) Fator limitante 
01/Jan a 31/Dez Diurno / 
Noturno 2.300 (1) Cabos Condutores 
Notas: 
(1) - Estando aberto o disjuntor 9092 no terminal da UHE Marimbondo, o limite passa a ser de 1800 A devido 
à capacidade do TC de proteção de fio piloto da unidade geradora adjacente. 
 
Limites de condição de emergência (Curta duração) 
Período do ano Período 
do dia 
Valor 
operacional (A) 
Duração 
(Hh:mm) Fator limitante 
01/Jan a 31/Dez Diurno / 
Noturno 2.760 (1) (*) Cabos Condutores 
Manual de Procedimentos da Operação - Módulo 5 - Submódulo 5.11 
 Cadastro de Informações Operacionais Código Revisão Item Vigência 
CADASTRO DE LIMITES OPERACIONAIS DE LINHAS DE 
TRANSMISSÃO E TRANSFORMADORES DA ÁREA 500 KV 
DA REGIÃO SUDESTE 
CD-CT.SE.5SE.02 57 2.2.2 16/06/2024 
 
RT ONS 0306/2023 - rev.2 
 
25 / 46 
 
Alterado pela(s) MOP(s): 
MOP/ONS 462-S/2024;  
Notas: 
(1) - Estando aberto o disjuntor 9092 no terminal da UHE Marimbondo, o limite passa a ser de 1800 A devido 
à capacidade do TC de proteção de fio piloto da unidade geradora adjacente. 
 
4.39. LT 500 KV MARIMBONDO II / ASSIS 
Limites de condição normal de operação (Longa duração) 
Período do ano Período 
do dia 
Valor 
operacional (A) Fator limitante 
01/Jan a 31/Dez Diurno / 
Noturno 3.455 Cabos Condutores 
 
Limites de condição de emergência (Curta duração) 
Período do ano Período 
do dia 
Valor 
operacional (A) 
Duração 
(Hh:mm) Fator limitante 
01/Jan a 31/Dez Diurno / 
Noturno 4.380 (*) Cabos Condutores 
 
4.40. LT 500 KV MARIMBONDO II / SÃO SIMÃO  
Limites de condição normal de operação (Longa duração) 
Período do ano Período 
do dia 
Valor 
operacional (A) Fator limitante 
01/Jan a 31/Dez Diurno           2.300 - 
01/Jan a 31/Dez Noturno          2.300 - 
 
Limites de condição de emergência (Curta duração) 
Período do ano Período 
do dia 
Valor 
operacional (A) 
Duração 
(Hh:mm) Fator limitante 
01/Jan a 31/Dez Diurno           2.760 (*) - 
01/Jan a 31/Dez Noturno          2.760 (*) - 
 
Manual de Procedimentos da Operação - Módulo 5 - Submódulo 5.11 
 Cadastro de Informações Operacionais Código Revisão Item Vigência 
CADASTRO DE LIMITES OPERACIONAIS DE LINHAS DE 
TRANSMISSÃO E TRANSFORMADORES DA ÁREA 500 KV 
DA REGIÃO SUDESTE 
CD-CT.SE.5SE.02 57 2.2.2 16/06/2024 
 
RT ONS 0306/2023 - rev.2 
 
26 / 46 
 
Alterado pela(s) MOP(s): 
MOP/ONS 462-S/2024;  
4.41. LT 500 KV MORRO AGUDO / RIBEIRÃO PRETO 
Limites de condição normal de operação (Longa duração) 
Período do ano Período 
do dia 
Valor 
operacional (A) Fator limitante 
01/Jan a 31/Dez Diurno / 
Noturno 2.300 Cabos Condutores 
 
Limites de condição de emergência (Curta duração) 
Período do ano Período 
do dia 
Valor 
operacional (A) 
Duração 
(Hh:mm) Fator limitante 
01/Jan a 31/Dez Diurno / 
Noturno 2.760 (*) Cabos Condutores 
 
4.42. LT 500 KV NOVA PONTE / ESTREITO 
Limites de condição normal de operação (Longa duração) 
Período do ano Período 
do dia 
Valor 
operacional (A) Fator limitante 
01/Jan a 31/Dez Diurno           2.925 Cabos Condutores 
01/Jan a 31/Dez Noturno          2.925 Cabos Condutores 
 
Limites de condição de emergência (Curta duração) 
Período do ano Período 
do dia 
Valor 
operacional (A) 
Duração 
(Hh:mm) Fator limitante 
01/Jan a 31/Dez Diurno           NP - Cabos Condutores 
01/Jan a 31/Dez Noturno          NP - Cabos Condutores 
 
4.43. LT 500 KV NOVA PONTE / ITUMBIARA 
Limites de condição normal de operação (Longa duração) 
Período do ano Período 
do dia 
Valor 
operacional (A) Fator limitante 
01/Jan a 31/Dez Diurno           2.925 Cabos Condutores 
01/Jan a 31/Dez Noturno          2.925 Cabos Condutores 
 
Manual de Procedimentos da Operação - Módulo 5 - Submódulo 5.11 
 Cadastro de Informações Operacionais Código Revisão Item Vigência 
CADASTRO DE LIMITES OPERACIONAIS DE LINHAS DE 
TRANSMISSÃO E TRANSFORMADORES DA ÁREA 500 KV 
DA REGIÃO SUDESTE 
CD-CT.SE.5SE.02 57 2.2.2 16/06/2024 
 
RT ONS 0306/2023 - rev.2 
 
27 / 46 
 
Alterado pela(s) MOP(s): 
MOP/ONS 462-S/2024;  
Limites de condição de emergência (Curta duração) 
Período do ano Período 
do dia 
Valor 
operacional (A) 
Duração 
(Hh:mm) Fator limitante 
01/Jan a 31/Dez Diurno           NP - Cabos Condutores 
01/Jan a 31/Dez Noturno          NP - Cabos Condutores 
 
4.44. LT 500 KV POÇOS DE CALDAS / ITAJUBÁ 3 
Limites de condição normal de operação (Longa duração) 
Período do ano Período 
do dia 
Valor 
operacional (A) Fator limitante 
01/Jan a 31/Dez Diurno           2.142 Cabos Condutores 
01/Jan a 31/Dez Noturno          2.142 Cabos Condutores 
 
Limites de condição de emergência (Curta duração) 
Período do ano Período 
do dia 
Valor 
operacional (A) 
Duração 
(Hh:mm) Fator limitante 
01/Jan a 31/Dez Diurno           2.699 04:00 Cabos Condutores 
01/Jan a 31/Dez Noturno          2.699 04:00 Cabos Condutores 
 
4.45. LT 500 KV RIBEIRÃO PRETO / POÇOS DE CALDAS 
Limites de condição normal de operação (Longa duração) 
Período do ano Período 
do dia 
Valor 
operacional (A) Fator limitante 
01/Jan a 31/Dez Diurno           2.300 Cabos Condutores 
01/Jan a 31/Dez Noturno          2.300 Cabos Condutores 
 
Limites de condição de emergência (Curta duração) 
Período do ano Período 
do dia 
Valor 
operacional (A) 
Duração 
(Hh:mm) Fator limitante 
01/Jan a 31/Dez Diurno           2.760 (*) Cabos Condutores 
01/Jan a 31/Dez Noturno          2.760 (*) Cabos Condutores 
 
Manual de Procedimentos da Operação - Módulo 5 - Submódulo 5.11 
 Cadastro de Informações Operacionais Código Revisão Item Vigência 
CADASTRO DE LIMITES OPERACIONAIS DE LINHAS DE 
TRANSMISSÃO E TRANSFORMADORES DA ÁREA 500 KV 
DA REGIÃO SUDESTE 
CD-CT.SE.5SE.02 57 2.2.2 16/06/2024 
 
RT ONS 0306/2023 - rev.2 
 
28 / 46 
 
Alterado pela(s) MOP(s): 
MOP/ONS 462-S/2024;  
4.46. LT 500 KV SÃO SIMÃO / ÁGUA VERMELHA 
Limites de condição normal de operação (Longa duração) 
Período do ano Período 
do dia 
Valor 
operacional (A) Fator limitante 
01/Jan a 31/Dez Diurno / 
Noturno 2.547 (1) Cabos Condutores 
Notas: 
(1) - Estando aberto um dos dois disjuntores no terminal da UHE Água Vermelha, o limite passa a ser de 1500 
A devido à capacidade do TC. 
 
Limites de condição de emergência (Curta duração) 
Período do ano Período 
do dia 
Valor 
operacional (A) 
Duração 
(Hh:mm) Fator limitante 
01/Jan a 31/Dez Diurno / 
Noturno 3.000 (1) (*) Seccionadora e Bobina de Bloqueio no terminal 
de São Simão 
Notas: 
(1) - Estando aberto um dos dois disjuntores no terminal da UHE Água Vermelha, o limite passa a ser de 1500 
A devido à capacidade do TC. 
 
4.47. LT 500 KV TIJUCO PRETO / LORENA 
Limites de condição normal de operação (Longa duração) 
Período do ano Período 
do dia 
Valor 
operacional (A) Fator limitante 
01/Jan a 31/Dez Diurno / 
Noturno 3.150 Cabos Condutores 
 
Limites de condição de emergência (Curta duração) 
Período do ano Período 
do dia 
Valor 
operacional (A) 
Duração 
(Hh:mm) Fator limitante 
01/Jan a 31/Dez Diurno / 
Noturno NP - Cabos Condutores 
 
Manual de Procedimentos da Operação - Módulo 5 - Submódulo 5.11 
 Cadastro de Informações Operacionais Código Revisão Item Vigência 
CADASTRO DE LIMITES OPERACIONAIS DE LINHAS DE 
TRANSMISSÃO E TRANSFORMADORES DA ÁREA 500 KV 
DA REGIÃO SUDESTE 
CD-CT.SE.5SE.02 57 2.2.2 16/06/2024 
 
RT ONS 0306/2023 - rev.2 
 
29 / 46 
 
Alterado pela(s) MOP(s): 
MOP/ONS 462-S/2024;  
4.48. LT 500 KV TIJUCO PRETO / TAUBATÉ 
Limites de condição normal de operação (Longa duração) 
Período do ano Período 
do dia 
Valor 
operacional (A) Fator limitante 
01/Jan a 31/Dez Diurno           2.142 TC na SE Taubaté 
01/Jan a 31/Dez Noturno          2.142 TC na SE Taubaté 
 
Limites de condição de emergência (Curta duração) 
Período do ano Período 
do dia 
Valor 
operacional (A) 
Duração 
(Hh:mm) Fator limitante 
01/Jan a 31/Dez Diurno           2.600 04:00 TC na SE Taubaté 
01/Jan a 31/Dez Noturno          2.600 04:00 TC na SE Taubaté 
 
  
Manual de Procedimentos da Operação - Módulo 5 - Submódulo 5.11 
 Cadastro de Informações Operacionais Código Revisão Item Vigência 
CADASTRO DE LIMITES OPERACIONAIS DE LINHAS DE 
TRANSMISSÃO E TRANSFORMADORES DA ÁREA 500 KV 
DA REGIÃO SUDESTE 
CD-CT.SE.5SE.02 57 2.2.2 16/06/2024 
 
RT ONS 0306/2023 - rev.2 
 
30 / 46 
 
Alterado pela(s) MOP(s): 
MOP/ONS 462-S/2024;  
5. LIMITES DE CARREGAMENTO DE TRANSFORMADORES 
5.1. SE ÁGUA VERMELHA - TRANSFORMADOR 500/440 KV - TR4 (CTEEP) 
Limites de Condição Normal de Operação 
Enrolamento (kV) Valor 
operacional (A) Fator limitante 
440 984 - 
500 866 - 
 
Limites de Condição de Emergência de Longa Duração 
Enrolamento 
(kV) 
Valor 
operacional (A) 
Duração 
(Hh:mm) Fator limitante 
440 1.180 04:00 - 
500 1.039 04:00 - 
 
Limites de Condição de Emergência de Curta Duração 
Enrolamento 
(kV) 
Valor 
operacional (A) 
Duração 
(Hh:mm) Fator limitante 
440 1.377 00:30 E-mail CTEEP de 08/11/2018 
500 1.212 00:30 E-mail CTEEP de 08/11/2018 
 
5.2. SE ÁGUA VERMELHA - TRANSFORMADOR 500/440 KV - TR9 (CTEEP) 
Limites de Condição Normal de Operação 
Enrolamento (kV) Valor 
operacional (A) Fator limitante 
440 984 - 
500 866 - 
 
Limites de Condição de Emergência de Longa Duração 
Enrolamento 
(kV) 
Valor 
operacional (A) 
Duração 
(Hh:mm) Fator limitante 
440 1.082 04:00 - 
500 953 04:00 - 
 
Manual de Procedimentos da Operação - Módulo 5 - Submódulo 5.11 
 Cadastro de Informações Operacionais Código Revisão Item Vigência 
CADASTRO DE LIMITES OPERACIONAIS DE LINHAS DE 
TRANSMISSÃO E TRANSFORMADORES DA ÁREA 500 KV 
DA REGIÃO SUDESTE 
CD-CT.SE.5SE.02 57 2.2.2 16/06/2024 
 
RT ONS 0306/2023 - rev.2 
 
31 / 46 
 
Alterado pela(s) MOP(s): 
MOP/ONS 462-S/2024;  
Limites de Condição de Emergência de Curta Duração 
Enrolamento 
(kV) 
Valor 
operacional (A) 
Duração 
(Hh:mm) Fator limitante 
440 1.377 00:30 - 
500 1.212 00:30 - 
 
5.3. SE ÁGUA VERMELHA - TRANSFORMADOR 550/460 KV - TR8 (FURNAS) 
Limites de Condição Normal de Operação 
Enrolamento (kV) Valor 
operacional (A) Fator limitante 
460 941 Corrente nominal do transformador de FURNAS 
550 787 Corrente nominal do transformador de FURNAS 
 
Limites de Condição de Emergência de Longa Duração 
Enrolamento 
(kV) 
Valor 
operacional (A) 
Duração 
(Hh:mm) Fator limitante 
460 1.223 04:00 - 
550 1.023 04:00 - 
 
 
5.4. SE ARARAQUARA 2 - TRANSFORMADOR 500/440 KV - TR2 - 1250 MVA 
Limites de Condição Normal de Operação 
Enrolamento (kV) Valor 
operacional (A) Fator limitante 
440 1.642 - 
500 1.445 - 
 
Limites de Condição de Emergência de Longa Duração 
Enrolamento 
(kV) 
Valor 
operacional (A) 
Duração 
(Hh:mm) Fator limitante 
440 1.970 04:00 - 
500 1.734 04:00 - 
 
Manual de Procedimentos da Operação - Módulo 5 - Submódulo 5.11 
 Cadastro de Informações Operacionais Código Revisão Item Vigência 
CADASTRO DE LIMITES OPERACIONAIS DE LINHAS DE 
TRANSMISSÃO E TRANSFORMADORES DA ÁREA 500 KV 
DA REGIÃO SUDESTE 
CD-CT.SE.5SE.02 57 2.2.2 16/06/2024 
 
RT ONS 0306/2023 - rev.2 
 
32 / 46 
 
Alterado pela(s) MOP(s): 
MOP/ONS 462-S/2024;  
Limites de Condição de Emergência de Curta Duração 
Enrolamento 
(kV) 
Valor 
operacional (A) 
Duração 
(Hh:mm) Fator limitante 
440 2.298 00:30 - 
500 2.023 00:30 - 
 
5.5. SE ARARAQUARA 2 - TRANSFORMADOR 500/440 KV - TR3 - 1250 MVA 
Limites de Condição Normal de Operação 
Enrolamento (kV) Valor 
operacional (A) Fator limitante 
440 1.642 - 
500 1.445 - 
 
Limites de Condição de Emergência de Longa Duração 
Enrolamento 
(kV) 
Valor 
operacional (A) 
Duração 
(Hh:mm) Fator limitante 
440 1.970 04:00 - 
500 1.734 04:00 - 
 
Limites de Condição de Emergência de Curta Duração 
Enrolamento 
(kV) 
Valor 
operacional (A) 
Duração 
(Hh:mm) Fator limitante 
440 2.298 00:30 - 
500 2.023 00:30 - 
 
5.6. SE ARARAQUARA 2 - TRANSFORMADOR 500/440 KV - TR4 - 1250 MVA 
Limites de Condição Normal de Operação 
Enrolamento (kV) Valor 
operacional (A) Fator limitante 
440 1.642 - 
500 1.445 - 
 
Manual de Procedimentos da Operação - Módulo 5 - Submódulo 5.11 
 Cadastro de Informações Operacionais Código Revisão Item Vigência 
CADASTRO DE LIMITES OPERACIONAIS DE LINHAS DE 
TRANSMISSÃO E TRANSFORMADORES DA ÁREA 500 KV 
DA REGIÃO SUDESTE 
CD-CT.SE.5SE.02 57 2.2.2 16/06/2024 
 
RT ONS 0306/2023 - rev.2 
 
33 / 46 
 
Alterado pela(s) MOP(s): 
MOP/ONS 462-S/2024;  
Limites de Condição de Emergência de Longa Duração 
Enrolamento 
(kV) 
Valor 
operacional (A) 
Duração 
(Hh:mm) Fator limitante 
440 1.970 04:00 - 
500 1.734 04:00 - 
 
Limites de Condição de Emergência de Curta Duração 
Enrolamento 
(kV) 
Valor 
operacional (A) 
Duração 
(Hh:mm) Fator limitante 
440 2.298 00:30 - 
500 2.023 00:30 - 
 
5.7. SE ASSIS - TRANSFORMADOR TR5 DE 525/440/13,8 KV - 1500 MVA 
Limites de Condição Normal de Operação 
Enrolamento (kV) Valor 
operacional (A) Fator limitante 
440 1.968 Capacidade Nominal 
525 1.652 Capacidade Nominal 
 
Limites de Condição de Emergência de Longa Duração 
Enrolamento 
(kV) 
Valor 
operacional (A) 
Duração 
(Hh:mm) Fator limitante 
440 2.559 4:00 - 
525 2.144 4:00 - 
 
Limites de Condição de Emergência de Curta Duração 
Enrolamento 
(kV) 
Valor 
operacional (A) 
Duração 
(Hh:mm) Fator limitante 
440 2.756 0:30 --- 
525 2.309 0:30 --- 
 
Manual de Procedimentos da Operação - Módulo 5 - Submódulo 5.11 
 Cadastro de Informações Operacionais Código Revisão Item Vigência 
CADASTRO DE LIMITES OPERACIONAIS DE LINHAS DE 
TRANSMISSÃO E TRANSFORMADORES DA ÁREA 500 KV 
DA REGIÃO SUDESTE 
CD-CT.SE.5SE.02 57 2.2.2 16/06/2024 
 
RT ONS 0306/2023 - rev.2 
 
34 / 46 
 
Alterado pela(s) MOP(s): 
MOP/ONS 462-S/2024;  
5.8. SE CAMPINAS - TRANSFORMADOR 525/345 KV - TR51 - 560 MVA 
Limites de Condição Normal de Operação 
Enrolamento (kV) Valor 
operacional (A) Fator limitante 
345 937 LIMITE DO CPST 
525 616 LIMITE DO CPST 
 
Limites de Condição de Emergência de Longa Duração 
Enrolamento 
(kV) 
Valor 
operacional (A) 
Duração 
(Hh:mm) Fator limitante 
345 1.200 04:00 - 
525 788 04:00 - 
 
 
5.9. SE CAMPINAS - TRANSFORMADOR 525/345 KV - TR54 - 560 MVA 
Limites de Condição Normal de Operação 
Enrolamento (kV) Valor 
operacional (A) Fator limitante 
345 937 LIMITE DO CPST 
525 616 LIMITE DO CPST 
 
Limites de Condição de Emergência de Longa Duração 
Enrolamento 
(kV) 
Valor 
operacional (A) 
Duração 
(Hh:mm) Fator limitante 
345 1.219 04:00 - 
525 801 04:00 - 
 
 
5.10. SE ESTREITO - TRANSFORMADOR 500/345 KV - 9AT01 - 900 MVA 
Limites de Condição Normal de Operação 
Enrolamento (kV) Valor 
operacional (A) Fator limitante 
345 1.506 Valor nominal 
Manual de Procedimentos da Operação - Módulo 5 - Submódulo 5.11 
 Cadastro de Informações Operacionais Código Revisão Item Vigência 
CADASTRO DE LIMITES OPERACIONAIS DE LINHAS DE 
TRANSMISSÃO E TRANSFORMADORES DA ÁREA 500 KV 
DA REGIÃO SUDESTE 
CD-CT.SE.5SE.02 57 2.2.2 16/06/2024 
 
RT ONS 0306/2023 - rev.2 
 
35 / 46 
 
Alterado pela(s) MOP(s): 
MOP/ONS 462-S/2024;  
Limites de Condição Normal de Operação 
Enrolamento (kV) Valor 
operacional (A) Fator limitante 
500 1.039 Valor nominal 
 
Limites de Condição de Emergência de Longa Duração 
Enrolamento 
(kV) 
Valor 
operacional (A) 
Duração 
(Hh:mm) Fator limitante 
345 1.807 04:00 Limite térmico – 120% 
500 1.247 04:00 Limite térmico – 120% 
 
Limites de Condição de Emergência de Curta Duração 
Enrolamento 
(kV) 
Valor 
operacional (A) 
Duração 
(Hh:mm) Fator limitante 
345 2.108 00:30 Limite térmico – 140% 
500 1.454 00:30 Limite térmico – 140% 
 
5.11. SE ESTREITO - TRANSFORMADOR 500/345 KV - 9AT02 - 900 MVA 
Limites de Condição Normal de Operação 
Enrolamento (kV) Valor 
operacional (A) Fator limitante 
345 1.506 Valor nominal 
500 1.039 Valor nominal 
 
Limites de Condição de Emergência de Longa Duração 
Enrolamento 
(kV) 
Valor 
operacional (A) 
Duração 
(Hh:mm) Fator limitante 
345 1.807 04:00 Limite térmico – 120% 
500 1.247 04:00 Limite térmico – 120% 
 
Manual de Procedimentos da Operação - Módulo 5 - Submódulo 5.11 
 Cadastro de Informações Operacionais Código Revisão Item Vigência 
CADASTRO DE LIMITES OPERACIONAIS DE LINHAS DE 
TRANSMISSÃO E TRANSFORMADORES DA ÁREA 500 KV 
DA REGIÃO SUDESTE 
CD-CT.SE.5SE.02 57 2.2.2 16/06/2024 
 
RT ONS 0306/2023 - rev.2 
 
36 / 46 
 
Alterado pela(s) MOP(s): 
MOP/ONS 462-S/2024;  
Limites de Condição de Emergência de Curta Duração 
Enrolamento 
(kV) 
Valor 
operacional (A) 
Duração 
(Hh:mm) Fator limitante 
345 2.108 00:30 Limite térmico – 140% 
500 1.454 00:30 Limite térmico – 140% 
 
5.12. SE FERNÃO DIAS - TRANSFORMADOR 500/440 KV - 1.200 MVA - BTF1 
Limites de Condição Normal de Operação 
Enrolamento (kV) Valor 
operacional (A) Fator limitante 
440 1.574 Capacidade Nominal 
500 1.385 Capacidade Nominal 
 
Limites de Condição de Emergência de Longa Duração 
Enrolamento 
(kV) 
Valor 
operacional (A) 
Duração 
(Hh:mm) Fator limitante 
440 1.889 04:00 Capacidade de Longa Duração – 120% 
500 1.662 04:00 Capacidade de Longa Duração – 120% 
 
Limites de Condição de Emergência de Curta Duração 
Enrolamento 
(kV) 
Valor 
operacional (A) 
Duração 
(Hh:mm) Fator limitante 
440 2.204 00:30 Capacidade de Longa Duração – 140% 
500 1.939 00:30 Capacidade de Longa Duração – 140% 
 
5.13. SE FERNÃO DIAS - TRANSFORMADOR 500/440 KV - 1.200 MVA - BTF2 
Limites de Condição Normal de Operação 
Enrolamento (kV) Valor 
operacional (A) Fator limitante 
440 1.574 Capacidade Nominal 
500 1.385 Capacidade Nominal 
 
Manual de Procedimentos da Operação - Módulo 5 - Submódulo 5.11 
 Cadastro de Informações Operacionais Código Revisão Item Vigência 
CADASTRO DE LIMITES OPERACIONAIS DE LINHAS DE 
TRANSMISSÃO E TRANSFORMADORES DA ÁREA 500 KV 
DA REGIÃO SUDESTE 
CD-CT.SE.5SE.02 57 2.2.2 16/06/2024 
 
RT ONS 0306/2023 - rev.2 
 
37 / 46 
 
Alterado pela(s) MOP(s): 
MOP/ONS 462-S/2024;  
Limites de Condição de Emergência de Longa Duração 
Enrolamento 
(kV) 
Valor 
operacional (A) 
Duração 
(Hh:mm) Fator limitante 
440 1.889 04:00 Capacidade de Longa Duração - 120% 
500 1.662 04:00 Capacidade de Longa Duração - 120% 
 
Limites de Condição de Emergência de Curta Duração 
Enrolamento 
(kV) 
Valor 
operacional (A) 
Duração 
(Hh:mm) Fator limitante 
440 2.204 00:30 Capacidade de Longa Duração - 140% 
500 1.939 00:30 Capacidade de Longa Duração - 140% 
 
5.14. SE FERNÃO DIAS - TRANSFORMADOR 500/440 KV - 1.200 MVA - BTF3 
Limites de Condição Normal de Operação 
Enrolamento (kV) Valor 
operacional (A) Fator limitante 
440 1.574 Capacidade Nominal 
500 1.385 Capacidade Nominal 
 
Limites de Condição de Emergência de Longa Duração 
Enrolamento 
(kV) 
Valor 
operacional (A) 
Duração 
(Hh:mm) Fator limitante 
440 1.889 04:00 Capacidade de Longa Duração – 120% 
500 1.662 04:00 Capacidade de Longa Duração – 120% 
 
Limites de Condição de Emergência de Curta Duração 
Enrolamento 
(kV) 
Valor 
operacional (A) 
Duração 
(Hh:mm) Fator limitante 
440 2.204 00:30 Capacidade de Longa Duração – 140% 
500 1.939 00:30 Capacidade de Longa Duração – 140% 
 
Manual de Procedimentos da Operação - Módulo 5 - Submódulo 5.11 
 Cadastro de Informações Operacionais Código Revisão Item Vigência 
CADASTRO DE LIMITES OPERACIONAIS DE LINHAS DE 
TRANSMISSÃO E TRANSFORMADORES DA ÁREA 500 KV 
DA REGIÃO SUDESTE 
CD-CT.SE.5SE.02 57 2.2.2 16/06/2024 
 
RT ONS 0306/2023 - rev.2 
 
38 / 46 
 
Alterado pela(s) MOP(s): 
MOP/ONS 462-S/2024;  
5.15. SE ITATIBA - TRANSFORMADOR 500/138 KV - 400 MVA - AT01 
Limites de Condição Normal de Operação 
Enrolamento (kV) Valor 
operacional (A) Fator limitante 
138 1.675 Carregamento Nominal 
500 462 Carregamento Nominal 
 
Limites de Condição de Emergência de Longa Duração 
Enrolamento 
(kV) 
Valor 
operacional (A) 
Duração 
(Hh:mm) Fator limitante 
138 2.010 04:00 - 
500 554 04:00 - 
 
Limites de Condição de Emergência de Curta Duração 
Enrolamento 
(kV) 
Valor 
operacional (A) 
Duração 
(Hh:mm) Fator limitante 
138 2.345 00:30 - 
500 646 00:30 - 
 
5.16. SE ITATIBA - TRANSFORMADOR 500/138 KV - 400 MVA - AT02  
Limites de Condição Normal de Operação 
Enrolamento (kV) Valor 
operacional (A) Fator limitante 
138 1.675 Carregamento nominal 
500 462 Carregamento nominal 
 
Limites de Condição de Emergência de Longa Duração 
Enrolamento 
(kV) 
Valor 
operacional (A) 
Duração 
(Hh:mm) Fator limitante 
138 2.010 04:00 - 
500 554 04:00 - 
 
Manual de Procedimentos da Operação - Módulo 5 - Submódulo 5.11 
 Cadastro de Informações Operacionais Código Revisão Item Vigência 
CADASTRO DE LIMITES OPERACIONAIS DE LINHAS DE 
TRANSMISSÃO E TRANSFORMADORES DA ÁREA 500 KV 
DA REGIÃO SUDESTE 
CD-CT.SE.5SE.02 57 2.2.2 16/06/2024 
 
RT ONS 0306/2023 - rev.2 
 
39 / 46 
 
Alterado pela(s) MOP(s): 
MOP/ONS 462-S/2024;  
Limites de Condição de Emergência de Curta Duração 
Enrolamento 
(kV) 
Valor 
operacional (A) 
Duração 
(Hh:mm) Fator limitante 
138 2.345 00:30 - 
500 646 00:30 - 
 
5.17. SE ITATIBA - TRANSFORMADOR 500/138 KV - 400 MVA - AT03 
Limites de Condição Normal de Operação 
Enrolamento (kV) Valor 
operacional (A) Fator limitante 
138 1.675 Carregamento nominal 
500 462 Carregamento nominal 
 
Limites de Condição de Emergência de Longa Duração 
Enrolamento 
(kV) 
Valor 
operacional (A) 
Duração 
(Hh:mm) Fator limitante 
138 2.010 04:00 - 
500 554 04:00 - 
 
Limites de Condição de Emergência de Curta Duração 
Enrolamento 
(kV) 
Valor 
operacional (A) 
Duração 
(Hh:mm) Fator limitante 
138 2.345 00:30 - 
500 646 00:30 - 
 
5.18. SE JAGUARA - TRANSFORMADOR 500/345 KV - TR11 - 400 MVA 
Limites de Condição Normal de Operação 
Enrolamento (kV) Valor 
operacional (A) Fator limitante 
345 670 Limite do CPST 
500 462 Limite do CPST 
 
Manual de Procedimentos da Operação - Módulo 5 - Submódulo 5.11 
 Cadastro de Informações Operacionais Código Revisão Item Vigência 
CADASTRO DE LIMITES OPERACIONAIS DE LINHAS DE 
TRANSMISSÃO E TRANSFORMADORES DA ÁREA 500 KV 
DA REGIÃO SUDESTE 
CD-CT.SE.5SE.02 57 2.2.2 16/06/2024 
 
RT ONS 0306/2023 - rev.2 
 
40 / 46 
 
Alterado pela(s) MOP(s): 
MOP/ONS 462-S/2024;  
Limites de Condição de Emergência de Longa Duração 
Enrolamento 
(kV) 
Valor 
operacional (A) 
Duração 
(Hh:mm) Fator limitante 
345 805 04:00 Procedimento de Rede – 120% 
500 555 04:00 Procedimento de Rede – 120% 
 
Limites de Condição de Emergência de Curta Duração 
Enrolamento 
(kV) 
Valor 
operacional (A) 
Duração 
(Hh:mm) Fator limitante 
345 938 00:30 Procedimento de Rede – 140% 
500 647 00:30 Procedimento de Rede – 140% 
 
5.19. SE JAGUARA - TRANSFORMADOR 500/345 KV - TR12 - 400 MVA 
Limites de Condição Normal de Operação 
Enrolamento (kV) Valor 
operacional (A) Fator limitante 
345 670 LIMITE DO CPST 
500 462 LIMITE DO CPST 
 
Limites de Condição de Emergência de Longa Duração 
Enrolamento 
(kV) 
Valor 
operacional (A) 
Duração 
(Hh:mm) Fator limitante 
345 805 04:00 Procedimento de Rede - 120% 
500 555 04:00 Procedimento de Rede - 120% 
 
Limites de Condição de Emergência de Curta Duração 
Enrolamento 
(kV) 
Valor 
operacional (A) 
Duração 
(Hh:mm) Fator limitante 
345 938 00:30 Procedimento de Rede - 140% 
500 647 00:30 Procedimento de Rede - 140% 
 
Manual de Procedimentos da Operação - Módulo 5 - Submódulo 5.11 
 Cadastro de Informações Operacionais Código Revisão Item Vigência 
CADASTRO DE LIMITES OPERACIONAIS DE LINHAS DE 
TRANSMISSÃO E TRANSFORMADORES DA ÁREA 500 KV 
DA REGIÃO SUDESTE 
CD-CT.SE.5SE.02 57 2.2.2 16/06/2024 
 
RT ONS 0306/2023 - rev.2 
 
41 / 46 
 
Alterado pela(s) MOP(s): 
MOP/ONS 462-S/2024;  
5.20. SE JAGUARA - TRANSFORMADOR 500/345 KV - TR13 - 400 MVA 
Limites de Condição Normal de Operação 
Enrolamento (kV) Valor 
operacional (A) Fator limitante 
345 670 Limite do CPST 
500 462 Limite do CPST 
 
Limites de Condição de Emergência de Longa Duração 
Enrolamento 
(kV) 
Valor 
operacional (A) 
Duração 
(Hh:mm) Fator limitante 
345 805 04:00 Procedimento de Rede – 120% 
500 555 04:00 Procedimento de Rede – 120% 
 
Limites de Condição de Emergência de Curta Duração 
Enrolamento 
(kV) 
Valor 
operacional (A) 
Duração 
(Hh:mm) Fator limitante 
345 938 00:30 Procedimento de Rede – 140% 
500 647 00:30 Procedimento de Rede – 140% 
 
5.21. SE LORENA - TRANSFORMADOR 500/230 KV - TR3 
Limites de Condição Normal de Operação 
Enrolamento (kV) Valor 
operacional (A) Fator limitante 
230 3.012 Capacidade nominal 
500 1.385 Capacidade nominal 
 
Limites de Condição de Emergência de Longa Duração 
Enrolamento 
(kV) 
Valor 
operacional (A) 
Duração 
(Hh:mm) Fator limitante 
230 3.614 04:00 Capacidade de Longa Duração - 120% 
500 1.662 04:00 Capacidade de Longa Duração - 120% 
 
Manual de Procedimentos da Operação - Módulo 5 - Submódulo 5.11 
 Cadastro de Informações Operacionais Código Revisão Item Vigência 
CADASTRO DE LIMITES OPERACIONAIS DE LINHAS DE 
TRANSMISSÃO E TRANSFORMADORES DA ÁREA 500 KV 
DA REGIÃO SUDESTE 
CD-CT.SE.5SE.02 57 2.2.2 16/06/2024 
 
RT ONS 0306/2023 - rev.2 
 
42 / 46 
 
Alterado pela(s) MOP(s): 
MOP/ONS 462-S/2024;  
Limites de Condição de Emergência de Curta Duração 
Enrolamento 
(kV) 
Valor 
operacional (A) 
Duração 
(Hh:mm) Fator limitante 
230 4.216 00:30 Capacidade de Curta Duração - 140% 
500 1.939 00:30 Capacidade de Curta Duração - 140% 
 
5.22. SE MORRO AGUDO - TRANSFORMADOR 500/138 KV - TR1 - 400 MVA 
Limites de Condição Normal de Operação 
Enrolamento (kV) Valor 
operacional (A) Fator limitante 
138 1.673 Capacidade Nominal – 100% 
500 462 Capacidade Nominal – 100% 
 
Limites de Condição de Emergência de Longa Duração 
Enrolamento 
(kV) 
Valor 
operacional (A) 
Duração 
(Hh:mm) Fator limitante 
138 2.008 04:00 Capacidade de Longa Duração – 120% 
500 554 04:00 Capacidade de Longa Duração – 120% 
 
Limites de Condição de Emergência de Curta Duração 
Enrolamento 
(kV) 
Valor 
operacional (A) 
Duração 
(Hh:mm) Fator limitante 
138 2.342 00:30 Capacidade de Curta Duração – 140% 
500 647 00:30 Capacidade de Curta Duração – 140% 
 
5.23. SE MORRO AGUDO - TRANSFORMADOR 500/138 KV - TR2 - 400 MVA 
Limites de Condição Normal de Operação 
Enrolamento (kV) Valor 
operacional (A) Fator limitante 
138 1.673 Capacidade Nominal – 100% 
500 462 Capacidade Nominal – 100% 
 
Manual de Procedimentos da Operação - Módulo 5 - Submódulo 5.11 
 Cadastro de Informações Operacionais Código Revisão Item Vigência 
CADASTRO DE LIMITES OPERACIONAIS DE LINHAS DE 
TRANSMISSÃO E TRANSFORMADORES DA ÁREA 500 KV 
DA REGIÃO SUDESTE 
CD-CT.SE.5SE.02 57 2.2.2 16/06/2024 
 
RT ONS 0306/2023 - rev.2 
 
43 / 46 
 
Alterado pela(s) MOP(s): 
MOP/ONS 462-S/2024;  
Limites de Condição de Emergência de Longa Duração 
Enrolamento 
(kV) 
Valor 
operacional (A) 
Duração 
(Hh:mm) Fator limitante 
138 2.008 04:00 Capacidade de Longa Duração – 120% 
500 554 04:00 Capacidade de Longa Duração – 120% 
 
Limites de Condição de Emergência de Curta Duração 
Enrolamento 
(kV) 
Valor 
operacional (A) 
Duração 
(Hh:mm) Fator limitante 
138 2.342 00:30 Capacidade de Longa Duração – 140% 
500 647 00:30 Capacidade de Longa Duração – 140% 
 
5.24. SE NOVA PONTE - TRANSFORMADOR TR-1 500/345/13,8 KV - 300 MVA 
Limites de Condição Normal de Operação 
Enrolamento (kV) Valor 
operacional (A) Fator limitante 
345 503 - 
500 347 - 
 
Limites de Condição de Emergência de Longa Duração 
Enrolamento 
(kV) 
Valor 
operacional (A) 
Duração 
(Hh:mm) Fator limitante 
345 603 04:00 - 
500 416 04:00 - 
 
Limites de Condição de Emergência de Curta Duração 
Enrolamento 
(kV) 
Valor 
operacional (A) 
Duração 
(Hh:mm) Fator limitante 
345 703 00:30 - 
500 485 00:30 - 
 
Manual de Procedimentos da Operação - Módulo 5 - Submódulo 5.11 
 Cadastro de Informações Operacionais Código Revisão Item Vigência 
CADASTRO DE LIMITES OPERACIONAIS DE LINHAS DE 
TRANSMISSÃO E TRANSFORMADORES DA ÁREA 500 KV 
DA REGIÃO SUDESTE 
CD-CT.SE.5SE.02 57 2.2.2 16/06/2024 
 
RT ONS 0306/2023 - rev.2 
 
44 / 46 
 
Alterado pela(s) MOP(s): 
MOP/ONS 462-S/2024;  
5.25. SE NOVA PONTE - TRANSFORMADOR TR-2 500/345/13,8 KV - 300 MVA 
Limites de Condição Normal de Operação 
Enrolamento (kV) Valor 
operacional (A) Fator limitante 
345 503 - 
500 347 - 
 
Limites de Condição de Emergência de Longa Duração 
Enrolamento 
(kV) 
Valor 
operacional (A) 
Duração 
(Hh:mm) Fator limitante 
345 603 04:00 - 
500 416 04:00 - 
 
Limites de Condição de Emergência de Curta Duração 
Enrolamento 
(kV) 
Valor 
operacional (A) 
Duração 
(Hh:mm) Fator limitante 
345 703 00:30 - 
500 485 00:30 - 
 
5.26. SE POÇOS DE CALDAS - TRANSFORMADOR 525/345 KV - TR51 - 560 MVA 
Limites de Condição Normal de Operação 
Enrolamento (kV) Valor 
operacional (A) Fator limitante 
345 937 LIMITE DO CPST 
525 616 LIMITE DO CPST 
 
Limites de Condição de Emergência de Longa Duração 
Enrolamento 
(kV) 
Valor 
operacional (A) 
Duração 
(Hh:mm) Fator limitante 
345 1.199 04:00 TC de vão 
525 788 04:00 TC do vão 
 
Manual de Procedimentos da Operação - Módulo 5 - Submódulo 5.11 
 Cadastro de Informações Operacionais Código Revisão Item Vigência 
CADASTRO DE LIMITES OPERACIONAIS DE LINHAS DE 
TRANSMISSÃO E TRANSFORMADORES DA ÁREA 500 KV 
DA REGIÃO SUDESTE 
CD-CT.SE.5SE.02 57 2.2.2 16/06/2024 
 
RT ONS 0306/2023 - rev.2 
 
45 / 46 
 
Alterado pela(s) MOP(s): 
MOP/ONS 462-S/2024;  
Limites de Condição de Emergência de Curta Duração 
Enrolamento 
(kV) 
Valor 
operacional (A) 
Duração 
(Hh:mm) Fator limitante 
345 NP 00:30 - 
525 NP 00:30 - 
 
5.27. SE RIBEIRÃO PRETO - TRANSFORMADOR 500/440 KV - 9AT01 - 1200 MVA 
Limites de Condição Normal de Operação 
Enrolamento (kV) Valor 
operacional (A) Fator limitante 
440 1.575 LIMITE DO CPST 
500 1.386 LIMITE DO CPST 
 
Limites de Condição de Emergência de Curta Duração 
Enrolamento 
(kV) 
Valor 
operacional (A) 
Duração 
(Hh:mm) Fator limitante 
440 NP 00:30 LIMITE DO CPST 
500 NP 00:30 LIMITE DO CPST 
 
5.28. SE RIBEIRÃO PRETO - TRANSFORMADOR 500/440 KV - 9AT02 - 1200 MVA 
Limites de Condição Normal de Operação 
Enrolamento (kV) Valor 
operacional (A) Fator limitante 
440 1.575 LIMITE DO CPST 
500 1.386 LIMITE DO CPST 
 
Limites de Condição de Emergência de Curta Duração 
Enrolamento 
(kV) 
Valor 
operacional (A) 
Duração 
(Hh:mm) Fator limitante 
440 NP 00:30 LIMITE DO CPST 
500 NP 00:30 LIMITE DO CPST 
 
Manual de Procedimentos da Operação - Módulo 5 - Submódulo 5.11 
 Cadastro de Informações Operacionais Código Revisão Item Vigência 
CADASTRO DE LIMITES OPERACIONAIS DE LINHAS DE 
TRANSMISSÃO E TRANSFORMADORES DA ÁREA 500 KV 
DA REGIÃO SUDESTE 
CD-CT.SE.5SE.02 57 2.2.2 16/06/2024 
 
RT ONS 0306/2023 - rev.2 
 
46 / 46 
 
Alterado pela(s) MOP(s): 
MOP/ONS 462-S/2024;  
5.29. SE TAUBATÉ - TRANSFORMADOR 500/440 KV - TR10 
Limites de Condição Normal de Operação 
Enrolamento (kV) Valor 
operacional (A) Fator limitante 
440 1.575 Capacidade Nominal 
500 1.385 Capacidade Nominal 
 
Limites de Condição de Emergência de Longa Duração 
Enrolamento 
(kV) 
Valor 
operacional (A) 
Duração 
(Hh:mm) Fator limitante 
440 1.889 04:00 Limite térmico – 120% 
500 1.663 04:00 Limite térmico – 120% 
 
Limites de Condição de Emergência de Curta Duração 
Enrolamento 
(kV) 
Valor 
operacional (A) 
Duração 
(Hh:mm) Fator limitante 
440 2.204 00:30 Limite térmico – 140% 
500 1.940 00:30 Limite térmico – 140% 
 
5.30. SE TAUBATÉ - TRANSFORMADOR 500/440 KV - TR9 
Limites de Condição Normal de Operação 
Enrolamento (kV) Valor 
operacional (A) Fator limitante 
440 1.181 LIMITE DO CPST 
500 1.039 LIMITE DO CPST 
 
Limites de Condição de Emergência de Longa Duração 
Enrolamento 
(kV) 
Valor 
operacional (A) 
Duração 
(Hh:mm) Fator limitante 
440 1.299 04:00 LIMITE DO CPST 
500 1.143 04:00 LIMITE DO CPST 
 
 
