 
Alterado pela(s) MOP(s): 
MOP/ONS 463-S/2024;  
Manual de Procedimentos da Operação 
Módulo 5 - Submódulo 5.11 
 
Cadastro de Informações Operacionais 
Cadastro de Dados Operacionais de Equipamentos da Interligação Sul / Sudeste 
 
 
Código Revisão Item Vigência 
CD-CT.SSE.01 42 2.1.1. 26/06/2024 
 
. 
 
MOTIVO DA REVISÃO: 
• Complementação do item 5.1, dados da UHE Itaipu. 
LISTA DE DISTRIBUIÇÃO 
CNOS COSR-SE COSR-S FURNAS ITAIPU 
COPEL GeT CGT ELETROSUL TAESA CTEEP  
 
Manual de Procedimentos da Operação - Módulo 5 - Submódulo 5.11 
 Cadastro de Informações Operacionais Código Revisão Item Vigência 
Cadastro de Dados Operacionais de Equipamentos da 
Interligação Sul / Sudeste CD-CT.SSE.01 42 2.1.1. 26/06/2024 
 
Referência: Instrução de Operação da Interligação Nº 61 - Operação Normal do Sistema Interligado a Itaipu 60Hz e RT-ONS DPL 0105/2024 
DIRETRIZES PARA OPERAÇÃO ELÉTRICA VOLUME 02 - INTERLIGAÇÃO SUL/SUDESTE JUNHO 2024 – Revisão 03 
2 / 24 
 
Alterado pela(s) MOP(s): 
MOP/ONS 463-S/2024;  
ÍNDICE 
 
1. OBJETIVO ................................ ................................ ................................ ................................ ..... 4 
2. CONSIDERAÇÕES GERAIS ................................ ................................ ................................ .............. 4 
3. DADOS OPERACIONAIS DE LINHAS DE TRANSMISSÃO ................................ ................................ .... 4 
3.1. LT 765 kV Foz do Iguaçu 60 Hz / Ivaiporã (FURNAS) C1 ................................................................ 5 
3.2. LT 765 kV Foz do Iguaçu 60 Hz / Ivaiporã (FURNAS) C2 ................................................................ 5 
3.3. LT 765 kV Foz do Iguaçu 60 Hz / Ivaiporã (FURNAS) C3 ................................................................ 6 
3.4. LT 765 kV Itaberá / Ivaiporã (FURNAS) C1 ..................................................................................... 6 
3.5. LT 765 kV Itaberá / Ivaiporã (FURNAS) C2 ..................................................................................... 7 
3.6. LT 765 kV Itaberá / Ivaiporã (FURNAS) C3 ..................................................................................... 7 
3.7. LT 765 kV Itaberá / Tijuco Preto C1 ............................................................................................... 8 
3.8. LT 765 kV Itaberá / Tijuco Preto C2 ............................................................................................... 8 
3.9. LT 765 kV Itaberá / Tijuco Preto C3 ............................................................................................... 8 
3.10. LT 525 kV Cascavel Oeste / Foz do Iguaçu 60 Hz ........................................................................... 9 
3.11. LT 525 kV Foz do Iguaçu 60 Hz / Guaíra C1 ................................................................................... 9 
3.12. LT 525 kV Foz do Iguaçu 60 Hz / Guaíra C2 ................................................................................. 10 
3.13. LT 525 kV Londrina (CGT ELETROSUL) / Assis C1 ......................................................................... 10 
3.14. LT 525 kV Londrina (CGT ELETROSUL) / Assis C2 ......................................................................... 11 
3.15. LT 500 kV Ibiuna / Bateias C1 ou C2 ............................................................................................ 11 
3.16. LT 500 kV Itaipu 60 Hz / Foz do Iguaçu 60 HzC1 ou C2 ou C3 ou C4 ........................................... 12 
3.17. LT 500 kV Itatiba / Bateias ........................................................................................................... 12 
4. DADOS OPERACIONAIS DE TRANSFORMADORES ................................ ................................ ......... 12 
4.1. SE Foz do Iguaçu 60 Hz – Transformador AT1 ou AT2 ou AT3 ou AT4 ou AT5 de 765/525/69 kV – 1.650 
MVA ............................................................................................................................................. 13 
4.2. SE Ibiúna -  Transformador AT-01 ou AT-02 ou AT-03 de 500/345/13,8 kV  -   750 MVA ........... 13 
4.3. SE Ivaiporã (FURNAS) – transformador AT-01 ou AT-02 de 765/525/69 kV - 1.650 MVA .......... 13 
4.4. SE Ivaiporã (FURNAS) – Transformador AT-03 de 765/525/69 kV - 1.650 MVA ......................... 14 
4.5. SE Tijuco Preto – Transformador AT-01 de 765/500/69 kV - 1.650 MVA ................................... 14 
4.6. SE Tijuco Preto – Transformador AT-02 ou AT-03 de 765/500/69 kV  -  1.650 MVA .................. 15 
4.7. SE Tijuco Preto – Transformador AT-05 de 765/345/20 kV  - 1.500 MVA .................................. 15 
4.8. SE Tijuco Preto – Transformador AT-04 ou AT-06 ou AT-07 de 765/345/20 kV  - 1.500 MVA ... 16 
5. DADOS OPERACIONAIS DE UNIDADES GERADORAS HIDRÁULICAS ................................ ................ 17 
5.1. UHE Itaipu 60 Hz (CEG: UHE.PH.PR.001161-4.01) ....................................................................... 19 
5.1.1. Dados das unidades geradoras .................................................................................. 19 
5.1.2. Curvas de capabilidade das unidades geradoras....................................................... 19 
Manual de Procedimentos da Operação - Módulo 5 - Submódulo 5.11 
 Cadastro de Informações Operacionais Código Revisão Item Vigência 
Cadastro de Dados Operacionais de Equipamentos da 
Interligação Sul / Sudeste CD-CT.SSE.01 42 2.1.1. 26/06/2024 
 
Referência: Instrução de Operação da Interligação Nº 61 - Operação Normal do Sistema Interligado a Itaipu 60Hz e RT-ONS DPL 0105/2024 
DIRETRIZES PARA OPERAÇÃO ELÉTRICA VOLUME 02 - INTERLIGAÇÃO SUL/SUDESTE JUNHO 2024 – Revisão 03 
3 / 24 
 
Alterado pela(s) MOP(s): 
MOP/ONS 463-S/2024;  
6. DADOS OPERACIONAIS DE COMPENSADORES ................................ ................................ ............. 21 
6.1. Dados de Compensadores Síncronos .......................................................................................... 21 
7. DADOS OPERACIONAIS DE BANCOS DE CAPACITORES SHUNT ................................ ......................  21 
8. DADOS DE BANCOS DE CAPACITORES SÉRIE ................................ ................................ ................ 22 
8.1. SE Itaberá - Bancos de capacitores série 750 kV 1242 Mvar da LT 750 kV Itaberá/Tijuco Preto – C122 
8.1.1. Curva caracteristica tensão x corrente de capacitores séries ................................... 22 
8.1.2. Curva resfriamento do mov (temperatura x tempo) de capacitores séries .............. 23 
8.2. SE Ivaiporã – Bancos de capacitores série 750 kV 1056 Mvar da LT 750 kV Ivaiporã / Itaberá – C123 
8.2.1. Curva caracteristica tensão x corrente de capacitores séries ................................... 23 
8.2.2. Curva resfriamento do mov (temperatura x tempo) de capacitores séries .............. 24 
 
Manual de Procedimentos da Operação - Módulo 5 - Submódulo 5.11 
 Cadastro de Informações Operacionais Código Revisão Item Vigência 
Cadastro de Dados Operacionais de Equipamentos da 
Interligação Sul / Sudeste CD-CT.SSE.01 42 2.1.1. 26/06/2024 
 
Referência: Instrução de Operação da Interligação Nº 61 - Operação Normal do Sistema Interligado a Itaipu 60Hz e RT-ONS DPL 
0105/2024 DIRETRIZES PARA OPERAÇÃO ELÉTRICA VOLUME 02 - INTERLIGAÇÃO SUL/SUDESTE JUNHO 2024 – Revisão 03 
4 / 24 
 
Alterado pela(s) MOP(s): 
MOP/ONS 463-S/2024;  
1. OBJETIVO 
Apresentar os Dados Operacionais de Equipamentos da Interligação Sul / Sudeste, a serem observados pelos 
operadores dos Centros de Operação do ONS e pela Operação dos Agentes envolvidos , de acordo com os 
Procedimentos de Rede.  
2. CONSIDERAÇÕES GERAIS 
2.1. Os dados de linhas de transmissão e equipamentos da Rede de Operação constantes neste Cadastro 
de Informações Operacionais devem ser observados pelos Centros de Operação do ONS para as ações 
de coordenação, supervisão e controle  da operação, assim como pelos Agentes para as ações de 
comando e execução. 
2.2. As limitações técnicas para tentativas de religamento de equipamentos con tidas  neste documento 
tem caráter operacional. Poderão ser usadas pa ra apuração  da qualidade do serviço público de 
transmissão de energia elétrica (apuração de parcela variável) o valor do “Tempo para energização 
após desligamento” de cada equipamento, desde que sejam atendidos os critérios estabelecidos na 
regulação vigente. 
3. DADOS OPERACIONAIS DE LINHAS DE TRANSMISSÃO 
Orientações sobre os dados operacionais de linhas de transmissão:  
Campo “Religamento Automático”:  
• Campo “Tipo”: indica o tipo de religamento utilizado em operação normal: monopolar, tripolar ou 
monopolar / tripolar; caso não exista religamento instalado, o campo é preenchido com “NE” – não 
existe. 
• Campo “Situação”: indica se o religamento está ligado ou desligado em operação normal; caso não 
exista religamento instalado, o campo é preenchido com “NE” – não existe. 
• Campo “Sentido”: para religamentos tripolares, indica em primeiro lugar a instalação onde se dá o 
fechamento inicial (terminal líder), e após a seta, a instalação de fechamento final (terminal 
seguidor); para religamentos monopolares ou caso não exista religamento instalado, o campo é 
preenchido com hifens (---). 
• Campo “Ajustes”: indica os ajustes de tempo morto, diferença de tensão, defasagem angular e 
diferença de frequência instalados para a função de verificação de sincronismo para o religamento 
automático; caso não exista religamento automático instalado, o campo é preenchido com hifens 
(---). 
Campo “LT em Mesma Estrutura”: apresenta o nome da LT que compartilha estrutura, e quando disponível, 
a informação da extensão do trecho de compartilhamento e da quantidade de torres compartilhadas; caso 
não exista, o campo é preenchido com “NE” – não existe.  
Não deve ser considerado o compartilhamento de estrutura caso esse seja apenas na chegada as subestações 
envolvidas. 
Campo “LT em Mesma Faixa de Passagem ”: apresenta o nome da LT que compartilha a mesma faixa de 
passagem, e quando disponível, a informação da extensão do trecho de compartilhamento; caso não exista, 
o campo é preenchido com “NE” – não existe. 
Não deve ser considerado o compartilhamento de faixa de passagem caso esse seja apenas na chegada as 
subestações envolvidas.  
Campo “Religamentos Manuais”:  
Manual de Procedimentos da Operação - Módulo 5 - Submódulo 5.11 
 Cadastro de Informações Operacionais Código Revisão Item Vigência 
Cadastro de Dados Operacionais de Equipamentos da 
Interligação Sul / Sudeste CD-CT.SSE.01 42 2.1.1. 26/06/2024 
 
Referência: Instrução de Operação da Interligação Nº 61 - Operação Normal do Sistema Interligado a Itaipu 60Hz e RT-ONS DPL 
0105/2024 DIRETRIZES PARA OPERAÇÃO ELÉTRICA VOLUME 02 - INTERLIGAÇÃO SUL/SUDESTE JUNHO 2024 – Revisão 03 
5 / 24 
 
Alterado pela(s) MOP(s): 
MOP/ONS 463-S/2024;  
• Campo “Quantidade de Tentativas”: indica quantos religamentos (ou tentativas de religamento) 
manuais são permitidos pelo Agente. 
• Campo “Intervalo entre os Religamentos (min)”: é o intervalo de tempo entre os religamentos, em 
minutos, a ser considerado entre a tentativa de fechamento não-bem-sucedida anterior (incluindo 
o religamento automático) e o novo fechamento do disjuntor. 
• Campo “ Dispositivo de Sincronismo ”: indica os terminais onde esses estão instalados e em 
funcionamento. Dispositivo de Sincronismo é o equipamento utilizado para verificação das condições de 
fechamento em anel ou paralelo entre dois pontos elétricos; caso não exista, o campo é preenchido com 
“NE” – não existe.  Se em  algum disjuntor do terminal não houver o dispositivo de sincronismo essa 
informação deve ser destacada. 
• Campo “ Ajustes”: indica os ajustes de diferença de tensão, defasagem angular e diferença de 
frequência instalados para a função de verificação de sincronismo para o religamento manual de 
cada terminal; caso não exista dispositivo de sincronismo, o campo é preenchido com hifens (---). 
Campo “ Notas / Restrições ”: campo opcional que  indica informações relevantes a respeito da linha de 
transmissão. 
Caso os dados operacionais não sejam informados pelo Agente, os campos são preenchidos com “NI” – não 
informado. 
3.1. LT 765 KV FOZ DO IGUAÇU 60 HZ / IVAIPORÃ (FURNAS) C1  
Religamento Automático 
LT em Mesma Estrutura 
Tipo Situação Sentido Ajustes 
Tripolar Ligado 
Ivaiporã ➔ 
Foz do 
Iguaçu 
NI NE 
Notas / Restrições:  
Religamento pelos DJ IV 12616 e DJ FI 12614 
O religamento automático da LT deve estar desligado na indisponibilidade de reator de linha. 
 
Religamento Manual 
Sentido Quantidade de 
Tentativas 
Intervalo entre os 
religamentos (minutos) 
Dispositivo de 
sincronismo Ajustes 
ambos 1 3 Possui no DJ FI  
12614 NI 
3.2. LT 765 KV FOZ DO IGUAÇU 60 HZ / IVAIPORÃ (FURNAS) C2  
Religamento Automático 
LT em Mesma Estrutura 
Tipo Situação Sentido Ajustes 
Tripolar Ligado 
Ivaiporã ➔ 
Foz do 
Iguaçu 
NI NE 
Manual de Procedimentos da Operação - Módulo 5 - Submódulo 5.11 
 Cadastro de Informações Operacionais Código Revisão Item Vigência 
Cadastro de Dados Operacionais de Equipamentos da 
Interligação Sul / Sudeste CD-CT.SSE.01 42 2.1.1. 26/06/2024 
 
Referência: Instrução de Operação da Interligação Nº 61 - Operação Normal do Sistema Interligado a Itaipu 60Hz e RT-ONS DPL 
0105/2024 DIRETRIZES PARA OPERAÇÃO ELÉTRICA VOLUME 02 - INTERLIGAÇÃO SUL/SUDESTE JUNHO 2024 – Revisão 03 
6 / 24 
 
Alterado pela(s) MOP(s): 
MOP/ONS 463-S/2024;  
Religamento Automático 
LT em Mesma Estrutura 
Tipo Situação Sentido Ajustes 
Notas / Restrições:  
Religamento pelos no DJ IV 12626 e DJ FI  12624 
O religamento automático da LT deve estar desligado na indisponibilidade de reator de linha. 
 
Religamento Manual 
Sentido Quantidade de 
Tentativas 
Intervalo entre os 
religamentos (minutos) 
Dispositivo de 
sincronismo Ajustes 
ambos 1 3 Possui no DJ FI  
12624 NI 
3.3. LT 765 KV FOZ DO IGUAÇU 60 HZ / IVAIPORÃ (FURNAS) C3  
Religamento Automático 
LT em Mesma Estrutura 
Tipo Situação Sentido Ajustes 
Tripolar Ligado 
Ivaiporã ➔ 
Foz do 
Iguaçu 
NI NE 
Notas / Restrições:  
Religamento pelos DJ IV 12636 e DJ FI 12644 
O religamento automático da LT deve estar desligado na indisponibilidade de reator de linha. 
 
Religamento Manual 
Sentido Quantidade de 
Tentativas 
Intervalo entre os 
religamentos (minutos) 
Dispositivo de 
sincronismo Ajustes 
ambos 1 3 Possui no DJ FI  
12644 NI 
3.4. LT 765 KV ITABERÁ / IVAIPORÃ (FURNAS) C1 
Religamento Automático 
LT em Mesma Estrutura 
Tipo Situação Sentido Ajustes 
Tripolar Ligado Itaberá ➔ 
Ivaiporã NI NE 
Notas / Restrições:  
Religamento pelo DJ IA 12918 e DJ IV 12916 
O religamento automático da LT deve estar desligado na indisponibilidade de reator de linha. 
 
Manual de Procedimentos da Operação - Módulo 5 - Submódulo 5.11 
 Cadastro de Informações Operacionais Código Revisão Item Vigência 
Cadastro de Dados Operacionais de Equipamentos da 
Interligação Sul / Sudeste CD-CT.SSE.01 42 2.1.1. 26/06/2024 
 
Referência: Instrução de Operação da Interligação Nº 61 - Operação Normal do Sistema Interligado a Itaipu 60Hz e RT-ONS DPL 
0105/2024 DIRETRIZES PARA OPERAÇÃO ELÉTRICA VOLUME 02 - INTERLIGAÇÃO SUL/SUDESTE JUNHO 2024 – Revisão 03 
7 / 24 
 
Alterado pela(s) MOP(s): 
MOP/ONS 463-S/2024;  
Religamento Manual 
Sentido Quantidade de 
Tentativas 
Intervalo entre os 
religamentos (minutos) 
Dispositivo de 
sincronismo Ajustes 
ambos 1 3 Possui no DJ IV 
12916 NI 
3.5. LT 765 KV ITABERÁ / IVAIPORÃ (FURNAS) C2 
Religamento Automático 
LT em Mesma Estrutura 
Tipo Situação Sentido Ajustes 
Tripolar Ligado Itaberá ➔ 
Ivaiporã NI NE 
Notas / Restrições:  
Religamento pelo DJ IA 12928 e DJ IV 12926 
O religamento automático da LT deve estar desligado na indisponibilidade de reator de linha. 
 
Religamento Manual 
Sentido Quantidade de 
Tentativas 
Intervalo entre os 
religamentos (minutos) 
Dispositivo de 
sincronismo Ajustes 
ambos 1 3 Possui no DJ IV 
12926 NI 
3.6. LT 765 KV ITABERÁ / IVAIPORÃ (FURNAS) C3 
Religamento Automático 
LT em Mesma Estrutura 
Tipo Situação Sentido Ajustes 
Tripolar Ligado Itaberá ➔ 
Ivaiporã NI NE 
Notas / Restrições:  
Religamento pelo DJ IA 12938 e DJ IV 12936 
O religamento automático da LT deve estar desligado na indisponibilidade de reator de linha. 
 
Religamento Manual 
Sentido Quantidade de 
Tentativas 
Intervalo entre os 
religamentos (minutos) 
Dispositivo de 
sincronismo Ajustes 
ambos 1 3 Possui no DJ IV 
12936 NI 
Manual de Procedimentos da Operação - Módulo 5 - Submódulo 5.11 
 Cadastro de Informações Operacionais Código Revisão Item Vigência 
Cadastro de Dados Operacionais de Equipamentos da 
Interligação Sul / Sudeste CD-CT.SSE.01 42 2.1.1. 26/06/2024 
 
Referência: Instrução de Operação da Interligação Nº 61 - Operação Normal do Sistema Interligado a Itaipu 60Hz e RT-ONS DPL 
0105/2024 DIRETRIZES PARA OPERAÇÃO ELÉTRICA VOLUME 02 - INTERLIGAÇÃO SUL/SUDESTE JUNHO 2024 – Revisão 03 
8 / 24 
 
Alterado pela(s) MOP(s): 
MOP/ONS 463-S/2024;  
3.7. LT 765 KV ITABERÁ / TIJUCO PRETO C1 
Religamento Automático 
LT em Mesma Estrutura 
Tipo Situação Sentido Ajustes 
Tripolar Ligado Itaberá ➔ 
Tijuco Preto  NI NE 
Notas / Restrições:  
Religamento pelo DJ IA 12718 e DJ TP 12834 
O religamento automático da LT deve estar desligado na indisponibilidade de reator de linha. 
 
Religamento Manual 
Sentido Quantidade de 
Tentativas 
Intervalo entre os 
religamentos (minutos) 
Dispositivo de 
sincronismo Ajustes 
ambos 1 3 Possui no DJ TP 
12834 NI 
3.8. LT 765 KV ITABERÁ / TIJUCO PRETO C2 
Religamento Automático 
LT em Mesma Estrutura 
Tipo Situação Sentido Ajustes 
Tripolar Ligado Itaberá ➔ 
Tijuco Preto NI NE 
Notas / Restrições:  
Religamento pelo DJ IA 12728 e DJ TP 12724 
O religamento automático da LT deve estar desligado na indisponibilidade de reator de linha. 
 
Religamento Manual 
Sentido Quantidade de 
Tentativas 
Intervalo entre os 
religamentos (minutos) 
Dispositivo de 
sincronismo Ajustes 
ambos 1 3 Possui no DJ TP 
12724 NI 
3.9. LT 765 KV ITABERÁ / TIJUCO PRETO C3 
Religamento Automático 
LT em Mesma Estrutura 
Tipo Situação Sentido Ajustes 
Tripolar Ligado Itaberá ➔ 
Tijuco Preto NI NE 
Notas / Restrições:  
Religamento pelo DJ IA 12738 e DJ TP 12854 
Manual de Procedimentos da Operação - Módulo 5 - Submódulo 5.11 
 Cadastro de Informações Operacionais Código Revisão Item Vigência 
Cadastro de Dados Operacionais de Equipamentos da 
Interligação Sul / Sudeste CD-CT.SSE.01 42 2.1.1. 26/06/2024 
 
Referência: Instrução de Operação da Interligação Nº 61 - Operação Normal do Sistema Interligado a Itaipu 60Hz e RT-ONS DPL 
0105/2024 DIRETRIZES PARA OPERAÇÃO ELÉTRICA VOLUME 02 - INTERLIGAÇÃO SUL/SUDESTE JUNHO 2024 – Revisão 03 
9 / 24 
 
Alterado pela(s) MOP(s): 
MOP/ONS 463-S/2024;  
Religamento Automático 
LT em Mesma Estrutura 
Tipo Situação Sentido Ajustes 
O religamento automático da LT deve estar desligado na indisponibilidade de reator de linha. 
 
Religamento Manual 
Sentido Quantidade de 
Tentativas 
Intervalo entre os 
religamentos (minutos) 
Dispositivo de 
sincronismo Ajustes 
ambos 1 3 Possui no DJ TP 
12854 NI 
3.10. LT 525 KV CASCAVEL OESTE / FOZ DO IGUAÇU 60 HZ 
Religamento Automático 
LT em Mesma Estrutura 
Tipo Situação Sentido Ajustes 
Tripolar Ligado 
Foz do 
Iguaçu ➔ 
Cascavel 
Oeste 
Tempo morto: 5s 
V   105 kV 
   30°  
f   0,2 Hz 
NE 
 
Religamento Manual 
Sentido Quantidade de 
Tentativas 
Intervalo entre os 
religamentos (minutos) 
Dispositivo de 
sincronismo Ajustes 
N N N NI 
V   105 kV 
   30° 
f   0,2 Hz 
3.11. LT 525 KV FOZ DO IGUAÇU 60 HZ / GUAÍRA C1 
Religamento Automático 
LT em Mesma Estrutura 
Tipo Situação Sentido Ajustes 
Tripolar / 
Monopolar Ligado 
Foz do 
Iguaçu 60 Hz 
➔ Guaíra 
Monopolar: Tempo 
morto: 1s 
Tripolar: Tempo 
morto: 5s 
V   105 kV 
   40°  
f   0,2 Hz 
LT 525 kV Foz do Iguaçu 60 hz / Guaíra C2 
Notas / Restrições:  O religamento automático  monopolar da LT deve estar ligado somente na 
indisponibilidade da LT 525 kV Foz do Iguaçu 60 hz / Guaíra C2. 
Manual de Procedimentos da Operação - Módulo 5 - Submódulo 5.11 
 Cadastro de Informações Operacionais Código Revisão Item Vigência 
Cadastro de Dados Operacionais de Equipamentos da 
Interligação Sul / Sudeste CD-CT.SSE.01 42 2.1.1. 26/06/2024 
 
Referência: Instrução de Operação da Interligação Nº 61 - Operação Normal do Sistema Interligado a Itaipu 60Hz e RT-ONS DPL 
0105/2024 DIRETRIZES PARA OPERAÇÃO ELÉTRICA VOLUME 02 - INTERLIGAÇÃO SUL/SUDESTE JUNHO 2024 – Revisão 03 
10 / 24 
 
Alterado pela(s) MOP(s): 
MOP/ONS 463-S/2024;  
 
Religamento Manual 
Sentido Quantidade de 
Tentativas 
Intervalo entre os 
religamentos (minutos) 
Dispositivo de 
sincronismo Ajustes 
Ambos 1 em cada 
sentido 1 Ambos terminais 
V   105 kV 
   40°  
f   0,2 Hz 
3.12. LT 525 KV FOZ DO IGUAÇU 60 HZ / GUAÍRA C2 
Religamento Automático 
LT em Mesma Estrutura 
Tipo Situação Sentido Ajustes 
Tripolar / 
Monopolar Ligado 
Foz do 
Iguaçu 60 Hz 
➔ Guaíra 
Monopolar: Tempo 
morto: 1s 
Tripolar: Tempo 
morto: 4,5s 
V   105 kV 
   40°  
f   0,2 Hz 
LT 525 kV Foz do Iguaçu 60 hz / Guaíra C1 
Notas / Restrições:  O religamento automático  monopolar da LT deve estar ligado somente n a 
indisponibilidade da LT 525 kV Foz do Iguaçu 60 hz / Guaíra C1. 
 
Religamento Manual 
Sentido Quantidade de 
Tentativas 
Intervalo entre os 
religamentos (minutos) 
Dispositivo de 
sincronismo Ajustes 
Ambos 1 em cada 
sentido 1 Ambos terminais 
V   105 kV 
   40°  
f   0,2 Hz 
3.13. LT 525 KV LONDRINA (CGT ELETROSUL) / ASSIS C1  
Religamento Automático 
LT em Mesma Estrutura 
Tipo Situação Sentido Ajustes 
Tripolar  Ligado Assis ➔ 
Londrina 
Tempo morto: 10s 
V   80 kV 
   30°  
f   0,2 Hz 
NE 
 
Manual de Procedimentos da Operação - Módulo 5 - Submódulo 5.11 
 Cadastro de Informações Operacionais Código Revisão Item Vigência 
Cadastro de Dados Operacionais de Equipamentos da 
Interligação Sul / Sudeste CD-CT.SSE.01 42 2.1.1. 26/06/2024 
 
Referência: Instrução de Operação da Interligação Nº 61 - Operação Normal do Sistema Interligado a Itaipu 60Hz e RT-ONS DPL 
0105/2024 DIRETRIZES PARA OPERAÇÃO ELÉTRICA VOLUME 02 - INTERLIGAÇÃO SUL/SUDESTE JUNHO 2024 – Revisão 03 
11 / 24 
 
Alterado pela(s) MOP(s): 
MOP/ONS 463-S/2024;  
Religamento Manual 
Sentido Quantidade de 
Tentativas 
Intervalo entre os 
religamentos (minutos) 
Dispositivo de 
sincronismo Ajustes 
NI NI NI Sim, em ambos os 
terminais 
V   80 kV 
   30°  
f   0,2 Hz 
3.14. LT 525 KV LONDRINA (CGT ELETROSUL) / ASSIS C2 
Religamento Automático 
LT em Mesma Estrutura 
Tipo Situação Sentido Ajustes 
Tripolar  Ligado Assis ➔ 
Londrina 
Tempo morto: 5s 
V   105 kV 
   30°  
f   0,2 Hz 
NE 
 
Religamento Manual 
Sentido Quantidade de 
Tentativas 
Intervalo entre os 
religamentos (minutos) 
Dispositivo de 
sincronismo Ajustes 
NI NI NI Sim, em ambos os 
terminais 
V   80 kV 
   30° 
f   0,2 Hz 
3.15. LT 500 KV IBIUNA / BATEIAS C1 OU C2 
Religamento Automático 
LT em Mesma Estrutura 
Tipo Situação Sentido Ajustes 
Tripolar Ligado Ibiúna ➔ 
Bateias 
V   50 kV 
   35° 
f   0,2 Hz 
LT 500 kV Ibiuna / Bateias C1 e C2 
 
Religamento Manual 
Sentido Quantidade de 
Tentativas 
Intervalo entre os 
religamentos (minutos) 
Dispositivo de 
sincronismo Ajustes 
ambos 1 3 Sim, em ambos 
terminais 
V   50 kV 
   35°  
f   0,2 Hz 
Manual de Procedimentos da Operação - Módulo 5 - Submódulo 5.11 
 Cadastro de Informações Operacionais Código Revisão Item Vigência 
Cadastro de Dados Operacionais de Equipamentos da 
Interligação Sul / Sudeste CD-CT.SSE.01 42 2.1.1. 26/06/2024 
 
Referência: Instrução de Operação da Interligação Nº 61 - Operação Normal do Sistema Interligado a Itaipu 60Hz e RT-ONS DPL 
0105/2024 DIRETRIZES PARA OPERAÇÃO ELÉTRICA VOLUME 02 - INTERLIGAÇÃO SUL/SUDESTE JUNHO 2024 – Revisão 03 
12 / 24 
 
Alterado pela(s) MOP(s): 
MOP/ONS 463-S/2024;  
3.16. LT 500 KV ITAIPU 60 HZ / FOZ DO IGUAÇU 60 HZC1 OU C2 OU C3 OU C4 
Religamento Automático 
LT em Mesma Estrutura 
Tipo Situação Sentido Ajustes 
NE NE --- --- NE 
 
Religamento Manual 
Sentido Quantidade de 
Tentativas 
Intervalo entre os 
religamentos (minutos) 
Dispositivo de 
sincronismo Ajustes 
NI NI NI NI NI 
3.17. LT 500 KV ITATIBA / BATEIAS  
Religamento Automático 
LT em Mesma Estrutura 
Tipo Situação Sentido Ajustes 
Monopolar Desligado --- Tempo morto: 1s 
NE 
Tripolar Ligado Itatiba ➔ 
Bateias 
Tempo morto: 9s 
V   105 kV 
   35°  
f   0,2 Hz 
Notas / Restrições: O religamento automático da LT 500 kV Itatiba / Bateias é bloqueado automaticamente 
caso ocorra o desligamento manual ou automático do reator de linha RTBATB na SE Itatiba , conforme IO-
EE.SSE. 
 
Religamento Manual 
Sentido Quantidade de 
Tentativas 
Intervalo entre os 
religamentos (minutos) 
Dispositivo de 
sincronismo Ajustes 
ambos 2 NI NI 
V   105 kV 
   35°  
f   0,2 Hz 
Notas / Restrições: São permitidas até duas tentativas, sendo a segunda tentativa realizada somente após 
solicitação do agente. Essa solicitação depende de uma avaliação efetuada pelo agente a respeito do 
desligamento. 
4. DADOS OPERACIONAIS DE TRANSFORMADORES 
Orientações sobre os dados operacionais de transformadores: 
Campo “ Dispositivo de Sincronismo ”: indica os terminais onde estão instalados e em funcionamento . 
Dispositivo de Sincronismo é o equipamento utilizado para verificação das condições de fechamento em anel 
ou paralelo entre dois pontos elétricos, o campo é preenchido com “NE” – não existe. Se em algum disjuntor 
do terminal não houver o dispositivo de sincronismo essa informação deve ser destacada. 
Manual de Procedimentos da Operação - Módulo 5 - Submódulo 5.11 
 Cadastro de Informações Operacionais Código Revisão Item Vigência 
Cadastro de Dados Operacionais de Equipamentos da 
Interligação Sul / Sudeste CD-CT.SSE.01 42 2.1.1. 26/06/2024 
 
Referência: Instrução de Operação da Interligação Nº 61 - Operação Normal do Sistema Interligado a Itaipu 60Hz e RT-ONS DPL 
0105/2024 DIRETRIZES PARA OPERAÇÃO ELÉTRICA VOLUME 02 - INTERLIGAÇÃO SUL/SUDESTE JUNHO 2024 – Revisão 03 
13 / 24 
 
Alterado pela(s) MOP(s): 
MOP/ONS 463-S/2024;  
Campo “Ajustes”: indica os ajustes de diferença de tensão, defasagem angular e diferença de frequência 
instalados para a função de verificação de sincronismo para o religamento manual de cada terminal;  caso 
não exista dispositivo de sincronismo, o campo é preenchido com hifens (---). 
Campo “Características dos Comutadores”:  
• Campo “Comutador sob carga”: indica o número de posições associando a tensão correspondente 
à identificação das posições mínima, máxima e nominal, bem como a variação de tensão entre cada 
posição, conforme os dados de placa do transformador. Caso os números das posições dos dados 
de placa do transformador sejam diferentes dos números das posições utilizadas no Sistema de 
Supervisão e Controle, incluir, além das posições dos dados de placa, também as posições utilizadas 
no SSC. Caso não exista comutador sob carga no transformador, o campo é preenchido com “NE” 
– não existe. 
• Campo “ Comutador em Vazio ”: indica as posições do comutador em vazio com os respectivos 
valores de tensão e sua posição em serviço. Caso não exista comutador em vazio no transformador, 
o campo é preenchido com “NE” – não existe. 
Campo “ Notas / Restrições ”: campo opcional que  indica informações relevantes a respeito do 
transformador. 
4.1. SE FOZ DO IGUAÇU 60 HZ – TRANSFORMADOR AT1 OU AT2 OU AT3 OU AT4 OU AT5 DE 765/525/69 
KV – 1.650 MVA 
Dispositivo de 
Sincronismo Ajustes 
Características dos Comutadores 
Comutador sob Carga Comutador em Vazio 
NI NI NE Tape em serviço  =  525 kV 
4.2. SE IBIÚNA -  TRANSFORMADOR AT-01 OU AT-02 OU AT-03 DE 500/345/13,8 KV  -   750 MVA 
Dispositivo de 
Sincronismo Ajustes 
Características dos Comutadores 
Comutador sob Carga Comutador em Vazio 
AT-01 
DJ12F1:V  35,8 kV/  25°/f 0,1 Hz 
DJ22F3:V  49,5 kV/  25°/f 0,1 Hz 
AT-02 
DJ13F1:V 35,8 kV/  25°/f 0,1 Hz 
DJ24F3:V 49,5 kV/  25°/f 0,1 Hz 
AT-03 
DJ5F1:V 69,0 kV/  25°/f 0,2 Hz 
DJ21F1:V 105,1 kV/  25°/f 0,2 Hz 
01   =   324,30 kV 
17   =   379,50 kV Tape em serviço  =  525 kV 
4.3. SE IVAIPORÃ (FURNAS) – TRANSFORMADOR AT-01 OU AT-02 DE 765/525/69 KV - 1.650 MVA 
Dispositivo de 
Sincronismo Ajustes 
Características dos Comutadores 
Comutador sob Carga Comutador em Vazio 
NI --- 
1 = 584,32 kV 
18 = 512,12 kV 
35 = 439,68 
Tape único = 512 kV 
Manual de Procedimentos da Operação - Módulo 5 - Submódulo 5.11 
 Cadastro de Informações Operacionais Código Revisão Item Vigência 
Cadastro de Dados Operacionais de Equipamentos da 
Interligação Sul / Sudeste CD-CT.SSE.01 42 2.1.1. 26/06/2024 
 
Referência: Instrução de Operação da Interligação Nº 61 - Operação Normal do Sistema Interligado a Itaipu 60Hz e RT-ONS DPL 
0105/2024 DIRETRIZES PARA OPERAÇÃO ELÉTRICA VOLUME 02 - INTERLIGAÇÃO SUL/SUDESTE JUNHO 2024 – Revisão 03 
14 / 24 
 
Alterado pela(s) MOP(s): 
MOP/ONS 463-S/2024;  
Dispositivo de 
Sincronismo Ajustes 
Características dos Comutadores 
Comutador sob Carga Comutador em Vazio 
cada posição o comutador 
varia a tensão em 4,52 kV 
kV 
 
Notas / Restrições: LTC limitado entre entre as posições  8 e 30, posições diferentes das posições 8 e 30 
são permitidas exclusivamente para recomposição. 
As tensões nominais dos enrolamentos deste transformador, conforme dados construtivos, são: 765 kV, 
512 kV e 69 kV. 
4.4. SE IVAIPORÃ (FURNAS) – TRANSFORMADOR AT-03 DE 765/525/69 KV - 1.650 MVA 
Dispositivo de 
Sincronismo Ajustes 
Características dos Comutadores 
Comutador sob Carga Comutador em Vazio 
NI --- 
1 = 584,44 kV 
18 = 512,12 kV 
35 = 439,80 kV 
cada posição o comutador 
varia a tensão em 4,52 kV 
kV 
Tape único = 512 kV 
Notas / Restrições:  As tensões nominais dos enrolamentos deste transformador, conforme dados 
construtivos, são: 765 kV, 512 kV e 69 kV. 
4.5. SE TIJUCO PRETO – TRANSFORMADOR AT-01 DE 765/500/69 KV - 1.650 MVA 
Dispositivo de 
Sincronismo Ajustes 
Características dos Comutadores 
Comutador sob Carga Comutador em Vazio 
NI --- 1 = 584,32 kV 
35 = 439,68 kV Tape único = 765 kV 
Notas / Restrições:  
01: As tensões nominais dos enrolamentos deste transformador, conforme dados construtivos, são: 765 
kV, 512 kV e 69 kV. 
02: Estes valores de tensão são os de referência para o controle de tensão no sistema e                     
correspondem a soma algébrica da tensão na saída do autotransformador (lado de 500kV) e a tensão do 
primário do transformador regulador de tensão. 
03:  O controle dos tapes do “LTC” no secundário do transformador regulador de tensão está limitado 
numa faixa compreendida entre os tapes 1 e 30 (inclusive), sendo esta faixa controlada automaticamente. 
Caso o “LTC” esteja operando em elétrico remoto, elétr ico local ou manual, existe um intertravamento 
mecânico responsável pelas referidas limitações. 
04:  Para que se opere com a tensão de 550kV em Tijuco Preto, com a utilização dos tapes nas posições 
de 1 a 7, a tensão de 765kV de Tijuco Preto deverá ser limitada no valor máximo de 765kV. 
Ajuste de Sobrecorrente: 
Manual de Procedimentos da Operação - Módulo 5 - Submódulo 5.11 
 Cadastro de Informações Operacionais Código Revisão Item Vigência 
Cadastro de Dados Operacionais de Equipamentos da 
Interligação Sul / Sudeste CD-CT.SSE.01 42 2.1.1. 26/06/2024 
 
Referência: Instrução de Operação da Interligação Nº 61 - Operação Normal do Sistema Interligado a Itaipu 60Hz e RT-ONS DPL 
0105/2024 DIRETRIZES PARA OPERAÇÃO ELÉTRICA VOLUME 02 - INTERLIGAÇÃO SUL/SUDESTE JUNHO 2024 – Revisão 03 
15 / 24 
 
Alterado pela(s) MOP(s): 
MOP/ONS 463-S/2024;  
Dispositivo de 
Sincronismo Ajustes 
Características dos Comutadores 
Comutador sob Carga Comutador em Vazio 
RELÉS TIPO LADO AJUSTE 
SEL 387 87TA 765kV 2000A 
Havendo atuação do relé SEL 387 haverá desligamento automático do autotransformador através do Relé 
62 OLT ajustado em 20 segundos. 
Ajuste de Temperatura: 
ALARME DE ÓLEO ALARME DE ENROLAMENTO 
Advertência 
(Graus) 
Urgência 
(Graus) 
Advertência 
(Graus) 
Urgência 
(Graus) 
85 95 105 120 
Havendo atuação do alarme de “URGÊNCIA” de óleo e/ou enrolamento, haverá desligamento automático 
do Autotransformador através do relé 62T, ajustado em 20 minutos. 
4.6. SE TIJUCO PRETO – TRANSFORMADOR AT-02 OU AT-03 DE 765/500/69 KV  -  1.650 MVA 
Dispositivo de 
Sincronismo Ajustes 
Características dos Comutadores 
Comutador sob Carga Comutador em Vazio 
NI --- NI NI 
Notas / Restrições: 
01: As tensões nominais dos enrolamentos deste transformador, conforme dados construtivos, são: 765 
kV, 512 kV e 69 kV. 
4.7. SE TIJUCO PRETO – TRANSFORMADOR AT-05 DE 765/345/20 KV  - 1.500 MVA 
Dispositivo de 
Sincronismo Ajustes 
Características dos Comutadores 
Comutador sob Carga Comutador em Vazio 
NI --- 1 = 384,66 kV 
23 = 296,46 kV Tape único = 765 kV 
Notas / Restrições: 
Ajuste de Sobrecorrente: 
Fase RELÉS TIPO LADO AJUSTE 
A e B 50 OLT 7TU5135 765kV 1.690A 
C 50 OLT 7TU5135 765kV 1.732A 
Havendo atuação do relé 50 OLT haverá desligamento automático do autotransformador através do Relé 
62 OLT, ajustado em 20 segundos. 
Ajuste de Temperatura 
ALARME DE ÓLEO ALARME DE ENROLAMENTO 
Advertência 
(Graus) 
Urgência 
(Graus) 
Advertência 
(Graus) 
Urgência 
(Graus) 
Manual de Procedimentos da Operação - Módulo 5 - Submódulo 5.11 
 Cadastro de Informações Operacionais Código Revisão Item Vigência 
Cadastro de Dados Operacionais de Equipamentos da 
Interligação Sul / Sudeste CD-CT.SSE.01 42 2.1.1. 26/06/2024 
 
Referência: Instrução de Operação da Interligação Nº 61 - Operação Normal do Sistema Interligado a Itaipu 60Hz e RT-ONS DPL 
0105/2024 DIRETRIZES PARA OPERAÇÃO ELÉTRICA VOLUME 02 - INTERLIGAÇÃO SUL/SUDESTE JUNHO 2024 – Revisão 03 
16 / 24 
 
Alterado pela(s) MOP(s): 
MOP/ONS 463-S/2024;  
Dispositivo de 
Sincronismo Ajustes 
Características dos Comutadores 
Comutador sob Carga Comutador em Vazio 
85 95 105 120 
Havendo atuação do alarme de “URGÊNCIA” de óleo e/ou enrolamento, haverá desligamento automático 
do Autotransformador através do relé 62T, ajustado em 20 minutos. 
4.8. SE TIJUCO PRETO – TRANSFORMADOR AT-04 OU AT-06 OU AT-07 DE 765/345/20 KV  - 1.500 MVA 
Dispositivo de 
Sincronismo Ajustes 
Características dos Comutadores 
Comutador sob Carga Comutador em Vazio 
NI --- 
1=384,66 kV 
23=296,46 kV 
Tape em serviço: 349,3 kV 
Tape único = 765 kV 
 
Manual de Procedimentos da Operação - Módulo5 - Submódulo 5.11 
 Cadastro de Informações Operacionais Código Revisão Item Vigência 
Cadastro de Dados Operacionais de Equipamentos da Interligação Sul / Sudeste CD-CT.SSE.01 42 2.1.1. 26/06/2024 
 
Referência: Instrução de Operação da Interligação Nº 61 - Operação Normal do Sistema Interligado a Itaipu 60Hz e RT-ONS DPL 0105/2024 DIRETRIZES PARA OPERAÇÃO ELÉTRICA VOLUME 02 - 
INTERLIGAÇÃO SUL/SUDESTE JUNHO 2024 – Revisão 03 
17 / 24 
 
Alterado pela(s) MOP(s): 
MOP/ONS 463-S/2024;  
5. DADOS OPERACIONAIS DE UNIDADES GERADORAS HIDRÁULICAS 
Orientações sobre os dados operacionais de unidades geradoras de usinas hidrelétricas:  
Código Único de Empreendimentos em Geração – CEG: está apresentado ao lado do nome da usina. O CEG permanece associado ao  empreendimento, 
independentemente de alteração de atributos ou de proprietários da usina. O número CEG é obtido no site da ANEEL. 
Campo “Unidade Geradora”: identifica cada unidade geradora conforme diagrama unifilar do agente. 
Campo “Faixa de Tensão (kV)”: 
• Campo “Nom.”: indica a tensão nominal da unidade geradora, em kV. 
• Campo “Mín.”: indica a tensão mínima da unidade geradora, em kV. 
• Campo “Máx.”: indica a tensão máxima da unidade geradora, em kV. 
Campo “Potência Aparente (MVA)”: 
• Campo “Nom.”: indica a potência aparente nominal da unidade geradora, em MVA. 
• Campo “FP”: indica o fator de potência nominal da unidade geradora. 
Campo “Potência Reativa (Mvar)”: 
• Campo “Mín.”: indica a potência reativa mínima da unidade geradora, em Mvar, podendo ser referenciada a curva de capabilidade da unidade geradora. 
• Campo “Máx.”: indica a potência reativa máxima da unidade geradora, em Mvar, podendo ser referenciada a curva de capabilidade da unidade geradora. 
Campo “Faixa de Operação (MW)”: 
• Campo “Permitida”: indica a faixa de potência ativa permitida da unidade geradora , em MW, associada a um determinado nível do reservatório , caso 
necessário. 
• Campo “ Proibida”: indica a faixa de potência ativa máxima da unidade geradora , em MW, associada a um determinado nível do reservatório , caso 
necessário. 
Campo “Dispositivos de Sincronismo”: indica o disjuntor onde é efetuado o sincronismo da unidade geradora. 
Campo “Operação como Compensador Síncrono”: 
Manual de Procedimentos da Operação - Módulo5 - Submódulo 5.11 
 Cadastro de Informações Operacionais Código Revisão Item Vigência 
Cadastro de Dados Operacionais de Equipamentos da Interligação Sul / Sudeste CD-CT.SSE.01 42 2.1.1. 26/06/2024 
 
Referência: Instrução de Operação da Interligação Nº 61 - Operação Normal do Sistema Interligado a Itaipu 60Hz e RT-ONS DPL 0105/2024 DIRETRIZES PARA OPERAÇÃO ELÉTRICA VOLUME 02 - 
INTERLIGAÇÃO SUL/SUDESTE JUNHO 2024 – Revisão 03 
18 / 24 
 
Alterado pela(s) MOP(s): 
MOP/ONS 463-S/2024;  
• Campo “Unidade Geradora”: indica a identificação de cada unidade geradora conforme diagrama unifilar do agente. 
• Campo “Conversão / Reversão  (min)”: indica o tempo necessário para realizar a conversão de gerador para síncrono e síncrono para gerador, em minutos. 
Campo “Notas / Restrições”: campo opcional que indica informações relevantes a respeito da usina. 
Caso os dados operacionais não sejam informados pelo Agente, os campos são preenchidos com “NI” – não informado. 
Caso os dados operacionais não se apliquem, os campos são preenchidos com hifens “---”. 
Manual de Procedimentos da Operação - Módulo5 - Submódulo 5.11 
 Cadastro de Informações Operacionais Código Revisão Item Vigência 
Cadastro de Dados Operacionais de Equipamentos da Interligação Sul / Sudeste CD-CT.SSE.01 42 2.1.1. 26/06/2024 
 
Referência: Instrução de Operação da Interligação Nº 61 - Operação Normal do Sistema Interligado a Itaipu 60Hz e RT-ONS DPL 0105/2024 DIRETRIZES PARA OPERAÇÃO ELÉTRICA VOLUME 02 - 
INTERLIGAÇÃO SUL/SUDESTE JUNHO 2024 – Revisão 03 
19 / 24 
 
Alterado pela(s) MOP(s): 
MOP/ONS 463-S/2024;  
5.1. UHE ITAIPU 60 HZ (CEG: UHE.PH.PR.001161-4.01) 
5.1.1. DADOS DAS UNIDADES GERADORAS 
Unidade 
Geradora 
Tensão (kV) (1) Potência Aparente 
(MVA) (2) 
Potência Reativa 
(Mvar) 
Faixa de Operação (MW) 
(3) 
Dispositivo de 
Sincronismo 
Operação como Compensador 
Síncrono 
Nom. Mín. Máx. Nom. FP Mín. Máx. Permitida Proibida Unidade 
Geradora 
Conversão / 
Reversão 
(min) 
U10 a U18 e 
U18A 18,0 16,2 18,9  737 0,95 Ver curva 
capabilidade 766 420 NI NE --- 
Notas / Restrições: 
(1) - As unidades geradoras de Itaipu não devem operar com correntes de excitação inferiores a 2.000 A para evitar desgaste excessi vo do conjunto de anéis 
coletores e escovas do sistema de excitação conforme recomendação do fabricante. 
(2) - Valor de 737 MVA (750 MW) para queda bruta de 117 metros. 
(3) – Faixa de Operção: 
– Máxima (766 MW): Limitada pelapotência da turbina 
– Mínima  (420 MW) para uma queda de 118 metros: Limitada em função de i nstabilidade hidráulica e cavitação (danos mecânicos). A operação com valores 
inferiores ao indicado é admitida por curto período, durante variações de geração e/ou restabelecimento após perturbações, e deve ser normalizada nas faixas 
operativas no menor tempo possível. Este valor depende da queda bruta, podendo ser ligeiramente inferior ou superior em função de sua variação. 
As potências mínima (PMIN) e máxima (PMAX) das unidades geradoras para valores diferentes de queda bruta são dadas por: 
PMIN= Queda Bruta * 6 – 290 (MW) 
PMAX= Queda Bruta * 9,6 – 374 (MW) 
5.1.2. CURVAS DE CAPABILIDADE DAS UNIDADES GERADORAS  
Manual de Procedimentos da Operação - Módulo5 - Submódulo 5.11 
 Cadastro de Informações Operacionais Código Revisão Item Vigência 
Cadastro de Dados Operacionais de Equipamentos da Interligação Sul / Sudeste CD-CT.SSE.01 42 2.1.1. 26/06/2024 
 
Referência: Instrução de Operação da Interligação Nº 61 - Operação Normal do Sistema Interligado a Itaipu 60Hz e RT-ONS DPL 0105/2024 DIRETRIZES PARA OPERAÇÃO ELÉTRICA VOLUME 02 - 
INTERLIGAÇÃO SUL/SUDESTE JUNHO 2024 – Revisão 03 
20 / 24 
 
Alterado pela(s) MOP(s): 
MOP/ONS 463-S/2024;  
 
 

Manual de Procedimentos da Operação - Módulo5 - Submódulo 5.11 
 Cadastro de Informações Operacionais Código Revisão Item Vigência 
Cadastro de Dados Operacionais de Equipamentos da 
Interligação Sul / Sudeste CD-CT.SSE.01 42 2.1.1. 26/06/2024 
 
Referência:  21 / 24 
 
Alterado pela(s) MOP(s): 
MOP/ONS 463-S/2024;  
6. DADOS OPERACIONAIS DE COMPENSADORES 
Orientações sobre os dados operacionais de compensadores: 
Campo “Instalação”: identifica a subestação onde o compensador está instalado. 
Campo “ Identificação Operacional ”: consta o código identificador do compensador, conforme diagrama 
unifilar do agente. 
Campo “Potência Nominal (Mvar)”:  indica a potência reativa mínima e máxima, em Mvar, do compensador, 
podendo ser referenciada a sua curva de capabilidade. 
Campo “ Barramento para Controle de Tensão ”: indica o barramento de referência de tensão para o 
compensador. 
Campo “Tempo de Partida”: indica o tempo de partida do compensador, em minutos. 
Campo “Tempo de Partida”: indica o tempo de partida do compensador, em minutos. 
Campo “Tempo de Resfriamento”: indica o tempo de resfriamento do compensador, em minutos. 
Campo “Tempo de Parada”: indica o tempo de parada do compensador sem freio e com freio, em minutos. 
Campo “ Tempo para energização após desligamento ”: é o tempo entre abertura dos disjuntores 
desconectando esse equipamento do sistema e o fechamento dos disjuntores reconectando o equipamento 
no sistema. 
Campo “Notas / Restrições”: campo opcional que indica informações relevantes a respeito do compensador. 
Caso os dados operacionais não sejam informados pelo Agente, os campos são preenchidos com “NI” – não 
informado. 
Caso os dados operacionais não se apliquem, os campos são preenchidos com hifens “---”. 
6.1. DADOS DE COMPENSADORES SÍNCRONOS 
Instalação Identificação 
Operacional 
Potência 
Nominal 
(Mvar) 
Barramento 
Para Controle 
de Tensão  
Tempo de Parada 
(min) 
Tempo 
de 
partida 
(min) 
Tempo para 
energização 
após 
desligamento 
(min) 
Sem 
Freio 
Com 
Freio 
SE Tijuco 
Preto CS1 + 330 / - 220 NI 3h 15 NI 
40 minutos 
(após 
abertura do 
disjuntor) 
7. DADOS OPERACIONAIS DE BANCOS DE CAPACITORES SHUNT 
Orientações sobre os dados operacionais de bancos de capacitores: 
Campo “Instalação”: identifica a subestação onde o banco de capacitores está instalado. 
Campo “Identificação Operacional”: identificação do banco de capacitor es, conforme diagrama unifilar do 
agente. 
Campo “Potência Nominal (Mvar)”:  indica a potência nominal do banco de capacitores. 
Campo “ Tempo para energização após desligamento ”: é o tempo entre abertura dos disjuntores 
desconectando esse equipamento do sistema e o fechamento dos disjuntores reconectando o equipamento 
Manual de Procedimentos da Operação - Módulo5 - Submódulo 5.11 
 Cadastro de Informações Operacionais Código Revisão Item Vigência 
Cadastro de Dados Operacionais de Equipamentos da 
Interligação Sul / Sudeste CD-CT.SSE.01 42 2.1.1. 26/06/2024 
 
Referência:  22 / 24 
 
Alterado pela(s) MOP(s): 
MOP/ONS 463-S/2024;  
no sistema. 
Campo “Notas / Restrições ”: campo opcional que  indica informações relevantes a respeito do banco de 
capacitores. 
Instalação Identificação 
Operacional 
Potência Nominal 
(Mvar) 
Tempo para 
Energização após 
Desligamento 
SE Ibiúna Filtros ZRI e ZRJ 59 Mvar 
10 minutos  
(descarga das unidades 
capacitivas) 
8. DADOS DE BANCOS DE CAPACITORES SÉRIE 
8.1.  SE ITABERÁ - BANCOS DE CAPACITORES SÉRIE 750 KV 1242 MVAR DA LT 750 KV ITABERÁ/TIJUCO 
PRETO – C1  
8.1.1. CURVA CARACTERISTICA TENSÃO X CORRENTE DE CAPACITORES SÉRIES 
 

Manual de Procedimentos da Operação - Módulo5 - Submódulo 5.11 
 Cadastro de Informações Operacionais Código Revisão Item Vigência 
Cadastro de Dados Operacionais de Equipamentos da 
Interligação Sul / Sudeste CD-CT.SSE.01 42 2.1.1. 26/06/2024 
 
Referência:  23 / 24 
 
Alterado pela(s) MOP(s): 
MOP/ONS 463-S/2024;  
8.1.2. CURVA RESFRIAMENTO DO MOV (TEMPERATURA X TEMPO) DE CAPACITORES SÉRIES 
 
 
8.2.  SE IVAIPORÃ – BANCOS DE CAPACITORES SÉRIE 750 KV 1056 MVAR DA LT 750 KV IVAIPORÃ / 
ITABERÁ – C1 
8.2.1. CURVA CARACTERISTICA TENSÃO X CORRENTE DE CAPACITORES SÉRIES 
 
  

Manual de Procedimentos da Operação - Módulo5 - Submódulo 5.11 
 Cadastro de Informações Operacionais Código Revisão Item Vigência 
Cadastro de Dados Operacionais de Equipamentos da 
Interligação Sul / Sudeste CD-CT.SSE.01 42 2.1.1. 26/06/2024 
 
Referência:  24 / 24 
 
Alterado pela(s) MOP(s): 
MOP/ONS 463-S/2024;  
8.2.2. CURVA RESFRIAMENTO DO MOV (TEMPERATURA X TEMPO) DE CAPACITORES SÉRIES 
 

