 
Manual de Procedimentos da Operação 
Módulo 5 - Submódulo 5.11 
 
Cadastro de Informações Operacionais 
Cadastro de Dados Operacionais de Equipamentos da Área 230 kV Oeste da Região Nordeste 
 
 
Código Revisão Item Vigência 
CD-CT.NE.2OE.01 60 2.1.3. 12/11/2024 
 
. 
 
MOTIVO DA REVISÃO 
- Atualização dos ajustes do religamento automático dos itens: 3.1, 3.2, 3.11, 3.13, 3.14, 3.15, 3.16, 3.17, 
3.18, 3.19 e 3.20. 
 
LISTA DE DISTRIBUIÇÃO 
CNOS COSR-NE Chesf State Grid 
São Pedro Transmissora Cotesa Celeo Redes Eletronorte 
Nexcera    
 
Manual de Procedimentos da Operação - Módulo 5 - Submódulo 5.11 
Cadastro de Informações Operacionais Código Revisão Item Vigência 
Cadastro de Dados Operacionais de Equipamentos da 
Área 230 kV Oeste da Região Nordeste CD-CT.NE.2OE.01 60 2.1.3. 12/11/2024 
 
Referência: Email intitulado “RES: Divergências referentes a religamento automático” datado de 11/11/2024 às 14h19 2/36 
 
ÍNDICE 
1. OBJETIVO ................................ ................................ ................................ ................................ ..... 5 
2. CONSIDERAÇÕES GERAIS ................................ ................................ ................................ .............. 5 
3. DADOS OPERACIONAIS DE LINHAS DE TRANSMISSÃO ................................ ................................ .... 5 
3.1. LT 230 kV BOA ESPERANÇA / TERESINA - C1(L1) ........................................................................... 6 
3.2. LT 230 kV BOA ESPERANÇA / TERESINA - C2(L2) ........................................................................... 7 
3.3. LT 230 KV BOM JESUS II / GILBUÉS II – C1(LTBJGD6) .................................................................... 7 
3.4. LT 230 KV CHAPADA I / CHAPADA II – C1(L1) ................................................................................ 8 
3.5. LT 230 KV CHAPADA II / CHAPADA III – C1(L3) .............................................................................. 8 
3.6. LT 230 KV CHAPADA I / CURRAL NOVO DO PIAUÍ II – C1(L3) ........................................................ 9 
3.7. LT 230 KV CHAPADA II / PICOS – C1(P1) ........................................................................................ 9 
3.8. LT 230 KV CHAPADA III / CURRAL NOVO DO PIAUÍ II – C1(L2) .................................................... 10 
3.9. LT 230 KV ELISEU MARTINS / BOM JESUS II  – C1(M3) ................................................................ 10 
3.10. LT 230 KV MARANGATU / PIRIPIRI – C1(S2) ................................................................................ 11 
3.11. LT 230 KV PICOS / TAUÁ II - C1(M3) ............................................................................................ 11 
3.12. LT 230 KV PIRIPIRI / TERESINA III – C1(L7) ................................................................................... 12 
3.13. LT 230 kV SÃO JOÃO DO PIAUÍ / ELISEU MARTINS - C1(M2) ....................................................... 12 
3.14. LT 230 kV SÃO JOÃO DO PIAUÍ / PICOS - C1(M1) ........................................................................ 13 
3.15. LT 230 kV TERESINA / PIRIPIRI - C1(S1) ........................................................................................ 13 
3.16. LT 230 kV TERESINA II / TERESINA - C1(L3) .................................................................................. 14 
3.17. LT 230 kV TERESINA II / TERESINA - C2(L4) .................................................................................. 14 
3.18. LT 230 kV TERESINA II / TERESINA III – C1(l5) .............................................................................. 15 
3.19. LT 230 kV TERESINA II / TERESINA III – C2(L6) ............................................................................. 15 
3.20. LT 230 kV USINA BOA ESPERANÇA / BOA ESPERANÇA - C1(V1).................................................. 16 
4. DADOS OPERACIONAIS DE TRANSFORMADORES ................................ ................................ ......... 17 
4.1. SE BOA ESPERANÇA - AUTOTRANSFORMADOR 05T1 DE 500/230/13,8 KV - 300 MVA ............. 17 
4.2. SE CHAPADA I – TRANSFORMADOR 230/138/13,8 kV – 200 MVA – T3 e T4 .............................. 17 
4.3. SE CURRAL NOVO DO PIAUÍ II - AUTOTRANSFORMADOR - T1 - 500/230/13,8 KV ..................... 18 
4.4. SE CURRAL NOVO DO PIAUÍ II - AUTOTRANSFORMADOR – T2 - 500/230/13,8 KV .................... 18 
4.5. SE CURRAL NOVO DO PIAUÍ II - AUTOTRANSFORMADOR – T3 - 500/230/13,8 KV .................... 18 
4.6. SE CURRAL NOVO DO PIAUÍ II - AUTOTRANSFORMADOR – T4 500/230/13,8 KV – 600 MVA.... 18 
4.7. SE GILBUÉS II – AUTOTRANSFORMADOR – GDAT7 – 01 – 500 / 230 / 13,8 KV .......................... 18 
4.8. SE BOA ESPERANÇA - TRANSFORMADOR – T5 - 230/69/13,8 KV – 100 MVA ............................ 19 
4.9. SE BOA ESPERANÇA - TRANSFORMADOR – T6 - 230/69/13,8 KV – 100 MVA ............................ 19 
4.10. SE ELISEU MARTINS - TRANSFORMADOR - T1 - 230/69 KV ......................................................... 20 
Manual de Procedimentos da Operação - Módulo 5 - Submódulo 5.11 
Cadastro de Informações Operacionais Código Revisão Item Vigência 
Cadastro de Dados Operacionais de Equipamentos da 
Área 230 kV Oeste da Região Nordeste CD-CT.NE.2OE.01 60 2.1.3. 12/11/2024 
 
Referência: Email intitulado “RES: Divergências referentes a religamento automático” datado de 11/11/2024 às 14h19 3/36 
 
4.11. SE ELISEU MARTINS - TRANSFORMADOR - T2 - 230/69 KV ......................................................... 20 
4.12. SE PICOS - TRANSFORMADOR - T1 - 230/69 KV .......................................................................... 20 
4.13. SE PICOS - TRANSFORMADOR - T2 - 230/69/13.8 KV .................................................................. 20 
4.14. SE PICOS - TRANSFORMADOR - T3 - 230/69 KV .......................................................................... 20 
4.15. SE PICOS - TRANSFORMADOR - T4 - 230/69 KV .......................................................................... 21 
4.16. SE PARNAÍBA III – AUTOTRANSFORMADOR 500 / 230 KV – 600 MVA – 7ATD -20 ..................... 21 
4.17. SE PARNAÍBA III – AUTOTRANSFORMADOR 600/230 KV – 600 MVA – 7ATC -20 ....................... 21 
4.18. SE PARNAÍBA III – TRANSFORMADOR 230 / 138 KV – 150 MVA – 4TRA – 20 ............................. 21 
4.19. SE PARNAÍBA III – TRANSFORMADOR 230 / 138 KV – 150 MVA – 4TRB – 20 ............................. 21 
4.20. SE PIRIPIRI - TRANSFORMADOR - T1 - 230/69/13,8 KV ............................................................... 22 
4.21. SE PIRIPIRI - TRANSFORMADOR - T2 - 230/69 KV........................................................................ 22 
4.22. SE PIRIPIRI - TRANSFORMADOR - T3 - 230/69 KV........................................................................ 22 
4.23. SE PIRIPIRI - TRANSFORMADOR - T4 - 230/138 KV...................................................................... 22 
4.24. SE PIRIPIRI - TRANSFORMADOR - T5 - 230/138 KV...................................................................... 22 
4.25. SE SÃO JOÃO DO PIAUÍ - AUTOTRANSFORMADOR 05T1 DE 500/230/13,8 KV - 300 MVA ........ 23 
4.26. SE SÃO JOÃO DO PIAUÍ - TRANSFORMADOR - T3 - 230/69 KV.................................................... 23 
4.27. SE SÃO JOÃO DO PIAUÍ - TRANSFORMADOR - T4 - 220/65,32KV ............................................... 23 
4.28. SE TERESINA II - AUTOTRANSFORMADOR 500/230/13,8 KV - 300 MVA – T1, T2 ou T4 ............. 23 
4.29. SE TERESINA II - AUTOTRANSFORMADOR 500/230/13,8 KV - 300 MVA – T5............................. 23 
4.30. SE TERESINA - TRANSFORMADOR - T1 - 230/13.8 KV ................................................................. 24 
4.31. SE TERESINA - TRANSFORMADOR - T2 - 230/13.8 KV ................................................................. 24 
4.32. SE TERESINA - TRANSFORMADOR - T3 - 230/69 KV .................................................................... 25 
4.33. SE TERESINA - TRANSFORMADOR - T4 - 230/69 KV .................................................................... 25 
4.34. SE TERESINA - TRANSFORMADOR - T5 - 230/69 KV .................................................................... 25 
4.35. SE TERESINA - TRANSFORMADOR - T6 - 230/69 KV .................................................................... 25 
4.36. SE TERESINA II - TRANSFORMADOR - T3 - 230/13.8 KV .............................................................. 25 
4.37. SE TERESINA II – TRANSFORMADOR - T9 - 230/69/13,8 KV ........................................................ 26 
4.38. SE TERESINA II – TRANSFORMADOR - T10 - 230/69/13,8 KV ...................................................... 26 
4.39. SE TERESINA III - TRANSFORMADOR – T1 - 230/69/13.8 KV ....................................................... 27 
4.40. SE TERESINA III - TRANSFORMADOR – T2 - 230/69 KV................................................................ 27 
4.41. SE TERESINA III - TRANSFORMADOR – T3 - 230/69 KV................................................................ 27 
4.42. USINA BOA ESPERANÇA/SE BOA ESPERANÇA - TRANSFORMADOR - T5 - 230/69 KV................. 27 
4.43. USINA BOA ESPERANÇA/SE BOA ESPERANÇA - TRANSFORMADOR - T6 - 230/69/13,8 KV ........ 27 
4.44. USINA BOA ESPERANÇA/SE BOA ESPERANÇA - TRANSFORMADOR - T8 - 230/69 KV................. 28 
Manual de Procedimentos da Operação - Módulo 5 - Submódulo 5.11 
Cadastro de Informações Operacionais Código Revisão Item Vigência 
Cadastro de Dados Operacionais de Equipamentos da 
Área 230 kV Oeste da Região Nordeste CD-CT.NE.2OE.01 60 2.1.3. 12/11/2024 
 
Referência: Email intitulado “RES: Divergências referentes a religamento automático” datado de 11/11/2024 às 14h19 4/36 
 
4.45. SE RIBEIRO GONÇALVES - AUTOTRANSFORMADOR 05T1 DE 500/230/13,8 KV - 300 MVA ....... 28 
4.46. SE RIBEIRO GONÇALVES - AUTOTRANSFORMADOR 05T2 DE 500/230/13,8 KV - 300 MVA ....... 28 
4.47. SE RIBEIRO GONÇALVES - TRANSFORMADOR 230/69/13,8 KV - 50 MVA – RGTF6-01 ............... 28 
4.48. SE RIBEIRO GONÇALVES - TRANSFORMADOR 230/69/13,8 KV - 50 MVA – RGTF6-02 ............... 28 
5. DADOS OPERACIONAIS DE UNIDADES GERADORAS HIDRÁULICAS ................................ ................ 28 
5.1. UHE Boa Esperança (CEG: UHE.PH.PI.000.267-4.01)................................................................... 30 
5.1.1. Dados das Unidades Geradoras ................................................................................. 30 
5.1.2. Curva de Capabilidade das Unidades Geradoras....................................................... 31 
6. DADOS OPERACIONAIS DE COMPENSADORES ................................ ................................ ............. 33 
6.1. Dados de Compensadores Síncronos .......................................................................................... 33 
6.2. Dados de Compensadores Estáticos ............................................................................................ 34 
7. DADOS OPERACIONAIS DE BANCOS DE CAPACITORES SHUNT ................................ ......................  36 
 
Manual de Procedimentos da Operação - Módulo 5 - Submódulo 5.11 
Cadastro de Informações Operacionais Código Revisão Item Vigência 
Cadastro de Dados Operacionais de Equipamentos da 
Área 230 kV Oeste da Região Nordeste CD-CT.NE.2OE.01 60 2.1.3. 12/11/2024 
 
Referência: Email intitulado “RES: Divergências referentes a religamento automático” datado de 11/11/2024 às 14h19 5/36 
 
1. OBJETIVO 
Apresentar os Dados Operacionais de Equipamentos da Área 230 kV Oeste da Região Nordeste, ), a serem 
observados pelos operadores dos Centros de Operação do ONS e pela Operação dos Agentes envolvidos, de 
acordo com os Procedimentos de Rede. 
2. CONSIDERAÇÕES GERAIS 
2.1. Os dados de linhas de transmissão e equipamentos da Rede de Operação constantes neste Cadastro 
de Informações Operacionais devem ser observados pelos Centros de Operação do ONS para as ações 
de coordenação, supervisão e controle  da operação, assim como pelos Agentes para as ações de 
comando e execução.  
2.2. As limitações técnicas para tentativas de religamento de equipamentos contidas neste documento 
têm caráter operacional. Poderão ser utilizadas para apuração da qualidade do serviço público de 
transmissão de energia elétrica (apuração de parcela variável)  o valor do “Tempo para energização 
após desligamento” de cada equipamento, desde que sejam atendidos os critérios estabelecidos na 
regulação vigente. 
3. DADOS OPERACIONAIS DE LINHAS DE TRANSMISSÃO 
Orientações sobre os dados operacionais de linhas de transmissão:  
Campo “Religamento Automático”:  
• Campo “Tipo”: indica o tipo de religamento utilizado em operação normal: monopolar, tripolar ou 
monopolar / tripolar; caso não exista religamento instalado, o campo é preenchido com “NE” – não 
existe. 
• Campo “Situação”: indica se o religamento está ligado ou desligado em operação normal; caso não 
exista religamento instalado, o campo é preenchido com “NE” – não existe. 
• Campo “Sentido”: para religamentos tripolares, indica em primeiro lugar a instalação onde se dá o 
fechamento inicial (terminal líder), e após a seta, a instalação de fechamento final (terminal 
seguidor); para religamentos monopolares ou caso não exista religamento instalado, o campo é 
preenchido com hifens (---). 
• Campo “Ajustes”: indica os ajustes de tempo morto, diferença de tensão, defasagem angular e 
diferença de frequência instalados para a função de verificação de sincronismo para o religamento 
automático; caso não exista religamento automático instalado, o campo é preenchido com hifens 
(---). 
Campo “LT em Mesma Estrutura”: apresenta o nome da LT que compartilha estrutura, e quando disponível, 
a informação da extensão do trecho de compartilhamento e da quantidade de torres compartilhadas; caso 
não exista, o campo é preenchido com “NE” – não existe.  
Não deve ser considerado o compartilhamento de estrutura caso esse seja apenas na chegada as subestações 
envolvidas. 
Campo “LT em Mesma Faixa de Passagem ”: apresenta o nome da LT que compartilha a mesma faixa de 
passagem, e quando disponível, a informação da extensão do trecho de compartilhamento; caso não exista, 
o campo é preenchido com “NE” – não existe. 
Não deve ser considerado o compartilhamento de faixa de passagem caso esse seja apenas na chegada as 
subestações envolvidas.  
Manual de Procedimentos da Operação - Módulo 5 - Submódulo 5.11 
Cadastro de Informações Operacionais Código Revisão Item Vigência 
Cadastro de Dados Operacionais de Equipamentos da 
Área 230 kV Oeste da Região Nordeste CD-CT.NE.2OE.01 60 2.1.3. 12/11/2024 
 
Referência: Email intitulado “RES: Divergências referentes a religamento automático” datado de 11/11/2024 às 14h19 6/36 
 
Campo “Religamentos Manuais”:  
• Campo “Quantidade de Tentativas”: indica quantos religamentos (ou tentativas de religamento) 
manuais são permitidos pelo Agente. 
• Campo “Intervalo entre os Religamentos (min)”: é o intervalo de tempo entre os religamentos, em 
minutos, a ser considerado entre a tentativa de fechamento não-bem-sucedida anterior (incluindo 
o religamento automático) e o novo fechamento do disjuntor. 
• Campo “ Dispositivo de Sincronismo ”: indica os terminais onde esses estão instalados e em 
funcionamento. Dispositivo de Sincronismo é o equipamento utilizado para verificação das condições de 
fechamento em anel ou paralelo entre dois pontos elétricos; caso não exista, o campo é preenchido com 
“NE” – não existe.  Se em  algum disjuntor do terminal não houver o dispositivo de sincronismo essa 
informação deve ser destacada. 
• Campo “ Ajustes”: indica os ajustes de diferença de tensão, defasagem angular e diferença de 
frequência instalados para a função de verificação de sincronismo para o religamento manual de 
cada terminal; caso não exista dispositivo de sincronismo, o campo é preenchido com hifens (---). 
Campo “ Notas / Restrições ”: campo opcional que  indica informações relevantes a respeito da linha de 
transmissão. 
Caso os dados operacionais não sejam informados pelo Agente, os campos são preenchidos com “NI” – não 
informado. 
 
3.1. LT 230 KV BOA ESPERANÇA / TERESINA - C1(L1) 
Religamento Automático 
LT em Mesma 
Estrutura 
LT em Mesma Faixa 
de Passagem Tipo Situação Sentido Ajustes 
Tripolar Ligado 
Da SE TSA 
para a SE 
BEA 
Tempo Morto TSA: 
5,0 s 
Tempo Morto BEA: 
5,6 s 
V   17,2 kV 
    25° 
f    0,2 Hz 
Não NI 
Notas / Restrições: 
 
Religamento Manual 
Sentido Quantidade de 
Tentativas 
Intervalo entre os 
religamentos (minutos) 
Dispositivo de 
sincronismo Ajustes 
NI 2 
Imediato para terminais 
distintos NI NI 15 minutos caso seja no 
mesmo terminal 
 
Manual de Procedimentos da Operação - Módulo 5 - Submódulo 5.11 
Cadastro de Informações Operacionais Código Revisão Item Vigência 
Cadastro de Dados Operacionais de Equipamentos da 
Área 230 kV Oeste da Região Nordeste CD-CT.NE.2OE.01 60 2.1.3. 12/11/2024 
 
Referência: Email intitulado “RES: Divergências referentes a religamento automático” datado de 11/11/2024 às 14h19 7/36 
 
 
3.2. LT 230 KV BOA ESPERANÇA / TERESINA - C2(L2) 
Religamento Automático 
LT em Mesma 
Estrutura 
LT em Mesma Faixa 
de Passagem Tipo Situação Sentido Ajustes 
Tripolar Ligado 
Da SE TSA 
para a SE 
BEA 
Tempo Morto TSA: 
5,0 s 
Tempo Morto BEA: 
5,5 s 
V   17,2 kV 
    25° 
f    0,2 Hz 
Não NI 
Notas / Restrições: 
 
Religamento Manual 
Sentido Quantidade de 
Tentativas 
Intervalo entre os 
religamentos (minutos) 
Dispositivo de 
sincronismo Ajustes 
NI 2 
Imediato para terminais 
distintos NI NI 15 minutos caso seja no 
mesmo terminal 
 
3.3. LT 230 KV BOM JESUS II / GILBUÉS II – C1(LTBJGD6) 
Religamento Automático 
LT em Mesma 
Estrutura 
LT em Mesma Faixa 
de Passagem Tipo Situação Sentido Ajustes 
Tripolar Ligado Da SE BJE 
para a SE GID NI Não NI 
Notas / Restrições: 
 
Religamento Manual 
Sentido Quantidade de 
Tentativas 
Intervalo entre os 
religamentos (minutos) 
Dispositivo de 
sincronismo Ajustes 
NI 2 
1 tentativa imediata com 
intervalo de 3 minutos 
até a segunda tentativa 
NI NI 
 
Manual de Procedimentos da Operação - Módulo 5 - Submódulo 5.11 
Cadastro de Informações Operacionais Código Revisão Item Vigência 
Cadastro de Dados Operacionais de Equipamentos da 
Área 230 kV Oeste da Região Nordeste CD-CT.NE.2OE.01 60 2.1.3. 12/11/2024 
 
Referência: Email intitulado “RES: Divergências referentes a religamento automático” datado de 11/11/2024 às 14h19 8/36 
 
3.4. LT 230 KV CHAPADA I / CHAPADA II – C1(L1) 
Religamento Automático 
LT em Mesma 
Estrutura 
LT em Mesma Faixa 
de Passagem Tipo Situação Sentido Ajustes 
Tripolar Ligado 
Da SE 
Chapada I 
para a SE 
Chapada II 
V    46 kV 
    30° 
f    0,2 Hz 
NI NI 
Notas / Restrições: 
 
Religamento Manual 
Sentido Quantidade de 
Tentativas 
Intervalo entre os 
religamentos (minutos) 
Dispositivo de 
sincronismo Ajustes 
NI NI 
NI 
Sim 
V    46 kV 
    30° 
f    0,2 Hz NI 
 
3.5. LT 230 KV CHAPADA II / CHAPADA III – C1(L3) 
Religamento Automático 
LT em Mesma 
Estrutura 
LT em Mesma Faixa 
de Passagem Tipo Situação Sentido Ajustes 
Tripolar Ligado 
Da SE 
Chapada III 
para a SE 
Chapada II 
V   46 kV 
    30° 
f    0,2 Hz 
NI NI 
Notas / Restrições: 
 
Religamento Manual 
Sentido Quantidade de 
Tentativas 
Intervalo entre os 
religamentos (minutos) 
Dispositivo de 
sincronismo Ajustes 
NI NI 
NI 
Sim 
V    46 kV 
    30° 
f    0,2 Hz NI 
 
Manual de Procedimentos da Operação - Módulo 5 - Submódulo 5.11 
Cadastro de Informações Operacionais Código Revisão Item Vigência 
Cadastro de Dados Operacionais de Equipamentos da 
Área 230 kV Oeste da Região Nordeste CD-CT.NE.2OE.01 60 2.1.3. 12/11/2024 
 
Referência: Email intitulado “RES: Divergências referentes a religamento automático” datado de 11/11/2024 às 14h19 9/36 
 
3.6. LT 230 KV CHAPADA I / CURRAL NOVO DO PIAUÍ II – C1(L3) 
Religamento Automático 
LT em Mesma 
Estrutura 
LT em Mesma Faixa 
de Passagem Tipo Situação Sentido Ajustes 
Tripolar Ligado 
Da SE Curral 
Novo do 
Piauí II para a 
SE Chapada I 
V   46 kV 
    30° 
f    0,2 Hz 
LT 230 kV Chapada III 
/ Curral Novo do 
Piauí II – C1(L2) 
NI 
Notas / Restrições: 
 
Religamento Manual 
Sentido Quantidade de 
Tentativas 
Intervalo entre os 
religamentos (minutos) 
Dispositivo de 
sincronismo Ajustes 
NI NI 
NI 
Sim 
V    46 kV 
    30° 
f    0,2 Hz NI 
 
3.7. LT 230 KV CHAPADA II / PICOS – C1(P1) 
Religamento Automático 
LT em Mesma 
Estrutura 
LT em Mesma Faixa 
de Passagem Tipo Situação Sentido Ajustes 
Tripolar Ligado 
Da SE Picos 
para a SE 
Chapada II 
V   46 kV 
    30° 
f    0,2 Hz 
NI NI 
Notas / Restrições: 
 
Religamento Manual 
Sentido Quantidade de 
Tentativas 
Intervalo entre os 
religamentos (minutos) 
Dispositivo de 
sincronismo Ajustes 
NI NI 
NI 
Sim 
V    46 kV 
    30° 
f    0,2 Hz NI 
 
Manual de Procedimentos da Operação - Módulo 5 - Submódulo 5.11 
Cadastro de Informações Operacionais Código Revisão Item Vigência 
Cadastro de Dados Operacionais de Equipamentos da 
Área 230 kV Oeste da Região Nordeste CD-CT.NE.2OE.01 60 2.1.3. 12/11/2024 
 
Referência: Email intitulado “RES: Divergências referentes a religamento automático” datado de 11/11/2024 às 14h19 10/36 
 
3.8. LT 230 KV CHAPADA III / CURRAL NOVO DO PIAUÍ II – C1(L2) 
Religamento Automático 
LT em Mesma 
Estrutura 
LT em Mesma Faixa 
de Passagem Tipo Situação Sentido Ajustes 
Tripolar Ligado 
Da SE Curral 
Novo do 
Piauí II para a 
SE Chapada 
III 
V   46 kV 
    30° 
f    0,2 Hz 
LT 230 kV Chapada I 
/ Curral Novo do 
Piauí II – C1(L2) 
NI 
Notas / Restrições: 
 
Religamento Manual 
Sentido Quantidade de 
Tentativas 
Intervalo entre os 
religamentos (minutos) 
Dispositivo de 
sincronismo Ajustes 
NI NI 
NI 
Sim 
V    46 kV 
    30° 
f    0,2 Hz NI 
 
3.9. LT 230 KV ELISEU MARTINS / BOM JESUS II  – C1(M3) 
Religamento Automático 
LT em Mesma 
Estrutura 
LT em Mesma Faixa 
de Passagem Tipo Situação Sentido Ajustes 
Tripolar Ligado Da SE ELM 
para a SE BJE NI Não NI 
Notas / Restrições: 
 
Religamento Manual 
Sentido Quantidade de 
Tentativas 
Intervalo entre os 
religamentos (minutos) 
Dispositivo de 
sincronismo Ajustes 
NI 2 
1 tentativa imediata com 
intervalo de 3 minutos 
até a segunda tentativa 
NI NI 
 
 
Manual de Procedimentos da Operação - Módulo 5 - Submódulo 5.11 
Cadastro de Informações Operacionais Código Revisão Item Vigência 
Cadastro de Dados Operacionais de Equipamentos da 
Área 230 kV Oeste da Região Nordeste CD-CT.NE.2OE.01 60 2.1.3. 12/11/2024 
 
Referência: Email intitulado “RES: Divergências referentes a religamento automático” datado de 11/11/2024 às 14h19 11/36 
 
3.10. LT 230 KV MARANGATU / PIRIPIRI – C1(S2) 
Religamento Automático 
LT em Mesma 
Estrutura 
LT em Mesma Faixa 
de Passagem Tipo Situação Sentido Ajustes 
Tripolar Ligado Da SE MRG 
para a SE PRI 
Tempo Morto:5s 
ΔV ≤ 46 kV 
Δδ ≤ 30° 
Δf ≤ 0,2 Hz 
Não NI 
Notas / Restrições: 
 
Religamento Manual 
Sentido Quantidade de 
Tentativas 
Intervalo entre os 
religamentos (minutos) 
Dispositivo de 
sincronismo Ajustes 
NI NI NI NI NI 
 
3.11. LT 230 KV PICOS / TAUÁ II - C1(M3) 
Religamento Automático 
LT em Mesma 
Estrutura 
LT em Mesma Faixa 
de Passagem Tipo Situação Sentido Ajustes 
Tripolar Ligado 
Da SE PIC 
para a SE 
TAD 
Tempo Morto PIC: 
5,0 s 
Tempo Morto TAD: 
5,5 s 
V   13,0 kV 
    40° 
f    0,2 Hz 
Não NI 
Notas / Restrições: 
 
Religamento Manual 
Sentido Quantidade de 
Tentativas 
Intervalo entre os 
religamentos (minutos) 
Dispositivo de 
sincronismo Ajustes 
NI 2 
Imediato para terminais 
distintos NI NI 15 minutos caso seja no 
mesmo terminal 
 
Manual de Procedimentos da Operação - Módulo 5 - Submódulo 5.11 
Cadastro de Informações Operacionais Código Revisão Item Vigência 
Cadastro de Dados Operacionais de Equipamentos da 
Área 230 kV Oeste da Região Nordeste CD-CT.NE.2OE.01 60 2.1.3. 12/11/2024 
 
Referência: Email intitulado “RES: Divergências referentes a religamento automático” datado de 11/11/2024 às 14h19 12/36 
 
3.12. LT 230 KV PIRIPIRI / TERESINA III – C1(L7) 
Religamento Automático 
LT em Mesma 
Estrutura 
LT em Mesma Faixa 
de Passagem Tipo Situação Sentido Ajustes 
Tripolar Ligado Da SE TST 
para a SE PRI 
V    23 kV 
    30° 
f    0,2 Hz 
Não NI 
Notas / Restrições: 
 
Religamento Manual 
Sentido Quantidade de 
Tentativas 
Intervalo entre os 
religamentos (minutos) 
Dispositivo de 
sincronismo Ajustes 
NI 2 1 
Relé de Check de 
sincronismo nos 
dois terminais 
V    23 kV 
    40° 
f    0,2 Hz 
 
3.13. LT 230 KV SÃO JOÃO DO PIAUÍ / ELISEU MARTINS - C1(M2) 
Religamento Automático 
LT em Mesma 
Estrutura 
LT em Mesma Faixa 
de Passagem Tipo Situação Sentido Ajustes 
Tripolar Ligado 
Da SE SJI 
para a SE 
ELM 
Tempo Morto SJI: 
5,0 s 
Tempo Morto ELM: 
5,5 s 
V   26 kV 
    30° 
f    0,2 Hz 
Não NI 
Notas / Restrições: 
 
Religamento Manual 
Sentido Quantidade de 
Tentativas 
Intervalo entre os 
religamentos (minutos) 
Dispositivo de 
sincronismo Ajustes 
NI 2 
Imediato para terminais 
distintos NI NI 15 minutos caso seja no 
mesmo terminal 
 
Manual de Procedimentos da Operação - Módulo 5 - Submódulo 5.11 
Cadastro de Informações Operacionais Código Revisão Item Vigência 
Cadastro de Dados Operacionais de Equipamentos da 
Área 230 kV Oeste da Região Nordeste CD-CT.NE.2OE.01 60 2.1.3. 12/11/2024 
 
Referência: Email intitulado “RES: Divergências referentes a religamento automático” datado de 11/11/2024 às 14h19 13/36 
 
3.14. LT 230 KV SÃO JOÃO DO PIAUÍ / PICOS - C1(M1) 
Religamento Automático 
LT em Mesma 
Estrutura 
LT em Mesma Faixa 
de Passagem Tipo Situação Sentido Ajustes 
Tripolar Ligado Da SE SJI 
para a SE PIC 
Tempo Morto SJI: 
5,0 s 
Tempo Morto PIC: 
5,6 s 
V   13,4 kV 
    40° 
f    0,2 Hz 
Não NI 
Notas / Restrições: 
 
Religamento Manual 
Sentido Quantidade de 
Tentativas 
Intervalo entre os 
religamentos (minutos) 
Dispositivo de 
sincronismo Ajustes 
NI 2 
Imediato para terminais 
distintos NI NI 15 minutos caso seja no 
mesmo terminal 
 
3.15. LT 230 KV TERESINA / PIRIPIRI - C1(S1) 
Religamento Automático 
LT em Mesma 
Estrutura 
LT em Mesma Faixa 
de Passagem Tipo Situação Sentido Ajustes 
Tripolar Ligado Da SE TSA 
para a SE PRI 
Tempo Morto TSA: 
5,0 s 
Tempo Morto PRI: 
5,6 s 
V   13,2 kV 
    30° 
f    0,2 Hz 
Não NI 
Notas / Restrições: 
 
Religamento Manual 
Sentido Quantidade de 
Tentativas 
Intervalo entre os 
religamentos (minutos) 
Dispositivo de 
sincronismo Ajustes 
NI 2 Imediato para terminais 
distintos NI NI 
Manual de Procedimentos da Operação - Módulo 5 - Submódulo 5.11 
Cadastro de Informações Operacionais Código Revisão Item Vigência 
Cadastro de Dados Operacionais de Equipamentos da 
Área 230 kV Oeste da Região Nordeste CD-CT.NE.2OE.01 60 2.1.3. 12/11/2024 
 
Referência: Email intitulado “RES: Divergências referentes a religamento automático” datado de 11/11/2024 às 14h19 14/36 
 
Religamento Manual 
Sentido Quantidade de 
Tentativas 
Intervalo entre os 
religamentos (minutos) 
Dispositivo de 
sincronismo Ajustes 
15 minutos caso seja no 
mesmo terminal 
 
3.16. LT 230 KV TERESINA II / TERESINA - C1(L3) 
Religamento Automático 
LT em Mesma 
Estrutura 
LT em Mesma Faixa 
de Passagem Tipo Situação Sentido Ajustes 
Tripolar Ligado Da SE TSD 
para a SE TSA 
Tempo Morto TSD: 
5,0 s 
Tempo Morto TSA: 
5,5 s 
V   33,2 kV 
    25° 
f    0,2 Hz 
LT 230 KV 
TERESINA II / 
TERESINA – C2(L4) 
( 25,3 KM) 
NI 
Notas / Restrições: 
 
Religamento Manual 
Sentido Quantidade de 
Tentativas 
Intervalo entre os 
religamentos (minutos) 
Dispositivo de 
sincronismo Ajustes 
NI 2 
Imediato para terminais 
distintos NI NI 15 minutos caso seja no 
mesmo terminal 
 
3.17. LT 230 KV TERESINA II / TERESINA - C2(L4) 
Religamento Automático 
LT em Mesma 
Estrutura 
LT em Mesma Faixa 
de Passagem Tipo Situação Sentido Ajustes 
Tripolar Ligado Da SE TSD 
para a SE TSA 
Tempo Morto TSD: 
5,0 s 
Tempo Morto TSA: 
5,5 s 
V   33,2 kV 
    25° 
f    0,2 Hz 
LT 230 KV 
TERESINA II / 
TERESINA – C1(L3) 
( 25,3 KM) 
NI 
Notas / Restrições: 
Manual de Procedimentos da Operação - Módulo 5 - Submódulo 5.11 
Cadastro de Informações Operacionais Código Revisão Item Vigência 
Cadastro de Dados Operacionais de Equipamentos da 
Área 230 kV Oeste da Região Nordeste CD-CT.NE.2OE.01 60 2.1.3. 12/11/2024 
 
Referência: Email intitulado “RES: Divergências referentes a religamento automático” datado de 11/11/2024 às 14h19 15/36 
 
 
Religamento Manual 
Sentido Quantidade de 
Tentativas 
Intervalo entre os 
religamentos (minutos) 
Dispositivo de 
sincronismo Ajustes 
NI 2 
Imediato para terminais 
distintos NI NI 15 minutos caso seja no 
mesmo terminal 
 
 
3.18. LT 230 KV TERESINA II / TERESINA III – C1(L5) 
Religamento Automático 
LT em Mesma 
Estrutura 
LT em Mesma Faixa 
de Passagem Tipo Situação Sentido Ajustes 
Tripolar Ligado Da SE TSD 
para a SE TST 
Tempo Morto TSD: 
5,0 s 
Tempo Morto TST: 
5,5 s 
V   29,9 kV 
    30° 
f    0,2 Hz 
LT 230 KV 
TERESINA II / 
TERESINA III – C2(L6) 
(22,77 KM) 
NI 
Notas / Restrições: 
 
Religamento Manual 
Sentido Quantidade de 
Tentativas 
Intervalo entre os 
religamentos (minutos) 
Dispositivo de 
sincronismo Ajustes 
NI 2 
Imediato para terminais 
distintos NI NI 15 minutos caso seja no 
mesmo terminal 
 
3.19. LT 230 KV TERESINA II / TERESINA III – C2(L6) 
Religamento Automático 
LT em Mesma 
Estrutura 
LT em Mesma Faixa 
de Passagem Tipo Situação Sentido Ajustes 
Tripolar Ligado Da SE TSD 
para a SE TST 
Tempo Morto TSD: 
5,0 s 
Tempo Morto TST: 
LT 230 KV 
TERESINA II / 
TERESINA III – C1(L5) 
NI 
Manual de Procedimentos da Operação - Módulo 5 - Submódulo 5.11 
Cadastro de Informações Operacionais Código Revisão Item Vigência 
Cadastro de Dados Operacionais de Equipamentos da 
Área 230 kV Oeste da Região Nordeste CD-CT.NE.2OE.01 60 2.1.3. 12/11/2024 
 
Referência: Email intitulado “RES: Divergências referentes a religamento automático” datado de 11/11/2024 às 14h19 16/36 
 
Religamento Automático 
LT em Mesma 
Estrutura 
LT em Mesma Faixa 
de Passagem Tipo Situação Sentido Ajustes 
5,5 s 
V   29,9 kV 
    30° 
f    0,2 Hz 
(22,77  KM) 
Notas / Restrições: 
 
Religamento Manual 
Sentido Quantidade de 
Tentativas 
Intervalo entre os 
religamentos (minutos) 
Dispositivo de 
sincronismo Ajustes 
NI 2 
Imediato para terminais 
distintos NI NI 15 minutos caso seja no 
mesmo terminal 
 
3.20. LT 230 KV USINA BOA ESPERANÇA / BOA ESPERANÇA - C1(V1) 
Religamento Automático 
LT em Mesma 
Estrutura 
LT em Mesma Faixa 
de Passagem Tipo Situação Sentido Ajustes 
Tripolar Desligado Da SE UBE 
para SE BEA 
Tempo Morto UBE: 
3,0 s 
Tempo Morto BEA: 
3,5 s 
V   44 kV 
    40° 
f    0,5 Hz 
Não NI 
Notas / Restrições: 
 
Religamento Manual 
Sentido Quantidade de 
Tentativas 
Intervalo entre os 
religamentos (minutos) 
Dispositivo de 
sincronismo Ajustes 
NE NE 
NE 
NE NE 
NE 
 
Manual de Procedimentos da Operação - Módulo 5 - Submódulo 5.11 
Cadastro de Informações Operacionais Código Revisão Item Vigência 
Cadastro de Dados Operacionais de Equipamentos da 
Área 230 kV Oeste da Região Nordeste CD-CT.NE.2OE.01 60 2.1.3. 12/11/2024 
 
Referência: Email intitulado “RES: Divergências referentes a religamento automático” datado de 11/11/2024 às 14h19 17/36 
 
4. DADOS OPERACIONAIS DE TRANSFORMADORES 
Orientações sobre os dados operacionais de transformadores: 
Campo “ Dispositivo de Sincronismo ”: indica os terminais onde estão instalados e em funcionamento . 
Dispositivo de Sincronismo é o equipamento utilizado para verificação das condições de fechamento em anel 
ou paralelo entre dois pontos elétricos, o campo é preenchido com “NE” – não existe. Se em algum disjuntor 
do terminal não houver o dispositivo de sincronismo essa informação deve ser destacada. 
Campo “Ajustes”: indica os ajustes de diferença de tensão, defasagem angular e diferença de frequência 
instalados para a função de verificação de sincronismo para o religamento manual de cada terminal;  caso 
não exista dispositivo de sincronismo, o campo é preenchido com hifens (---). 
Campo “Características dos Comutadores”:  
• Campo “Comutador sob carga”: indica o número de posições associando a tensão correspondente 
à identificação das posições mínima, máxima e nominal, bem como a variação de tensão entre cada 
posição, conforme os dados de placa do transformador. Caso os números das posições dos dados 
de placa do transformador sejam diferentes dos números das posições utilizadas no Sistema de 
Supervisão e Controle, incluir, além das posições dos dados de placa, também as posições utilizadas 
no SSC. Caso não exista comutador sob carga no transformador, o campo é preenchido com “NE” 
– não existe. 
• Campo “ Comutador em Vazio ”: indica as posições do comutador em vazio com os respectivos 
valores de tensão e sua posição em serviço. Caso não exista comutador em vazio no transformador, 
o campo é preenchido com “NE” – não existe. 
Campo “ Notas / Restrições ”: campo opcional que  indica informações relevantes a respeito do 
transformador. 
Caso os dados operacionais não sejam informados pelo Agente, os campos são preenchidos com “NI” – não 
informado. 
 
4.1. SE BOA ESPERANÇA - AUTOTRANSFORMADOR 05T1 DE 500/230/13,8 KV - 300 MVA 
Dispositivo de 
Sincronismo Ajustes 
Características dos Comutadores 
Comutador sob Carga Comutador em Vazio 
NI NI NI NI 
Notas / Restrições: 
 
4.2. SE CHAPADA I – TRANSFORMADOR 230/138/13,8 KV – 200 MVA – T3 E T4 
Dispositivo de 
Sincronismo Ajustes 
Características dos Comutadores 
Comutador sob Carga Comutador em Vazio 
NI NI 1 = 240 kV 
17 = 220 kV 
33= 200 kV 
NI 
Notas / Restrições: 
 
Manual de Procedimentos da Operação - Módulo 5 - Submódulo 5.11 
Cadastro de Informações Operacionais Código Revisão Item Vigência 
Cadastro de Dados Operacionais de Equipamentos da 
Área 230 kV Oeste da Região Nordeste CD-CT.NE.2OE.01 60 2.1.3. 12/11/2024 
 
Referência: Email intitulado “RES: Divergências referentes a religamento automático” datado de 11/11/2024 às 14h19 18/36 
 
4.3. SE CURRAL NOVO DO PIAUÍ II - AUTOTRANSFORMADOR - T1 - 500/230/13,8 KV 
Dispositivo de 
Sincronismo Ajustes 
Características dos Comutadores 
Comutador sob Carga Comutador em Vazio 
NI NI NI NI 
Notas / Restrições: 
 
4.4. SE CURRAL NOVO DO PIAUÍ II - AUTOTRANSFORMADOR – T2 - 500/230/13,8 KV 
Dispositivo de 
Sincronismo Ajustes 
Características dos Comutadores 
Comutador sob Carga Comutador em Vazio 
NI NI NI NI 
Notas / Restrições: 
4.5. SE CURRAL NOVO DO PIAUÍ II - AUTOTRANSFORMADOR – T3 - 500/230/13,8 KV 
Dispositivo de 
Sincronismo Ajustes 
Características dos Comutadores 
Comutador sob Carga Comutador em Vazio 
NI NI NI NI 
Notas / Restrições: 
 
4.6. SE CURRAL NOVO DO PIAUÍ II - AUTOTRANSFORMADOR – T4 500/230/13,8 KV – 600 MVA 
Dispositivo de 
Sincronismo Ajustes 
Características dos Comutadores 
Comutador sob Carga Comutador em Vazio 
NI NI 
Lado de 230 kV: O 
comutador pode variar em 
33 posições (1 a 33, tendo 
como nominal a posição 18) 
variando da 1 = 271,4 kV a 
33 = 197,8 kV, sendo que em 
cada posição o comutador 
varia a tensão em -2,3 kV 
NE 
Notas / Restrições: Comutador sob carga com comando automático. 
 
4.7. SE GILBUÉS II – AUTOTRANSFORMADOR – GDAT7 – 01 – 500 / 230 / 13,8 KV 
Dispositivo de 
Sincronismo Ajustes 
Características dos Comutadores 
Comutador sob Carga Comutador em Vazio 
NI NI NI NI 
Notas / Restrições: 
Manual de Procedimentos da Operação - Módulo 5 - Submódulo 5.11 
Cadastro de Informações Operacionais Código Revisão Item Vigência 
Cadastro de Dados Operacionais de Equipamentos da 
Área 230 kV Oeste da Região Nordeste CD-CT.NE.2OE.01 60 2.1.3. 12/11/2024 
 
Referência: Email intitulado “RES: Divergências referentes a religamento automático” datado de 11/11/2024 às 14h19 19/36 
 
4.8. SE BOA ESPERANÇA - TRANSFORMADOR – T5 - 230/69/13,8 KV – 100 MVA  
Dispositivo de 
Sincronismo Ajustes 
Características dos Comutadores 
Comutador sob Carga Comutador em Vazio 
Em ambos os 
terminais 
No lado de 230 kV: 
ΔV ≤ 11,5 kV 
Δδ ≤ 30 ° 
Δf ≤ 0,1 Hz 
 
No lado de 69 kV: 
ΔV ≤ 11,5 kV 
Δδ ≤ 30 ° 
Δf ≤ 0,1 Hz 
1 = 257 kV 
7 = 230 kV 
11 = 212 kV 
21 = 167 kV 
 
Variação = 4,5 kV 
NE 
Notas / Restrições:  
(1) Modo de Operação dos trafos: MANUAL ou AUTOMÁTICO. 
(2) Paralelismos dos trafos: Um (01) em MESTRE e os demais em ESCRAVO. 
(3) Comutador sob Carga (LTC/TAP):  
a) Cada mudança de posição do comutador corresponde a 4,5 kV de variação da tensão. 
b) A posição 11 é o LTC/TAP central 
A posição 07 do LTC/TAP corresponde a tensão nominal. 
 
4.9. SE BOA ESPERANÇA - TRANSFORMADOR – T6 - 230/69/13,8 KV – 100 MVA  
Dispositivo de 
Sincronismo Ajustes 
Características dos Comutadores 
Comutador sob Carga Comutador em Vazio 
Em ambos os 
terminais 
No lado de 230 kV: 
ΔV ≤ 11,5 kV 
Δδ ≤ 30 ° 
Δf ≤ 0,1 Hz 
 
No lado de 69 kV: 
ΔV ≤ 11,5 kV 
Δδ ≤ 30 ° 
Δf ≤ 0,1 Hz 
1 = 257 kV 
7 = 230 kV 
11 = 212 kV 
21 = 167 kV 
 
Variação = 4,5 kV 
NE 
Notas / Restrições:  
(1) Modo de Operação dos trafos: MANUAL ou AUTOMÁTICO. 
(2) Paralelismos dos trafos: Um (01) em MESTRE e os demais em ESCRAVO. 
(3) Comutador sob Carga (LTC/TAP):  
a) Cada mudança de posição do comutador corresponde a 4,5 kV de variação da tensão. 
b) A posição 11 é o LTC/TAP central 
A posição 07 do LTC/TAP corresponde a tensão nominal. 
 
Manual de Procedimentos da Operação - Módulo 5 - Submódulo 5.11 
Cadastro de Informações Operacionais Código Revisão Item Vigência 
Cadastro de Dados Operacionais de Equipamentos da 
Área 230 kV Oeste da Região Nordeste CD-CT.NE.2OE.01 60 2.1.3. 12/11/2024 
 
Referência: Email intitulado “RES: Divergências referentes a religamento automático” datado de 11/11/2024 às 14h19 20/36 
 
4.10. SE ELISEU MARTINS - TRANSFORMADOR - T1 - 230/69 KV  
Dispositivo de 
Sincronismo Ajustes 
Características dos Comutadores 
Comutador sob Carga Comutador em Vazio 
NI NI NI NI 
Notas / Restrições:  
 
4.11. SE ELISEU MARTINS - TRANSFORMADOR - T2 - 230/69 KV  
Dispositivo de 
Sincronismo Ajustes 
Características dos Comutadores 
Comutador sob Carga Comutador em Vazio 
NI NI NI NI 
Notas / Restrições:  
 
4.12. SE PICOS - TRANSFORMADOR - T1 - 230/69 KV  
Dispositivo de 
Sincronismo Ajustes 
Características dos Comutadores 
Comutador sob Carga Comutador em Vazio 
NI NI NI NI 
Notas / Restrições:  
 
4.13. SE PICOS - TRANSFORMADOR - T2 - 230/69/13.8 KV  
Dispositivo de 
Sincronismo Ajustes 
Características dos Comutadores 
Comutador sob Carga Comutador em Vazio 
NI NI NI NI 
Notas / Restrições:  
 
 
4.14. SE PICOS - TRANSFORMADOR - T3 - 230/69 KV  
Dispositivo de 
Sincronismo Ajustes 
Características dos Comutadores 
Comutador sob Carga Comutador em Vazio 
NI NI NI NI 
Notas / Restrições:  
 
Manual de Procedimentos da Operação - Módulo 5 - Submódulo 5.11 
Cadastro de Informações Operacionais Código Revisão Item Vigência 
Cadastro de Dados Operacionais de Equipamentos da 
Área 230 kV Oeste da Região Nordeste CD-CT.NE.2OE.01 60 2.1.3. 12/11/2024 
 
Referência: Email intitulado “RES: Divergências referentes a religamento automático” datado de 11/11/2024 às 14h19 21/36 
 
4.15. SE PICOS - TRANSFORMADOR - T4 - 230/69 KV  
Dispositivo de 
Sincronismo Ajustes 
Características dos Comutadores 
Comutador sob Carga Comutador em Vazio 
NI NI NI NI 
Notas / Restrições:  
 
4.16. SE PARNAÍBA III – AUTOTRANSFORMADOR 500 / 230 KV – 600 MVA – 7ATD -20  
Dispositivo de 
Sincronismo Ajustes 
Características dos Comutadores 
Comutador sob Carga Comutador em Vazio 
Ambos os 
terminais 
NI 1 = 317.54 
Z1= 288.67 
NE 
Notas / Restrições: Modo de operação manual 
 
4.17. SE PARNAÍBA III – AUTOTRANSFORMADOR 600/230 KV – 600 MVA – 7ATC -20  
Dispositivo de 
Sincronismo Ajustes 
Características dos Comutadores 
Comutador sob Carga Comutador em Vazio 
Ambos os 
terminais 
NI 1 = 317.54 
Z1= 288.67 
NE 
Notas / Restrições: Modo de operação manual 
 
 
4.18. SE PARNAÍBA III – TRANSFORMADOR 230 / 138 KV – 150 MVA – 4TRA – 20 
Dispositivo de 
Sincronismo Ajustes 
Características dos Comutadores 
Comutador sob Carga Comutador em Vazio 
Setor 230 kV NI 1 = 253.000 
Z1= 207.000 
NE 
Notas / Restrições: Modo de operação manual 
 
4.19. SE PARNAÍBA III – TRANSFORMADOR 230 / 138 KV – 150 MVA – 4TRB – 20 
Dispositivo de 
Sincronismo Ajustes 
Características dos Comutadores 
Comutador sob Carga Comutador em Vazio 
Setor 230 kV NI 1 = 253.000 
Z1= 207.000 
NE 
Notas / Restrições: Modo de operação manual 
 
Manual de Procedimentos da Operação - Módulo 5 - Submódulo 5.11 
Cadastro de Informações Operacionais Código Revisão Item Vigência 
Cadastro de Dados Operacionais de Equipamentos da 
Área 230 kV Oeste da Região Nordeste CD-CT.NE.2OE.01 60 2.1.3. 12/11/2024 
 
Referência: Email intitulado “RES: Divergências referentes a religamento automático” datado de 11/11/2024 às 14h19 22/36 
 
4.20. SE PIRIPIRI - TRANSFORMADOR - T1 - 230/69/13,8 KV  
Dispositivo de 
Sincronismo Ajustes 
Características dos Comutadores 
Comutador sob Carga Comutador em Vazio 
NI NI NI NI 
Notas / Restrições: NI 
 
4.21. SE PIRIPIRI - TRANSFORMADOR - T2 - 230/69 KV  
Dispositivo de 
Sincronismo Ajustes 
Características dos Comutadores 
Comutador sob Carga Comutador em Vazio 
NI NI NI NI 
Notas / Restrições: NI 
 
4.22. SE PIRIPIRI - TRANSFORMADOR - T3 - 230/69 KV  
Dispositivo de 
Sincronismo Ajustes 
Características dos Comutadores 
Comutador sob Carga Comutador em Vazio 
NI NI NI NI 
Notas / Restrições: NI 
 
4.23. SE PIRIPIRI - TRANSFORMADOR - T4 - 230/138 KV  
 
Dispositivo de 
Sincronismo Ajustes 
Características dos Comutadores 
Comutador sob Carga Comutador em Vazio 
NI NI NI NI 
Notas / Restrições: NI 
4.24. SE PIRIPIRI - TRANSFORMADOR - T5 - 230/138 KV  
Dispositivo de 
Sincronismo Ajustes 
Características dos Comutadores 
Comutador sob Carga Comutador em Vazio 
NI NI NI NI 
Notas / Restrições: NI 
 
Manual de Procedimentos da Operação - Módulo 5 - Submódulo 5.11 
Cadastro de Informações Operacionais Código Revisão Item Vigência 
Cadastro de Dados Operacionais de Equipamentos da 
Área 230 kV Oeste da Região Nordeste CD-CT.NE.2OE.01 60 2.1.3. 12/11/2024 
 
Referência: Email intitulado “RES: Divergências referentes a religamento automático” datado de 11/11/2024 às 14h19 23/36 
 
4.25. SE SÃO JOÃO DO PIAUÍ - AUTOTRANSFORMADOR 05T1 DE 500/230/13,8 KV - 300 MVA 
Dispositivo de 
Sincronismo Ajustes 
Características dos Comutadores 
Comutador sob Carga Comutador em Vazio 
NI NI NI NI 
Notas / Restrições: NI 
 
4.26. SE SÃO JOÃO DO PIAUÍ - TRANSFORMADOR - T3 - 230/69 KV  
Dispositivo de 
Sincronismo Ajustes 
Características dos Comutadores 
Comutador sob Carga Comutador em Vazio 
NI NI NI NI 
Notas / Restrições: NI 
 
4.27. SE SÃO JOÃO DO PIAUÍ - TRANSFORMADOR - T4 - 220/65,32KV  
Dispositivo de 
Sincronismo Ajustes 
Características dos Comutadores 
Comutador sob Carga Comutador em Vazio 
NI NI NI NI 
Notas / Restrições: NI 
 
4.28. SE TERESINA II - AUTOTRANSFORMADOR 500/230/13,8 KV - 300 MVA – T1, T2 ou T4 
Dispositivo de 
Sincronismo Ajustes 
Características dos Comutadores 
Comutador sob Carga Comutador em Vazio 
NI NI NI NI 
Notas / Restrições: NI 
 
4.29. SE TERESINA II - AUTOTRANSFORMADOR 500/230/13,8 KV - 300 MVA – T5 
Dispositivo de 
Sincronismo Ajustes 
Características dos Comutadores 
Comutador sob Carga Comutador em Vazio 
Nos disjuntores 
de alta e baixa 
V    20% 
    30° 
f    0,2 Hz 
Tensão(kV)1Tensão(kV)2 
1  296,077  269,161  
2  292,799  266,181  
3  289,520  263,200  
4  286,241  260,219  
5  282,962  257,238  
6  279,683  254,257  
7  276,404  251,276  
NI 
Manual de Procedimentos da Operação - Módulo 5 - Submódulo 5.11 
Cadastro de Informações Operacionais Código Revisão Item Vigência 
Cadastro de Dados Operacionais de Equipamentos da 
Área 230 kV Oeste da Região Nordeste CD-CT.NE.2OE.01 60 2.1.3. 12/11/2024 
 
Referência: Email intitulado “RES: Divergências referentes a religamento automático” datado de 11/11/2024 às 14h19 24/36 
 
Dispositivo de 
Sincronismo Ajustes 
Características dos Comutadores 
Comutador sob Carga Comutador em Vazio 
8  273,125  248,295  
9  269,846  245,315  
10  266,567  242,334  
11  263,286  239,351  
12  260,009  236,372  
13A  
256,730  233,391  13  
13B  
14  253,451  230,410  
15  250,172  227,429  
16  246,893  224,448  
17  243,614  221,467  
18  240,335  218,486  
19  237,056  215,505  
20  233,777  212,525  
21  230,498  209,544  
22  227,219  206,563  
23  223,940  203,582  
24  220,661  200,601  
25  217,385  197,623  
 
Notas / Restrições: (1) Referidos a base do equipamento (550 kV);(2) Referidos a base do sistema (500kV). 
 
4.30. SE TERESINA - TRANSFORMADOR - T1 - 230/13.8 KV  
Dispositivo de 
Sincronismo Ajustes 
Características dos Comutadores 
Comutador sob Carga Comutador em Vazio 
NI NI NI NI 
Notas / Restrições: Este transformador tem uma potência declarada de 60 MVA, porém conta com um 
regulador de tensão em série de 40 MVA, limitando assim a potência do transformador. 
 
4.31. SE TERESINA - TRANSFORMADOR - T2 - 230/13.8 KV  
Dispositivo de 
Sincronismo Ajustes 
Características dos Comutadores 
Comutador sob Carga Comutador em Vazio 
NI NI NI NI 
Notas / Restrições: NI 
Manual de Procedimentos da Operação - Módulo 5 - Submódulo 5.11 
Cadastro de Informações Operacionais Código Revisão Item Vigência 
Cadastro de Dados Operacionais de Equipamentos da 
Área 230 kV Oeste da Região Nordeste CD-CT.NE.2OE.01 60 2.1.3. 12/11/2024 
 
Referência: Email intitulado “RES: Divergências referentes a religamento automático” datado de 11/11/2024 às 14h19 25/36 
 
4.32. SE TERESINA - TRANSFORMADOR - T3 - 230/69 KV  
Dispositivo de 
Sincronismo Ajustes 
Características dos Comutadores 
Comutador sob Carga Comutador em Vazio 
NI NI NI NI 
Notas / Restrições: NI 
 
4.33. SE TERESINA - TRANSFORMADOR - T4 - 230/69 KV  
Dispositivo de 
Sincronismo Ajustes 
Características dos Comutadores 
Comutador sob Carga Comutador em Vazio 
NI NI NI NI 
Notas / Restrições: NI 
4.34. SE TERESINA - TRANSFORMADOR - T5 - 230/69 KV  
Dispositivo de 
Sincronismo Ajustes 
Características dos Comutadores 
Comutador sob Carga Comutador em Vazio 
NI NI  NI 
Notas / Restrições:  
 
4.35. SE TERESINA - TRANSFORMADOR - T6 - 230/69 KV  
Dispositivo de 
Sincronismo Ajustes 
Características dos Comutadores 
Comutador sob Carga Comutador em Vazio 
NI NI NI NI 
Notas / Restrições: NI 
 
4.36. SE TERESINA II - TRANSFORMADOR - T3 - 230/13.8 KV  
Dispositivo de 
Sincronismo Ajustes 
Características dos Comutadores 
Comutador sob Carga Comutador em Vazio 
NI NI NI NI 
Notas / Restrições: NI 
Manual de Procedimentos da Operação - Módulo 5 - Submódulo 5.11 
Cadastro de Informações Operacionais Código Revisão Item Vigência 
Cadastro de Dados Operacionais de Equipamentos da 
Área 230 kV Oeste da Região Nordeste CD-CT.NE.2OE.01 60 2.1.3. 12/11/2024 
 
Referência: Email intitulado “RES: Divergências referentes a religamento automático” datado de 11/11/2024 às 14h19 26/36 
 
4.37. SE TERESINA II – TRANSFORMADOR - T9 - 230/69/13,8 KV 
Dispositivo de 
Sincronismo Ajustes 
Características dos Comutadores 
Comutador sob Carga Comutador em Vazio 
Em ambos os 
terminais 
No lado de 230 kV: 
ΔV ≤ 11,5 kV 
Δδ ≤ 10 ° 
Δf ≤ 0,1 Hz 
 
No lado de 69 kV: 
ΔV ≤ 11,5 kV 
Δδ ≤ 10 ° 
Δf ≤ 0,1 Hz 
1 = 257 kV 
7 = 230 kV 
11 = 212 kV 
21 = 167 kV 
 
Variação = 4,5 kV 
NE 
Notas / Restrições:  
(1) Modo de Operação dos trafos: MANUAL ou AUTOMÁTICO. 
(2) Paralelismos dos trafos: Um (01) em MESTRE e os demais em ESCRAVO. 
(3) Comutador sob Carga (LTC/TAP):  
a) Cada mudança de posição do comutador corresponde a 4,5 kV de variação da tensão. 
b) A posição 11 é o LTC/TAP central 
A posição 07 do LTC/TAP corresponde a tensão nominal. 
4.38. SE TERESINA II – TRANSFORMADOR - T10 - 230/69/13,8 KV 
Dispositivo de 
Sincronismo Ajustes 
Características dos Comutadores 
Comutador sob Carga Comutador em Vazio 
Em ambos os 
terminais 
No lado de 230 kV: 
ΔV ≤ 11,5 kV 
Δδ ≤ 10 ° 
Δf ≤ 0,1 Hz 
 
No lado de 69 kV: 
ΔV ≤ 11,5 kV 
Δδ ≤ 10 ° 
Δf ≤ 0,1 Hz 
1 = 257 kV 
7 = 230 kV 
11 = 212 kV 
21 = 167 kV 
 
Variação = 4,5 kV 
NE 
Notas / Restrições:  
(1) Modo de Operação dos trafos: MANUAL ou AUTOMÁTICO. 
(2) Paralelismos dos trafos: Um (01) em MESTRE e os demais em ESCRAVO. 
(3) Comutador sob Carga (LTC/TAP):  
a) Cada mudança de posição do comutador corresponde a 4,5 kV de variação da tensão. 
b) A posição 11 é o LTC/TAP central 
Manual de Procedimentos da Operação - Módulo 5 - Submódulo 5.11 
Cadastro de Informações Operacionais Código Revisão Item Vigência 
Cadastro de Dados Operacionais de Equipamentos da 
Área 230 kV Oeste da Região Nordeste CD-CT.NE.2OE.01 60 2.1.3. 12/11/2024 
 
Referência: Email intitulado “RES: Divergências referentes a religamento automático” datado de 11/11/2024 às 14h19 27/36 
 
Dispositivo de 
Sincronismo Ajustes 
Características dos Comutadores 
Comutador sob Carga Comutador em Vazio 
A posição 07 do LTC/TAP corresponde a tensão nominal. 
 
4.39. SE TERESINA III - TRANSFORMADOR – T1 - 230/69/13.8 KV 
Dispositivo de 
Sincronismo Ajustes 
Características dos Comutadores 
Comutador sob Carga Comutador em Vazio 
NI NI NI NI 
Notas / Restrições: NI 
 
4.40. SE TERESINA III - TRANSFORMADOR – T2 - 230/69 KV  
Dispositivo de 
Sincronismo Ajustes 
Características dos Comutadores 
Comutador sob Carga Comutador em Vazio 
NI NI NI NI 
Notas / Restrições: NI 
 
4.41. SE TERESINA III - TRANSFORMADOR – T3 - 230/69 KV  
Dispositivo de 
Sincronismo Ajustes 
Características dos Comutadores 
Comutador sob Carga Comutador em Vazio 
NI NI NI NI 
Notas / Restrições: NI 
4.42. USINA BOA ESPERANÇA/SE BOA ESPERANÇA - TRANSFORMADOR - T5 - 230/69 KV  
Dispositivo de 
Sincronismo Ajustes 
Características dos Comutadores 
Comutador sob Carga Comutador em Vazio 
NI NI NI NI 
Notas / Restrições: NI 
4.43. USINA BOA ESPERANÇA/SE BOA ESPERANÇA - TRANSFORMADOR - T6 - 230/69/13,8 KV  
Dispositivo de 
Sincronismo Ajustes 
Características dos Comutadores 
Comutador sob Carga Comutador em Vazio 
NI NI NI NI 
Notas / Restrições: NI 
Manual de Procedimentos da Operação - Módulo 5 - Submódulo 5.11 
Cadastro de Informações Operacionais Código Revisão Item Vigência 
Cadastro de Dados Operacionais de Equipamentos da 
Área 230 kV Oeste da Região Nordeste CD-CT.NE.2OE.01 60 2.1.3. 12/11/2024 
 
Referência: Email intitulado “RES: Divergências referentes a religamento automático” datado de 11/11/2024 às 14h19 28/36 
 
4.44. USINA BOA ESPERANÇA/SE BOA ESPERANÇA - TRANSFORMADOR - T8 - 230/69 KV 
Dispositivo de 
Sincronismo Ajustes 
Características dos Comutadores 
Comutador sob Carga Comutador em Vazio 
NI NI NI NI 
Notas / Restrições: NI 
 
4.45. SE RIBEIRO GONÇALVES - AUTOTRANSFORMADOR 05T1 DE 500/230/13,8 KV - 300 MVA 
Dispositivo de 
Sincronismo Ajustes 
Características dos Comutadores 
Comutador sob Carga Comutador em Vazio 
NI NI 1 = 550 kV 
19 = 450 kV 
NE 
Notas / Restrições: NI 
4.46. SE RIBEIRO GONÇALVES - AUTOTRANSFORMADOR 05T2 DE 500/230/13,8 KV - 300 MVA 
Dispositivo de 
Sincronismo Ajustes 
Características dos Comutadores 
Comutador sob Carga Comutador em Vazio 
NI NI NI NE 
Notas / Restrições: NI 
4.47. SE RIBEIRO GONÇALVES - TRANSFORMADOR 230/69/13,8 KV - 50 MVA – RGTF6-01 
Dispositivo de 
Sincronismo Ajustes 
Características dos Comutadores 
Comutador sob Carga Comutador em Vazio 
NI NI NI NE 
Notas / Restrições: NI 
4.48. SE RIBEIRO GONÇALVES - TRANSFORMADOR 230/69/13,8 KV - 50 MVA – RGTF6-02 
Dispositivo de 
Sincronismo Ajustes 
Características dos Comutadores 
Comutador sob Carga Comutador em Vazio 
NI NI 1 = 253 kV  
10 = 230 kV 
19 = 207 kV 
NE 
Notas / Restrições: NI 
5. DADOS OPERACIONAIS DE UNIDADES GERADORAS HIDRÁULICAS 
Orientações sobre os dados operacionais de unidades geradoras de usinas hidrelétricas:  
Código Único de Empreendimentos em Geração – CEG: está apresentado ao lado do nome da usina. O CEG 
permanece associado ao  empreendimento, independente mente de alteração de atributos ou de 
Manual de Procedimentos da Operação - Módulo 5 - Submódulo 5.11 
Cadastro de Informações Operacionais Código Revisão Item Vigência 
Cadastro de Dados Operacionais de Equipamentos da 
Área 230 kV Oeste da Região Nordeste CD-CT.NE.2OE.01 60 2.1.3. 12/11/2024 
 
Referência: Email intitulado “RES: Divergências referentes a religamento automático” datado de 11/11/2024 às 14h19 29/36 
 
proprietários da usina. O número CEG é obtido no site da ANEEL. 
Campo “Unidade Geradora”: identifica cada unidade geradora conforme diagrama unifilar do agente. 
Campo “Faixa de Tensão (kV)”: 
• Campo “Nom.”: indica a tensão nominal da unidade geradora, em kV. 
• Campo “Mín.”: indica a tensão mínima da unidade geradora, em kV. 
• Campo “Máx.”: indica a tensão máxima da unidade geradora, em kV. 
Campo “Potência Aparente (MVA)”: 
• Campo “Nom.”: indica a potência aparente nominal da unidade geradora, em MVA. 
• Campo “FP”: indica o fator de potência nominal da unidade geradora. 
Campo “Potência Reativa (Mvar)”: 
• Campo “ Mín.”: indica a potência reativa mínima da unidade geradora , em Mvar , podendo ser  
referenciada a curva de capabilidade da unidade geradora. 
• Campo “ Máx.”: indica a potência reativa máxima da unidade geradora , em Mvar , podendo ser  
referenciada a curva de capabilidade da unidade geradora. 
Campo “Faixa de Operação (MW)”: 
• Campo “ Permitida”: indica a faixa de potência ativa permitida da unidade geradora , em MW, 
associada a um determinado nível do reservatório, caso necessário. 
• Campo “Proibida”: indica a faixa de potência ativa máxima da unidade geradora, em MW, associada 
a um determinado nível do reservatório, caso necessário. 
Campo “ Dispositivos de Sincronismo ”: indica o disjuntor onde é efetuado o sincronismo da unidade 
geradora. 
Campo “Operação como Compensador Síncrono”: 
• Campo “Unidade Geradora”: indica a identificação de cada unidade geradora conforme diagrama 
unifilar do agente. 
• Campo “Conversão / Reversão  (min) ”: indica o tempo necessário para realizar a conversão de 
gerador para síncrono e síncrono para gerador, em minutos. 
Campo “Notas / Restrições”: campo opcional que indica informações relevantes a respeito da usina. 
Caso os dados operacionais não sejam informados pelo Agente, os campos são preenchidos com “NI” – não 
informado. 
Caso os dados operacionais não se apliquem, os campos são preenchidos com hifens “---”. 
 
Manual de Procedimentos da Operação - Módulo 5 - Submódulo 5.11 
Cadastro de Informações Operacionais Código Revisão Item Vigência 
Cadastro de Dados Operacionais de Equipamentos da 
Área 230 kV Oeste da Região Nordeste CD-CT.NE.2OE.01 60 2.1.3. 12/11/2024 
 
Referência: Email intitulado “RES: Divergências referentes a religamento automático” datado de 11/11/2024 às 14h19 30/36 
 
5.1. UHE BOA ESPERANÇA (CEG: UHE.PH.PI.000.267-4.01) 
5.1.1. DADOS DAS UNIDADES GERADORAS  
OBSERVAÇÃO:  
Estão disponíveis as faixas proibidas (excepcionais) para utilização nas unidades geradoras durante a recomposição da usina, conforme IO - OI.NE.UBE. 
Unidade 
Geradora 
Tensão (kV) 
Potência 
Aparente 
(MVA) 
Potência 
Reativa (Mvar) 
Faixa de Operação 
(MW) Dispositivo 
de 
Sincronismo 
Operação como Compensador Síncrono 
Nom. Mín. Máx. Nom. FP Mín. Máx. Permitida Proibida Unidade 
Geradora 
Conversão /  
Reversão(min) 
01G1 / 
01G2 13,8 13,1 14,5 54,0 1,00 Ver curva de 
Capabilidade 47,1 a 55 0 a 47 NI Não - 
01G3 / 
01G4 13,8 13,1 14,5 65,0 1,00 - 38 + 42 53,1 a 
63,65 0 a 53 NI Sim 3 
Notas / Restrições: 
 
O tempo de reposição dos tanques de ar com máquina parada é de 15 minutos. 
O tempo de reposição dos tanques de ar com máquina sincronizada é de 8 minutos. 
 
O tempo para partida, excitação e conversão de unidade geradora é de 10 minutos. 
 
 
  
Manual de Procedimentos da Operação - Módulo 5 - Submódulo 5.11 
Cadastro de Informações Operacionais Código Revisão Item Vigência 
Cadastro de Dados Operacionais de Equipamentos da 
Área 230 kV Oeste da Região Nordeste CD-CT.NE.2OE.01 60 2.1.3. 12/11/2024 
 
Referência: Email intitulado “RES: Divergências referentes a religamento automático” datado de 11/11/2024 às 14h19 31/36 
 
5.1.2. CURVA DE CAPABILIDADE DAS UNIDADES GERADORAS  
1a – Curvas de Capabilidade das Unidades Geradoras G1 e G2 da UHE Boa Esperança 
 
 
 

Manual de Procedimentos da Operação - Módulo 5 - Submódulo 5.11 
Cadastro de Informações Operacionais Código Revisão Item Vigência 
Cadastro de Dados Operacionais de Equipamentos da 
Área 230 kV Oeste da Região Nordeste CD-CT.NE.2OE.01 60 2.1.3. 12/11/2024 
 
Referência: Email intitulado “RES: Divergências referentes a religamento automático” datado de 11/11/2024 às 14h19 32/36 
 
 
 
1b – Curvas de Capabilidade das Unidades Geradoras G3 e G4 da UHE Boa Esperança 
 
 
  

Manual de Procedimentos da Operação - Módulo 5 - Submódulo 5.11 
Cadastro de Informações Operacionais Código Revisão Item Vigência 
Cadastro de Dados Operacionais de Equipamentos da 
Área 230 kV Oeste da Região Nordeste CD-CT.NE.2OE.01 60 2.1.3. 12/11/2024 
 
Referência: Email intitulado “RES: Divergências referentes a religamento automático” datado de 11/11/2024 às 14h19 33/36 
 
 
6. DADOS OPERACIONAIS DE COMPENSADORES 
6.1. DADOS DE COMPENSADORES SÍNCRONOS 
Orientações sobre os dados operacionais de compensadores: 
Campo “Instalação”: identifica a subestação onde o compensador está instalado. 
Campo “Identificação Operacional”: consta o código identificador do compensador, conforme diagrama unifilar do agente. 
Campo “Potência Nominal (Mvar)”:  indica a potência reativa mínima e máxima, em Mvar, do compensador, podendo ser referenciada a sua curva de capabilidade. 
Campo “Barramento para Controle de Tensão”: indica o barramento de referência de tensão para o compensador. 
Campo “Tempo de Partida”: indica o tempo de partida do compensador, em minutos. 
Campo “Tempo de Partida”: indica o tempo de partida do compensador, em minutos. 
Campo “Tempo de Resfriamento”: indica o tempo de resfriamento do compensador, em minutos. 
Campo “Tempo de Parada”: indica o tempo de parada do compensador sem freio e com freio, em minutos. 
Campo “Tempo para energização após desligamento”: é o tempo entre abertura dos disjuntores desconectando esse equipamento do sistema e o fechamento dos 
disjuntores reconectando o equipamento no sistema. 
Campo “Notas / Restrições”: campo opcional que indica informações relevantes a respeito do compensador. 
Caso os dados operacionais não sejam informados pelo Agente, os campos são preenchidos com “NI” – não informado. 
Caso os dados operacionais não se apliquem, os campos são preenchidos com hifens “---”. 
 
Manual de Procedimentos da Operação - Módulo 5 - Submódulo 5.11 
Cadastro de Informações Operacionais Código Revisão Item Vigência 
Cadastro de Dados Operacionais de Equipamentos da 
Área 230 kV Oeste da Região Nordeste CD-CT.NE.2OE.01 60 2.1.3. 12/11/2024 
 
Referência: Email intitulado “RES: Divergências referentes a religamento automático” datado de 11/11/2024 às 14h19 34/36 
 
Instalação Identificação 
Operacional 
Potência 
Nominal 
(Mvar) 
Barramento 
Para Controle 
de Tensão 
Tempo de 
Parada (min) Tempo para Energização/ Sincronização do CS 
Sem 
Freio 
Com 
Freio 
Tempo 
de 
partida 
(min) 
Aproveitando a inércia (a) 
Tempo para 
energização 
após 
desligamento 
(min) 
Após desligamento 
Intervalo de 
velocidade 
para 
repartida 
(RPM) 
Tempo (min) 
Intervalo de 
tempo entre 
partidas, após 1ª 
tentativa (min) 
Intervalo de 
tempo 
entre 
partidas, 
após 2ª 
tentativa 
(min) 
Teresina II 01K1 - 105 / + 150 13,8 kV 150 NÃO 30 Entre 800 e 
120 20 180 120 120 
Notas / Restrições:  
(a) Esse tempo poderá variar dependendo das condições operacionais do equipamento (velocidade, temperatura) no momento do seu desligamento. 
 
6.2. DADOS DE COMPENSADORES ESTÁTICOS  
Orientações sobre os dados operacionais de compensadores: 
Campo “Instalação”: identifica a subestação onde o compensador está instalado. 
Campo “Identificação Operacional”: consta o código identificador do compensador, conforme diagrama unifilar do agente. 
Campo “Potência Nominal (Mvar)”:  indica a potência reativa mínima e máxima, em Mvar, do compensador, podendo ser referenciada a sua curva de capabilidade. 
Campo “Barramento para Controle de Tensão”: indica o barramento de referência de tensão para o compensador. 
Campo “Tempo de Resfriamento”: indica o tempo de resfriamento do compensador, em minutos. 
Manual de Procedimentos da Operação - Módulo 5 - Submódulo 5.11 
Cadastro de Informações Operacionais Código Revisão Item Vigência 
Cadastro de Dados Operacionais de Equipamentos da 
Área 230 kV Oeste da Região Nordeste CD-CT.NE.2OE.01 60 2.1.3. 12/11/2024 
 
Referência: Email intitulado “RES: Divergências referentes a religamento automático” datado de 11/11/2024 às 14h19 35/36 
 
Campo “Tempo para energização após desligamento”: é o tempo entre abertura dos disjuntores desconectando esse equipamento do sistema e o fechamento dos 
disjuntores reconectando o equipamento no sistema. 
Campo “Notas / Restrições”: campo opcional que indica informações relevantes a respeito do compensador. 
Caso os dados operacionais não sejam informados pelo Agente, os campos são preenchidos com “NI” – não informado. 
Caso os dados operacionais não se apliquem, os campos são preenchidos com hifens “---”. 
 
Instalação Identificação 
Operacional 
Potência Nominal 
(Mvar) 
Barramento para 
Controle de Tensão 
Tempo de Resfriamento 
(min) 
Tempo para energização 
após desligamento (min) 
SE Eliseu Martins Q1 - 20 / + 30 230 kV NI 1min30s (a) 
Notas / Restrições: (a) O Tempo de bloqueio aumenta para 7200 segundos (2 horas) após o quarto evento de desligamento ocorrido em um intervalo de 30 minutos. 
 
Manual de Procedimentos da Operação - Módulo 5 - Submódulo 5.11 
Cadastro de Informações Operacionais Código Revisão Item Vigência 
Cadastro de Dados Operacionais de Equipamentos da 
Área 230 kV Oeste da Região Nordeste CD-CT.NE.2OE.01 60 2.1.3. 12/11/2024 
 
Referência: E-mail intitulado "Alteração em CD-CTs" datado de 01/03/2023 às 10h45min. 36/36 
 
7. DADOS OPERACIONAIS DE BANCOS DE CAPACITORES SHUNT  
Orientações sobre os dados operacionais de bancos de capacitores: 
Campo “Instalação”: identifica a subestação onde o banco de capacitores está instalado. 
Campo “Identificação Operacional”: identificação do banco de capacitores, conforme diagrama unifilar do agente. 
Campo “Potência Nominal (Mvar)”:  indica a potência nominal do banco de capacitores. 
Campo “Tempo para energização após desligamento”: é o tempo entre abertura dos disjuntores desconectando esse equipamento do sistema e o fechamento dos 
disjuntores reconectando o equipamento no sistema. 
Campo “Notas / Restrições”: campo opcional que indica informações relevantes a respeito do banco de capacitores. 
Instalação Identificação Operacional Potência Nominal (Mvar) Tempo para Energização após 
Desligamento 
SE Picos H1, H2 e H3 15  10 minutos 
SE Piripiri H1 30  10 minutos 
SE Piripiri H1, H2 e H3 3,6  10 minutos 
SE Teresina H1 e H2 50,5  10 minutos 
 
