 
Alterado pela(s) MOP(s): 
MOP/ONS 463-S/2024;  
 
Manual de Procedimentos da Operação 
Módulo 5 - Submódulo 5.11 
 
Cadastro de Informações Operacionais 
Cadastro de Dados Operacionais de Equipamentos da Interligação Norte / Sudeste 
 
 
Código Revisão Item Vigência 
CD-CT.NSE.01 46 2.1.1. 05/09/2023 
 
MOTIVO DA REVISÃO: 
• Correção da nota do item 5.2.1, retirando a referência da IO da instalação. 
LISTA DE DISTRIBUIÇÃO 
CNOS COSR-NCO EDP Energisa Tocantins 
Energisa Soluções Enerpeixe Equatorial FURNAS 
SMTE TAESA   
 
Manual de Procedimentos da Operação - Módulo 5 - Submódulo 5.11 
 Cadastro de Informações Operacionais Código Revisão Item Vigência 
Cadastro de Dados Operacionais de Equipamentos da 
Interligação Norte / Sudeste CD-CT.NSE.01 46 2.1.1. 05/09/2023 
 
Referência:  2 / 39 
 
Alterado pela(s) MOP(s): 
MOP/ONS 463-S/2024;  
ÍNDICE 
1. OBJETIVO ................................ ................................ ................................ ................................ ..... 5 
2. CONSIDERAÇÕES GERAIS ................................ ................................ ................................ .............. 5 
3. DADOS OPERACIONAIS DE LINHAS DE TRANSMISSÃO ................................ ................................ .... 5 
3.1. LT 500 kV Gurupi / Miracema C1 ................................................................................................... 6 
3.2. LT 500 kV Gurupi / Miracema C2 ................................................................................................... 7 
3.3. LT 500 kV Gurupi / Miracema C3 ................................................................................................... 7 
3.4. LT 500 kV Gurupi / Peixe 2 ............................................................................................................. 8 
3.5. LT 500 kV Lajeado / Miracema C1 ou C2 ....................................................................................... 9 
3.6. LT 500 kV Peixe 2 / Peixe Angical .................................................................................................. 9 
3.7. LT 500 kV Peixe 2 / Serra da Mesa 2 ............................................................................................ 10 
3.8. LT 500 kV Serra da Mesa / Gurupi C1 .......................................................................................... 10 
3.9. LT 500 kV Serra da Mesa / Gurupi C2 .......................................................................................... 11 
3.10. LT 500 kV Serra da Mesa / Serra da Mesa 2 ................................................................................ 12 
4. DADOS OPERACIONAIS DE TRANSFORMADORES ................................ ................................ ......... 13 
4.1. SE Peixe Angical – Autotransformador 550/138/13,8 kV - 525 MVA.......................................... 13 
5. DADOS OPERACIONAIS DE UNIDADES GERADORAS ................................ ................................ ..... 14 
5.1. UHE Peixe Angical (CEG: UHE.PH.TO.028353-3.01) .................................................................... 16 
5.1.1. Dados das unidades geradoras da UHE peixe Angical ............................................... 16 
5.1.2. Curva de capabilidade das unidades geradoras da UHE Peixe Angical ..................... 17 
5.2. UHE Serra da Mesa (CEG: UHE.PH.GO.002731-6.01) .................................................................. 18 
5.2.1. Dados das unidades geradoras da UHE Serra da Mesa ............................................. 18 
5.2.2. Curva de capabilidade das unidades geradoras da UHE Serra da Mesa ................... 18 
5.2.3. Curva de potência e queda líquida da UHE Serra da Mesa ....................................... 19 
6. DADOS OPERACIONAIS DE BANCOS DE CAPACITORES SÉRIE ................................ ........................  20 
6.1. SE Gurupi – Banco de capacitor série BSGUMI1 500 kV / 361 Mvar da LT 500 kV Gurupi / Miracema C120 
6.1.1. SE Gurupi  - Banco de capacitor série BSGUMI1 500 kV / 361 Mvar da LT 500 kV Gurupi / 
Miracema C1 - Curva característica tensão X corrente ............................................. 20 
6.1.2. SE Gurupi - Banco de capacitor série BSGUMI1 500 kV / 361 Mvar da LT 500 kV Gurupi / 
Miracema C1 - Curva resfriamento do mov temperatura X tempo .......................... 21 
6.2. SE Gurupi – Banco de capacitor série BSGUMI4 500 kV / 361,4 Mvar da LT 500 kV Gurupi / Miracema C2
 ..................................................................................................................................................... 21 
6.2.1. SE Gurupi – Banco de capacitor série BSGUMI4 500 kV / 361,4 Mvar da LT 500 kV Gurupi / 
Miracema C2 - Curva característica tensão X corrente ............................................. 21 
6.2.2. SE Gurupi – Banco de capacitor série BSGUMI4 500 kV / 361,4 Mvar da LT 500 kV Gurupi / 
Miracema C2 - Curva resfriamento do mov temperatura X tempo .......................... 22 
6.3. SE Gurupi – Banco de capacitor série BSGUMI3 500 kV / 361,5 Mvar da LT 500 kV Gurupi / Miracema C3
Manual de Procedimentos da Operação - Módulo 5 - Submódulo 5.11 
 Cadastro de Informações Operacionais Código Revisão Item Vigência 
Cadastro de Dados Operacionais de Equipamentos da 
Interligação Norte / Sudeste CD-CT.NSE.01 46 2.1.1. 05/09/2023 
 
Referência:  3 / 39 
 
Alterado pela(s) MOP(s): 
MOP/ONS 463-S/2024;  
 ..................................................................................................................................................... 23 
6.3.1. SE Gurupi – Banco de capacitor série BSGUMI3 500 kV / 361,5 Mvar da LT 500 kV Gurupi / 
Miracema C3 - Curva característica tensão X corrente ............................................. 24 
6.3.2. SE Gurupi – Banco de capacitor série BSGUMI3 500 kV / 361,5 Mvar da LT 500 kV Gurupi / 
Miracema C3 - Curva resfriamento do mov temperatura X tempo .......................... 24 
6.4. SE Gurupi – Banco de capacitor série BSPEGU 500 kV / 203,5 Mvar da LT 500 kV Gurupi / Peixe 225 
6.4.1. SE Gurupi – Banco de capacitor série BSPEGU 500 kV / 203,5 Mvar da LT 500 kV Gurupi / Peixe 
2 - Curva característica tensão X corrente ................................................................ 25 
6.4.2. SE Gurupi – Banco de capacitor série BSPEGU 500 kV / 203,5 Mvar da LT 500 kV Gurupi / Peixe 
2 - Curva resfriamento do mov temperatura X tempo ............................................. 26 
6.5. SE Gurupi – Banco de capacitor série BSSMGU1 500 kV / 286 Mvar da LT 500 kV Serra da Mesa / Gurupi 
C1 ................................................................................................................................................. 26 
6.5.1. SE Gurupi – Banco de capacitor série BSSMGU1 500 kV / 286 Mvar da LT 500 kV Serra da Mesa 
/ Gurupi C1 - Curva característica tensão X corrente ................................................ 27 
6.5.2. SE Gurupi – Banco de capacitor série BSSMGU1 500 kV / 286 Mvar da LT 500 kV Serra da Mesa 
/ Gurupi C1 - Curva resfriamento do mov temperatura X tempo ............................. 27 
6.6. SE Gurupi – Banco de capacitor série BSSMGU2 500 kV / 285,6 Mvar da LT 500 kV Serra da Mesa / 
Gurupi C2 ..................................................................................................................................... 28 
6.6.1. SE Gurupi – Banco de capacitor série BSSMGU2 500 kV / 285,6 Mvar da LT 500 kV Serra da 
Mesa / Gurupi C2 - Curva característica tensão X corrente ...................................... 28 
6.6.2. SE Gurupi – Banco de capacitor série BSSMGU2 500 kV / 285,6 Mvar da LT 500 kV Serra da 
Mesa / Gurupi C2 - Curva resfriamento do mov temperatura X tempo ................... 29 
6.7. SE Miracema – Banco de capacitor série MCCL7-01 500 kV / 361,5 Mvar da LT 500 kV Gurupi / Miracema 
C1 ................................................................................................................................................. 30 
6.7.1. SE Miracema – Banco de capacitor série MCCL7-01 500 kV / 361,5 Mvar da LT 500 kV Gurupi 
/ Miracema C1 - Curva característica tensão X corrente........................................... 30 
6.7.2. SE Miracema – Banco de capacitor série MCCL7-01 500 kV / 361,5 Mvar da LT 500 kV Gurupi 
/ Miracema C1 - Curva resfriamento do mov temperatura X tempo........................ 30 
6.8. SE Miracema – Banco de capacitor série MCCL7-02 500 kV / 361,5 Mvar da LT 500 kV Gurupi / Miracema 
C2 ................................................................................................................................................. 31 
6.8.1. SE Miracema – Banco de capacitor série MCCL7-02 500 kV / 361,5 Mvar da LT 500 kV Gurupi 
/ Miracema C2 - Curva característica tensão X corrente........................................... 31 
6.8.2. SE Miracema – Banco de capacitor série MCCL7-02 500 kV / 361,5 Mvar da LT 500 kV Gurupi 
/ Miracema C2 - Curva resfriamento do mov temperatura X tempo........................ 32 
6.9. SE Miracema – Banco de capacitor série mccl7-03 500 kV / 361,5 Mvar da LT 500 kV Gurupi / Miracema 
C3 ................................................................................................................................................. 32 
6.9.1. SE Miracema – Banco de capacitor série MCCl7-03 500 kV / 361,5 Mvar da LT 500 kV Gurupi 
/ Miracema C3 - Curva característica tensão X corrente........................................... 33 
6.9.2. SE Miracema – Banco de capacitor série mccl7-03 500 kV / 361,5 Mvar da LT 500 kV Gurupi / 
Miracema C3 - Curva resfriamento do mov temperatura X tempo .......................... 33 
6.10. SE Peixe 2 – Banco de capacitor série PXCL7-01 500 kV / 662 Mvar da LT 500 kV Peixe 2 / Serra da Mesa 
2 34 
Manual de Procedimentos da Operação - Módulo 5 - Submódulo 5.11 
 Cadastro de Informações Operacionais Código Revisão Item Vigência 
Cadastro de Dados Operacionais de Equipamentos da 
Interligação Norte / Sudeste CD-CT.NSE.01 46 2.1.1. 05/09/2023 
 
Referência:  4 / 39 
 
Alterado pela(s) MOP(s): 
MOP/ONS 463-S/2024;  
6.10.1. SE Peixe 2 – Banco de capacitor série PXCL7-01 500 kV / 662 Mvar da LT 500 kV Peixe 2 / Serra 
da Mesa 2 - Curva característica tensão X corrente .................................................. 34 
6.10.2. SE Peixe 2 – Banco de capacitor série PXCL7-01 500 kV / 662 Mvar da LT 500 kV Peixe 2 / Serra 
da Mesa 2 - Curva resfriamento do mov temperatura X tempo ............................... 35 
6.11. SE Serra da Mesa – Banco de capacitor série BSSMGU1 500 kV / 191 Mvar da LT 500 kV Serra da Mesa / 
Gurupi C1 35 
6.11.1. SE Serra da Mesa – Banco de capacitor série BSSMGU1 500 kV / 191 Mvar da LT 500 kV Serra 
da Mesa / Gurupi C1 - Curva característica tensão X corrente ................................. 36 
6.11.2. SE Serra da Mesa – Banco de capacitor série BSSMGU1 500 kV / 191 Mvar da LT 500 kV Serra 
da Mesa / Gurupi C1 - Curva resfriamento do mov temperatura X tempo .............. 36 
6.12. SE Serra da Mesa – Banco de capacitor série BSSMGU2 500 kV / 191 Mvar da LT 500 kV Serra da Mesa / 
Gurupi C2 37 
6.12.1. SE Serra da Mesa – Banco de capacitor série BSSMGU2 500 kV / 191 Mvar da LT 500 kV Serra 
da Mesa / Gurupi C2 - Curva característica tensão X corrente ................................. 37 
6.12.2. SE Serra da Mesa – Banco de capacitor série BSSMGU2 500 kV / 191 Mvar da LT 500 kV Serra 
da Mesa / Gurupi C2 - Curva resfriamento do mov temperatura X tempo .............. 38 
  
Manual de Procedimentos da Operação - Módulo 5 - Submódulo 5.11 
 Cadastro de Informações Operacionais Código Revisão Item Vigência 
Cadastro de Dados Operacionais de Equipamentos da 
Interligação Norte / Sudeste CD-CT.NSE.01 46 2.1.1. 05/09/2023 
 
Referência:  5 / 39 
 
Alterado pela(s) MOP(s): 
MOP/ONS 463-S/2024;  
1. OBJETIVO 
Apresentar os Dados Operacionais de Equipamentos da Interligação Norte / Sudeste , a serem observados 
pelos operadores dos Centros de Operação do ONS e pela Operação dos Agentes envolvidos, de acordo com 
os Procedimentos de Rede. 
2. CONSIDERAÇÕES GERAIS 
2.1. Os dados de linhas de transmissão e equipamentos da Rede de Operação constantes neste Cadastro 
de Informações Operacionais devem ser observados pelos Centros de Operação do ONS para as ações 
de coordenação, supervisão e controle da operação, assim como pel os Agentes para as ações de 
comando e execução. 
2.2. As limitações técnicas para tentativas de religamento de equipamentos contidas neste documento 
têm caráter operacional. Poderão ser utilizadas para apuração da qualidade do serviço público de 
transmissão de energia elétrica (apuração de parcela variável) o  valor do “Tempo para energização 
após desligamento” de cada equipamento, desde que sejam atendidos os critérios estabelecidos na 
regulação vigente.  
3. DADOS OPERACIONAIS DE LINHAS DE TRANSMISSÃO 
Orientações sobre os dados operacionais de linhas de transmissão: 
Campo “Religamento Automático”: 
• Campo “ Tipo”: indica o tipo de religamento utilizado em operação normal: monopolar, tripolar ou 
monopolar / tripolar; caso não exista religamento instalado, o campo é preenchido com “NE” – não 
existe. 
• Campo “Situação”: indica se o religamento está ligado ou desligado em operação normal; caso não 
exista religamento instalado, o campo é preenchido com “NE” – não existe. 
• Campo “ Sentido”: para religamentos tripolares, indica em primeiro lugar a instalação onde se dá o 
fechamento inicial (terminal líder), e após a seta, a instalação de fechamento final (terminal seguidor); 
para religamentos monopolares ou caso não exista religamento insta lado, o campo é preenchido com 
hifens (---). 
• Campo “Ajustes”: indica os ajustes de tempo morto, diferença de tensão, defasagem angular e diferença 
de frequência instalados para a função de verificação de sincronismo para o religamento automático; 
caso não exista religamento automático instalado, o campo é preenchido com hifens (---). 
Campo “LT em Mesma Estrutura”: apresenta o nome da LT que compartilha estrutura, e quando disponível, 
a informação da extensão do trecho de compartilhamento e da quantidade de torres compartilhadas; caso 
não exista, o campo é preenchido com “NE” – não existe. 
Não deve ser considerado o compartilhamento de estrutura caso esse seja apenas na chegada as subestações 
envolvidas. 
Campo “Religamentos Manuais”: 
• Campo “Quantidade de Tentativas ”: indica quantos religamentos (ou tentativas de religamento) 
manuais são permitidos pelo Agente. 
• Campo “Intervalo entre os Religamentos (min)”: é o intervalo de tempo entre os religamentos, em 
minutos, a ser considerado entre a tentativa de fechamento não-bem-sucedida anterior (incluindo 
o religamento automático) e o novo fechamento do disjuntor. 
• Campo “ Dispositivo de Sincronismo ”: indica os terminais onde esses estão instalados e em 
funcionamento. Dispositivo de Sincronismo é o equipamento utilizado para verificação das 
Manual de Procedimentos da Operação - Módulo 5 - Submódulo 5.11 
 Cadastro de Informações Operacionais Código Revisão Item Vigência 
Cadastro de Dados Operacionais de Equipamentos da 
Interligação Norte / Sudeste CD-CT.NSE.01 46 2.1.1. 05/09/2023 
 
Referência:  6 / 39 
 
Alterado pela(s) MOP(s): 
MOP/ONS 463-S/2024;  
condições de fechamento em anel ou paralelo entre dois pontos elétricos; caso não exista, o campo 
é preenchido com “NE” – não existe. Se em algum disjuntor do terminal não houver o dispositivo 
de sincronismo essa informação deve ser destacada. 
• Campo “ Ajustes”: indica os ajustes de diferença de tensão, defasagem angular e diferença de 
frequência instalados para a função de verificação de sincronismo para o religamento manual de 
cada terminal; caso não exista dispositivo de sincronismo, o campo é preenchido com hifens (---). 
Campo “Notas / Restrições”:  campo opcional que indica informações relevantes a respeito da linha de 
transmissão. 
Caso os dados operacionais não sejam informados pelo Agente, os campos são preenchidos com “NI” – não 
informado. 
3.1. LT 500 KV GURUPI / MIRACEMA C1 
Religamento Automático 
LT em Mesma Estrutura 
Tipo Situação Sentido Ajustes 
Tripolar  Ligado Gurupi ➔ 
Miracema 
Tempo morto: 3s 
V  10 % 
   20° 
f   0,2 Hz 
NE 
Notas / Restrições: 
O religamento automático da LT deve estar desligado na indisponibilidade do disjuntor da linha associado á 
barra, 9584 (na SE Gurupi). 
O religamento automático da linha (na SE Gurupi) pelo disjuntor do meio não está liberado para operação. 
O BCS do terminal da SE Gurupí e da SE Miracema devem ser energizados manualmente, imediatamente 
após o fechamento do anel na SE Miracema. 
 
Religamento Manual 
Sentido Quantidade de 
Tentativas 
Intervalo entre os 
religamentos (minutos) 
Dispositivo de 
sincronismo Ajustes 
--- 1 
Após tentativa do 
religamento automático, 
1 religamento manual 
após 3 minutos ou 2 
religamentos manuais, 
com intervalos de 3 
minutos entre eles. 
Em ambos os 
terminais NI 
Manual de Procedimentos da Operação - Módulo 5 - Submódulo 5.11 
 Cadastro de Informações Operacionais Código Revisão Item Vigência 
Cadastro de Dados Operacionais de Equipamentos da 
Interligação Norte / Sudeste CD-CT.NSE.01 46 2.1.1. 05/09/2023 
 
Referência:  7 / 39 
 
Alterado pela(s) MOP(s): 
MOP/ONS 463-S/2024;  
3.2. LT 500 KV GURUPI / MIRACEMA C2 
Religamento Automático 
LT em Mesma Estrutura 
Tipo Situação Sentido Ajustes 
Tripolar Ligado Gurupi ➔ 
Miracema 
Tempo morto: 5s 
V  10 % 
   20° 
f   0,2 Hz 
NE 
Notas / Restrições: O BCS do terminal da SE Gurupí e da SE Miracema devem ser energizados manualmente, 
imediatamente após o fechamento do anel na SE Miracema. O disjuntor central 500 kV do bay da LT em 
cada SE é fechado automaticamente após o fechamento do respectivo disjuntor 500 kV do lado da barra. 
 
Religamento Manual 
Sentido Quantidade de 
Tentativas 
Intervalo entre os 
religamentos (minutos) 
Dispositivo de 
sincronismo Ajustes 
--- 2 
Após tentativa de 
religamento automático, 
1 tentativa de 
religamento manual com 
intervalo de 3 minutos 
até a segunda tentativa, 
ou 3 tentativas de 
religamento manual, com 
intervalo de 3 minutos 
entre elas. 
Em ambos os 
terminais NI 
3.3. LT 500 KV GURUPI / MIRACEMA C3 
Religamento Automático 
LT em Mesma Estrutura 
Tipo Situação Sentido Ajustes 
Tripolar Ligado Gurupi ➔ 
Miracema 
Tempo morto: 5s 
V  10 % 
   20° 
f   0,2 Hz 
NE 
Notas / Restrições: 
O religamento automático da LT deve estar desligado na indisponibilidade do disjuntor da linha associado á 
barra, 9384 (na SE Gurupi). 
O religamento automático da linha (na SE Gurupi) pelo disjuntor do meio não está liberado para operação. 
O BCS do terminal da SE Gurupí e da SE Miracema permanecem inseridos para o religamento automático, 
só são retirados de serviço se o religamento automático for sem sucesso, devendo ser energizado 
manualmente imediatamente após o fechamento do anel na SE Miracema. 
 
Manual de Procedimentos da Operação - Módulo 5 - Submódulo 5.11 
 Cadastro de Informações Operacionais Código Revisão Item Vigência 
Cadastro de Dados Operacionais de Equipamentos da 
Interligação Norte / Sudeste CD-CT.NSE.01 46 2.1.1. 05/09/2023 
 
Referência:  8 / 39 
 
Alterado pela(s) MOP(s): 
MOP/ONS 463-S/2024;  
Religamento Manual 
Sentido Quantidade de 
Tentativas 
Intervalo entre os 
religamentos (minutos) 
Dispositivo de 
sincronismo Ajustes 
--- 1 
Após tentativa do 
religamento automático, 
1 religamento manual 
após 3 minutos ou 2 
religamentos manuais, 
com intervalos de 3 
minutos entre eles. 
Em ambos os 
terminais NI 
3.4. LT 500 KV GURUPI / PEIXE 2 
Religamento Automático 
LT em Mesma Estrutura 
Tipo Situação Sentido Ajustes 
Tripolar Ligado Gurupi ➔ 
Peixe 2 
Tempo morto: 5s 
V  10 % 
   30° 
f   0,2 Hz 
NE 
Notas / Restrições: 
O religamento automático da LT deve estar desligado nas seguintes situações: 
• Indisponibilidade da LT 500 kV Peixe 2 / Serra da Mesa 2. 
• Indisponibilidade do disjuntor da linha associado á barra, 9664 (na SE Gurupi). 
O religamento automático da linha (na SE Gurupi) pelo disjuntor do meio não está liberado para operação. 
O BCS do terminal da SE Gurupí permanece inserido para o religamento automático, só é retirado de serviço 
se o religamento automático for sem sucesso, devendo ser energizado manualmente imediatamente após 
o fechamento do anel na SE Peixe 2. 
 
Religamento Manual 
Sentido Quantidade de 
Tentativas 
Intervalo entre os 
religamentos (minutos) 
Dispositivo de 
sincronismo Ajustes 
--- 1 
Após tentativa do 
religamento automático, 
1 religamento manual 
após 3 minutos ou 2 
religamentos manuais, 
com intervalos de 3 
minutos entre eles. 
Em ambos os 
terminais NI 
Manual de Procedimentos da Operação - Módulo 5 - Submódulo 5.11 
 Cadastro de Informações Operacionais Código Revisão Item Vigência 
Cadastro de Dados Operacionais de Equipamentos da 
Interligação Norte / Sudeste CD-CT.NSE.01 46 2.1.1. 05/09/2023 
 
Referência:  9 / 39 
 
Alterado pela(s) MOP(s): 
MOP/ONS 463-S/2024;  
3.5. LT 500 KV LAJEADO / MIRACEMA C1 OU C2 
Religamento Automático 
LT em Mesma Estrutura 
Tipo Situação Sentido Ajustes 
NI Desligado NI 
V  20 % 
   30° 
f   0,2 Hz 
NE 
Notas / Restrições: 
A LT 500 kV Lajeado / Miracema possui religamento automático, porém fica permanentemente desligado. 
 
Religamento Manual 
Sentido Quantidade de 
Tentativas 
Intervalo entre os 
religamentos (minutos) 
Dispositivo de 
sincronismo Ajustes 
--- 3 
3 religamentos manuais 
com intervalos de 3 
minutos entre eles ou 
após tentativa do 
religamento automático, 
2 religamentos manuais 
com intervalos de 3 
minutos. 
No 230 kV 
(disjuntor terminal 
da unidade 
geradora). 
No 500 kV 
(disjuntor terminal 
do autotrafo 
525/230 kV - 960 
MVA). 
NI 
3.6. LT 500 KV PEIXE 2 / PEIXE ANGICAL 
Religamento Automático 
LT em Mesma Estrutura 
Tipo Situação Sentido Ajustes 
NI Desligado NI 
Disjuntor 138 kV terminal de cada 
unidade geradora, ajustado em: 
V  13,8 kV 
   10° 
f   0,2 Hz  
NE 
Notas / Restrições: 
A LT 500 kV Peixe 2 / Peixe Angical possui religamento automático, porém fica permanentemente desligado. 
 
Religamento Manual 
Sentido Quantidade de 
Tentativas 
Intervalo entre os 
religamentos (minutos) 
Dispositivo de 
sincronismo Ajustes 
NI NI NI NI NI 
Manual de Procedimentos da Operação - Módulo 5 - Submódulo 5.11 
 Cadastro de Informações Operacionais Código Revisão Item Vigência 
Cadastro de Dados Operacionais de Equipamentos da 
Interligação Norte / Sudeste CD-CT.NSE.01 46 2.1.1. 05/09/2023 
 
Referência:  10 / 39 
 
Alterado pela(s) MOP(s): 
MOP/ONS 463-S/2024;  
3.7. LT 500 KV PEIXE 2 / SERRA DA MESA 2 
Religamento Automático 
LT em Mesma Estrutura 
Tipo Situação Sentido Ajustes 
Tripolar Ligado 
Peixe 2 ➔ 
Serra da 
Mesa 2 
Tempo morto: 5s 
V  10 % 
   30° 
f   0,2 Hz 
NE 
Notas / Restrições: 
O religamento automático da LT deve estar desligado na Indisponibilidade da LT 500 kV Gurupi / Peixe 2. 
O BCS do terminal da SE Peixe 2 permanece inserido para o religamento, é retirado de serviço se o 
religamento for sem sucesso. 
 
Religamento Manual 
Sentido Quantidade de 
Tentativas 
Intervalo entre os 
religamentos (minutos) 
Dispositivo de 
sincronismo Ajustes 
--- NI NI Em ambos os 
terminais NI 
3.8. LT 500 KV SERRA DA MESA / GURUPI C1 
Religamento Automático 
LT em Mesma Estrutura 
Tipo Situação Sentido Ajustes 
Tripolar Ligado 
Serra da 
Mesa ➔ 
Gurupi 
Tempo morto: 3s 
V  10 % 
   20° 
f   0,2 Hz 
NE 
Notas / Restrições: 
O religamento automático da LT deve estar desligado na indisponibilidade do disjuntor da linha associado à 
barra 9812 (na SE Serra da Mesa) e 9564 (na SE Gurupi). O religamento automático da linha pelo disjuntor 
de meio não está liberado para operação. 
 
Religamento Manual 
Sentido Quantidade de 
Tentativas 
Intervalo entre os 
religamentos (minutos) 
Dispositivo de 
sincronismo Ajustes 
--- 1 
Após tentativa do 
religamento automático, 
1 religamento manual 
após 3 minutos ou 2 
religamentos manuais, 
com intervalos de 3 
minutos entre eles.¹ 
Em ambos os 
terminais NI 
Manual de Procedimentos da Operação - Módulo 5 - Submódulo 5.11 
 Cadastro de Informações Operacionais Código Revisão Item Vigência 
Cadastro de Dados Operacionais de Equipamentos da 
Interligação Norte / Sudeste CD-CT.NSE.01 46 2.1.1. 05/09/2023 
 
Referência:  11 / 39 
 
Alterado pela(s) MOP(s): 
MOP/ONS 463-S/2024;  
Religamento Manual 
Sentido Quantidade de 
Tentativas 
Intervalo entre os 
religamentos (minutos) 
Dispositivo de 
sincronismo Ajustes 
Notas / Restrições: 
¹Por uma condição de projeto , quando houver operação da proteção de falha de disjuntor  (BF) no 
equipamento DJ9992S (Baipasse do banco de capacitor série da LTSMGU1), a proteção atuará desligando a 
LT 500 kV Serra da Mesa  / Gurupí C1 em ambos terminais e bloqueando o fechamento da mesma. Será 
necessário aguardar um tempo de 13 minutos (tempo para que haja a descarga do BSSMGU1) . Somente 
após este tempo as chaves seccionadoras (SC9891S e SC9893S) referentes ao BSSMGU1 poderão ser 
manobradas com DJ9992S aberto. Com as SC9891S e SC9893S abertas, haverá permissão para fechamento 
da SC9897, rearme de bloqueios e liberação da LT 500 kV Serra da Mesa / Gurupí C1 para normalização. 
3.9. LT 500 KV SERRA DA MESA / GURUPI C2 
Religamento Automático 
LT em Mesma Estrutura 
Tipo Situação Sentido Ajustes 
Tripolar Ligado 
Serra da 
Mesa ➔ 
Gurupi 
Tempo morto: 5s 
V  10 % 
   20° 
f   0,2 Hz 
NE 
Notas / Restrições: 
O religamento automático da LT deve estar desligado na indisponibilidade de reator de linha. 
O BCS do terminal da SE Gurupi e o CSV do terminal da SE Serra da Mesa devem ser energizados 
manualmente, imediatamente após o fechamento do anel na SE Gurupi. O disjuntor central 500 kV do bay 
da LT em cada SE é fechado automaticamente após o fechamento do res pectivo disjuntor 500 kV do lado 
da barra. 
 
Religamento Manual 
Sentido Quantidade de 
Tentativas 
Intervalo entre os 
religamentos (minutos) 
Dispositivo de 
sincronismo Ajustes 
--- 2 
Após tentativa de 
religamento automático, 
1 tentativa de 
religamento manual com 
intervalo de 3 minutos 
até a segunda tentativa, 
ou 3 tentativas de 
religamento manual, com 
intervalo de 3 minutos 
entre elas. 
Em ambos os 
terminais NI 
Manual de Procedimentos da Operação - Módulo 5 - Submódulo 5.11 
 Cadastro de Informações Operacionais Código Revisão Item Vigência 
Cadastro de Dados Operacionais de Equipamentos da 
Interligação Norte / Sudeste CD-CT.NSE.01 46 2.1.1. 05/09/2023 
 
Referência:  12 / 39 
 
Alterado pela(s) MOP(s): 
MOP/ONS 463-S/2024;  
3.10. LT 500 KV SERRA DA MESA / SERRA DA MESA 2 
Religamento Automático 
LT em Mesma Estrutura 
Tipo Situação Sentido Ajustes 
Tripolar Ligado 
Serra da 
Mesa ➔ 
Serra da 
Mesa 2 
Tempo morto: 5s 
V  10 % 
   20° 
f   0,2 Hz 
NE 
Notas / Restrições: NA 
 
Religamento Manual 
Sentido Quantidade de 
Tentativas 
Intervalo entre os 
religamentos (minutos) 
Dispositivo de 
sincronismo Ajustes 
--- 2 
Após tentativa de 
religamento automático, 
1 tentativa de 
religamento manual com 
intervalo de 3 minutos 
até a segunda tentativa, 
ou 3 tentativas de 
religamento manual, com 
intervalo de 3 minutos 
entre elas. 
Em ambos os 
terminais NI 
 
 
Manual de Procedimentos da Operação - Módulo 5 - Submódulo 5.11 
 Cadastro de Informações Operacionais Código Revisão Item Vigência 
Cadastro de Dados Operacionais de Equipamentos da 
Interligação Norte / Sudeste CD-CT.NSE.01 46 2.1.1. 05/09/2023 
 
Referência:  13 / 39 
 
Alterado pela(s) MOP(s): 
MOP/ONS 463-S/2024;  
4. DADOS OPERACIONAIS DE TRANSFORMADORES 
Orientações sobre os dados operacionais de transformadores: 
Campo “ Dispositivo de Sincronismo ”: indica os terminais onde estão instalados e em funcionamento . 
Dispositivo de Sincronismo é o equipamento utilizado para verificação das condições de fechamento em anel 
ou paralelo entre dois pontos elétricos, o campo é preenchido com “NE” – não existe. Se em algum disjuntor 
do terminal não houver o dispositivo de sincronismo essa informação deve ser destacada. 
Campo “Ajustes”: indica os ajustes de diferença de tensão, defasagem angular e diferença de frequência 
instalados para a função de verificação de sincronismo para o religamento manual de cada terminal;  caso 
não exista dispositivo de sincronismo, o campo é preenchido com hifens (---). 
Campo “Características dos Comutadores”:  
• Campo “Comutador sob carga ”: indica o número de posições associando a tensão correspondente à 
identificação das posições mínima, máxima e nominal, bem como a variação de tensão entre cada 
posição, conforme os dados de placa  do transformador.  Caso os números das posições dos dados de 
placa do transformador sejam diferentes dos números das posições utilizadas no Sistema de Supervisão 
e Controle, incluir, além d as posições dos dados de placa, também as posições utilizadas no SSC . Caso 
não exista comutador sob carga no transformador, o campo é preenchido com “NE” – não existe. 
• Campo “Comutador em Vazio”: indica as posições do comutador em vazio com os respectivos valores de 
tensão e sua posição em serviço. Caso não exista comutador em vazio no transformador, o campo é 
preenchido com “NE” – não existe. 
Campo “ Notas / Restrições ”: campo opcional que  indica informações relevantes a respeito do 
transformador. 
Caso os dados operacionais não sejam informados pelo Agente, os campos são preenchidos com “NI” – não 
informado. 
 
4.1. SE PEIXE ANGICAL – AUTOTRANSFORMADOR 550/138/13,8 KV - 525 MVA 
Dispositivo de 
Sincronismo Ajustes 
Características dos Comutadores 
Comutador sob Carga Comutador em Vazio 
NI NI NI 
1 = 551,25 
2 = 538,13 
3 = 525,00 
4 = 511,88 
5 = 498,75 
Notas / Restrições: NA 
 
Manual de Procedimentos da Operação - Módulo 5 - Submódulo 5.11 
 Cadastro de Informações Operacionais Código Revisão Item Vigência 
Cadastro de Dados Operacionais de Equipamentos da Interligação Norte / Sudeste CD-CT.NSE.01 46 2.1.1. 05/09/2023 
 
Referência:  14 / 39 
 
Alterado pela(s) MOP(s): 
MOP/ONS 463-S/2024;  
5. DADOS OPERACIONAIS DE UNIDADES GERADORAS 
Orientações sobre os dados operacionais de unidades geradoras de usinas hidrelétricas:  
Código Único de Empreendimentos em Geração – CEG: está apresentado ao lado do nome da usina. O CEG permanece associado ao  empreendimento, 
independentemente de alteração de atributos ou de proprietários da usina. O número CEG é obtido no site da ANEEL. 
Campo “Unidade Geradora”: identifica cada unidade geradora conforme diagrama unifilar do agente. 
Campo “Faixa de Tensão (kV)”: 
• Campo “Nom.”: indica a tensão nominal da unidade geradora, em kV. 
• Campo “Mín.”: indica a tensão mínima da unidade geradora, em kV. 
• Campo “Máx.”: indica a tensão máxima da unidade geradora, em kV. 
Campo “Potência Aparente (MVA)”: 
• Campo “Nom.”: indica a potência aparente nominal da unidade geradora, em MVA. 
• Campo “FP”: indica o fator de potência nominal da unidade geradora. 
Campo “Potência Reativa (Mvar)”: 
• Campo “Mín.”: indica a potência reativa mínima da unidade geradora, em Mvar, podendo ser referenciada a curva de capabilidade da unidade geradora. 
• Campo “Máx.”: indica a potência reativa máxima da unidade geradora, em Mvar, podendo ser referenciada a curva de capabilidade da unidade geradora. 
Campo “Faixa de Operação (MW)”: 
• Campo “Permitida”: indica a faixa de potência ativa permitida da unidade geradora, em MW, associada a um determinado nível do reservatório, caso necessário. 
• Campo “Proibida”: indica a faixa de potência ativa máxima da unidade geradora, em MW, associada a um determinado nível do reservatório, caso necessário. 
Campo “Dispositivos de Sincronismo”: indica o disjuntor onde é efetuado o sincronismo da unidade geradora. 
Campo “Operação como Compensador Síncrono”: 
• Campo “Unidade Geradora”: indica a identificação de cada unidade geradora conforme diagrama unifilar do agente. 
• Campo “Conversão / Reversão (min)”: indica o tempo necessário para realizar a conversão de gerador para síncrono e síncrono para gerador, em minutos. 
Campo “Notas / Restrições”: campo opcional que indica informações relevantes a respeito da usina. 
Manual de Procedimentos da Operação - Módulo 5 - Submódulo 5.11 
 Cadastro de Informações Operacionais Código Revisão Item Vigência 
Cadastro de Dados Operacionais de Equipamentos da Interligação Norte / Sudeste CD-CT.NSE.01 46 2.1.1. 05/09/2023 
 
Referência:  15 / 39 
 
Alterado pela(s) MOP(s): 
MOP/ONS 463-S/2024;  
Caso os dados operacionais não sejam informados pelo Agente, os campos são preenchidos com “NI” – não informado. 
Caso os dados operacionais não se apliquem, os campos são preenchidos com hifens “---”. 
Manual de Procedimentos da Operação - Módulo 5 - Submódulo 5.11 
 Cadastro de Informações Operacionais Código Revisão Item Vigência 
Cadastro de Dados Operacionais de Equipamentos da Interligação Norte / Sudeste CD-CT.NSE.01 46 2.1.1. 05/09/2023 
 
Referência:  16 / 39 
 
Alterado pela(s) MOP(s): 
MOP/ONS 463-S/2024;  
5.1. UHE PEIXE ANGICAL (CEG: UHE.PH.TO.028353-3.01) 
5.1.1. DADOS DAS UNIDADES GERADORAS DA UHE PEIXE ANGICAL 
Unidade 
Geradora 
Tensão (kV) Potência 
Aparente (MVA) 
Potência 
Reativa (Mvar) 
Faixa de Operação 
(MW) Dispositivo 
de 
Sincronismo 
Operação como Compensador Síncrono 
Nom. Mín. Máx. Nom. FP Mín. Máx. Permitida Proibida Unidade Geradora 
Conversão / 
Reversão 
(min) 
1, 2 e 3 13,8 13,1 14,5 175 0,95 Ver curva 
capabilidade 70 a 166,25 < 70 NI Não --- 
Notas / Restrições: Em função de instabilidades cavitacionais nas Unidades Geradoras, o limite mínimo de geração por Unidade Geradora é de 70 MW. As unidades 
não devem operar abaixo de 70 MW. Esta orientação se sobrepõe à curva de capabilidade. Para potências superiores a 70MW fica valendo a curva de capabilidade 
e suas faixas proibitivas em função da queda. 
Manual de Procedimentos da Operação - Módulo 5 - Submódulo 5.11 
 Cadastro de Informações Operacionais Código Revisão Item Vigência 
Cadastro de Dados Operacionais de Equipamentos da Interligação Norte / Sudeste CD-CT.NSE.01 46 2.1.1. 05/09/2023 
 
Referência:  17 / 39 
 
Alterado pela(s) MOP(s): 
MOP/ONS 463-S/2024;  
5.1.2. CURVA DE CAPABILIDADE DAS UNIDADES GERADORAS DA UHE PEIXE ANGICAL 
 

Manual de Procedimentos da Operação - Módulo 5 - Submódulo 5.11 
 Cadastro de Informações Operacionais Código Revisão Item Vigência 
Cadastro de Dados Operacionais de Equipamentos da Interligação Norte / Sudeste CD-CT.NSE.01 46 2.1.1. 05/09/2023 
 
Referência:  18 / 39 
 
Alterado pela(s) MOP(s): 
MOP/ONS 463-S/2024;  
5.2. UHE SERRA DA MESA (CEG: UHE.PH.GO.002731-6.01) 
5.2.1. DADOS DAS UNIDADES GERADORAS DA UHE SERRA DA MESA 
Unidade 
Geradora 
Tensão (kV) Potência 
Aparente (MVA) 
Potência 
Reativa (Mvar) 
Faixa de Operação 
(MW) Dispositivo 
de 
Sincronismo 
Operação como Compensador Síncrono 
Nom. Mín. Máx. Nom. FP Mín. Máx. Permitida Proibida Unidade Geradora 
Conversão / 
Reversão 
(min) 
1, 2 e 3 15,0 14,2 15,7 472 0,90 Ver curva 
capabilidade 240 a 425 < 240 NI UG01, 02 e 03 --- 
Notas / Restrições : Em função da oscilação do eixo dos mancais das turbinas das UG, o limite mínimo de geração por Unidade Geradora é de 240MW. E sta 
orientação se sobrepõe à curva de capabilidade. Para potências superiores a 240 MW fica valendo a curva de capabilidade e suas faixas proibitivas em função da 
queda. 
5.2.2. CURVA DE CAPABILIDADE DAS UNIDADES GERADORAS DA UHE SERRA DA MESA 
 

Manual de Procedimentos da Operação - Módulo 5 - Submódulo 5.11 
 Cadastro de Informações Operacionais Código Revisão Item Vigência 
Cadastro de Dados Operacionais de Equipamentos da Interligação Norte / Sudeste CD-CT.NSE.01 46 2.1.1. 05/09/2023 
 
Referência:  19 / 39 
 
Alterado pela(s) MOP(s): 
MOP/ONS 463-S/2024;  
5.2.3.  CURVA DE POTÊNCIA E QUEDA LÍQUIDA DA UHE SERRA DA MESA 
 
 

Manual de Procedimentos da Operação - Módulo 5 - Submódulo 5.11 
Cadastro de Informações Operacionais Código Revisão Item Vigência 
Cadastro de Dados Operacionais de Equipamentos da 
Interligação Norte / Sudeste CD-CT.NSE.01 46 2.1.1. 05/09/2023 
 
Referência:  20 / 39 
 
Alterado pela(s) MOP(s): 
MOP/ONS 463-S/2024;  
6. DADOS OPERACIONAIS DE BANCOS DE CAPACITORES SÉRIE 
Orientações sobre os dados operacionais de bancos de capacitores:  
• Campo “Identificação Operacional”: identificação do banco de capacitores, conforme diagrama unifilar 
do agente.  
• Campo “Tensão Nominal (kV)”: indica a tensão nominal dos bancos de capacitores.  
• Campo “Potência Nominal (Mvar)”: indica a potência nominal dos bancos de capacitores.  
• Campo “Tempo para energização após desligamento”: é o tempo entre abertura dos disjuntores 
desconectando esse equipamento do sistema e o fechamento dos disjuntores reconectando o 
equipamento no sistema. Pode ser determinado pelas curvas tensão x corrente e temperatura x tempo.  
• Campo “Notas / Restrições”: campo opcional que indica informações relevantes a respeito dos bancos 
de capacitores.  
Caso os dados operacionais não sejam informados pelo Agente, os campos são preenchidos com “NI” – não 
informado. 
Caso os dados operacionais não se apliquem, os campos são preenchidos com hifens “---”. 
6.1. SE GURUPI – BANCO DE CAPACITOR SÉRIE BSGUMI1 500 KV / 361 MVAR DA LT 500 KV GURUPI / 
MIRACEMA C1 
Identificação Operacional Tensão Nominal 
(kV) 
Potência Nominal 
(Mvar) 
Tempo para Energização 
após Desligamento 
BSGUMI1 500 361 Ver itens a seguir 
Notas / Restrições: NA 
 
6.1.1. SE GURUPI  - BANCO DE CAPACITOR SÉRIE BSGUMI1 500 KV / 361 MVAR DA LT 500 KV GURUPI / 
MIRACEMA C1 - CURVA CARACTERÍSTICA TENSÃO X CORRENTE 
 

Manual de Procedimentos da Operação - Módulo 5 - Submódulo 5.11 
Cadastro de Informações Operacionais Código Revisão Item Vigência 
Cadastro de Dados Operacionais de Equipamentos da 
Interligação Norte / Sudeste CD-CT.NSE.01 46 2.1.1. 05/09/2023 
 
Referência:  21 / 39 
 
Alterado pela(s) MOP(s): 
MOP/ONS 463-S/2024;  
6.1.2. SE GURUPI - BANCO DE CAPACITOR SÉRIE BSGUMI1 500 KV / 361 MVAR DA LT 500 KV GURUPI / 
MIRACEMA C1 - CURVA RESFRIAMENTO DO MOV TEMPERATURA X TEMPO 
 
6.2. SE GURUPI – BANCO DE CAPACITOR SÉRIE BSGUMI4 500 KV / 361,4 MVAR DA LT 500 KV GURUPI / 
MIRACEMA C2 
Identificação Operacional Tensão Nominal 
(kV) 
Potência Nominal 
(Mvar) 
Tempo para Energização 
após Desligamento 
BSGUMI4 500 361,4 Ver itens a seguir 
Notas / Restrições: NA 
 
6.2.1. SE GURUPI – BANCO DE CAPACITOR SÉRIE BSGUMI4 500 KV / 361,4 MVAR DA LT 500 KV GURUPI / 
MIRACEMA C2 - CURVA CARACTERÍSTICA TENSÃO X CORRENTE 
Corrente do Capacitor Tempo para Derivação 
< 1.10 infinito 
= 1.10 8 h 
= 1.35 2 h 
= 1.50 30 min 
= 2.00 10 min 
= 2.20 10 s 
> 2.20 1 s 

Manual de Procedimentos da Operação - Módulo 5 - Submódulo 5.11 
Cadastro de Informações Operacionais Código Revisão Item Vigência 
Cadastro de Dados Operacionais de Equipamentos da 
Interligação Norte / Sudeste CD-CT.NSE.01 46 2.1.1. 05/09/2023 
 
Referência:  22 / 39 
 
Alterado pela(s) MOP(s): 
MOP/ONS 463-S/2024;  
 
 
6.2.2. SE GURUPI – BANCO DE CAPACITOR SÉRIE BSGUMI4 500 KV / 361,4 MVAR DA LT 500 KV GURUPI / 
MIRACEMA C2 - CURVA RESFRIAMENTO DO MOV TEMPERATURA X TEMPO 
 
Curva de Resfriamento do Varistor a 40°C Ambiente. 

Manual de Procedimentos da Operação - Módulo 5 - Submódulo 5.11 
Cadastro de Informações Operacionais Código Revisão Item Vigência 
Cadastro de Dados Operacionais de Equipamentos da 
Interligação Norte / Sudeste CD-CT.NSE.01 46 2.1.1. 05/09/2023 
 
Referência:  23 / 39 
 
Alterado pela(s) MOP(s): 
MOP/ONS 463-S/2024;  
 
Curva de Resfriamento do Varistor a 25°C Ambiente. 
 
Bloqueio de Reinserção por 
Sobretemperatura do Varistor 
Desbloqueio Automático 
150°C 100°C 
6.3. SE GURUPI – BANCO DE CAPACITOR SÉRIE BSGUMI3 500 KV / 361,5 MVAR DA LT 500 KV GURUPI / 
MIRACEMA C3 
Identificação Operacional Tensão Nominal 
(kV) 
Potência Nominal 
(Mvar) 
Tempo para Energização 
após Desligamento 
BSGUMI3 500 361,5 Ver itens a seguir 
Notas / Restrições: NA 
 

Manual de Procedimentos da Operação - Módulo 5 - Submódulo 5.11 
Cadastro de Informações Operacionais Código Revisão Item Vigência 
Cadastro de Dados Operacionais de Equipamentos da 
Interligação Norte / Sudeste CD-CT.NSE.01 46 2.1.1. 05/09/2023 
 
Referência:  24 / 39 
 
Alterado pela(s) MOP(s): 
MOP/ONS 463-S/2024;  
6.3.1. SE GURUPI – BANCO DE CAPACITOR SÉRIE BSGUMI3 500 KV / 361,5 MVAR DA LT 500 KV GURUPI / 
MIRACEMA C3 - CURVA CARACTERÍSTICA TENSÃO X CORRENTE 
 
6.3.2. SE GURUPI – BANCO DE CAPACITOR SÉRIE BSGUMI3 500 KV / 361,5 MVAR DA LT 500 KV GURUPI / 
MIRACEMA C3 - CURVA RESFRIAMENTO DO MOV TEMPERATURA X TEMPO 
 
Bloqueio de Reinserção por 
Sobretemperatura do Varistor 
Desbloqueio Automático 
114,8°C 71,5°C 
 

Manual de Procedimentos da Operação - Módulo 5 - Submódulo 5.11 
Cadastro de Informações Operacionais Código Revisão Item Vigência 
Cadastro de Dados Operacionais de Equipamentos da 
Interligação Norte / Sudeste CD-CT.NSE.01 46 2.1.1. 05/09/2023 
 
Referência:  25 / 39 
 
Alterado pela(s) MOP(s): 
MOP/ONS 463-S/2024;  
6.4. SE GURUPI – BANCO DE CAPACITOR SÉRIE BSPEGU 500 KV / 203,5 MVAR DA LT 500 KV GURUPI / 
PEIXE 2 
Identificação Operacional Tensão Nominal 
(kV) 
Potência Nominal 
(Mvar) 
Tempo para Energização 
após Desligamento 
BSPEGU 500 203,5 Ver itens a seguir 
Notas / Restrições: NA 
 
6.4.1. SE GURUPI – BANCO DE CAPACITOR SÉRIE BSPEGU 500 KV / 203,5 MVAR DA LT 500 KV GURUPI / 
PEIXE 2 - CURVA CARACTERÍSTICA TENSÃO X CORRENTE 
 

Manual de Procedimentos da Operação - Módulo 5 - Submódulo 5.11 
Cadastro de Informações Operacionais Código Revisão Item Vigência 
Cadastro de Dados Operacionais de Equipamentos da 
Interligação Norte / Sudeste CD-CT.NSE.01 46 2.1.1. 05/09/2023 
 
Referência:  26 / 39 
 
Alterado pela(s) MOP(s): 
MOP/ONS 463-S/2024;  
6.4.2. SE GURUPI – BANCO DE CAPACITOR SÉRIE BSPEGU 500 KV / 203,5 M VAR DA LT 500 KV GURUPI / 
PEIXE 2 - CURVA RESFRIAMENTO DO MOV TEMPERATURA X TEMPO 
 
Bloqueio de Reinserção por 
Sobretemperatura do Varistor 
Desbloqueio Automático 
131,8°C 74,6°C 
6.5. SE GURUPI – BANCO DE CAPACITOR SÉRIE BSSMGU1 500 KV / 286 MVAR DA LT 500 KV SERRA DA 
MESA / GURUPI C1 
Identificação Operacional Tensão Nominal 
(kV) 
Potência Nominal 
(Mvar) 
Tempo para Energização 
após Desligamento 
BSSMGU1 500 286 Ver itens a seguir 
Notas / Restrições: NA 
 

Manual de Procedimentos da Operação - Módulo 5 - Submódulo 5.11 
Cadastro de Informações Operacionais Código Revisão Item Vigência 
Cadastro de Dados Operacionais de Equipamentos da 
Interligação Norte / Sudeste CD-CT.NSE.01 46 2.1.1. 05/09/2023 
 
Referência:  27 / 39 
 
Alterado pela(s) MOP(s): 
MOP/ONS 463-S/2024;  
6.5.1. SE GURUPI – BANCO DE CAPACITOR SÉRIE BSSMGU1 500 KV / 286 MVAR DA LT 500 KV SERRA DA 
MESA / GURUPI C1 - CURVA CARACTERÍSTICA TENSÃO X CORRENTE 
 
6.5.2. SE GURUPI – BANCO DE CAPACITOR SÉRIE BSSMGU1 500 KV / 286 M VAR DA LT 500 KV SERRA DA 
MESA / GURUPI C1 - CURVA RESFRIAMENTO DO MOV TEMPERATURA X TEMPO 
 

Manual de Procedimentos da Operação - Módulo 5 - Submódulo 5.11 
Cadastro de Informações Operacionais Código Revisão Item Vigência 
Cadastro de Dados Operacionais de Equipamentos da 
Interligação Norte / Sudeste CD-CT.NSE.01 46 2.1.1. 05/09/2023 
 
Referência:  28 / 39 
 
Alterado pela(s) MOP(s): 
MOP/ONS 463-S/2024;  
6.6. SE GURUPI – BANCO DE CAPACITOR SÉRIE BSSMGU2 500 KV / 285,6 MVAR DA LT 500 KV SERRA DA 
MESA / GURUPI C2 
Identificação Operacional Tensão Nominal 
(kV) 
Potência Nominal 
(Mvar) 
Tempo para Energização 
após Desligamento 
BSSMGU2 500 285,6 Ver itens a seguir 
Notas / Restrições: NA 
6.6.1. SE GURUPI – BANCO DE CAPACITOR SÉRIE BSSMGU2 500 KV / 285,6 MVAR DA LT 500 KV SERRA DA 
MESA / GURUPI C2 - CURVA CARACTERÍSTICA TENSÃO X CORRENTE 
Corrente do Capacitor Tempo para Derivação 
< 1.10 infinito 
= 1.10 8 h 
= 1.35 2 h 
= 1.50 30 min 
= 2.00 10 min 
= 2.20 10 s 
> 2.20 1 s 
 
Manual de Procedimentos da Operação - Módulo 5 - Submódulo 5.11 
Cadastro de Informações Operacionais Código Revisão Item Vigência 
Cadastro de Dados Operacionais de Equipamentos da 
Interligação Norte / Sudeste CD-CT.NSE.01 46 2.1.1. 05/09/2023 
 
Referência:  29 / 39 
 
Alterado pela(s) MOP(s): 
MOP/ONS 463-S/2024;  
 
 
6.6.2. SE GURUPI – BANCO DE CAPACITOR SÉRIE BSSMGU2 500 KV / 285,6 MVAR DA LT 500 KV SERRA DA 
MESA / GURUPI C2 - CURVA RESFRIAMENTO DO MOV TEMPERATURA X TEMPO 
 
Curva de Resfriamento do Varistor a 40°C Ambiente. 
 

Manual de Procedimentos da Operação - Módulo 5 - Submódulo 5.11 
Cadastro de Informações Operacionais Código Revisão Item Vigência 
Cadastro de Dados Operacionais de Equipamentos da 
Interligação Norte / Sudeste CD-CT.NSE.01 46 2.1.1. 05/09/2023 
 
Referência:  30 / 39 
 
Alterado pela(s) MOP(s): 
MOP/ONS 463-S/2024;  
 
Curva de Resfriamento do Varistor a 25°C Ambiente. 
 
Bloqueio de Reinserção por 
Sobretemperatura do Varistor Desbloqueio Automático 
150°C 100°C 
 
 
6.7. SE MIRACEMA – BANCO DE CAPACITOR SÉRIE MCCL7-01 500 KV / 361,5 MVAR DA LT 500 KV GURUPI 
/ MIRACEMA C1 
Identificação Operacional Tensão Nominal 
(kV) 
Potência Nominal 
(Mvar) 
Tempo para Energização 
após Desligamento 
MCCL7-01 500 361,5 NI 
Notas / Restrições: NA 
 
6.7.1. SE MIRACEMA – BANCO DE CAPACITOR SÉRIE MCCL7-01 500 KV / 361,5 MVAR DA LT 500 KV GURUPI 
/ MIRACEMA C1 - CURVA CARACTERÍSTICA TENSÃO X CORRENTE 
NI 
6.7.2. SE MIRACEMA – BANCO DE CAPACITOR SÉRIE MCCL7-01 500 KV / 361,5 MVAR DA LT 500 KV GURUPI 
/ MIRACEMA C1 - CURVA RESFRIAMENTO DO MOV TEMPERATURA X TEMPO 
NI 

Manual de Procedimentos da Operação - Módulo 5 - Submódulo 5.11 
Cadastro de Informações Operacionais Código Revisão Item Vigência 
Cadastro de Dados Operacionais de Equipamentos da 
Interligação Norte / Sudeste CD-CT.NSE.01 46 2.1.1. 05/09/2023 
 
Referência:  31 / 39 
 
Alterado pela(s) MOP(s): 
MOP/ONS 463-S/2024;  
6.8. SE MIRACEMA – BANCO DE CAPACITOR SÉRIE MCCL7-02 500 KV / 361,5 MVAR DA LT 500 KV GURUPI 
/ MIRACEMA C2 
Identificação Operacional Tensão Nominal 
(kV) 
Potência Nominal 
(Mvar) 
Tempo para Energização 
após Desligamento 
MCCL7-02 500 361,5 Ver itens a seguir 
Notas / Restrições: NA 
 
6.8.1. SE MIRACEMA – BANCO DE CAPACITOR SÉRIE MCCL7-02 500 KV / 361,5 MVAR DA LT 500 KV GURUPI 
/ MIRACEMA C2 - CURVA CARACTERÍSTICA TENSÃO X CORRENTE 
Corrente do Capacitor Tempo para Derivação 
< 1.10 infinito 
= 1.10 8 h 
= 1.35 2 h 
= 1.50 30 min 
= 2.00 10 min 
= 2.20 10 s 
> 2.20 1 s 
 

Manual de Procedimentos da Operação - Módulo 5 - Submódulo 5.11 
Cadastro de Informações Operacionais Código Revisão Item Vigência 
Cadastro de Dados Operacionais de Equipamentos da 
Interligação Norte / Sudeste CD-CT.NSE.01 46 2.1.1. 05/09/2023 
 
Referência:  32 / 39 
 
Alterado pela(s) MOP(s): 
MOP/ONS 463-S/2024;  
6.8.2. SE MIRACEMA – BANCO DE CAPACITOR SÉRIE MCCL7-02 500 KV / 361,5 MVAR DA LT 500 KV GURUPI 
/ MIRACEMA C2 - CURVA RESFRIAMENTO DO MOV TEMPERATURA X TEMPO 
 
Curva de Resfriamento do Varistor a 40°C Ambiente. 
 
Curva de Resfriamento do Varistor a 25°C Ambiente. 
 
Bloqueio de Reinserção por 
Sobre temperatura do Varistor Desbloqueio Automático 
150°C 100°C 
 
6.9. SE MIRACEMA – BANCO DE CAPACITOR SÉRIE MCCL7-03 500 KV / 361,5 MVAR DA LT 500 KV GURUPI 
/ MIRACEMA C3 
Identificação Operacional Tensão Nominal 
(kV) 
Potência Nominal 
(Mvar) 
Tempo para Energização 
após Desligamento 
MCCL7-03 500 361,5 Ver itens a seguir 
Notas / Restrições: NA 

Manual de Procedimentos da Operação - Módulo 5 - Submódulo 5.11 
Cadastro de Informações Operacionais Código Revisão Item Vigência 
Cadastro de Dados Operacionais de Equipamentos da 
Interligação Norte / Sudeste CD-CT.NSE.01 46 2.1.1. 05/09/2023 
 
Referência:  33 / 39 
 
Alterado pela(s) MOP(s): 
MOP/ONS 463-S/2024;  
 
6.9.1. SE MIRACEMA – BANCO DE CAPACITOR SÉRIE MCCL7-03 500 KV / 361,5 MVAR DA LT 500 KV GURUPI 
/ MIRACEMA C3 - CURVA CARACTERÍSTICA TENSÃO X CORRENTE 
 
6.9.2. SE MIRACEMA – BANCO DE CAPACITOR SÉRIE MCCL7-03 500 KV / 361,5 MVAR DA LT 500 KV GURUPI 
/ MIRACEMA C3 - CURVA RESFRIAMENTO DO MOV TEMPERATURA X TEMPO 
 
Bloqueio de Reinserção por 
Sobre temperatura do Varistor 
Desbloqueio Automático 
114,8°C 71,5°C 
 

Manual de Procedimentos da Operação - Módulo 5 - Submódulo 5.11 
Cadastro de Informações Operacionais Código Revisão Item Vigência 
Cadastro de Dados Operacionais de Equipamentos da 
Interligação Norte / Sudeste CD-CT.NSE.01 46 2.1.1. 05/09/2023 
 
Referência:  34 / 39 
 
Alterado pela(s) MOP(s): 
MOP/ONS 463-S/2024;  
6.10. SE PEIXE 2 – BANCO DE CAPACITOR SÉRIE PXCL7-01 500 KV / 662 MVAR DA LT 500 KV PEIXE 2 / 
SERRA DA MESA 2  
Identificação Operacional Tensão Nominal 
(kV) 
Potência Nominal 
(Mvar) 
Tempo para Energização 
após Desligamento 
PXCL7-01 500 662 Ver itens a seguir 
Notas / Restrições: NA 
 
6.10.1. SE PEIXE 2 – BANCO DE CAPACITOR SÉRIE PXCL7 -01 500 KV / 662 MVAR DA LT 500 KV PEIXE 2 / 
SERRA DA MESA 2 - CURVA CARACTERÍSTICA TENSÃO X CORRENTE 
 

Manual de Procedimentos da Operação - Módulo 5 - Submódulo 5.11 
Cadastro de Informações Operacionais Código Revisão Item Vigência 
Cadastro de Dados Operacionais de Equipamentos da 
Interligação Norte / Sudeste CD-CT.NSE.01 46 2.1.1. 05/09/2023 
 
Referência:  35 / 39 
 
Alterado pela(s) MOP(s): 
MOP/ONS 463-S/2024;  
6.10.2. SE PEIXE 2 – BANCO DE CAPACITOR SÉRIE PXCL7 -01 500 KV / 662 MVAR DA LT 500 KV PEIXE 2 / 
SERRA DA MESA 2 - CURVA RESFRIAMENTO DO MOV TEMPERATURA X TEMPO 
 
Bloqueio de Reinserção por 
Sobre temperatura do Varistor 
Desbloqueio Automático 
170 °C 145 °C 
6.11. SE SERRA DA MESA – BANCO DE CAPACITOR SÉRIE BSSMGU1 500 KV / 191 MVAR DA LT 500 KV 
SERRA DA MESA / GURUPI C1 
Identificação Operacional Tensão Nominal 
(kV) 
Potência Nominal 
(Mvar) 
Tempo para Energização 
após Desligamento 
BSSMGU1 500 191 Ver itens a seguir 
Notas / Restrições: NA 
 

Manual de Procedimentos da Operação - Módulo 5 - Submódulo 5.11 
Cadastro de Informações Operacionais Código Revisão Item Vigência 
Cadastro de Dados Operacionais de Equipamentos da 
Interligação Norte / Sudeste CD-CT.NSE.01 46 2.1.1. 05/09/2023 
 
Referência:  36 / 39 
 
Alterado pela(s) MOP(s): 
MOP/ONS 463-S/2024;  
6.11.1. SE SERRA DA MESA – BANCO DE CAPACITOR SÉRIE BSSMGU1 500 KV / 191 MVAR DA LT 500 KV 
SERRA DA MESA / GURUPI C1 - CURVA CARACTERÍSTICA TENSÃO X CORRENTE 
 
6.11.2. SE SERRA DA MESA – BANCO DE CAPACITOR SÉRIE BSSMGU1 500 KV / 191 MVAR DA LT 500 KV 
SERRA DA MESA / GURUPI C1 - CURVA RESFRIAMENTO DO MOV TEMPERATURA X TEMPO 
 
 

Manual de Procedimentos da Operação - Módulo 5 - Submódulo 5.11 
Cadastro de Informações Operacionais Código Revisão Item Vigência 
Cadastro de Dados Operacionais de Equipamentos da 
Interligação Norte / Sudeste CD-CT.NSE.01 46 2.1.1. 05/09/2023 
 
Referência:  37 / 39 
 
Alterado pela(s) MOP(s): 
MOP/ONS 463-S/2024;  
6.12. SE SERRA DA MESA  – BANCO DE CAPACITOR SÉRIE BSSMGU2 500 KV / 191 MVAR DA LT 500 KV 
SERRA DA MESA / GURUPI C2 
Identificação Operacional Tensão Nominal 
(kV) 
Potência Nominal 
(Mvar) 
Tempo para Energização 
após Desligamento 
BSSMGU2 500 191 Ver itens a seguir 
Notas / Restrições: NA 
6.12.1. SE SERRA DA MESA – BANCO DE CAPACITOR SÉRIE BSSMGU2 500 KV / 191 MVAR DA LT 500 KV 
SERRA DA MESA / GURUPI C2 - CURVA CARACTERÍSTICA TENSÃO X CORRENTE 
Corrente do Capacitor Tempo para Derivação 
< 1.10 infinito 
= 1.10 8 h 
= 1.35 2 h 
= 1.50 30 min 
= 2.00 10 min 
= 2.20 10 s 
> 2.20 1 s 
 
Manual de Procedimentos da Operação - Módulo 5 - Submódulo 5.11 
Cadastro de Informações Operacionais Código Revisão Item Vigência 
Cadastro de Dados Operacionais de Equipamentos da 
Interligação Norte / Sudeste CD-CT.NSE.01 46 2.1.1. 05/09/2023 
 
Referência:  38 / 39 
 
Alterado pela(s) MOP(s): 
MOP/ONS 463-S/2024;  
 
 
6.12.2. SE SERRA DA MESA – BANCO DE CAPACITOR SÉRIE BSSMGU2 500 KV / 191 MVAR DA LT 500 KV 
SERRA DA MESA / GURUPI C2 - CURVA RESFRIAMENTO DO MOV TEMPERATURA X TEMPO 
 
Curva de Resfriamento do Varistor a 40°C Ambiente. 

Manual de Procedimentos da Operação - Módulo 5 - Submódulo 5.11 
Cadastro de Informações Operacionais Código Revisão Item Vigência 
Cadastro de Dados Operacionais de Equipamentos da 
Interligação Norte / Sudeste CD-CT.NSE.01 46 2.1.1. 05/09/2023 
 
Referência:  39 / 39 
 
Alterado pela(s) MOP(s): 
MOP/ONS 463-S/2024;  
 
Curva de Resfriamento do Varistor a 25°C Ambiente. 
 
Bloqueio de Reinserção por 
Sobre temperatura do Varistor Desbloqueio Automático 
150°C 100°C 
 

