 
 
Manual de Procedimentos da Operação 
Módulo 5 - Submódulo 5.11 
 
Cadastro de Informações Operacionais 
Cadastro de Dados Operacionais de Equipamentos da Área 230 kV Centro da Região Nordeste 
 
Código Revisão Item Vigência 
CD-CT.NE.2CT.01 04 2.1.3. 22/10/2024 
 
. 
 
MOTIVO DA REVISÃO  
- Integração da unidade geradora 01G 4 da UHE Xingó como compensador síncrono, acarretando alteração 
do item 5.7.1. 
 
LISTA DE DISTRIBUIÇÃO 
CNOS COSR-NE Chesf 
 
Manual de Procedimentos da Operação - Módulo 5 - Submódulo 5.11 
 Cadastro de Informações Operacionais Código Revisão Item Vigência 
Cadastro de Dados Operacionais de Equipamentos da 
Área 230 kV Centro da Região Nordeste CD-CT.NE.2CT.01 04 2.1.3. 22/10/2024 
 
Referência:  2 / 35 
 
ÍNDICE  
1. OBJETIVO ................................ ................................ ................................ ................................ ..... 4 
2. CONSIDERAÇÕES GERAIS ................................ ................................ ................................ .............. 4 
3. DADOS OPERACIONAIS DE LINHAS DE TRANSMISSÃO ................................ ................................ .... 4 
3.1. LT 230 kV PAULO AFONSO / PAULO AFONSO I - C1(J1) ................................................................ 5 
3.2. LT 230 kV PAULO AFONSO / PAULO AFONSO II - C1(J2) ............................................................... 6 
3.3. LT 230 kV PAULO AFONSO / PAULO AFONSO II - C2(J3) ............................................................... 6 
3.4. LT 230 kV PAULO AFONSO / PAULO AFONSO III - C1(G10) ........................................................... 6 
3.5. LT 230 kV PAULO AFONSO / PAULO AFONSO III - C2(G11) ........................................................... 7 
3.6. LT 230 kV PAULO AFONSO / PAULO AFONSO III - C3(G12) ........................................................... 7 
3.7. LT 230 kV PAULO AFONSO / PAULO AFONSO III - C4(G13) ........................................................... 8 
3.8. LT 230 kV PAULO AFONSO IV / PAULO AFONSO - C1(T7).............................................................. 8 
3.9. LT 230 kV PAULO AFONSO IV / PAULO AFONSO - C2(T8).............................................................. 8 
3.10. LT 230 kV USINA APOLÔNIO SALES / PAULO AFONSO - C1(M1) ................................................... 9 
3.11. LT 230 kV USINA APOLÔNIO SALES / PAULO AFONSO - C2(M2) ................................................... 9 
3.12. LT 230 kV PAULO AFONSO / ZEBU 230 kV - C1(Z1) ..................................................................... 10 
3.13. LT 230 kV PAULO AFONSO / ZEBU 230 kV - C2(Z2) ..................................................................... 10 
4. DADOS OPERACIONAIS DE TRANSFORMADORES ................................ ................................ ......... 11 
4.1. SE APOLÔNIO SALES - Transformador 01T1 230/13,8 kV............................................................ 11 
4.2. SE APOLÔNIO SALES - Transformador 01T2 230/13,8 kV............................................................ 11 
4.3. SE PAULO AFONSO I - Transformador 01T1 230/13,8 kV ............................................................ 12 
4.4. SE PAULO AFONSO I - Transformador 01T2 230/13,8 kV ............................................................ 12 
4.5. SE PAULO AFONSO I - Transformador 01T3 230/13,8 kV ............................................................ 12 
4.6. SE PAULO AFONSO II - Transformador 01T1 13,8/230 - 132 kV.................................................. 12 
4.7. SE PAULO AFONSO II - Transformador 01T2 13,8/230 - 132 kV.................................................. 12 
4.8. SE PAULO AFONSO II - Transformador 01T3 230/13,8 kV ........................................................... 13 
4.9. SE PAULO AFONSO II - Transformador 01T4 13,8/230 - 132 kV.................................................. 13 
4.10. SE PAULO AFONSO II - Transformador 01T5 230/13,8 kV ........................................................... 13 
4.11. SE PAULO AFONSO II - Transformador 01T6 230/13,8 kV ........................................................... 13 
4.12. SE PAULO AFONSO III - Transformador 01T13 230/13,8 kV ........................................................ 13 
4.13. SE PAULO AFONSO III - Transformador 01T12 230/13,8 kV ........................................................ 14 
4.14. SE PAULO AFONSO III - Transformador 01T10 230/13,8 kV ........................................................ 14 
4.15. SE PAULO AFONSO III - Transformador 01T11 230/13,8 kV ........................................................ 14 
4.16. SE ZEBU – Transformador 04T1 230 / 69 / 13,8 kV ..................................................................... 14 
4.17. SE ZEBU – Transformador 04T2 230 / 69 kV................................................................................ 14 
Manual de Procedimentos da Operação - Módulo 5 - Submódulo 5.11 
 Cadastro de Informações Operacionais Código Revisão Item Vigência 
Cadastro de Dados Operacionais de Equipamentos da 
Área 230 kV Centro da Região Nordeste CD-CT.NE.2CT.01 04 2.1.3. 22/10/2024 
 
Referência:  3 / 35 
 
4.18. SE ZEBU – Transformador 04T3 230 / 69 kV................................................................................ 15 
5. DADOS OPERACIONAIS DE UNIDADES GERADORAS HIDRÁULICAS ................................ ................ 15 
5.1. UHE Apolônio Sales (CEG: UHE.PH.BA.028.565-0.01) ................................................................. 17 
5.1.1. Dados das Unidades Geradoras ................................................................................. 17 
5.1.2. Curva de Capabilidade das Unidades Geradoras....................................................... 18 
5.2. UHE Luiz Gonzaga (CEG: UHE.PH.PE.001174-6.01) ..................................................................... 19 
5.2.1. Dados das Unidades Geradoras ................................................................................. 19 
5.2.2. Curva de Capabilidade das Unidades Geradoras....................................................... 20 
5.3. UHE Paulo Afonso I (CEG: UHE.PH.BA.002.012-5.01).................................................................. 22 
5.3.1. Dados das Unidades Geradoras ................................................................................. 22 
5.3.2. Curva de Capabilidade das Unidades Geradoras....................................................... 22 
5.4. UHE Paulo Afonso II (CEG: UHE.PH.BA.027.048-2.01)................................................................. 23 
5.4.1. Dados das Unidades Geradoras ................................................................................. 23 
5.4.2. Curva de Capabilidade das Unidades Geradoras....................................................... 25 
5.5. UHE Paulo Afonso III  (CEG: UHE.PH.BA.027.049-0.01) ............................................................... 29 
5.5.1. Dados das Unidades Geradoras ................................................................................. 29 
5.5.2. Curva de Capabilidade das Unidades Geradoras....................................................... 30 
5.6. UHE Paulo Afonso IV (CEG: UHE.PH.BA.027.050-4.01) ............................................................... 32 
5.6.1. Dados das Unidades Geradoras ................................................................................. 32 
5.6.2. Curva de Capabilidade das Unidades Geradoras....................................................... 33 
5.7. UHE Xingó (CEG: UHE.PH.SE.027.053-9.01) ................................................................................ 34 
5.7.1. Dados das Unidades Geradoras ................................................................................. 34 
5.7.2. Curva de Capabilidade das Unidades Geradoras....................................................... 35 
  
Manual de Procedimentos da Operação - Módulo 5 - Submódulo 5.11 
 Cadastro de Informações Operacionais Código Revisão Item Vigência 
Cadastro de Dados Operacionais de Equipamentos da 
Área 230 kV Centro da Região Nordeste CD-CT.NE.2CT.01 04 2.1.3. 22/10/2024 
 
Referência:  4 / 35 
 
1. OBJETIVO 
Apresentar os Dados Operacionais de Equipamentos da Área 230  kV Centro da Região Nordeste,  a serem 
observados pelos operadores dos Centros de Operação do ONS e pela Operação dos Agentes envolvidos, de 
acordo com os Procedimentos de Rede. 
2. CONSIDERAÇÕES GERAIS 
2.1. Os dados de linhas de transmissão e equipamentos da Rede de Operação constantes neste Cadastro 
de Informações Operacionais devem ser observados pelos Centros de Operação do ONS para as ações 
de coordenação, supervisão e controle  da operação, assim como pelos Agentes para as ações de 
comando e execução.  
2.2. As limitações técnicas para tentativas de religamento de equipamentos contidas neste documento 
têm caráter operacional. Poderão ser utilizadas para apuração da qualidade do serviço público de 
transmissão de energia elétrica (apuração de parcela variável)  o valor do “Tempo para energização 
após desligamento” de cada equipamento, desde que sejam atendidos os critérios estabelecidos na 
regulação vigente. 
3. DADOS OPERACIONAIS DE LINHAS DE TRANSMISSÃO 
Orientações sobre os dados operacionais de linhas de transmissão:  
Campo “Religamento Automático”:  
• Campo “Tipo”: indica o tipo de religamento utilizado em operação normal: monopolar, tripolar ou 
monopolar / tripolar; caso não exista religamento instalado, o campo é preenchido com “NE” – não 
existe. 
• Campo “Situação”: indica se o religamento está ligado ou desligado em operação normal; caso não 
exista religamento instalado, o campo é preenchido com “NE” – não existe. 
• Campo “Sentido”: para religamentos tripolares, indica em primeiro lugar a instalação onde se dá o 
fechamento inicial (terminal líder), e após a seta, a instalação de fechamento final (terminal 
seguidor); para religamentos monopolares ou caso não exista religamento instalado, o campo é 
preenchido com hifens (---). 
• Campo “Ajustes”: indica os ajustes de tempo morto, diferença de tensão, defasagem angular e 
diferença de frequência instalados para a função de verificação de sincronismo para o religamento 
automático; caso não exista religamento automático instalado, o campo é preenchido com hifens 
(---). 
Campo “LT em Mesma Estrutura”: apresenta o nome da LT que compartilha estrutura, e quando disponível, 
a informação da extensão do trecho de compartilhamento e da quantidade de torres compartilhadas; caso 
não exista, o campo é preenchido com “NE” – não existe.  
Não deve ser considerado o compartilhamento de estrutura caso esse seja apenas na chegada as subestações 
envolvidas. 
Campo “LT em Mesma Faixa de Passagem ”: apresenta o nome da LT que compartilha a mesma faixa de 
passagem, e quando disponível, a informação da extensão do trecho de compartilhamento; caso não exista, 
o campo é preenchido com “NE” – não existe. 
Não deve ser considerado o compartilhamento de faixa de passagem caso esse seja apenas na chegada as 
subestações envolvidas.  
Manual de Procedimentos da Operação - Módulo 5 - Submódulo 5.11 
 Cadastro de Informações Operacionais Código Revisão Item Vigência 
Cadastro de Dados Operacionais de Equipamentos da 
Área 230 kV Centro da Região Nordeste CD-CT.NE.2CT.01 04 2.1.3. 22/10/2024 
 
Referência:  5 / 35 
 
Campo “Religamentos Manuais”:  
• Campo “Quantidade de Tentativas”: indica quantos religamentos (ou tentativas de religamento) 
manuais são permitidos pelo Agente. 
• Campo “Intervalo entre os Religamentos (min)”: é o intervalo de tempo entre os religamentos, em 
minutos, a ser considerado entre a tentativa de fechamento não-bem-sucedida anterior (incluindo 
o religamento automático) e o novo fechamento do disjuntor. 
• Campo “ Dispositivo de Sincronismo ”: indica os terminais onde esses estão instalados e em 
funcionamento. Dispositivo de Sincronismo é o equipamento utilizado para verificação das condições de 
fechamento em anel ou paralelo entre dois pontos elétricos; caso não exista, o campo é preenchido com 
“NE” – não existe.  Se em  algum disjuntor do terminal não houver o dispositivo de sincronismo essa 
informação deve ser destacada. 
• Campo “ Ajustes”: indica os ajustes de diferença de tensão, defasagem angular e diferença de 
frequência instalados para a função de verificação de sincronismo para o religamento manual de 
cada terminal; caso não exista dispositivo de sincronismo, o campo é preenchido com hifens (---). 
Campo “ Notas / Restrições ”: campo opcional que  indica informações relevantes a respeito da linha de 
transmissão. 
Caso os dados operacionais não sejam informados pelo Agente, os campos são preenchidos com “NI” – não 
informado. 
3.1. LT 230 KV PAULO AFONSO / PAULO AFONSO I - C1(J1) 
 
Religamento Automático 
LT em Mesma 
Estrutura 
LT em Mesma Faixa 
de Passagem Tipo Situação Sentido Ajustes 
NI Desligado NE NI Não NI 
Notas / Restrições: 
 
Religamento Manual 
Sentido Quantidade de 
Tentativas 
Intervalo entre os 
religamentos (minutos) 
Dispositivo de 
sincronismo Ajustes 
NE NI NI NI NI 
 
 
Manual de Procedimentos da Operação - Módulo 5 - Submódulo 5.11 
 Cadastro de Informações Operacionais Código Revisão Item Vigência 
Cadastro de Dados Operacionais de Equipamentos da 
Área 230 kV Centro da Região Nordeste CD-CT.NE.2CT.01 04 2.1.3. 22/10/2024 
 
Referência:  6 / 35 
 
3.2. LT 230 KV PAULO AFONSO / PAULO AFONSO II - C1(J2) 
Religamento Automático 
LT em Mesma 
Estrutura 
LT em Mesma Faixa 
de Passagem Tipo Situação Sentido Ajustes 
NI Desligado NE NI Não NI 
Notas / Restrições: 
 
Religamento Manual 
Sentido Quantidade de 
Tentativas 
Intervalo entre os 
religamentos (minutos) 
Dispositivo de 
sincronismo Ajustes 
NE NI NI NI NI 
 
3.3. LT 230 KV PAULO AFONSO / PAULO AFONSO II - C2(J3) 
 
Religamento Automático 
LT em Mesma 
Estrutura 
LT em Mesma Faixa 
de Passagem Tipo Situação Sentido Ajustes 
NI Desligado NE NI Não NI 
Notas / Restrições: 
 
Religamento Manual 
Sentido Quantidade de 
Tentativas 
Intervalo entre os 
religamentos (minutos) 
Dispositivo de 
sincronismo Ajustes 
NE NI NI NI NI 
 
3.4. LT 230 KV PAULO AFONSO / PAULO AFONSO III - C1(G10) 
Religamento Automático 
LT em Mesma 
Estrutura 
LT em Mesma Faixa 
de Passagem Tipo Situação Sentido Ajustes 
NI Desligado NE NI Não NI 
Notas / Restrições: 
 
Manual de Procedimentos da Operação - Módulo 5 - Submódulo 5.11 
 Cadastro de Informações Operacionais Código Revisão Item Vigência 
Cadastro de Dados Operacionais de Equipamentos da 
Área 230 kV Centro da Região Nordeste CD-CT.NE.2CT.01 04 2.1.3. 22/10/2024 
 
Referência:  7 / 35 
 
Religamento Manual 
Sentido Quantidade de 
Tentativas 
Intervalo entre os 
religamentos (minutos) 
Dispositivo de 
sincronismo Ajustes 
NE NI NI NI NI 
 
3.5. LT 230 KV PAULO AFONSO / PAULO AFONSO III - C2(G11) 
 
Religamento Automático 
LT em Mesma 
Estrutura 
LT em Mesma Faixa 
de Passagem Tipo Situação Sentido Ajustes 
NI Desligado NE NI Não NI 
Notas / Restrições: 
 
Religamento Manual 
Sentido Quantidade de 
Tentativas 
Intervalo entre os 
religamentos (minutos) 
Dispositivo de 
sincronismo Ajustes 
NE NI NI NI NI 
 
3.6. LT 230 KV PAULO AFONSO / PAULO AFONSO III - C3(G12) 
Religamento Automático 
LT em Mesma 
Estrutura 
LT em Mesma Faixa 
de Passagem Tipo Situação Sentido Ajustes 
NI Desligado NE NI Não NI 
Notas / Restrições: 
 
Religamento Manual 
Sentido Quantidade de 
Tentativas 
Intervalo entre os 
religamentos (minutos) 
Dispositivo de 
sincronismo Ajustes 
NE NI NI NI NI 
 
 
 
Manual de Procedimentos da Operação - Módulo 5 - Submódulo 5.11 
 Cadastro de Informações Operacionais Código Revisão Item Vigência 
Cadastro de Dados Operacionais de Equipamentos da 
Área 230 kV Centro da Região Nordeste CD-CT.NE.2CT.01 04 2.1.3. 22/10/2024 
 
Referência:  8 / 35 
 
3.7. LT 230 KV PAULO AFONSO / PAULO AFONSO III - C4(G13) 
Religamento Automático 
LT em Mesma 
Estrutura 
LT em Mesma Faixa 
de Passagem Tipo Situação Sentido Ajustes 
NI Desligado NE NI Não NI 
Notas / Restrições: 
 
Religamento Manual 
Sentido Quantidade de 
Tentativas 
Intervalo entre os 
religamentos (minutos) 
Dispositivo de 
sincronismo Ajustes 
NE NI NI NI NI 
 
3.8. LT 230 KV PAULO AFONSO IV / PAULO AFONSO - C1(T7) 
 
Religamento Automático 
LT em Mesma 
Estrutura 
LT em Mesma Faixa 
de Passagem Tipo Situação Sentido Ajustes 
NI Desligado NE NI Não NI 
Notas / Restrições: 
 
Religamento Manual 
Sentido Quantidade de 
Tentativas 
Intervalo entre os 
religamentos (minutos) 
Dispositivo de 
sincronismo Ajustes 
NE NI NI NI NI 
 
3.9. LT 230 KV PAULO AFONSO IV / PAULO AFONSO - C2(T8) 
 
Religamento Automático 
LT em Mesma 
Estrutura 
LT em Mesma Faixa 
de Passagem Tipo Situação Sentido Ajustes 
NI Desligado NE NI Não NI 
Notas / Restrições: 
 
Manual de Procedimentos da Operação - Módulo 5 - Submódulo 5.11 
 Cadastro de Informações Operacionais Código Revisão Item Vigência 
Cadastro de Dados Operacionais de Equipamentos da 
Área 230 kV Centro da Região Nordeste CD-CT.NE.2CT.01 04 2.1.3. 22/10/2024 
 
Referência:  9 / 35 
 
Religamento Manual 
Sentido Quantidade de 
Tentativas 
Intervalo entre os 
religamentos (minutos) 
Dispositivo de 
sincronismo Ajustes 
NE NI NI NI NI 
 
3.10. LT 230 KV USINA APOLÔNIO SALES / PAULO AFONSO - C1(M1) 
Religamento Automático 
LT em Mesma 
Estrutura 
LT em Mesma Faixa 
de Passagem Tipo Situação Sentido Ajustes 
NI Desligado NE NI Não NI 
Notas / Restrições: 
 
Religamento Manual 
Sentido Quantidade de 
Tentativas 
Intervalo entre os 
religamentos (minutos) 
Dispositivo de 
sincronismo Ajustes 
NE NI NI NI NI 
 
3.11. LT 230 KV USINA APOLÔNIO SALES / PAULO AFONSO - C2(M2) 
Religamento Automático 
LT em Mesma 
Estrutura 
LT em Mesma Faixa 
de Passagem Tipo Situação Sentido Ajustes 
NI Desligado NE NI Não NI 
Notas / Restrições: 
 
Religamento Manual 
Sentido Quantidade de 
Tentativas 
Intervalo entre os 
religamentos (minutos) 
Dispositivo de 
sincronismo Ajustes 
NE NI NI NI NI 
 
 
 
 
Manual de Procedimentos da Operação - Módulo 5 - Submódulo 5.11 
 Cadastro de Informações Operacionais Código Revisão Item Vigência 
Cadastro de Dados Operacionais de Equipamentos da 
Área 230 kV Centro da Região Nordeste CD-CT.NE.2CT.01 04 2.1.3. 22/10/2024 
 
Referência:  10 / 35 
 
3.12. LT 230 KV PAULO AFONSO / ZEBU 230 KV - C1(Z1)  
Religamento Automático 
LT em Mesma 
Estrutura 
LT em Mesma Faixa 
de Passagem Tipo Situação Sentido Ajustes 
NI Ligado 
Da SE PAF 
para a SE 
ZBU 
NI 
LT 230 KV PAULO 
AFONSO / ZEBU 230 
KV - C2(Z2) 
(4,81 Km) 
NI 
Notas / Restrições: 
 
Religamento Manual 
Sentido Quantidade de 
Tentativas 
Intervalo entre os 
religamentos (minutos) 
Dispositivo de 
sincronismo Ajustes 
NI 2 
Imediato para terminais 
distintos NI NI 15 minutos caso seja no 
mesmo terminal 
 
3.13. LT 230 KV PAULO AFONSO / ZEBU 230 KV - C2(Z2) 
Religamento Automático 
LT em Mesma 
Estrutura 
LT em Mesma Faixa 
de Passagem Tipo Situação Sentido Ajustes 
NI Ligado 
Da SE PAF 
para a SE 
ZBU 
NI 
LT 230 KV PAULO 
AFONSO / ZEBU 230 
KV - C1(Z1) 
(4,81 Km) 
NI 
Notas / Restrições: 
 
Religamento Manual 
Sentido Quantidade de 
Tentativas 
Intervalo entre os 
religamentos (minutos) 
Dispositivo de 
sincronismo Ajustes 
NI 2 
Imediato para terminais 
distintos NI NI 15 minutos caso seja no 
mesmo terminal 
Manual de Procedimentos da Operação - Módulo 5 - Submódulo 5.11 
 Cadastro de Informações Operacionais Código Revisão Item Vigência 
Cadastro de Dados Operacionais de Equipamentos da 
Área 230 kV Centro da Região Nordeste CD-CT.NE.2CT.01 04 2.1.3. 22/10/2024 
 
Referência:  11 / 35 
 
4. DADOS OPERACIONAIS DE TRANSFORMADORES 
Orientações sobre os dados operacionais de transformadores: 
Campo “ Dispositivo de Sincronismo ”: indica os terminais onde estão instalados e em funcionamento . 
Dispositivo de Sincronismo é o equipamento utilizado para verificação das condições de fechamento em anel 
ou paralelo entre dois pontos elétricos, o campo é preenchido com “NE” – não existe. Se em algum disjuntor 
do terminal não houver o dispositivo de sincronismo essa informação deve ser destacada. 
Campo “Ajustes”: indica os ajustes de diferença de tensão, defasagem angular e diferença de frequência 
instalados para a função de verificação de sincronismo para o religamento manual de cada terminal;  caso 
não exista dispositivo de sincronismo, o campo é preenchido com hifens (---). 
Campo “Características dos Comutadores”:  
• Campo “Comutador sob carga”: indica o número de posições associando a tensão correspondente 
à identificação das posições mínima, máxima e nominal, bem como a variação de tensão entre cada 
posição, conforme os dados de placa do transformador. Caso os números das posições dos dados 
de placa do transformador sejam diferentes dos números das posições utilizadas no Sistema de 
Supervisão e Controle, incluir, além das posições dos dados de placa, também as posições utilizadas 
no SSC. Caso não exista comutador sob carga no transformador, o campo é preenchido com “NE” 
– não existe. 
• Campo “ Comutador em Vazio ”: indica as posições do comutador em vazio com os respectivos 
valores de tensão e sua posição em serviço. Caso não exista comutador em vazio no transformador, 
o campo é preenchido com “NE” – não existe. 
Campo “ Notas / Restrições ”: campo opcional que  indica informações relevantes a respeito do 
transformador. 
Caso os dados operacionais não sejam informados pelo Agente, os campos são preenchidos com “NI” – não 
informado. 
 
4.1. SE APOLÔNIO SALES - TRANSFORMADOR 01T1 230/13,8 KV  
Dispositivo de 
Sincronismo Ajustes 
Características dos Comutadores 
Comutador sob Carga Comutador em Vazio 
NI NI NI NI 
Notas / Restrições: 
 
4.2. SE APOLÔNIO SALES - TRANSFORMADOR 01T2 230/13,8 KV  
Dispositivo de 
Sincronismo Ajustes 
Características dos Comutadores 
Comutador sob Carga Comutador em Vazio 
NI NI NI NI 
Notas / Restrições: 
 
Manual de Procedimentos da Operação - Módulo 5 - Submódulo 5.11 
 Cadastro de Informações Operacionais Código Revisão Item Vigência 
Cadastro de Dados Operacionais de Equipamentos da 
Área 230 kV Centro da Região Nordeste CD-CT.NE.2CT.01 04 2.1.3. 22/10/2024 
 
Referência:  12 / 35 
 
4.3. SE PAULO AFONSO I - TRANSFORMADOR 01T1 230/13,8 KV  
Dispositivo de 
Sincronismo Ajustes 
Características dos Comutadores 
Comutador sob Carga Comutador em Vazio 
NI NI NI NI 
Notas / Restrições: 
 
4.4. SE PAULO AFONSO I - TRANSFORMADOR 01T2 230/13,8 KV  
Dispositivo de 
Sincronismo Ajustes 
Características dos Comutadores 
Comutador sob Carga Comutador em Vazio 
NI NI NI NI 
Notas / Restrições: 
 
4.5. SE PAULO AFONSO I - TRANSFORMADOR 01T3 230/13,8 KV  
Dispositivo de 
Sincronismo Ajustes 
Características dos Comutadores 
Comutador sob Carga Comutador em Vazio 
NI NI NI NI 
Notas / Restrições: 
 
4.6. SE PAULO AFONSO II - TRANSFORMADOR 01T1 13,8/230 - 132 KV  
Dispositivo de 
Sincronismo Ajustes 
Características dos Comutadores 
Comutador sob Carga Comutador em Vazio 
NI NI NI NI 
Notas / Restrições: 
 
4.7. SE PAULO AFONSO II - TRANSFORMADOR 01T2 13,8/230 - 132 KV  
Dispositivo de 
Sincronismo Ajustes 
Características dos Comutadores 
Comutador sob Carga Comutador em Vazio 
NI NI NI NI 
Notas / Restrições: 
 
Manual de Procedimentos da Operação - Módulo 5 - Submódulo 5.11 
 Cadastro de Informações Operacionais Código Revisão Item Vigência 
Cadastro de Dados Operacionais de Equipamentos da 
Área 230 kV Centro da Região Nordeste CD-CT.NE.2CT.01 04 2.1.3. 22/10/2024 
 
Referência:  13 / 35 
 
4.8. SE PAULO AFONSO II - TRANSFORMADOR 01T3 230/13,8 KV  
Dispositivo de 
Sincronismo Ajustes 
Características dos Comutadores 
Comutador sob Carga Comutador em Vazio 
NI NI NI NI 
Notas / Restrições: 
 
4.9. SE PAULO AFONSO II - TRANSFORMADOR 01T4 13,8/230 - 132 KV  
Dispositivo de 
Sincronismo Ajustes 
Características dos Comutadores 
Comutador sob Carga Comutador em Vazio 
NI NI NI NI 
Notas / Restrições: 
 
4.10. SE PAULO AFONSO II - TRANSFORMADOR 01T5 230/13,8 KV  
Dispositivo de 
Sincronismo Ajustes 
Características dos Comutadores 
Comutador sob Carga Comutador em Vazio 
NI NI NI NI 
Notas / Restrições: 
 
4.11. SE PAULO AFONSO II - TRANSFORMADOR 01T6 230/13,8 KV  
Dispositivo de 
Sincronismo Ajustes 
Características dos Comutadores 
Comutador sob Carga Comutador em Vazio 
NI NI NI NI 
Notas / Restrições: 
 
4.12. SE PAULO AFONSO III - TRANSFORMADOR 01T13 230/13,8 KV  
Dispositivo de 
Sincronismo Ajustes 
Características dos Comutadores 
Comutador sob Carga Comutador em Vazio 
NI NI NI NI 
Notas / Restrições: 
 
Manual de Procedimentos da Operação - Módulo 5 - Submódulo 5.11 
 Cadastro de Informações Operacionais Código Revisão Item Vigência 
Cadastro de Dados Operacionais de Equipamentos da 
Área 230 kV Centro da Região Nordeste CD-CT.NE.2CT.01 04 2.1.3. 22/10/2024 
 
Referência:  14 / 35 
 
4.13. SE PAULO AFONSO III - TRANSFORMADOR 01T12 230/13,8 KV  
Dispositivo de 
Sincronismo Ajustes 
Características dos Comutadores 
Comutador sob Carga Comutador em Vazio 
NI NI NI NI 
Notas / Restrições: 
 
4.14. SE PAULO AFONSO III - TRANSFORMADOR 01T10 230/13,8 KV  
Dispositivo de 
Sincronismo Ajustes 
Características dos Comutadores 
Comutador sob Carga Comutador em Vazio 
NI NI NI NI 
Notas / Restrições: 
 
4.15. SE PAULO AFONSO III - TRANSFORMADOR 01T11 230/13,8 KV  
Dispositivo de 
Sincronismo Ajustes 
Características dos Comutadores 
Comutador sob Carga Comutador em Vazio 
NI NI NI NI 
Notas / Restrições: 
 
4.16. SE ZEBU – TRANSFORMADOR 04T1 230 / 69 / 13,8 KV 
Dispositivo de 
Sincronismo Ajustes 
Características dos Comutadores 
Comutador sob Carga Comutador em Vazio 
NI NI NI NI 
Notas / Restrições: 
 
4.17. SE ZEBU – TRANSFORMADOR 04T2 230 / 69 KV 
Dispositivo de 
Sincronismo Ajustes 
Características dos Comutadores 
Comutador sob Carga Comutador em Vazio 
NI NI NI NI 
Notas / Restrições: 
Manual de Procedimentos da Operação - Módulo 5 - Submódulo 5.11 
 Cadastro de Informações Operacionais Código Revisão Item Vigência 
Cadastro de Dados Operacionais de Equipamentos da 
Área 230 kV Centro da Região Nordeste CD-CT.NE.2CT.01 04 2.1.3. 22/10/2024 
 
Referência:  15 / 35 
 
4.18. SE ZEBU – TRANSFORMADOR 04T3 230 / 69 KV 
Dispositivo de 
Sincronismo Ajustes 
Características dos Comutadores 
Comutador sob Carga Comutador em Vazio 
NI NI NI NI 
Notas / Restrições: 
5. DADOS OPERACIONAIS DE UNIDADES GERADORAS HIDRÁULICAS  
Orientações sobre os dados operacionais de unidades geradoras de usinas hidrelétricas:  
Código Único de Empreendimentos em Geração – CEG: está apresentado ao lado do nome da usina. O CEG 
permanece associado ao  empreendimento, independente mente de alteração de atributos ou de 
proprietários da usina. O número CEG é obtido no site da ANEEL. 
Campo “Unidade Geradora”: identifica cada unidade geradora conforme diagrama unifilar do agente. 
Campo “Faixa de Tensão (kV)”: 
• Campo “Nom.”: indica a tensão nominal da unidade geradora, em kV. 
• Campo “Mín.”: indica a tensão mínima da unidade geradora, em kV. 
• Campo “Máx.”: indica a tensão máxima da unidade geradora, em kV. 
Campo “Potência Aparente (MVA)”: 
• Campo “Nom.”: indica a potência aparente nominal da unidade geradora, em MVA. 
• Campo “FP”: indica o fator de potência nominal da unidade geradora. 
Campo “Potência Reativa (Mvar)”: 
• Campo “ Mín.”: indica a potência reativa mínima da unidade geradora , em Mvar , podendo ser  
referenciada a curva de capabilidade da unidade geradora. 
• Campo “ Máx.”: indica a potência reativa máxima da unidade geradora , em Mvar , podendo ser  
referenciada a curva de capabilidade da unidade geradora. 
Campo “Faixa de Operação (MW)”: 
• Campo “ Permitida”: indica a faixa de potência ativa permitida da unidade geradora , em MW, 
associada a um determinado nível do reservatório, caso necessário. 
• Campo “Proibida”: indica a faixa de potência ativa máxima da unidade geradora, em MW, associada 
a um determinado nível do reservatório, caso necessário. 
Campo “ Dispositivos de Sincronismo ”: indica o disjuntor onde é efetuado o sincronismo da unidade 
geradora. 
Campo “Operação como Compensador Síncrono”: 
• Campo “Unidade Geradora”: indica a identificação de cada unidade geradora conforme diagrama 
unifilar do agente. 
• Campo “Conversão / Reversão  (min) ”: indica o tempo necessário para realizar a conversão de 
gerador para síncrono e síncrono para gerador, em minutos. 
Campo “Notas / Restrições”: campo opcional que indica informações relevantes a respeito da usina. 
Manual de Procedimentos da Operação - Módulo 5 - Submódulo 5.11 
 Cadastro de Informações Operacionais Código Revisão Item Vigência 
Cadastro de Dados Operacionais de Equipamentos da 
Área 230 kV Centro da Região Nordeste CD-CT.NE.2CT.01 04 2.1.3. 22/10/2024 
 
Referência:  16 / 35 
 
Caso os dados operacionais não sejam informados pelo Agente, os campos são preenchidos com “NI” – não 
informado. 
Caso os dados operacionais não se apliquem, os campos são preenchidos com hifens “---”. 
Manual de Procedimentos da Operação - Módulo 5 - Submódulo 5.11 
 Cadastro de Informações Operacionais Código Revisão Item Vigência 
Cadastro de Dados Operacionais de Equipamentos da 
Área 230 kV Centro da Região Nordeste CD-CT.NE.2CT.01 04 2.1.3. 22/10/2024 
 
Referência: PARECER TÉCNICO PTC-ONS 0253/2024 - ESTUDOS PRÉ-OPERACIONAIS PARA INTEGRAÇÃO DAS UNIDADES DA UHE 
XINGÓ COMO COMPENSADORES SINCRONOS INTEGRADAS AO SIN 
17 / 35 
 
5.1. UHE APOLÔNIO SALES (CEG: UHE.PH.BA.028.565-0.01) 
5.1.1. DADOS DAS UNIDADES GERADORAS  
OBSERVAÇÃO:  
Estão disponíveis as faixas proibidas (excepcionais) para utilização nas unidades geradoras durante a recomposição da usina, conforme IO-OI.NE.UAS. 
 
Unidade 
Geradora 
Tensão (kV) 
Potência 
Aparente 
(MVA) 
Potência 
Reativa (Mvar) 
Faixa de Operação 
(MW) Dispositivo 
de 
Sincronismo 
Operação como Compensador Síncrono 
Nom. Mín. Máx. Nom. FP Mín. Máx. Permitida Proibida Unidade 
Geradora 
Conversão /  
Reversão(min) 
01G1 a 
01G4 13,8 13,0 14,5 122,22 0,90 
78,958 
(Ver curva de 
Capabilidade) 
51 a 100  0 a 50 NI Não - 
Notas / Restrições: 
 
 
  
Manual de Procedimentos da Operação - Módulo 5 - Submódulo 5.11 
 Cadastro de Informações Operacionais Código Revisão Item Vigência 
Cadastro de Dados Operacionais de Equipamentos da 
Área 230 kV Centro da Região Nordeste CD-CT.NE.2CT.01 04 2.1.3. 22/10/2024 
 
Referência: PARECER TÉCNICO PTC-ONS 0253/2024 - ESTUDOS PRÉ-OPERACIONAIS PARA INTEGRAÇÃO DAS UNIDADES DA UHE 
XINGÓ COMO COMPENSADORES SINCRONOS INTEGRADAS AO SIN 
18 / 35 
 
5.1.2. CURVA DE CAPABILIDADE DAS UNIDADES GERADORAS  
1a – Curvas de Capabilidade das Unidades Geradoras da UHE Apolônio Sales 
 
 

Manual de Procedimentos da Operação - Módulo 5 - Submódulo 5.11 
 Cadastro de Informações Operacionais Código Revisão Item Vigência 
Cadastro de Dados Operacionais de Equipamentos da 
Área 230 kV Centro da Região Nordeste CD-CT.NE.2CT.01 04 2.1.3. 22/10/2024 
 
Referência: PARECER TÉCNICO PTC-ONS 0253/2024 - ESTUDOS PRÉ-OPERACIONAIS PARA INTEGRAÇÃO DAS UNIDADES DA UHE 
XINGÓ COMO COMPENSADORES SINCRONOS INTEGRADAS AO SIN 
19 / 35 
 
5.2. UHE LUIZ GONZAGA (CEG: UHE.PH.PE.001174-6.01) 
5.2.1. DADOS DAS UNIDADES GERADORAS  
Unidade 
Geradora 
Tensão 
(kV)  
Potência Aparente  
(MVA) 
Potência 
Reativa 
(Mvar) 
Faixa de Operação 
(MW) Operação como Compensador Síncrono 
Nom. Min. Max. Nom. FP Mín. Máx. Permitida Proibida Obs. Unidade 
Geradora 
Conversão / 
Reversão (Min) 
01G1 a 01G6 16,0 15,2 16,8 274,0 0,90 Ver curva 
capabilidade 180 a 250 0 a 179 
Queda bruta 
(metros): 
48,0 a 53,0 
NE - 
Notas / Restrições: 
Manual de Procedimentos da Operação - Módulo 5 - Submódulo 5.11 
 Cadastro de Informações Operacionais Código Revisão Item Vigência 
Cadastro de Dados Operacionais de Equipamentos da 
Área 230 kV Centro da Região Nordeste CD-CT.NE.2CT.01 04 2.1.3. 22/10/2024 
 
Referência: PARECER TÉCNICO PTC-ONS 0253/2024 - ESTUDOS PRÉ-OPERACIONAIS PARA INTEGRAÇÃO DAS UNIDADES DA UHE 
XINGÓ COMO COMPENSADORES SINCRONOS INTEGRADAS AO SIN 
20 / 35 
 
5.2.2. CURVA DE CAPABILIDADE DAS UNIDADES GERADORAS  
1b – Curvas de Capabilidade das Unidades Geradoras G1, G2 e G3 da UHE Luiz Gonzaga. 
 

Manual de Procedimentos da Operação - Módulo 5 - Submódulo 5.11 
 Cadastro de Informações Operacionais Código Revisão Item Vigência 
Cadastro de Dados Operacionais de Equipamentos da 
Área 230 kV Centro da Região Nordeste CD-CT.NE.2CT.01 04 2.1.3. 22/10/2024 
 
Referência: PARECER TÉCNICO PTC-ONS 0253/2024 - ESTUDOS PRÉ-OPERACIONAIS PARA INTEGRAÇÃO DAS UNIDADES DA UHE 
XINGÓ COMO COMPENSADORES SINCRONOS INTEGRADAS AO SIN 
21 / 35 
 
1c – Curvas de Capabilidade das Unidades Geradoras G4, G5 e G6 da UHE Luiz Gonzaga. 
 
 

Manual de Procedimentos da Operação - Módulo 5 - Submódulo 5.11 
 Cadastro de Informações Operacionais Código Revisão Item Vigência 
Cadastro de Dados Operacionais de Equipamentos da 
Área 230 kV Centro da Região Nordeste CD-CT.NE.2CT.01 04 2.1.3. 22/10/2024 
 
Referência: PARECER TÉCNICO PTC-ONS 0253/2024 - ESTUDOS PRÉ-OPERACIONAIS PARA INTEGRAÇÃO DAS UNIDADES DA UHE 
XINGÓ COMO COMPENSADORES SINCRONOS INTEGRADAS AO SIN 
22 / 35 
 
5.3. UHE PAULO AFONSO I (CEG: UHE.PH.BA.002.012-5.01) 
5.3.1. DADOS DAS UNIDADES GERADORAS  
OBSERVAÇÃO:  
Estão disponíveis as faixas proibidas (excepcionais) para utilização nas unidades geradoras durante a recomposição da usina, conforme IO-OI.NE.USU. 
Unida
de 
Gerad
ora 
Tensão (kV) 
Potência 
Aparente 
(MVA) 
Potência 
Reativa 
(Mvar) 
Faixa de 
Operação 
(MW) 
Disposit
ivo de 
Sincroni
smo 
Operação como 
Compensador Síncrono 
No
m. 
Mín
. 
Máx
. 
No
m. FP Mín
. 
Máx
. 
Permi
tida 
Proibi
da 
Unidade 
Geradora 
Conversão /  
Reversão(min) 
01G1 
a 
01G3 
13,8 13,1 14,5 61,2
5 0,98 
(Ver curva 
de 
Capabilida
de) 
50 a 
60 0 a 49 NI Não - 
Notas / Restrições: 
 
5.3.2. CURVA DE CAPABILIDADE DAS UNIDADES GERADORAS  
1d – Curvas de Capabilidade das Unidades Geradoras da UHE Paulo Afonso I 
Manual de Procedimentos da Operação - Módulo 5 - Submódulo 5.11 
 Cadastro de Informações Operacionais Código Revisão Item Vigência 
Cadastro de Dados Operacionais de Equipamentos da 
Área 230 kV Centro da Região Nordeste CD-CT.NE.2CT.01 04 2.1.3. 22/10/2024 
 
Referência: PARECER TÉCNICO PTC-ONS 0253/2024 - ESTUDOS PRÉ-OPERACIONAIS PARA INTEGRAÇÃO DAS UNIDADES DA UHE 
XINGÓ COMO COMPENSADORES SINCRONOS INTEGRADAS AO SIN 
23 / 35 
 
 
 
5.4. UHE PAULO AFONSO II (CEG: UHE.PH.BA.027.048-2.01) 
5.4.1. DADOS DAS UNIDADES GERADORAS  
OBSERVAÇÃO: 

Manual de Procedimentos da Operação - Módulo 5 - Submódulo 5.11 
 Cadastro de Informações Operacionais Código Revisão Item Vigência 
Cadastro de Dados Operacionais de Equipamentos da 
Área 230 kV Centro da Região Nordeste CD-CT.NE.2CT.01 04 2.1.3. 22/10/2024 
 
Referência: PARECER TÉCNICO PTC-ONS 0253/2024 - ESTUDOS PRÉ-OPERACIONAIS PARA INTEGRAÇÃO DAS UNIDADES DA UHE 
XINGÓ COMO COMPENSADORES SINCRONOS INTEGRADAS AO SIN 
24 / 35 
 
Estão disponíveis as faixas proibidas (excepcionais) para utilização nas unidades geradoras durante a recomposição da usina, conforme IO-OI.NE.USD. 
 
Unidade 
Geradora 
Tensão (kV) Potência 
Aparente (MVA) 
Potência 
Reativa (Mvar) 
Faixa de Operação 
(MW) Dispositivo 
de 
Sincronismo 
Operação como Compensador Síncrono 
Nom. Mín. Máx. Nom. FP Mín. Máx. Permitida Proibida Unidade 
Geradora 
Conversão /  
Reversão(min) 
01G1 / 
01G2 13,8 13,1 14,5 69,52 0,95 Ver Curva de 
Capabilidade 70 0 a 69 NI Não - 
01G3 13,8 13,1 14,5 69,52 0,95 Ver Curva de 
Capabilidade 70 a 75 0 a 69 NI Não - 
01G4 a 
01G6 13,8 13,1 14,5 80,00 0,95 Ver Curva de 
Capabilidade 51 a 76 0 a 50 NI Não - 
Notas / Restrições: 
 
 
  
Manual de Procedimentos da Operação - Módulo 5 - Submódulo 5.11 
 Cadastro de Informações Operacionais Código Revisão Item Vigência 
Cadastro de Dados Operacionais de Equipamentos da 
Área 230 kV Centro da Região Nordeste CD-CT.NE.2CT.01 04 2.1.3. 22/10/2024 
 
Referência: PARECER TÉCNICO PTC-ONS 0253/2024 - ESTUDOS PRÉ-OPERACIONAIS PARA INTEGRAÇÃO DAS UNIDADES DA UHE 
XINGÓ COMO COMPENSADORES SINCRONOS INTEGRADAS AO SIN 
25 / 35 
 
5.4.2. CURVA DE CAPABILIDADE DAS UNIDADES GERADORAS  
1e – Curvas de Capabilidade das Unidades Geradoras G4 e G5 da UHE Paulo Afonso II 
 

Manual de Procedimentos da Operação - Módulo 5 - Submódulo 5.11 
 Cadastro de Informações Operacionais Código Revisão Item Vigência 
Cadastro de Dados Operacionais de Equipamentos da 
Área 230 kV Centro da Região Nordeste CD-CT.NE.2CT.01 04 2.1.3. 22/10/2024 
 
Referência: PARECER TÉCNICO PTC-ONS 0253/2024 - ESTUDOS PRÉ-OPERACIONAIS PARA INTEGRAÇÃO DAS UNIDADES DA UHE 
XINGÓ COMO COMPENSADORES SINCRONOS INTEGRADAS AO SIN 
26 / 35 
 
1f – Curva de Capabilidade da Unidade Geradora G6 da UHE Paulo Afonso II 
 
  

Manual de Procedimentos da Operação - Módulo 5 - Submódulo 5.11 
 Cadastro de Informações Operacionais Código Revisão Item Vigência 
Cadastro de Dados Operacionais de Equipamentos da 
Área 230 kV Centro da Região Nordeste CD-CT.NE.2CT.01 04 2.1.3. 22/10/2024 
 
Referência: PARECER TÉCNICO PTC-ONS 0253/2024 - ESTUDOS PRÉ-OPERACIONAIS PARA INTEGRAÇÃO DAS UNIDADES DA UHE 
XINGÓ COMO COMPENSADORES SINCRONOS INTEGRADAS AO SIN 
27 / 35 
 
1g – Curva de Capabilidade da Unidade Geradora G7 da UHE Paulo Afonso II 
 
  

Manual de Procedimentos da Operação - Módulo 5 - Submódulo 5.11 
 Cadastro de Informações Operacionais Código Revisão Item Vigência 
Cadastro de Dados Operacionais de Equipamentos da 
Área 230 kV Centro da Região Nordeste CD-CT.NE.2CT.01 04 2.1.3. 22/10/2024 
 
Referência: PARECER TÉCNICO PTC-ONS 0253/2024 - ESTUDOS PRÉ-OPERACIONAIS PARA INTEGRAÇÃO DAS UNIDADES DA UHE 
XINGÓ COMO COMPENSADORES SINCRONOS INTEGRADAS AO SIN 
28 / 35 
 
1h – Curvas de Capabilidade das Unidades Geradoras G8 e G9 da UHE Paulo Afonso II 
 
  

Manual de Procedimentos da Operação - Módulo 5 - Submódulo 5.11 
 Cadastro de Informações Operacionais Código Revisão Item Vigência 
Cadastro de Dados Operacionais de Equipamentos da 
Área 230 kV Centro da Região Nordeste CD-CT.NE.2CT.01 04 2.1.3. 22/10/2024 
 
Referência: PARECER TÉCNICO PTC-ONS 0253/2024 - ESTUDOS PRÉ-OPERACIONAIS PARA INTEGRAÇÃO DAS UNIDADES DA UHE 
XINGÓ COMO COMPENSADORES SINCRONOS INTEGRADAS AO SIN 
29 / 35 
 
5.5. UHE PAULO AFONSO III  (CEG: UHE.PH.BA.027.049-0.01) 
5.5.1. DADOS DAS UNIDADES GERADORAS  
OBSERVAÇÃO: 
Estão disponíveis as faixas proibidas (excepcionais) para utilização nas unidades geradoras durante a recomposição da usina, conforme IO-OI.NE.UST. 
Unidade 
Geradora 
Tensão (kV) Potência 
Aparente (MVA) 
Potência 
Reativa (Mvar) 
Faixa de Operação 
(MW) Dispositivo 
de 
Sincronismo 
Operação como Compensador Síncrono 
Nom. Mín. Máx. Nom. FP Mín. Máx. Permitida Proibida Unidade 
Geradora 
Conversão /  
Reversão(min) 
01G10 a 
01G13 13,8 13,1 14,5 253,33 0.9 Ver Curva de 
Capabilidade 151 a 200 0 a 150 NI Não  - - -  
Notas / Restrições: 
 
  
Manual de Procedimentos da Operação - Módulo 5 - Submódulo 5.11 
 Cadastro de Informações Operacionais Código Revisão Item Vigência 
Cadastro de Dados Operacionais de Equipamentos da 
Área 230 kV Centro da Região Nordeste CD-CT.NE.2CT.01 04 2.1.3. 22/10/2024 
 
Referência: PARECER TÉCNICO PTC-ONS 0253/2024 - ESTUDOS PRÉ-OPERACIONAIS PARA INTEGRAÇÃO DAS UNIDADES DA UHE 
XINGÓ COMO COMPENSADORES SINCRONOS INTEGRADAS AO SIN 
30 / 35 
 
5.5.2. CURVA DE CAPABILIDADE DAS UNIDADES GERADORAS  
1i – Curvas de Capabilidade das Unidades Geradoras G10, G11 e G13 da UHE Paulo Afonso III 
 
  

Manual de Procedimentos da Operação - Módulo 5 - Submódulo 5.11 
 Cadastro de Informações Operacionais Código Revisão Item Vigência 
Cadastro de Dados Operacionais de Equipamentos da 
Área 230 kV Centro da Região Nordeste CD-CT.NE.2CT.01 04 2.1.3. 22/10/2024 
 
Referência: PARECER TÉCNICO PTC-ONS 0253/2024 - ESTUDOS PRÉ-OPERACIONAIS PARA INTEGRAÇÃO DAS UNIDADES DA UHE 
XINGÓ COMO COMPENSADORES SINCRONOS INTEGRADAS AO SIN 
31 / 35 
 
1j – Curva de Capabilidade da Unidade Geradora G12 da UHE Paulo Afonso III 
 
  

Manual de Procedimentos da Operação - Módulo 5 - Submódulo 5.11 
 Cadastro de Informações Operacionais Código Revisão Item Vigência 
Cadastro de Dados Operacionais de Equipamentos da 
Área 230 kV Centro da Região Nordeste CD-CT.NE.2CT.01 04 2.1.3. 22/10/2024 
 
Referência: PARECER TÉCNICO PTC-ONS 0253/2024 - ESTUDOS PRÉ-OPERACIONAIS PARA INTEGRAÇÃO DAS UNIDADES DA UHE 
XINGÓ COMO COMPENSADORES SINCRONOS INTEGRADAS AO SIN 
32 / 35 
 
5.6. UHE PAULO AFONSO IV (CEG: UHE.PH.BA.027.050-4.01) 
5.6.1. DADOS DAS UNIDADES GERADORAS  
 
OBSERVAÇÃO: 
Estão disponíveis as faixas proibidas (excepcionais) para utilização nas unidades geradoras durante a recomposição da usina, conforme IO-OI.NE.USQ. 
Unidade 
Geradora 
Tensão (kV) Potência 
Aparente (MVA) 
Potência 
Reativa (Mvar) 
Faixa de Operação 
(MW) Dispositivo 
de 
Sincronismo 
Operação como Compensador Síncrono 
Nom. Mín. Máx. Nom. FP Mín. Máx. Permitida Proibida Unidade 
Geradora 
Conversão /  
Reversão(min) 
01G1 a 
01G6 18,0 17,5 19,8 455,55 0,9 Ver Curva de 
Capabilidade 
251 a 410 
(*) 
0 a 250 
(*) NI Não  - - -  
Notas / Restrições: (*) Quando o nível de jusante da UHE Paulo Afonso IV estiver abaixo de 138,0 metros, a potência mínima permitida das unidades geradoras 
desta usina deve ser igual a 280 MW. 
 
  
Manual de Procedimentos da Operação - Módulo 5 - Submódulo 5.11 
 Cadastro de Informações Operacionais Código Revisão Item Vigência 
Cadastro de Dados Operacionais de Equipamentos da 
Área 230 kV Centro da Região Nordeste CD-CT.NE.2CT.01 04 2.1.3. 22/10/2024 
 
Referência: PARECER TÉCNICO PTC-ONS 0253/2024 - ESTUDOS PRÉ-OPERACIONAIS PARA INTEGRAÇÃO DAS UNIDADES DA UHE 
XINGÓ COMO COMPENSADORES SINCRONOS INTEGRADAS AO SIN 
33 / 35 
 
5.6.2. CURVA DE CAPABILIDADE DAS UNIDADES GERADORAS  
1k – Curvas de Capabilidade das Unidades Geradoras G1, G2, G3 e G4 da UHE Paulo Afonso IV 
 
  

Manual de Procedimentos da Operação - Módulo 5 - Submódulo 5.11 
 Cadastro de Informações Operacionais Código Revisão Item Vigência 
Cadastro de Dados Operacionais de Equipamentos da 
Área 230 kV Centro da Região Nordeste CD-CT.NE.2CT.01 04 2.1.3. 22/10/2024 
 
Referência: PARECER TÉCNICO PTC-ONS 0253/2024 - ESTUDOS PRÉ-OPERACIONAIS PARA INTEGRAÇÃO DAS UNIDADES DA UHE 
XINGÓ COMO COMPENSADORES SINCRONOS INTEGRADAS AO SIN 
34 / 35 
 
5.7. UHE XINGÓ (CEG: UHE.PH.SE.027.053-9.01) 
5.7.1. DADOS DAS UNIDADES GERADORAS  
 
OBSERVAÇÃO: 
Estão disponíveis as faixas proibidas (excepcionais) para utilização nas unidades geradoras durante a recomposição da usina, conforme IO-OI.NE.UXG. 
Unidade 
Geradora 
Tensão (kV) Potência 
Aparente (MVA) 
Potência 
Reativa (Mvar) 
Faixa de Operação 
(MW) Dispositivo 
de 
Sincronismo 
Operação como Compensador Síncrono 
Nom. Mín. Máx. Nom. FP Mín. Máx. Permitida Proibida Unidade 
Geradora 
Conversão 
(min) /  
Reversão 
(min) 
01G1 a 
01G6 18,0 17,1 18,9 526,31 0.95 Ver Curva de 
Capabilidade 311 a 527 0 a 310 NI 01G1 e 01G4 NI  NI 
Notas / Restrições:  
Potência Reativa entre - 388 / + 310 Mvar como compensador síncrono. 
 
OBSERVAÇÃO 2: 
A geração nas unidades geradoras da UHE Xingó apresentam uma restrição na potência mínima da Faixa de Operação Permitida a depender da vazão, conforme 
tabela abaixo: 
Vazão 
(𝑚3/s) 
600 700 800 900 1000 1100 1200 1300 1400 1500 1600 1700 1800 1900 2000 
Potência 
Mínima 
(MW) 
400 380 370 360 350 350 343,6 337,6 332,3 327,3 327,3 327,3 327,3 327,3 327,3 
 
Manual de Procedimentos da Operação - Módulo 5 - Submódulo 5.11 
 Cadastro de Informações Operacionais Código Revisão Item Vigência 
Cadastro de Dados Operacionais de Equipamentos da 
Área 230 kV Centro da Região Nordeste CD-CT.NE.2CT.01 04 2.1.3. 22/10/2024 
 
Referência: PARECER TÉCNICO PTC-ONS 0253/2024 - ESTUDOS PRÉ-OPERACIONAIS PARA INTEGRAÇÃO DAS UNIDADES DA UHE 
XINGÓ COMO COMPENSADORES SINCRONOS INTEGRADAS AO SIN 
35 / 35 
 
5.7.2. CURVA DE CAPABILIDADE DAS UNIDADES GERADORAS  
1l – Curvas de Capabilidade das Unidades Geradoras da UHE Xingó 
 
 
 

