Manual de Procedimentos da Operação
Módulo 5 - Submódulo 5.11
Cadastro de Informações Operacionais.
CADASTRO DE LIMITES OPERACIONAIS DE LINHAS DE TRANSMISSÃO E 
TRANSFORMADORES DA ÁREA 500/230 KV MANAUS-MACAPÁ
Código Revisão Item Vigência
CD-CT.N.5MM.02 40 2.2.4 05/07/2024
MOTIVO DA REVISÃO
Exclusão dos transformadores 230/69 kV da SE Presidente Figueiredo devido não entrada em operação.
LISTA DE DISTRIBUIÇÃO
AMAZONAS DISTRIBUIÇÃO AMAZONAS GT CELEO CNOS COSR-NCO
ELETRONORTE ENERGISA AMAZONAS EVOLTZ LMTE LXTE
Manaus TR (MTE) UHE BELO MONTE
Manual de Procedimentos da Operação - Módulo 5 - Submódulo 5.11
 Cadastro de Informações Operacionais Código Revisão Item Vigência
CADASTRO DE LIMITES OPERACIONAIS DE LINHAS DE 
TRANSMISSÃO E TRANSFORMADORES DA ÁREA 
500/230 KV MANAUS-MACAPÁ
CD-
CT.N.5MM.02 40 2.2.4 05/07/2024
Referência: 2 / 45
ÍNDICE
1. OBJETIVO.........................................................................................................................................5
2. CONCEITOS ......................................................................................................................................5
3. CONSIDERAÇÕES GERAIS .................................................................................................................7
4. LIMITES DE CARREGAMENTO DE LINHAS DE TRANSMISSÃO.............................................................8
4.1. LT 500 kV Jurupari / Oriximiná C1 .................................................................................................8
4.2. LT 500 kV Jurupari / Oriximiná C2 .................................................................................................8
4.3. LT 500 kV Jurupari / Xingu C1........................................................................................................9
4.4. LT 500 kV Jurupari / Xingu C2......................................................................................................10
4.5. LT 500 kV Lechuga / Silves C1......................................................................................................10
4.6. LT 500 kV Lechuga / Silves C2......................................................................................................11
4.7. LT 500 kV Oriximiná / Silves C1 ...................................................................................................11
4.8. LT 500 kV Oriximiná / Silves C2 ...................................................................................................12
4.9. LT 230 kV Balbina / Lechuga........................................................................................................12
4.10. LT 230 kV Balbina/Pr. Figueiredo C1 ...........................................................................................13
4.11. LT 230 kV Cachoeira Caldeirão / Ferreira Gomes........................................................................13
4.12. LT 230 kV Cristiano Rocha / Lechuga...........................................................................................14
4.13. LT 230 kV Cristiano Rocha / Pr. Figueiredo C 1............................................................................14
4.14. LT 230 kV Ferreira Gomes / Macapá ...........................................................................................14
4.15. LT 230 kV Jorge Teixeira / Lechuga C1.........................................................................................15
4.16. LT 230 kV Jorge Teixeira / Lechuga C2.........................................................................................15
4.17. LT 230 kV Jorge Teixeira / Lechuga C3.........................................................................................16
4.18. LT 230 kV Jorge Teixeira / Mauá III C1.........................................................................................16
4.19. LT 230 kV Jorge Teixeira / Mauá III C2.........................................................................................16
4.20. LT 230 kV Jurupari / Laranjal C1 ..................................................................................................17
4.21. LT 230 kV Jurupari / Laranjal C2 ..................................................................................................17
4.22. LT 230 kV Jurupari / Laranjal C3 ..................................................................................................18
4.23. LT 230 kV Juruti / Parintins C1.....................................................................................................18
4.24. LT 230 kV Juruti / Parintins C2.....................................................................................................18
4.25. LT 230 kV Laranjal / Santo Antônio do Jari..................................................................................19
4.26. LT 230 kV Lechuga / Manaus C1..................................................................................................19
4.27. LT 230 kV Lechuga / Manaus C2..................................................................................................20
4.28. LT 230 kV Macapá / Laranjal C1 ..................................................................................................20
4.29. LT 230 kV Macapá / Laranjal C2 ..................................................................................................20
Manual de Procedimentos da Operação - Módulo 5 - Submódulo 5.11
 Cadastro de Informações Operacionais Código Revisão Item Vigência
CADASTRO DE LIMITES OPERACIONAIS DE LINHAS DE 
TRANSMISSÃO E TRANSFORMADORES DA ÁREA 
500/230 KV MANAUS-MACAPÁ
CD-
CT.N.5MM.02 40 2.2.4 05/07/2024
Referência: 3 / 45
4.30. LT 230 kV Oriximiná / Juruti C1 ...................................................................................................21
4.31. LT 230 kV Oriximiná / Juruti C2 ...................................................................................................21
5. LIMITES DE CARREGAMENTO DE TRANSFORMADORES ..................................................................22
5.1. SE Jorge Teixeira - Autotransformador (JTAT6-01) 230/138/13,8 kV - 150 MVA........................22
5.2. SE Jorge Teixeira - Autotransformador (JTAT6-02) 230/138/13,8 kV - 150 MVA........................22
5.3. SE Jorge Teixeira - Autotransformador (JTAT6-03) 230/138/13,8 kV - 150 MVA........................23
5.4. SE Jorge Teixeira - Autotransformador (JTAT6-04) 230/138/13,8 kV - 150 MVA........................23
5.5. SE Jurupari - Autotransformador (7ATR01) 230/69/13,8 kV - 30 MVA .......................................24
5.6. SE Jurupari - Autotransformador (7ATR02) 230/69/13,8 kV - 30 MVA .......................................25
5.7. SE Jurupari - Autotransformador (9AT01) 500/230/13,8 kV - 450 MVA .....................................25
5.8. SE Jurupari - Autotransformador (9AT02) 500/230/13,8 kV - 450 MVA .....................................26
5.9. SE Jurupari - Autotransformador (9AT03) 500/230/13,8 kV - 450 MVA .....................................26
5.10. SE Juruti - Autotransformador (7AT01) 230/138 kV - 50 MVA....................................................27
5.11. SE Juruti - Autotransformador (7AT02) 230/138 kV - 50 MVA....................................................28
5.12. SE Laranjal - Autotransformador (7TR01) 230/69/13,8 kV - 100 MVA........................................28
5.13. SE Laranjal - Autotransformador (7TR02) 230/69/13,8 kV - 100 MVA........................................29
5.14. SE Lechuga - Autotransformador (LEAT6-01) 230/138/13,8 kV - 150 MVA ................................29
5.15. SE Lechuga - Autotransformador (LEAT6-02) 230/138/13,8 kV - 150 MVA ................................30
5.16. SE Lechuga - Autotransformador (LEAT6-03) 230/138/13,8 kV - 150 MVA ................................31
5.17. SE Lechuga - Autotransformador (LEAT7-01) 500/230 kV - 600 MVA.........................................31
5.18. SE Lechuga - Autotransformador (LEAT7-02) 500/230 kV - 600 MVA.........................................32
5.19. SE Lechuga - Autotransformador (LEAT7-03) 500/230 kV - 600 MVA.........................................32
5.20. SE Macapá - Autotransformador (7TR01) 230/69/13,8 kV - 150 MVA........................................33
5.21. SE Macapá - Autotransformador (7TR02) 230/69/13,8 kV - 150 MVA........................................34
5.22. SE Macapá - Autotransformador (7TR03) 230/69/13,8 kV - 150 MVA........................................34
5.23. SE Macapá - Autotransformador (7TR04) 230/69/13,8 kV - 150 MVA........................................35
5.24. SE Manaus - Autotransformador (MNTF6-01) 230/69/13,8 kV - 150 MVA.................................35
5.25. SE Manaus - Autotransformador (MNTF6-02) 230/69/13,8 kV - 150 MVA.................................36
5.26. SE Manaus - Autotransformador (MNTF6-03) 230/69/13,8 kV - 150 MVA.................................37
5.27. SE Manaus - Autotransformador (MNTF6-04) 230/69/13,8 kV - 150 MVA.................................37
5.28. SE Mauá III – Autotransformador (MTTF6-01) 230/138/13,8 kV - 150 MVA ..............................38
5.29. SE Mauá III – Autotransformador (MTTF6-02) 230/138/13,8 kV - 150 MVA ..............................38
5.30. SE Mauá III – Autotransformador (MTTF6-03) 230/138/13,8 kV - 150 MVA ..............................39
5.31. SE Mauá III – Autotransformador (MTTF6-04) 230/138/13,8 kV - 150 MVA ..............................40
Manual de Procedimentos da Operação - Módulo 5 - Submódulo 5.11
 Cadastro de Informações Operacionais Código Revisão Item Vigência
CADASTRO DE LIMITES OPERACIONAIS DE LINHAS DE 
TRANSMISSÃO E TRANSFORMADORES DA ÁREA 
500/230 KV MANAUS-MACAPÁ
CD-
CT.N.5MM.02 40 2.2.4 05/07/2024
Referência: 4 / 45
5.32. SE Mauá III – Autotransformador (MTTF6-05) 230/138/13,8 kV - 150 MVA ..............................40
5.33. SE Oriximiná - Autotransformador (9AT01) 500/138 KV - 150 MVA ...........................................41
5.34. SE Oriximiná - Autotransformador (9AT03) 500/230 KV - 300 MVA ...........................................41
5.35. SE Oriximiná - Autotransformador (9AT04) 500/230 KV - 300 MVA ...........................................42
5.36. SE Parintins- Autotransformador (7AT03) 230/138 kV - 100 MVA..............................................43
5.37. SE Parintins- Autotransformador (7AT04) 230/138 kV - 100 MVA..............................................43
5.38. SE Presidente Figueiredo - Transformador 230/13,8 kV - 62,5 MVA ..........................................44
5.39. SE Silves - Autotransformador (SIAT7-01) 500/138 KV - 150 MVA..............................................44
Manual de Procedimentos da Operação - Módulo 5 - Submódulo 5.11
 Cadastro de Informações Operacionais Código Revisão Item Vigência
CADASTRO DE LIMITES OPERACIONAIS DE LINHAS DE 
TRANSMISSÃO E TRANSFORMADORES DA ÁREA 
500/230 KV MANAUS-MACAPÁ
CD-
CT.N.5MM.02 40 2.2.4 05/07/2024
Referência: 5 / 45
1. OBJETIVO
Apresentar os limites operacionais de linhas de transmissão e de transformadores da Rede de Operação a 
serem controlados pelos operadores dos Centros de Operação do ONS e pela Operação dos Agentes 
envolvidos.
2. CONCEITOS
2.1. Limite Operacional: Corresponde ao limite de carregamento do equipamento que deve ser observado 
pelo ONS e pelos Agentes, em condição normal de operação e ou em condição de emergência.
2.2. Alteração dos Limites Operacionais: É a alteração de limite na qual são estabelecidos novos valores, 
decorrentes de eventos que alteraram a capacidade operativa do equipamento, como por exemplo 
recapacitação, substituição de TC, modificação de característica de proteção, indisponibilidade do 
sistema de refrigeração, flexibilização por parte do Agente, etc.
2.3. Fator Limitante: Fator que impede um equipamento de atingir um limite operacional superior ao 
estabelecido de projeto. Um fator limitante ativo provoca aumento no custo de operação ou de 
expansão do SIN.
2.4. Limites de linhas de transmissão
2.4.1. Condição Normal de Operação
Situação de carregamento em que a linha de transmissão conduz continuamente corrente em valor igual ou 
inferior ao seu valor operacional, em sua condição de carregamento nominal, para a qual foi projetada.
2.4.2. Condição de Emergência de Operação
Situação de carregamento em que a linha de transmissão conduz corrente acima do seu valor operacional, 
em sua condição de carregamento superior ao nominal para a qual foi projetada, por um tempo não superior 
a 4 dias (96 horas) contínuos, ou um somatório máximo de 18 dias (432 horas) intermitentes (se somados 
em base anual todos os períodos contínuos inferiores a 4 dias).
As linhas de transmissão que se enquadrarem nessa situação terão o campo duração nas tabelas 
apresentadas neste cadastro preenchido com (*).
2.4.3. Condição Sazonal de Operação
Situação de carregamento em que a linha de transmissão transporta continuamente corrente em valor igual 
ou inferior ao seu valor operacional, em condição normal de operação e ou em condição de emergência, em 
condições de operação temporárias e específicas para diferentes períodos do ano, tais como verão-dia, 
verão-noite, inverno-dia e inverno-noite ou outro período específico do ano (meses ou estações do ano).
2.4.4. Limite Diurno 
Limite operacional a ser considerado para o período diurno. O período diurno é o intervalo entre o horário 
do amanhecer e do crepúsculo, conforme disposto nos Procedimentos de Rede.
Quando o período não for definido pelo agente, deve ser considerado o período entre às 06h00min até às 
17h59, sempre tomando como referência o horário oficial de Brasília.
2.4.5. Limite Noturno 
Limite operacional a ser considerado para o período noturno. O período noturno é o intervalo de tempo 
entre o horário do crepúsculo e do amanhecer, conforme disposto nos Procedimentos de Rede.
Quando o período não for definido pelo agente, deve ser considerado o período das 18h00 até às 05h59, 
sempre tomando como referência o horário oficial de Brasília.
Manual de Procedimentos da Operação - Módulo 5 - Submódulo 5.11
 Cadastro de Informações Operacionais Código Revisão Item Vigência
CADASTRO DE LIMITES OPERACIONAIS DE LINHAS DE 
TRANSMISSÃO E TRANSFORMADORES DA ÁREA 
500/230 KV MANAUS-MACAPÁ
CD-
CT.N.5MM.02 40 2.2.4 05/07/2024
Referência: 6 / 45
2.5. Limites de Transformadores
2.5.1. Condição Normal de Operação 
Situação de carregamento em que o transformador conduz continuamente até a sua corrente nominal. 
Mesmo que em algum momento seja ultrapassada a sua corrente nominal, não deve ser excedida a 
temperatura máxima do óleo e ou do enrolamento, conforme limites estabelecidos na NBR 5356-7, 
respeitadas as condições, valores e prazos admitidos pelo agente.
2.5.2. Condição de Emergência de Longa Duração 
Situação de carregamento em que o transformador conduz continuamente uma corrente superior à sua 
corrente nominal, com duração não superior a 4 (quatro) horas. Mesmo que em algum momento seja 
ultrapassada a sua corrente de emergência de longa duração, não deve ser excedida a temperatura máxima 
do óleo e ou do enrolamento, conforme limites estabelecidos na NBR 5356-7, respeitadas as condições, 
valores e prazos admitidos pelo agente.
2.5.3. Condição de Emergência de Curta Duração 
Situação de carregamento em que o transformador conduz continuamente uma corrente superior à sua 
corrente de emergência de longa duração, com duração não superior a 30 (trinta) minutos. Após esse 
intervalo de tempo, deve-se retornar à condição de carregamento de longa duração.
Mesmo que em algum momento seja ultrapassada a sua corrente de emergência de curta duração, não deve 
ser excedida a temperatura máxima do óleo e ou do enrolamento, conforme limites estabelecidos na NBR 
5356-7, respeitadas as condições, valores e prazos admitidos pelo agente. Esta condição deve ser utilizada 
como último recurso antes de se efetuar corte de carga.
2.6. Preenchimento das Tabelas de Limites
2.6.1. Linhas de Transmissão
O campo “Valor Operacional” deve ser preenchido com o valor limite do equipamento a ser considerado na 
operação em tempo real.
O campo “Duração (hh:mm)” indica o período admissível para operação da linha de transmissão na condição 
de emergência.
Nas tabelas em que for detalhado o tempo de operação em determinada condição de operação de 
equipamento, deve-se utilizar tantas linhas quanto forem necessárias para o detalhamento de carregamento 
por período de tempo informado pelo Agente.
Os campos “Valor Operacional” e “Duração” das tabelas, cujos valores dependem de informação do Agente 
e não estão disponíveis para o ONS, devem ser preenchidas com “NI” (Não Informado pelo Agente).
O campo “Valor Operacional” das tabelas, referentes a valores de emergência que não são permitidos pelo 
Agente, devem ser preenchidos com “NP” (Não Permitido pelo Agente). Para esse caso, também deve ser 
preenchido o campo “Fator Limitante”.
O campo “Período do Ano” indica, quando for o caso, a sazonalidade anual definida para determinação dos 
valores operacionais em condição normal e de emergência.
O campo “Período do Dia” indica, quando for o caso, a sazonalidade diária definida para determinação dos 
valores operacionais em condição normal e de emergência.
2.6.2. Transformadores
O campo “Enrolamento (kV)” indica o terminal e a tensão de referência ai quais está relacionado o limite 
operacional nas condições normal, emergência de longa duração e emergência de curta duração.
Manual de Procedimentos da Operação - Módulo 5 - Submódulo 5.11
 Cadastro de Informações Operacionais Código Revisão Item Vigência
CADASTRO DE LIMITES OPERACIONAIS DE LINHAS DE 
TRANSMISSÃO E TRANSFORMADORES DA ÁREA 
500/230 KV MANAUS-MACAPÁ
CD-
CT.N.5MM.02 40 2.2.4 05/07/2024
Referência: 7 / 45
O campo “Valor Operacional (A)” indica o valor de corrente limite do transformador para condição normal, 
emergência de longa duração e de curta duração, considerando como tensão nominal a indicada no campo 
“Enrolamento (kV)”.
O campo “Duração (hh:mm)” indica o período admissível para operação do transformador na condição de 
emergência de longa e emergência de curta duração.
Nas tabelas em que for detalhado o tempo de operação em determinada condição de operação de 
equipamento, deve-se utilizar tantas linhas quanto forem necessárias para o detalhamento de carregamento 
por período de tempo informado pelo Agente.
Os campos “Valor Operacional” e “Duração” das tabelas, cujos valores dependem de informação do Agente 
e não estão disponíveis para o ONS, devem ser preenchidas com “NI” (Não Informado pelo Agente).
O campo “Valor Operacional” das tabelas referentes a valores de emergência, que não são permitidos pelo 
Agente, devem ser preenchidos com “NP” (Não Permitido pelo Agente). Para esse caso, também deve ser 
preenchido o campo “Fator Limitante”.
3. CONSIDERAÇÕES GERAIS
3.1. Este Cadastro de Informações Operacionais apresenta os limites operacionais de carregamento das 
linhas de transmissão e dos transformadores da Rede de Operação, de acordo com as definições 
estabelecidas entre ANEEL, ONS e agentes, cujo processo de atualização é descrito pela RO-CD.BR.01 
- Controle de Limites de Carregamento de Linhas de Transmissão e Transformadores.
3.2. Os operadores dos Centros de Operação do ONS, nas ações de coordenação, supervisão e controle 
devem observar os limites operacionais constantes neste Cadastro de Informações Operacionais.
3.3. A operação dos agentes, em suas ações de comando e execução, deve observar os limites 
operacionais constantes neste Cadastro de Informações Operacionais.
3.4. Cabe ao agente comunicar de imediato ao Centro de Operação com o qual se relaciona qualquer 
alteração de limite que imponha restrições à operação de linha de transmissão ou de transformador.
3.5. Toda e qualquer alteração nos valores de limites operacionais constantes neste Cadastro de 
Informações Operacionais deverá ser solicitada formalmente e devidamente justificada e 
caracterizada pelo agente responsável pelo equipamento ao Centro de Operação do ONS de seu 
relacionamento. 
3.6. Caso a operação em tempo real venha a verificar qualquer possibilidade de violação do limite 
estabelecido para o equipamento, caberá ao Centro de Operação do ONS responsável tomar as 
medidas corretivas cabíveis, para que esse não ultrapasse esses valores, que só podem ser 
ultrapassados com anuência do agente.
3.7. Os valores de Limites Operacionais dos equipamentos da Rede de Operação, constantes neste 
Cadastro de Informações Operacionais, são os valores informados oficialmente e formalmente pelo 
agente.
3.8. Os limites de transformadores que constam neste Cadastro de Informações Operacionais consideram 
todos os estágios de refrigeração disponíveis. Os limites considerando os estágios de refrigeração 
indisponíveis constam nos Cadastros de Informações Operacionais de Dados de Equipamentos.
Manual de Procedimentos da Operação - Módulo 5 - Submódulo 5.11
 Cadastro de Informações Operacionais Código Revisão Item Vigência
CADASTRO DE LIMITES OPERACIONAIS DE LINHAS DE 
TRANSMISSÃO E TRANSFORMADORES DA ÁREA 
500/230 KV MANAUS-MACAPÁ
CD-
CT.N.5MM.02 40 2.2.4 05/07/2024
Referência: 8 / 45
4. LIMITES DE CARREGAMENTO DE LINHAS DE TRANSMISSÃO
4.1. LT 500 KV JURUPARI / ORIXIMINÁ C1
Limites de condição normal de operação (Longa duração)
Período do ano Período 
do dia
Valor
operacional (A) Fator limitante
01/Jan a 31/Dez Diurno / 
Noturno 2.000 Banco(s) de Capacitor(es) Série, estando a LT operando 
com o(s) Banco (s) de Capacitor(es) Série inserido(s).
01/Jan a 31/Dez Diurno / 
Noturno 3.140 Ajuste de Proteção, estando a LT operando com os bancos 
de capacitores série fixos baipassados.
Limites de condição de emergência (Curta duração)
Período do ano Período 
do dia
Valor
operacional (A)
Duração 
(Hh:mm) Fator limitante
01/Jan a 31/Dez Diurno / 
Noturno 3.920 (*) TC nos extremos, estando a LT operando com 
os bancos de capacitores série baipassados.
01/Jan a 31/Dez Diurno / 
Noturno 2.200 08:00 Bancos de Capacitores Série, estando a LT 
operando com esses inseridos.
01/Jan a 31/Dez Diurno / 
Noturno 2.700 00:30 Bancos de Capacitores Série, estando a LT 
operando com esses inseridos.
01/Jan a 31/Dez Diurno / 
Noturno 3.000 00:10 Bancos de Capacitores Série, estando a LT 
operando com esses inseridos.
4.2. LT 500 KV JURUPARI / ORIXIMINÁ C2
Limites de condição normal de operação (Longa duração)
Período do ano Período 
do dia
Valor
operacional (A) Fator limitante
01/Jan a 31/Dez Diurno / 
Noturno 2.000 Banco(s) de Capacitor(es) Série, estando a LT operando 
com o(s) Banco(s) de Capacitor(es) Série inserido(s).
01/Jan a 31/Dez Diurno / 
Noturno 3.140 Ajuste de Proteção, estando a LT operando com os bancos 
de capacitores série fixos baipassados.
Limites de condição de emergência (Curta duração)
Período do ano Período 
do dia
Valor
operacional (A)
Duração 
(Hh:mm) Fator limitante
01/Jan a 31/Dez Diurno / 
Noturno 3.920 (*) TC nos extremos, estando a LT operando com 
os bancos de capacitores série baipassados.
Manual de Procedimentos da Operação - Módulo 5 - Submódulo 5.11
 Cadastro de Informações Operacionais Código Revisão Item Vigência
CADASTRO DE LIMITES OPERACIONAIS DE LINHAS DE 
TRANSMISSÃO E TRANSFORMADORES DA ÁREA 
500/230 KV MANAUS-MACAPÁ
CD-
CT.N.5MM.02 40 2.2.4 05/07/2024
Referência: 9 / 45
Limites de condição de emergência (Curta duração)
Período do ano Período 
do dia
Valor
operacional (A)
Duração 
(Hh:mm) Fator limitante
01/Jan a 31/Dez Diurno / 
Noturno 2.200 08:00 Bancos de Capacitores Série, estando a LT 
operando com esses inseridos.
01/Jan a 31/Dez Diurno / 
Noturno 2.700 00:30 Bancos de Capacitores Série, estando a LT 
operando com esses inseridos.
01/Jan a 31/Dez Diurno / 
Noturno 3.000 00:10 Bancos de Capacitores Série, estando a LT 
operando com esses inseridos.
4.3. LT 500 KV JURUPARI / XINGU C1
Limites de condição normal de operação (Longa duração)
Período do ano Período 
do dia
Valor
operacional (A) Fator limitante
01/Jan a 31/Dez Diurno / 
Noturno 2.240 Banco (s) de Capacitor(es) Série, estando a LT operando 
com o(s) Banco (s) de Capacitor(es) Série inserido(s).
01/Jan a 31/Dez Diurno / 
Noturno 3.140 Ajuste de Proteção, estando a LT operando com os bancos 
de capacitores série fixos baipassados.
Limites de condição de emergência (Curta duração)
Período do ano Período 
do dia
Valor
operacional (A)
Duração 
(Hh:mm) Fator limitante
01/Jan a 31/Dez Diurno / 
Noturno 3.920 (*) TC nos extremos, estando a LT operando com 
os bancos de capacitores série baipassados.
01/Jan a 31/Dez Diurno / 
Noturno 2.464 08:00 Bancos de Capacitores Série, estando a LT 
operando com esses inseridos.
01/Jan a 31/Dez Diurno / 
Noturno 3.024 00:30 Bancos de Capacitores Série, estando a LT 
operando com esses inseridos.
01/Jan a 31/Dez Diurno / 
Noturno 3.360 00:10 Bancos de Capacitores Série, estando a LT 
operando com esses inseridos.
Manual de Procedimentos da Operação - Módulo 5 - Submódulo 5.11
 Cadastro de Informações Operacionais Código Revisão Item Vigência
CADASTRO DE LIMITES OPERACIONAIS DE LINHAS DE 
TRANSMISSÃO E TRANSFORMADORES DA ÁREA 
500/230 KV MANAUS-MACAPÁ
CD-
CT.N.5MM.02 40 2.2.4 05/07/2024
Referência: 10 / 45
4.4. LT 500 KV JURUPARI / XINGU C2
Limites de condição normal de operação (Longa duração)
Período do ano Período 
do dia
Valor
operacional (A) Fator limitante
01/Jan a 31/Dez Diurno / 
Noturno 2.240 Banco (s) de Capacitor(es) Série, estando a LT operando 
com o(s) Banco (s) de Capacitor(es) Série inserido(s).
01/Jan a 31/Dez Diurno / 
Noturno 3.140 Ajuste de Proteção, estando a LT operando com os bancos 
de capacitores série fixos baipassados.
Limites de condição de emergência (Curta duração)
Período do ano Período 
do dia
Valor
operacional (A)
Duração 
(Hh:mm) Fator limitante
01/Jan a 31/Dez Diurno / 
Noturno 3.920 (*) TC nos extremos, estando a LT operando com 
os bancos de capacitores série baipassados.
01/Jan a 31/Dez Diurno / 
Noturno 2.464 08:00 Bancos de Capacitores Série, estando a LT 
operando com esses inseridos.
01/Jan a 31/Dez Diurno / 
Noturno 3.024 00:30 Bancos de Capacitores Série, estando a LT 
operando com esses inseridos.
01/Jan a 31/Dez Diurno / 
Noturno 3.360 00:10 Bancos de Capacitores Série, estando a LT 
operando com esses inseridos.
4.5. LT 500 KV LECHUGA / SILVES C1
Limites de condição normal de operação (Longa duração)
Período do ano Período 
do dia
Valor
operacional (A) Fator limitante
01/Jan a 31/Dez Diurno / 
Noturno 1.840 Banco(s) de Capacitor(es) Série, estando a LT operando 
com o(s) Banco(s) de Capacitor(es) Série inserido(s).
01/Jan a 31/Dez Diurno / 
Noturno 3.140 Ajuste de Proteção, estando a LT operando com os bancos 
de capacitores série fixos baipassados.
Limites de condição de emergência (Curta duração)
Período do ano Período 
do dia
Valor
operacional (A)
Duração 
(Hh:mm) Fator limitante
01/Jan a 31/Dez Diurno / 
Noturno 3.920 (*) TC nos extremos, estando a LT operando com 
os bancos de capacitores série baipassados.
Manual de Procedimentos da Operação - Módulo 5 - Submódulo 5.11
 Cadastro de Informações Operacionais Código Revisão Item Vigência
CADASTRO DE LIMITES OPERACIONAIS DE LINHAS DE 
TRANSMISSÃO E TRANSFORMADORES DA ÁREA 
500/230 KV MANAUS-MACAPÁ
CD-
CT.N.5MM.02 40 2.2.4 05/07/2024
Referência: 11 / 45
Limites de condição de emergência (Curta duração)
Período do ano Período 
do dia
Valor
operacional (A)
Duração 
(Hh:mm) Fator limitante
01/Jan a 31/Dez Diurno / 
Noturno 2.024 04:00 Bancos de Capacitores Série, estando a LT 
operando com esses inseridos.
01/Jan a 31/Dez Diurno / 
Noturno 2.484 00:30 Bancos de Capacitores Série, estando a LT 
operando com esses inseridos.
4.6. LT 500 KV LECHUGA / SILVES C2
Limites de condição normal de operação (Longa duração)
Período do ano Período 
do dia
Valor
operacional (A) Fator limitante
01/Jan a 31/Dez Diurno / 
Noturno 1.840 Banco(s) de Capacitor(es) Série, estando a LT operando 
com o(s) Banco(s) de Capacitor(es) Série inserido(s).
01/Jan a 31/Dez Diurno / 
Noturno 3.140 Ajuste de Proteção, estando a LT operando com os bancos 
de capacitores série fixos baipassados.
Limites de condição de emergência (Curta duração)
Período do ano Período 
do dia
Valor
operacional (A)
Duração 
(Hh:mm) Fator limitante
01/Jan a 31/Dez Diurno / 
Noturno 3.920 (*) TC nos extremos, estando a LT operando com 
os bancos de capacitores série baipassados.
01/Jan a 31/Dez Diurno / 
Noturno 2.024 04:00 Bancos de Capacitores Série, estando a LT 
operando com esses inseridos.
01/Jan a 31/Dez Diurno / 
Noturno 2.484 00:30 Bancos de Capacitores Série, estando a LT 
operando com esses inseridos.
4.7. LT 500 KV ORIXIMINÁ / SILVES C1
Limites de condição normal de operação (Longa duração)
Período do ano Período 
do dia
Valor
operacional (A) Fator limitante
01/Jan a 31/Dez Diurno / 
Noturno 1.900 Banco(s) de Capacitor(es) Série, estando a LT operando 
com o(s) Banco(s) de Capacitor(es) Série inserido(s).
01/Jan a 31/Dez Diurno / 
Noturno 3.140 Ajuste de Proteção, estando a LT operando com os bancos 
de capacitores série fixos baipassados.
Manual de Procedimentos da Operação - Módulo 5 - Submódulo 5.11
 Cadastro de Informações Operacionais Código Revisão Item Vigência
CADASTRO DE LIMITES OPERACIONAIS DE LINHAS DE 
TRANSMISSÃO E TRANSFORMADORES DA ÁREA 
500/230 KV MANAUS-MACAPÁ
CD-
CT.N.5MM.02 40 2.2.4 05/07/2024
Referência: 12 / 45
Limites de condição de emergência (Curta duração)
Período do ano Período 
do dia
Valor
operacional (A)
Duração 
(Hh:mm) Fator limitante
01/Jan a 31/Dez Diurno / 
Noturno 3.920 (*) TC nos extremos, estando a LT operando com 
os bancos de capacitores série baipassados.
01/Jan a 31/Dez Diurno / 
Noturno 2.090 04:00 Bancos de Capacitores Série, estando a LT 
operando com esses inseridos.
01/Jan a 31/Dez Diurno / 
Noturno 2.565 00:30 Bancos de Capacitores Série, estando a LT 
operando com esses inseridos.
4.8. LT 500 KV ORIXIMINÁ / SILVES C2
Limites de condição normal de operação (Longa duração)
Período do ano Período 
do dia
Valor
operacional (A) Fator limitante
01/Jan a 31/Dez Diurno / 
Noturno 1.900 Banco(s) de Capacitor(es) Série, estando a LT operando 
com o(s) Banco(s) de Capacitor(es) Série inserido(s).
01/Jan a 31/Dez Diurno / 
Noturno 3.140 Ajuste de Proteção, estando a LT operando com os bancos 
de capacitores série fixos baipassados.
Limites de condição de emergência (Curta duração)
Período do ano Período 
do dia
Valor
operacional (A)
Duração 
(Hh:mm) Fator limitante
01/Jan a 31/Dez Diurno / 
Noturno 3.920 (*) TC nos extremos, estando a LT operando com 
os bancos de capacitores série baipassados.
01/Jan a 31/Dez Diurno / 
Noturno 2.090 04:00 Bancos de Capacitores Série, estando a LT 
operando com esses inseridos.
01/Jan a 31/Dez Diurno / 
Noturno 2.565 00:30 Bancos de Capacitores Série, estando a LT 
operando com esses inseridos.
4.9. LT 230 KV BALBINA / LECHUGA
Limites de condição normal de operação (Longa duração)
Período do ano Período 
do dia
Valor
operacional (A) Fator limitante
01/Jan a 31/Dez Diurno / 
Noturno 1.200 Limite do TC
Manual de Procedimentos da Operação - Módulo 5 - Submódulo 5.11
 Cadastro de Informações Operacionais Código Revisão Item Vigência
CADASTRO DE LIMITES OPERACIONAIS DE LINHAS DE 
TRANSMISSÃO E TRANSFORMADORES DA ÁREA 
500/230 KV MANAUS-MACAPÁ
CD-
CT.N.5MM.02 40 2.2.4 05/07/2024
Referência: 13 / 45
Limites de condição de emergência (Curta duração)
Período do ano Período 
do dia
Valor
operacional (A)
Duração 
(Hh:mm) Fator limitante
01/Jan a 31/Dez Diurno / 
Noturno 1.200 04:00 Limite do TC
4.10. LT 230 KV BALBINA/PR. FIGUEIREDO C1
Limites de condição normal de operação (Longa duração)
Período do ano Período 
do dia
Valor
operacional (A) Fator limitante
01/Jan a 31/Dez Diurno / 
Noturno 1.200 Limite TC
Limites de condição de emergência (Curta duração)
Período do ano Período 
do dia
Valor
operacional (A)
Duração 
(Hh:mm) Fator limitante
01/Jan a 31/Dez Diurno / 
Noturno 1.200 (*) Limite do TC
4.11. LT 230 KV CACHOEIRA CALDEIRÃO / FERREIRA GOMES
Limites de condição normal de operação (Longa duração)
Período do ano Período 
do dia
Valor
operacional (A) Fator limitante
01/Jan a 31/Dez Diurno / 
Noturno 1.398 Capacidade nominal
Limites de condição de emergência (Curta duração)
Período do ano Período 
do dia
Valor
operacional (A)
Duração 
(Hh:mm) Fator limitante
01/Jan a 31/Dez Diurno / 
Noturno 1.643 04:00 -
Manual de Procedimentos da Operação - Módulo 5 - Submódulo 5.11
 Cadastro de Informações Operacionais Código Revisão Item Vigência
CADASTRO DE LIMITES OPERACIONAIS DE LINHAS DE 
TRANSMISSÃO E TRANSFORMADORES DA ÁREA 
500/230 KV MANAUS-MACAPÁ
CD-
CT.N.5MM.02 40 2.2.4 05/07/2024
Referência: 14 / 45
4.12. LT 230 KV CRISTIANO ROCHA / LECHUGA
Limites de condição normal de operação (Longa duração)
Período do ano Período 
do dia
Valor
operacional (A) Fator limitante
01/Jan a 31/Dez Diurno / 
Noturno 1.550 -
Limites de condição de emergência (Curta duração)
Período do ano Período 
do dia
Valor
operacional (A)
Duração 
(Hh:mm) Fator limitante
01/Jan a 31/Dez Diurno / 
Noturno 1.906 04:00 -
4.13. LT 230 KV CRISTIANO ROCHA / PR. FIGUEIREDO C 1
Limites de condição normal de operação (Longa duração)
Período do ano Período 
do dia
Valor
operacional (A) Fator limitante
01/Jan a 31/Dez Diurno / 
Noturno 1.200 Limite do TC
Limites de condição de emergência (Curta duração)
Período do ano Período 
do dia
Valor
operacional (A)
Duração 
(Hh:mm) Fator limitante
01/Jan a 31/Dez Diurno / 
Noturno 1.200 04:00 Limite do TC
4.14. LT 230 KV FERREIRA GOMES / MACAPÁ
Limites de condição normal de operação (Longa duração)
Período do ano Período 
do dia
Valor
operacional (A) Fator limitante
01/Jan a 31/Dez Diurno / 
Noturno 1.200 TCs instalados nas extremidades da LT (SE Ferreira Gomes 
e SE Macapá).
Manual de Procedimentos da Operação - Módulo 5 - Submódulo 5.11
 Cadastro de Informações Operacionais Código Revisão Item Vigência
CADASTRO DE LIMITES OPERACIONAIS DE LINHAS DE 
TRANSMISSÃO E TRANSFORMADORES DA ÁREA 
500/230 KV MANAUS-MACAPÁ
CD-
CT.N.5MM.02 40 2.2.4 05/07/2024
Referência: 15 / 45
Limites de condição de emergência (Curta duração)
Período do ano Período 
do dia
Valor
operacional (A)
Duração 
(Hh:mm) Fator limitante
01/Jan a 31/Dez Diurno / 
Noturno NP - TCs instalados nas extremidades da LT (SE 
Ferreira Gomes e SE Macapá).
4.15. LT 230 KV JORGE TEIXEIRA / LECHUGA C1
Limites de condição normal de operação (Longa duração)
Período do ano Período 
do dia
Valor
operacional (A) Fator limitante
01/Jan a 31/Dez Diurno / 
Noturno 1.945 Cabo condutor
Limites de condição de emergência (Curta duração)
Período do ano Período 
do dia
Valor
operacional (A)
Duração 
(Hh:mm) Fator limitante
01/Jan a 31/Dez Diurno / 
Noturno 2.315 (*) Cabo condutor
4.16. LT 230 KV JORGE TEIXEIRA / LECHUGA C2
Limites de condição normal de operação (Longa duração)
Período do ano Período 
do dia
Valor
operacional (A) Fator limitante
01/Jan a 31/Dez Diurno / 
Noturno 1.945 Cabo condutor
Limites de condição de emergência (Curta duração)
Período do ano Período 
do dia
Valor
operacional (A)
Duração 
(Hh:mm) Fator limitante
01/Jan a 31/Dez Diurno / 
Noturno 2.315 (*) Cabo condutor
Manual de Procedimentos da Operação - Módulo 5 - Submódulo 5.11
 Cadastro de Informações Operacionais Código Revisão Item Vigência
CADASTRO DE LIMITES OPERACIONAIS DE LINHAS DE 
TRANSMISSÃO E TRANSFORMADORES DA ÁREA 
500/230 KV MANAUS-MACAPÁ
CD-
CT.N.5MM.02 40 2.2.4 05/07/2024
Referência: 16 / 45
4.17. LT 230 KV JORGE TEIXEIRA / LECHUGA C3
Limites de condição normal de operação (Longa duração)
Período do ano Período 
do dia
Valor
operacional (A) Fator limitante
01/Jan a 31/Dez Diurno / 
Noturno 1.945 Cabo condutor
Limites de condição de emergência (Curta duração)
Período do ano Período 
do dia
Valor
operacional (A)
Duração 
(Hh:mm) Fator limitante
01/Jan a 31/Dez Diurno / 
Noturno 2.315 96:00 Cabo condutor
4.18. LT 230 KV JORGE TEIXEIRA / MAUÁ III C1
Limites de condição normal de operação (Longa duração)
Período do ano Período 
do dia
Valor
operacional (A) Fator limitante
01/Jan a 31/Dez Diurno / 
Noturno 1.990 Capacidade nominal.
Limites de condição de emergência (Curta duração)
Período do ano Período 
do dia
Valor
operacional (A)
Duração 
(Hh:mm) Fator limitante
01/Jan a 31/Dez Diurno / 
Noturno 2.447 04:00 -
4.19. LT 230 KV JORGE TEIXEIRA / MAUÁ III C2
Limites de condição normal de operação (Longa duração)
Período do ano Período 
do dia
Valor
operacional (A) Fator limitante
01/Jan a 31/Dez Diurno / 
Noturno 1.990 Capacidade nominal.
Manual de Procedimentos da Operação - Módulo 5 - Submódulo 5.11
 Cadastro de Informações Operacionais Código Revisão Item Vigência
CADASTRO DE LIMITES OPERACIONAIS DE LINHAS DE 
TRANSMISSÃO E TRANSFORMADORES DA ÁREA 
500/230 KV MANAUS-MACAPÁ
CD-
CT.N.5MM.02 40 2.2.4 05/07/2024
Referência: 17 / 45
Limites de condição de emergência (Curta duração)
Período do ano Período 
do dia
Valor
operacional (A)
Duração 
(Hh:mm) Fator limitante
01/Jan a 31/Dez Diurno / 
Noturno 2.447 04:00 -
4.20. LT 230 KV JURUPARI / LARANJAL C1
Limites de condição normal de operação (Longa duração)
Período do ano Período 
do dia
Valor
operacional (A) Fator limitante
01/Jan a 31/Dez Diurno / 
Noturno 1.400 Cabo condutor
Limites de condição de emergência (Curta duração)
Período do ano Período 
do dia
Valor
operacional (A)
Duração 
(Hh:mm) Fator limitante
01/Jan a 31/Dez Diurno / 
Noturno 1.750 (*) Cabo condutor
4.21. LT 230 KV JURUPARI / LARANJAL C2
Limites de condição normal de operação (Longa duração)
Período do ano Período 
do dia
Valor
operacional (A) Fator limitante
01/Jan a 31/Dez Diurno / 
Noturno 1.400 Cabo condutor
Limites de condição de emergência (Curta duração)
Período do ano Período 
do dia
Valor
operacional (A)
Duração 
(Hh:mm) Fator limitante
01/Jan a 31/Dez Diurno / 
Noturno 1.750 (*) Cabo condutor
Manual de Procedimentos da Operação - Módulo 5 - Submódulo 5.11
 Cadastro de Informações Operacionais Código Revisão Item Vigência
CADASTRO DE LIMITES OPERACIONAIS DE LINHAS DE 
TRANSMISSÃO E TRANSFORMADORES DA ÁREA 
500/230 KV MANAUS-MACAPÁ
CD-
CT.N.5MM.02 40 2.2.4 05/07/2024
Referência: 18 / 45
4.22. LT 230 KV JURUPARI / LARANJAL C3
Limites de condição normal de operação (Longa duração)
Período do ano Período 
do dia
Valor
operacional (A) Fator limitante
01/Jan a 31/Dez Diurno / 
Noturno 1.400 -
Limites de condição de emergência (Curta duração)
Período do ano Período 
do dia
Valor
operacional (A)
Duração 
(Hh:mm) Fator limitante
01/Jan a 31/Dez Diurno / 
Noturno 1.750 (*) Cabo Condutor
4.23. LT 230 KV JURUTI / PARINTINS C1
Limites de condição normal de operação (Longa duração)
Período do ano Período 
do dia
Valor
operacional (A) Fator limitante
01/Jan a 31/Dez Diurno / 
Noturno 890 -
Limites de condição de emergência (Curta duração)
Período do ano Período 
do dia
Valor
operacional (A)
Duração 
(Hh:mm) Fator limitante
01/Jan a 31/Dez Diurno / 
Noturno 1.104 04:00 -
4.24. LT 230 KV JURUTI / PARINTINS C2
Limites de condição normal de operação (Longa duração)
Período do ano Período 
do dia
Valor
operacional (A) Fator limitante
01/Jan a 31/Dez Diurno / 
Noturno 890 -
Manual de Procedimentos da Operação - Módulo 5 - Submódulo 5.11
 Cadastro de Informações Operacionais Código Revisão Item Vigência
CADASTRO DE LIMITES OPERACIONAIS DE LINHAS DE 
TRANSMISSÃO E TRANSFORMADORES DA ÁREA 
500/230 KV MANAUS-MACAPÁ
CD-
CT.N.5MM.02 40 2.2.4 05/07/2024
Referência: 19 / 45
Limites de condição de emergência (Curta duração)
Período do ano Período 
do dia
Valor
operacional (A)
Duração 
(Hh:mm) Fator limitante
01/Jan a 31/Dez Diurno / 
Noturno 1.104 04:00 -
4.25. LT 230 KV LARANJAL / SANTO ANTÔNIO DO JARI
Limites de condição normal de operação (Longa duração)
Período do ano Período 
do dia
Valor
operacional (A) Fator limitante
01/Jan a 31/Dez Diurno / 
Noturno 1.042 Cabo condutor
Limites de condição de emergência (Curta duração)
Período do ano Período 
do dia
Valor
operacional (A)
Duração 
(Hh:mm) Fator limitante
01/Jan a 31/Dez Diurno / 
Noturno NP - -
4.26. LT 230 KV LECHUGA / MANAUS C1
Limites de condição normal de operação (Longa duração)
Período do ano Período 
do dia
Valor
operacional (A) Fator limitante
01/Jan a 31/Dez Diurno / 
Noturno 1.200 Limite do TC.
Limites de condição de emergência (Curta duração)
Período do ano Período 
do dia
Valor
operacional (A)
Duração 
(Hh:mm) Fator limitante
01/Jan a 31/Dez Diurno / 
Noturno 1.200 04:00 Limite do TC
Manual de Procedimentos da Operação - Módulo 5 - Submódulo 5.11
 Cadastro de Informações Operacionais Código Revisão Item Vigência
CADASTRO DE LIMITES OPERACIONAIS DE LINHAS DE 
TRANSMISSÃO E TRANSFORMADORES DA ÁREA 
500/230 KV MANAUS-MACAPÁ
CD-
CT.N.5MM.02 40 2.2.4 05/07/2024
Referência: 20 / 45
4.27. LT 230 KV LECHUGA / MANAUS C2
Limites de condição normal de operação (Longa duração)
Período do ano Período 
do dia
Valor
operacional (A) Fator limitante
01/Jan a 31/Dez Diurno / 
Noturno 1.200 Limite do TC.
Limites de condição de emergência (Curta duração)
Período do ano Período 
do dia
Valor
operacional (A)
Duração 
(Hh:mm) Fator limitante
01/Jan a 31/Dez Diurno / 
Noturno 1.200 04:00 Limite do TC
4.28. LT 230 KV MACAPÁ / LARANJAL C1
Limites de condição normal de operação (Longa duração)
Período do ano Período 
do dia
Valor
operacional (A) Fator limitante
01/Jan a 31/Dez Diurno / 
Noturno 1.400 Cabo condutor
Limites de condição de emergência (Curta duração)
Período do ano Período 
do dia
Valor
operacional (A)
Duração 
(Hh:mm) Fator limitante
01/Jan a 31/Dez Diurno / 
Noturno 1.750 (*) Cabo condutor
4.29. LT 230 KV MACAPÁ / LARANJAL C2
Limites de condição normal de operação (Longa duração)
Período do ano Período 
do dia
Valor
operacional (A) Fator limitante
01/Jan a 31/Dez Diurno / 
Noturno 1.400 Cabo condutor
Manual de Procedimentos da Operação - Módulo 5 - Submódulo 5.11
 Cadastro de Informações Operacionais Código Revisão Item Vigência
CADASTRO DE LIMITES OPERACIONAIS DE LINHAS DE 
TRANSMISSÃO E TRANSFORMADORES DA ÁREA 
500/230 KV MANAUS-MACAPÁ
CD-
CT.N.5MM.02 40 2.2.4 05/07/2024
Referência: 21 / 45
Limites de condição de emergência (Curta duração)
Período do ano Período 
do dia
Valor
operacional (A)
Duração 
(Hh:mm) Fator limitante
01/Jan a 31/Dez Diurno / 
Noturno 1.750 (*) Cabo condutor
4.30. LT 230 KV ORIXIMINÁ / JURUTI C1
Limites de condição normal de operação (Longa duração)
Período do ano Período 
do dia
Valor
operacional (A) Fator limitante
01/Jan a 31/Dez Diurno / 
Noturno 890 Capacidade nominal.
Limites de condição de emergência (Curta duração)
Período do ano Período 
do dia
Valor
operacional (A)
Duração 
(Hh:mm) Fator limitante
01/Jan a 31/Dez Diurno / 
Noturno 1.104 04:00 Capacidade nominal.
4.31. LT 230 KV ORIXIMINÁ / JURUTI C2
Limites de condição normal de operação (Longa duração)
Período do ano Período 
do dia
Valor
operacional (A) Fator limitante
01/Jan a 31/Dez Diurno / 
Noturno 890 Capacidade nominal.
Limites de condição de emergência (Curta duração)
Período do ano Período 
do dia
Valor
operacional (A)
Duração 
(Hh:mm) Fator limitante
01/Jan a 31/Dez Diurno / 
Noturno 1.104 04:00 Capacidade nominal.
Manual de Procedimentos da Operação - Módulo 5 - Submódulo 5.11
 Cadastro de Informações Operacionais Código Revisão Item Vigência
CADASTRO DE LIMITES OPERACIONAIS DE LINHAS DE 
TRANSMISSÃO E TRANSFORMADORES DA ÁREA 
500/230 KV MANAUS-MACAPÁ
CD-
CT.N.5MM.02 40 2.2.4 05/07/2024
Referência: 22 / 45
5. LIMITES DE CARREGAMENTO DE TRANSFORMADORES
5.1. SE JORGE TEIXEIRA - AUTOTRANSFORMADOR (JTAT6-01) 230/138/13,8 KV - 150 MVA
Limites de Condição Normal de Operação
Enrolamento (kV) Valor
operacional (A) Fator limitante
138 628 -
230 377 -
Limites de Condição de Emergência de Longa Duração
Enrolamento 
(kV)
Valor
operacional (A)
Duração 
(Hh:mm) Fator limitante
138 753 04:00 -
230 452 04:00 -
Limites de Condição de Emergência de Curta Duração
Enrolamento 
(kV)
Valor
operacional (A)
Duração 
(Hh:mm) Fator limitante
138 879 00:30 -
230 527 00:30 -
5.2. SE JORGE TEIXEIRA - AUTOTRANSFORMADOR (JTAT6-02) 230/138/13,8 KV - 150 MVA
Limites de Condição Normal de Operação
Enrolamento (kV) Valor
operacional (A) Fator limitante
138 628 -
230 377 -
Limites de Condição de Emergência de Longa Duração
Enrolamento 
(kV)
Valor
operacional (A)
Duração 
(Hh:mm) Fator limitante
138 753 04:00 -
230 452 04:00 -
Manual de Procedimentos da Operação - Módulo 5 - Submódulo 5.11
 Cadastro de Informações Operacionais Código Revisão Item Vigência
CADASTRO DE LIMITES OPERACIONAIS DE LINHAS DE 
TRANSMISSÃO E TRANSFORMADORES DA ÁREA 
500/230 KV MANAUS-MACAPÁ
CD-
CT.N.5MM.02 40 2.2.4 05/07/2024
Referência: 23 / 45
Limites de Condição de Emergência de Curta Duração
Enrolamento 
(kV)
Valor
operacional (A)
Duração 
(Hh:mm) Fator limitante
138 879 00:30 -
230 527 00:30 -
5.3. SE JORGE TEIXEIRA - AUTOTRANSFORMADOR (JTAT6-03) 230/138/13,8 KV - 150 MVA
Limites de Condição Normal de Operação
Enrolamento (kV) Valor
operacional (A) Fator limitante
138 628 --
230 377 --
Limites de Condição de Emergência de Longa Duração
Enrolamento 
(kV)
Valor
operacional (A)
Duração 
(Hh:mm) Fator limitante
138 753 04:00 --
230 452 04:00 --
Limites de Condição de Emergência de Curta Duração
Enrolamento 
(kV)
Valor
operacional (A)
Duração 
(Hh:mm) Fator limitante
138 879 00:30 --
230 527 00:30 --
5.4. SE JORGE TEIXEIRA - AUTOTRANSFORMADOR (JTAT6-04) 230/138/13,8 KV - 150 MVA
Limites de Condição Normal de Operação
Enrolamento (kV) Valor
operacional (A) Fator limitante
138 628 --
230 377 --
Manual de Procedimentos da Operação - Módulo 5 - Submódulo 5.11
 Cadastro de Informações Operacionais Código Revisão Item Vigência
CADASTRO DE LIMITES OPERACIONAIS DE LINHAS DE 
TRANSMISSÃO E TRANSFORMADORES DA ÁREA 
500/230 KV MANAUS-MACAPÁ
CD-
CT.N.5MM.02 40 2.2.4 05/07/2024
Referência: 24 / 45
Limites de Condição de Emergência de Longa Duração
Enrolamento 
(kV)
Valor
operacional (A)
Duração 
(Hh:mm) Fator limitante
138 753 04:00 --
230 452 04:00 --
Limites de Condição de Emergência de Curta Duração
Enrolamento 
(kV)
Valor
operacional (A)
Duração 
(Hh:mm) Fator limitante
138 879 00:30 --
230 527 00:30 --
5.5. SE JURUPARI - AUTOTRANSFORMADOR (7ATR01) 230/69/13,8 KV - 30 MVA
Limites de Condição Normal de Operação
Enrolamento (kV) Valor
operacional (A) Fator limitante
69 251 .
230 75 .
Limites de Condição de Emergência de Longa Duração
Enrolamento 
(kV)
Valor
operacional (A)
Duração 
(Hh:mm) Fator limitante
69 301 04:00 .
230 90 04:00 .
Limites de Condição de Emergência de Curta Duração
Enrolamento 
(kV)
Valor
operacional (A)
Duração 
(Hh:mm) Fator limitante
69 352 00:30 .
230 105 00:30 .
Manual de Procedimentos da Operação - Módulo 5 - Submódulo 5.11
 Cadastro de Informações Operacionais Código Revisão Item Vigência
CADASTRO DE LIMITES OPERACIONAIS DE LINHAS DE 
TRANSMISSÃO E TRANSFORMADORES DA ÁREA 
500/230 KV MANAUS-MACAPÁ
CD-
CT.N.5MM.02 40 2.2.4 05/07/2024
Referência: 25 / 45
5.6. SE JURUPARI - AUTOTRANSFORMADOR (7ATR02) 230/69/13,8 KV - 30 MVA
Limites de Condição Normal de Operação
Enrolamento (kV) Valor
operacional (A) Fator limitante
69 251 .
230 75 .
Limites de Condição de Emergência de Longa Duração
Enrolamento 
(kV)
Valor
operacional (A)
Duração 
(Hh:mm) Fator limitante
69 301 04:00 .
230 90 04:00 .
Limites de Condição de Emergência de Curta Duração
Enrolamento 
(kV)
Valor
operacional (A)
Duração 
(Hh:mm) Fator limitante
69 352 00:30 .
230 105 00:30 .
5.7. SE JURUPARI - AUTOTRANSFORMADOR (9AT01) 500/230/13,8 KV - 450 MVA
Limites de Condição Normal de Operação
Enrolamento (kV) Valor
operacional (A) Fator limitante
230 1.130 -
500 520 -
Limites de Condição de Emergência de Longa Duração
Enrolamento 
(kV)
Valor
operacional (A)
Duração 
(Hh:mm) Fator limitante
230 1.356 04:00 -
500 624 04:00 -
Manual de Procedimentos da Operação - Módulo 5 - Submódulo 5.11
 Cadastro de Informações Operacionais Código Revisão Item Vigência
CADASTRO DE LIMITES OPERACIONAIS DE LINHAS DE 
TRANSMISSÃO E TRANSFORMADORES DA ÁREA 
500/230 KV MANAUS-MACAPÁ
CD-
CT.N.5MM.02 40 2.2.4 05/07/2024
Referência: 26 / 45
Limites de Condição de Emergência de Curta Duração
Enrolamento 
(kV)
Valor
operacional (A)
Duração 
(Hh:mm) Fator limitante
230 1.581 00:30 -
500 727 00:30 -
5.8. SE JURUPARI - AUTOTRANSFORMADOR (9AT02) 500/230/13,8 KV - 450 MVA
Limites de Condição Normal de Operação
Enrolamento (kV) Valor
operacional (A) Fator limitante
230 1.130 -
500 520 -
Limites de Condição de Emergência de Longa Duração
Enrolamento 
(kV)
Valor
operacional (A)
Duração 
(Hh:mm) Fator limitante
230 1.356 04:00 -
500 624 04:00 -
Limites de Condição de Emergência de Curta Duração
Enrolamento 
(kV)
Valor
operacional (A)
Duração 
(Hh:mm) Fator limitante
230 1.581 00:30 -
500 727 00:30 -
5.9. SE JURUPARI - AUTOTRANSFORMADOR (9AT03) 500/230/13,8 KV - 450 MVA
Limites de Condição Normal de Operação
Enrolamento (kV) Valor
operacional (A) Fator limitante
230 1.130 -
500 520 -
Manual de Procedimentos da Operação - Módulo 5 - Submódulo 5.11
 Cadastro de Informações Operacionais Código Revisão Item Vigência
CADASTRO DE LIMITES OPERACIONAIS DE LINHAS DE 
TRANSMISSÃO E TRANSFORMADORES DA ÁREA 
500/230 KV MANAUS-MACAPÁ
CD-
CT.N.5MM.02 40 2.2.4 05/07/2024
Referência: 27 / 45
Limites de Condição de Emergência de Longa Duração
Enrolamento 
(kV)
Valor
operacional (A)
Duração 
(Hh:mm) Fator limitante
230 1.356 04:00 -
500 624 04:00 -
Limites de Condição de Emergência de Curta Duração
Enrolamento 
(kV)
Valor
operacional (A)
Duração 
(Hh:mm) Fator limitante
230 1.581 00:30 -
500 727 00:30 -
5.10. SE JURUTI - AUTOTRANSFORMADOR (7AT01) 230/138 KV - 50 MVA
Limites de Condição Normal de Operação
Enrolamento (kV) Valor
operacional (A) Fator limitante
138 209 Capacidade nominal.
230 125 Capacidade nominal.
Limites de Condição de Emergência de Longa Duração
Enrolamento 
(kV)
Valor
operacional (A)
Duração 
(Hh:mm) Fator limitante
138 251 04:00 -
230 151 04:00 -
Limites de Condição de Emergência de Curta Duração
Enrolamento 
(kV)
Valor
operacional (A)
Duração 
(Hh:mm) Fator limitante
138 293 00:30 -
230 176 00:30 -
Manual de Procedimentos da Operação - Módulo 5 - Submódulo 5.11
 Cadastro de Informações Operacionais Código Revisão Item Vigência
CADASTRO DE LIMITES OPERACIONAIS DE LINHAS DE 
TRANSMISSÃO E TRANSFORMADORES DA ÁREA 
500/230 KV MANAUS-MACAPÁ
CD-
CT.N.5MM.02 40 2.2.4 05/07/2024
Referência: 28 / 45
5.11. SE JURUTI - AUTOTRANSFORMADOR (7AT02) 230/138 KV - 50 MVA
Limites de Condição Normal de Operação
Enrolamento (kV) Valor
operacional (A) Fator limitante
138 209 Capacidade nominal.
230 125 Capacidade nominal.
Limites de Condição de Emergência de Longa Duração
Enrolamento 
(kV)
Valor
operacional (A)
Duração 
(Hh:mm) Fator limitante
138 251 04:00 -
230 151 04:00 -
Limites de Condição de Emergência de Curta Duração
Enrolamento 
(kV)
Valor
operacional (A)
Duração 
(Hh:mm) Fator limitante
138 293 00:30 -
230 176 00:30 -
5.12. SE LARANJAL - AUTOTRANSFORMADOR (7TR01) 230/69/13,8 KV - 100 MVA
Limites de Condição Normal de Operação
Enrolamento (kV) Valor
operacional (A) Fator limitante
69 837 -
230 251 -
Limites de Condição de Emergência de Longa Duração
Enrolamento 
(kV)
Valor
operacional (A)
Duração 
(Hh:mm) Fator limitante
69 1.004 04:00 -
230 301 04:00 -
Manual de Procedimentos da Operação - Módulo 5 - Submódulo 5.11
 Cadastro de Informações Operacionais Código Revisão Item Vigência
CADASTRO DE LIMITES OPERACIONAIS DE LINHAS DE 
TRANSMISSÃO E TRANSFORMADORES DA ÁREA 
500/230 KV MANAUS-MACAPÁ
CD-
CT.N.5MM.02 40 2.2.4 05/07/2024
Referência: 29 / 45
Limites de Condição de Emergência de Curta Duração
Enrolamento 
(kV)
Valor
operacional (A)
Duração 
(Hh:mm) Fator limitante
69 1.171 00:30 -
230 351 00:30 -
5.13. SE LARANJAL - AUTOTRANSFORMADOR (7TR02) 230/69/13,8 KV - 100 MVA
Limites de Condição Normal de Operação
Enrolamento (kV) Valor
operacional (A) Fator limitante
69 837 -
230 251 -
Limites de Condição de Emergência de Longa Duração
Enrolamento 
(kV)
Valor
operacional (A)
Duração 
(Hh:mm) Fator limitante
69 1.004 04:00 -
230 301 04:00 -
Limites de Condição de Emergência de Curta Duração
Enrolamento 
(kV)
Valor
operacional (A)
Duração 
(Hh:mm) Fator limitante
69 1.171 00:30 -
230 351 00:30 -
5.14. SE LECHUGA - AUTOTRANSFORMADOR (LEAT6-01) 230/138/13,8 KV - 150 MVA
Limites de Condição Normal de Operação
Enrolamento (kV) Valor
operacional (A) Fator limitante
138 627 -
230 377 -
Manual de Procedimentos da Operação - Módulo 5 - Submódulo 5.11
 Cadastro de Informações Operacionais Código Revisão Item Vigência
CADASTRO DE LIMITES OPERACIONAIS DE LINHAS DE 
TRANSMISSÃO E TRANSFORMADORES DA ÁREA 
500/230 KV MANAUS-MACAPÁ
CD-
CT.N.5MM.02 40 2.2.4 05/07/2024
Referência: 30 / 45
Limites de Condição de Emergência de Longa Duração
Enrolamento 
(kV)
Valor
operacional (A)
Duração 
(Hh:mm) Fator limitante
138 752 04:00 -
230 452 04:00 -
Limites de Condição de Emergência de Curta Duração
Enrolamento 
(kV)
Valor
operacional (A)
Duração 
(Hh:mm) Fator limitante
138 878 00:30 -
230 527 00:30 -
5.15. SE LECHUGA - AUTOTRANSFORMADOR (LEAT6-02) 230/138/13,8 KV - 150 MVA
Limites de Condição Normal de Operação
Enrolamento (kV) Valor
operacional (A) Fator limitante
138 627 -
230 377 -
Limites de Condição de Emergência de Longa Duração
Enrolamento 
(kV)
Valor
operacional (A)
Duração 
(Hh:mm) Fator limitante
138 752 04:00 -
230 452 04:00 -
Limites de Condição de Emergência de Curta Duração
Enrolamento 
(kV)
Valor
operacional (A)
Duração 
(Hh:mm) Fator limitante
138 878 00:30 -
230 527 00:30 -
Manual de Procedimentos da Operação - Módulo 5 - Submódulo 5.11
 Cadastro de Informações Operacionais Código Revisão Item Vigência
CADASTRO DE LIMITES OPERACIONAIS DE LINHAS DE 
TRANSMISSÃO E TRANSFORMADORES DA ÁREA 
500/230 KV MANAUS-MACAPÁ
CD-
CT.N.5MM.02 40 2.2.4 05/07/2024
Referência: 31 / 45
5.16. SE LECHUGA - AUTOTRANSFORMADOR (LEAT6-03) 230/138/13,8 KV - 150 MVA
Limites de Condição Normal de Operação
Enrolamento (kV) Valor
operacional (A) Fator limitante
138 627 -
230 377 -
Limites de Condição de Emergência de Longa Duração
Enrolamento 
(kV)
Valor
operacional (A)
Duração 
(Hh:mm) Fator limitante
138 752 04:00 -
230 452 04:00 -
Limites de Condição de Emergência de Curta Duração
Enrolamento 
(kV)
Valor
operacional (A)
Duração 
(Hh:mm) Fator limitante
138 878 00:30 -
230 527 00:30 -
5.17. SE LECHUGA - AUTOTRANSFORMADOR (LEAT7-01) 500/230 KV - 600 MVA
Limites de Condição Normal de Operação
Enrolamento (kV) Valor
operacional (A) Fator limitante
230 1.508 -
500 693 -
Limites de Condição de Emergência de Longa Duração
Enrolamento 
(kV)
Valor
operacional (A)
Duração 
(Hh:mm) Fator limitante
230 1.960 04:00 -
500 901 04:00 -
Manual de Procedimentos da Operação - Módulo 5 - Submódulo 5.11
 Cadastro de Informações Operacionais Código Revisão Item Vigência
CADASTRO DE LIMITES OPERACIONAIS DE LINHAS DE 
TRANSMISSÃO E TRANSFORMADORES DA ÁREA 
500/230 KV MANAUS-MACAPÁ
CD-
CT.N.5MM.02 40 2.2.4 05/07/2024
Referência: 32 / 45
Limites de Condição de Emergência de Curta Duração
Enrolamento 
(kV)
Valor
operacional (A)
Duração 
(Hh:mm) Fator limitante
230 2.111 00:30 -
500 970 00:30 -
5.18. SE LECHUGA - AUTOTRANSFORMADOR (LEAT7-02) 500/230 KV - 600 MVA
Limites de Condição Normal de Operação
Enrolamento (kV) Valor
operacional (A) Fator limitante
230 1.508 -
500 693 -
Limites de Condição de Emergência de Longa Duração
Enrolamento 
(kV)
Valor
operacional (A)
Duração 
(Hh:mm) Fator limitante
230 1.960 04:00 -
500 901 04:00 -
Limites de Condição de Emergência de Curta Duração
Enrolamento 
(kV)
Valor
operacional (A)
Duração 
(Hh:mm) Fator limitante
230 2.111 00:30 -
500 970 00:30 -
5.19. SE LECHUGA - AUTOTRANSFORMADOR (LEAT7-03) 500/230 KV - 600 MVA
Limites de Condição Normal de Operação
Enrolamento (kV) Valor
operacional (A) Fator limitante
230 1.508 -
500 693 -
Manual de Procedimentos da Operação - Módulo 5 - Submódulo 5.11
 Cadastro de Informações Operacionais Código Revisão Item Vigência
CADASTRO DE LIMITES OPERACIONAIS DE LINHAS DE 
TRANSMISSÃO E TRANSFORMADORES DA ÁREA 
500/230 KV MANAUS-MACAPÁ
CD-
CT.N.5MM.02 40 2.2.4 05/07/2024
Referência: 33 / 45
Limites de Condição de Emergência de Longa Duração
Enrolamento 
(kV)
Valor
operacional (A)
Duração 
(Hh:mm) Fator limitante
230 1.960 04:00 -
500 901 04:00 -
Limites de Condição de Emergência de Curta Duração
Enrolamento 
(kV)
Valor
operacional (A)
Duração 
(Hh:mm) Fator limitante
230 2.111 00:30 -
500 970 00:30 -
5.20. SE MACAPÁ - AUTOTRANSFORMADOR (7TR01) 230/69/13,8 KV - 150 MVA
Limites de Condição Normal de Operação
Enrolamento (kV) Valor
operacional (A) Fator limitante
69 1.257 Capacidade Nominal.
230 377 Capacidade Nominal
Limites de Condição de Emergência de Longa Duração
Enrolamento 
(kV)
Valor
operacional (A)
Duração 
(Hh:mm) Fator limitante
69 1.507 04:00 -
230 452 04:00 -
Limites de Condição de Emergência de Curta Duração
Enrolamento 
(kV)
Valor
operacional (A)
Duração 
(Hh:mm) Fator limitante
69 1.757 0:30 -
230 527 0:30 -
Manual de Procedimentos da Operação - Módulo 5 - Submódulo 5.11
 Cadastro de Informações Operacionais Código Revisão Item Vigência
CADASTRO DE LIMITES OPERACIONAIS DE LINHAS DE 
TRANSMISSÃO E TRANSFORMADORES DA ÁREA 
500/230 KV MANAUS-MACAPÁ
CD-
CT.N.5MM.02 40 2.2.4 05/07/2024
Referência: 34 / 45
5.21. SE MACAPÁ - AUTOTRANSFORMADOR (7TR02) 230/69/13,8 KV - 150 MVA
Limites de Condição Normal de Operação
Enrolamento (kV) Valor
operacional (A) Fator limitante
69 1.257 Capacidade nominal.
230 377 Capacidade nominal.
Limites de Condição de Emergência de Longa Duração
Enrolamento 
(kV)
Valor
operacional (A)
Duração 
(Hh:mm) Fator limitante
69 1.507 04:00 .
230 452 04:00 .
Limites de Condição de Emergência de Curta Duração
Enrolamento 
(kV)
Valor
operacional (A)
Duração 
(Hh:mm) Fator limitante
69 1.757 00:30 .
230 527 00:30 .
5.22. SE MACAPÁ - AUTOTRANSFORMADOR (7TR03) 230/69/13,8 KV - 150 MVA
Limites de Condição Normal de Operação
Enrolamento (kV) Valor
operacional (A) Fator limitante
69 1.257 Capacidade nominal.
230 377 Capacidade nominal.
Limites de Condição de Emergência de Longa Duração
Enrolamento 
(kV)
Valor
operacional (A)
Duração 
(Hh:mm) Fator limitante
69 1.507 04:00 -
230 452 04:00 -
Manual de Procedimentos da Operação - Módulo 5 - Submódulo 5.11
 Cadastro de Informações Operacionais Código Revisão Item Vigência
CADASTRO DE LIMITES OPERACIONAIS DE LINHAS DE 
TRANSMISSÃO E TRANSFORMADORES DA ÁREA 
500/230 KV MANAUS-MACAPÁ
CD-
CT.N.5MM.02 40 2.2.4 05/07/2024
Referência: 35 / 45
Limites de Condição de Emergência de Curta Duração
Enrolamento 
(kV)
Valor
operacional (A)
Duração 
(Hh:mm) Fator limitante
69 1.757 00:30 -
230 527 00:30 -
5.23. SE MACAPÁ - AUTOTRANSFORMADOR (7TR04) 230/69/13,8 KV - 150 MVA
Limites de Condição Normal de Operação
Enrolamento (kV) Valor
operacional (A) Fator limitante
69 1.257 Capacidade Nominal.
230 377 Capacidade Nominal.
Limites de Condição de Emergência de Longa Duração
Enrolamento 
(kV)
Valor
operacional (A)
Duração 
(Hh:mm) Fator limitante
69 1.507 04:00 -
230 452 04:00 -
Limites de Condição de Emergência de Curta Duração
Enrolamento 
(kV)
Valor
operacional (A)
Duração 
(Hh:mm) Fator limitante
69 1.757 00:30 -
230 527 00:30 -
5.24. SE MANAUS - AUTOTRANSFORMADOR (MNTF6-01) 230/69/13,8 KV - 150 MVA
Limites de Condição Normal de Operação
Enrolamento (kV) Valor
operacional (A) Fator limitante
69 1.255 -
230 376 -
Manual de Procedimentos da Operação - Módulo 5 - Submódulo 5.11
 Cadastro de Informações Operacionais Código Revisão Item Vigência
CADASTRO DE LIMITES OPERACIONAIS DE LINHAS DE 
TRANSMISSÃO E TRANSFORMADORES DA ÁREA 
500/230 KV MANAUS-MACAPÁ
CD-
CT.N.5MM.02 40 2.2.4 05/07/2024
Referência: 36 / 45
Limites de Condição de Emergência de Longa Duração
Enrolamento 
(kV)
Valor
operacional (A)
Duração 
(Hh:mm) Fator limitante
69 1.255 04:00 -
230 376 04:00 -
Limites de Condição de Emergência de Curta Duração
Enrolamento 
(kV)
Valor
operacional (A)
Duração 
(Hh:mm) Fator limitante
69 1.255 00:30 -
230 376 00:30 -
5.25. SE MANAUS - AUTOTRANSFORMADOR (MNTF6-02) 230/69/13,8 KV - 150 MVA
Limites de Condição Normal de Operação
Enrolamento (kV) Valor
operacional (A) Fator limitante
69 1.255 -
230 376 -
Limites de Condição de Emergência de Longa Duração
Enrolamento 
(kV)
Valor
operacional (A)
Duração 
(Hh:mm) Fator limitante
69 1.255 04:00 -
230 376 04:00 -
Limites de Condição de Emergência de Curta Duração
Enrolamento 
(kV)
Valor
operacional (A)
Duração 
(Hh:mm) Fator limitante
69 1.255 00:30 -
230 376 00:30 -
Manual de Procedimentos da Operação - Módulo 5 - Submódulo 5.11
 Cadastro de Informações Operacionais Código Revisão Item Vigência
CADASTRO DE LIMITES OPERACIONAIS DE LINHAS DE 
TRANSMISSÃO E TRANSFORMADORES DA ÁREA 
500/230 KV MANAUS-MACAPÁ
CD-
CT.N.5MM.02 40 2.2.4 05/07/2024
Referência: 37 / 45
5.26. SE MANAUS - AUTOTRANSFORMADOR (MNTF6-03) 230/69/13,8 KV - 150 MVA
Limites de Condição Normal de Operação
Enrolamento (kV) Valor
operacional (A) Fator limitante
69 1.255 -
230 376 -
Limites de Condição de Emergência de Longa Duração
Enrolamento 
(kV)
Valor
operacional (A)
Duração 
(Hh:mm) Fator limitante
69 1.255 04:00 -
230 376 04:00 -
Limites de Condição de Emergência de Curta Duração
Enrolamento 
(kV)
Valor
operacional (A)
Duração 
(Hh:mm) Fator limitante
69 1.255 00:30 -
230 376 00:30 -
5.27. SE MANAUS - AUTOTRANSFORMADOR (MNTF6-04) 230/69/13,8 KV - 150 MVA
Limites de Condição Normal de Operação
Enrolamento (kV) Valor
operacional (A) Fator limitante
69 1.255 --
230 376 --
Limites de Condição de Emergência de Longa Duração
Enrolamento 
(kV)
Valor
operacional (A)
Duração 
(Hh:mm) Fator limitante
69 1.506 04:00 --
230 452 04:00 --
Manual de Procedimentos da Operação - Módulo 5 - Submódulo 5.11
 Cadastro de Informações Operacionais Código Revisão Item Vigência
CADASTRO DE LIMITES OPERACIONAIS DE LINHAS DE 
TRANSMISSÃO E TRANSFORMADORES DA ÁREA 
500/230 KV MANAUS-MACAPÁ
CD-
CT.N.5MM.02 40 2.2.4 05/07/2024
Referência: 38 / 45
Limites de Condição de Emergência de Curta Duração
Enrolamento 
(kV)
Valor
operacional (A)
Duração 
(Hh:mm) Fator limitante
69 1.757 00:30 --
230 527 00:30 --
5.28. SE MAUÁ III – AUTOTRANSFORMADOR (MTTF6-01) 230/138/13,8 KV - 150 MVA
Limites de Condição Normal de Operação
Enrolamento (kV) Valor
operacional (A) Fator limitante
138 628 -
230 377 -
Limites de Condição de Emergência de Longa Duração
Enrolamento 
(kV)
Valor
operacional (A)
Duração 
(Hh:mm) Fator limitante
138 753 04:00 -
230 452 04:00 -
Limites de Condição de Emergência de Curta Duração
Enrolamento 
(kV)
Valor
operacional (A)
Duração 
(Hh:mm) Fator limitante
138 879 00:30 -
230 527 00:30 -
5.29. SE MAUÁ III – AUTOTRANSFORMADOR (MTTF6-02) 230/138/13,8 KV - 150 MVA
Limites de Condição Normal de Operação
Enrolamento (kV) Valor
operacional (A) Fator limitante
138 628 -
230 377 -
Manual de Procedimentos da Operação - Módulo 5 - Submódulo 5.11
 Cadastro de Informações Operacionais Código Revisão Item Vigência
CADASTRO DE LIMITES OPERACIONAIS DE LINHAS DE 
TRANSMISSÃO E TRANSFORMADORES DA ÁREA 
500/230 KV MANAUS-MACAPÁ
CD-
CT.N.5MM.02 40 2.2.4 05/07/2024
Referência: 39 / 45
Limites de Condição de Emergência de Longa Duração
Enrolamento 
(kV)
Valor
operacional (A)
Duração 
(Hh:mm) Fator limitante
138 753 04:00 -
230 452 04:00 -
Limites de Condição de Emergência de Curta Duração
Enrolamento 
(kV)
Valor
operacional (A)
Duração 
(Hh:mm) Fator limitante
138 879 00:30 -
230 527 00:30 -
5.30. SE MAUÁ III – AUTOTRANSFORMADOR (MTTF6-03) 230/138/13,8 KV - 150 MVA
Limites de Condição Normal de Operação
Enrolamento (kV) Valor
operacional (A) Fator limitante
138 628 -
230 377 -
Limites de Condição de Emergência de Longa Duração
Enrolamento 
(kV)
Valor
operacional (A)
Duração 
(Hh:mm) Fator limitante
138 753 04:00 -
230 452 04:00 -
Limites de Condição de Emergência de Curta Duração
Enrolamento 
(kV)
Valor
operacional (A)
Duração 
(Hh:mm) Fator limitante
138 879 00:30 -
230 527 00:30 -
Manual de Procedimentos da Operação - Módulo 5 - Submódulo 5.11
 Cadastro de Informações Operacionais Código Revisão Item Vigência
CADASTRO DE LIMITES OPERACIONAIS DE LINHAS DE 
TRANSMISSÃO E TRANSFORMADORES DA ÁREA 
500/230 KV MANAUS-MACAPÁ
CD-
CT.N.5MM.02 40 2.2.4 05/07/2024
Referência: 40 / 45
5.31. SE MAUÁ III – AUTOTRANSFORMADOR (MTTF6-04) 230/138/13,8 KV - 150 MVA
Limites de Condição Normal de Operação
Enrolamento (kV) Valor
operacional (A) Fator limitante
138 628 -
230 377 -
Limites de Condição de Emergência de Longa Duração
Enrolamento 
(kV)
Valor
operacional (A)
Duração 
(Hh:mm) Fator limitante
138 753 04:00 -
230 452 04:00 -
Limites de Condição de Emergência de Curta Duração
Enrolamento 
(kV)
Valor
operacional (A)
Duração 
(Hh:mm) Fator limitante
138 879 00:30 -
230 527 00:30 -
5.32. SE MAUÁ III – AUTOTRANSFORMADOR (MTTF6-05) 230/138/13,8 KV - 150 MVA
Limites de Condição Normal de Operação
Enrolamento (kV) Valor
operacional (A) Fator limitante
138 627 -
230 376 -
Limites de Condição de Emergência de Longa Duração
Enrolamento 
(kV)
Valor
operacional (A)
Duração 
(Hh:mm) Fator limitante
138 753 04:00 -
230 451 04:00 -
Manual de Procedimentos da Operação - Módulo 5 - Submódulo 5.11
 Cadastro de Informações Operacionais Código Revisão Item Vigência
CADASTRO DE LIMITES OPERACIONAIS DE LINHAS DE 
TRANSMISSÃO E TRANSFORMADORES DA ÁREA 
500/230 KV MANAUS-MACAPÁ
CD-
CT.N.5MM.02 40 2.2.4 05/07/2024
Referência: 41 / 45
Limites de Condição de Emergência de Curta Duração
Enrolamento 
(kV)
Valor
operacional (A)
Duração 
(Hh:mm) Fator limitante
138 878 00:30 -
230 527 00:30 -
5.33. SE ORIXIMINÁ - AUTOTRANSFORMADOR (9AT01) 500/138 KV - 150 MVA
Limites de Condição Normal de Operação
Enrolamento (kV) Valor
operacional (A) Fator limitante
138 628 -
500 173 -
Limites de Condição de Emergência de Longa Duração
Enrolamento 
(kV)
Valor
operacional (A)
Duração 
(Hh:mm) Fator limitante
138 753 04:00 -
500 208 04:00 -
Limites de Condição de Emergência de Curta Duração
Enrolamento 
(kV)
Valor
operacional (A)
Duração 
(Hh:mm) Fator limitante
138 879 00:30 -
500 242 00:30 -
5.34. SE ORIXIMINÁ - AUTOTRANSFORMADOR (9AT03) 500/230 KV - 300 MVA
Limites de Condição Normal de Operação
Enrolamento (kV) Valor
operacional (A) Fator limitante
230 753 Capacidade nominal
500 346 Capacidade nominal.
Manual de Procedimentos da Operação - Módulo 5 - Submódulo 5.11
 Cadastro de Informações Operacionais Código Revisão Item Vigência
CADASTRO DE LIMITES OPERACIONAIS DE LINHAS DE 
TRANSMISSÃO E TRANSFORMADORES DA ÁREA 
500/230 KV MANAUS-MACAPÁ
CD-
CT.N.5MM.02 40 2.2.4 05/07/2024
Referência: 42 / 45
Limites de Condição de Emergência de Longa Duração
Enrolamento 
(kV)
Valor
operacional (A)
Duração 
(Hh:mm) Fator limitante
230 903 04:00 -
500 415 04:00 -
Limites de Condição de Emergência de Curta Duração
Enrolamento 
(kV)
Valor
operacional (A)
Duração 
(Hh:mm) Fator limitante
230 1.054 00:30 -
500 484 00:30 -
5.35. SE ORIXIMINÁ - AUTOTRANSFORMADOR (9AT04) 500/230 KV - 300 MVA
Limites de Condição Normal de Operação
Enrolamento (kV) Valor
operacional (A) Fator limitante
230 753 Capacidade nominal.
500 346 Capacidade nominal.
Limites de Condição de Emergência de Longa Duração
Enrolamento 
(kV)
Valor
operacional (A)
Duração 
(Hh:mm) Fator limitante
230 903 04:00 -
500 415 04:00 -
Limites de Condição de Emergência de Curta Duração
Enrolamento 
(kV)
Valor
operacional (A)
Duração 
(Hh:mm) Fator limitante
230 1.054 00:30 -
500 484 00:30 -
Manual de Procedimentos da Operação - Módulo 5 - Submódulo 5.11
 Cadastro de Informações Operacionais Código Revisão Item Vigência
CADASTRO DE LIMITES OPERACIONAIS DE LINHAS DE 
TRANSMISSÃO E TRANSFORMADORES DA ÁREA 
500/230 KV MANAUS-MACAPÁ
CD-
CT.N.5MM.02 40 2.2.4 05/07/2024
Referência: 43 / 45
5.36. SE PARINTINS- AUTOTRANSFORMADOR (7AT03) 230/138 KV - 100 MVA
Limites de Condição Normal de Operação
Enrolamento (kV) Valor
operacional (A) Fator limitante
138 418 Capacidade nominal
230 251 Capacidade nominal.
Limites de Condição de Emergência de Longa Duração
Enrolamento 
(kV)
Valor
operacional (A)
Duração 
(Hh:mm) Fator limitante
138 502 04:00 -
230 301 04:00 -
Limites de Condição de Emergência de Curta Duração
Enrolamento 
(kV)
Valor
operacional (A)
Duração 
(Hh:mm) Fator limitante
138 586 00:30 -
230 351 00:30 -
5.37. SE PARINTINS- AUTOTRANSFORMADOR (7AT04) 230/138 KV - 100 MVA
Limites de Condição Normal de Operação
Enrolamento (kV) Valor
operacional (A) Fator limitante
138 418 Capacidade nominal.
230 251 Capacidade nominal.
Limites de Condição de Emergência de Longa Duração
Enrolamento 
(kV)
Valor
operacional (A)
Duração 
(Hh:mm) Fator limitante
138 502 04:00 -
230 301 04:00 -
Manual de Procedimentos da Operação - Módulo 5 - Submódulo 5.11
 Cadastro de Informações Operacionais Código Revisão Item Vigência
CADASTRO DE LIMITES OPERACIONAIS DE LINHAS DE 
TRANSMISSÃO E TRANSFORMADORES DA ÁREA 
500/230 KV MANAUS-MACAPÁ
CD-
CT.N.5MM.02 40 2.2.4 05/07/2024
Referência: 44 / 45
Limites de Condição de Emergência de Curta Duração
Enrolamento 
(kV)
Valor
operacional (A)
Duração 
(Hh:mm) Fator limitante
138 586 00:30 -
230 351 00:30 -
5.38. SE PRESIDENTE FIGUEIREDO - TRANSFORMADOR 230/13,8 KV - 62,5 MVA
Limites de Condição Normal de Operação
Enrolamento (kV) Valor
operacional (A) Fator limitante
13,8 2.615 Capacidade nominal.
230 157 Capacidade nominal.
Limites de Condição de Emergência de Longa Duração
Enrolamento 
(kV)
Valor
operacional (A)
Duração 
(Hh:mm) Fator limitante
13,8 3.138 04:00 -
230 188 04:00 -
Limites de Condição de Emergência de Curta Duração
Enrolamento 
(kV)
Valor
operacional (A)
Duração 
(Hh:mm) Fator limitante
13,8 3.660 00:30 -
230 219 00:30 -
5.39. SE SILVES - AUTOTRANSFORMADOR (SIAT7-01) 500/138 KV - 150 MVA
Limites de Condição Normal de Operação
Enrolamento (kV) Valor
operacional (A) Fator limitante
138 627 -
500 173 -
Manual de Procedimentos da Operação - Módulo 5 - Submódulo 5.11
 Cadastro de Informações Operacionais Código Revisão Item Vigência
CADASTRO DE LIMITES OPERACIONAIS DE LINHAS DE 
TRANSMISSÃO E TRANSFORMADORES DA ÁREA 
500/230 KV MANAUS-MACAPÁ
CD-
CT.N.5MM.02 40 2.2.4 05/07/2024
Referência: 45 / 45
Limites de Condição de Emergência de Longa Duração
Enrolamento 
(kV)
Valor
operacional (A)
Duração 
(Hh:mm) Fator limitante
138 816 04:00 -
500 225 04:00 -
Limites de Condição de Emergência de Curta Duração
Enrolamento 
(kV)
Valor
operacional (A)
Duração 
(Hh:mm) Fator limitante
138 878 00:30 -
500 242 00:30 -
