 
 
Manual de Procedimentos da Operação 
Módulo 5 - Submódulo 5.11 
 
Cadastro de Informações Operacionais 
Cadastro de Dados Operacionais de Equipamentos da Interligação em Corrente Contínua 
de Xingu 
 
 
Código Revisão Item Vigência 
CD-CT.8XG.01 12 2.1.1. 08/07/2022 
 
. 
 
MOTIVO DA REVISÃO 
Alteração do item 5.2.1.1. 
LISTA DE DISTRIBUIÇÃO 
CNOS COSR-NCO COSR-SE LXTE 
BMTE NORTE ENERGIA SA PCTE 
(COS-STATE GRID) 
LTT 
(CELEO REDES) 
FURNAS XRTE   
 
Manual de Procedimentos da Operação - Módulo 5 - Submódulo 5.11 
 Cadastro de Informações Operacionais Código Revisão Item Vigência 
Cadastro de Dados Operacionais de Equipamentos da 
Interligação em Corrente Contínua de Xingu CD-CT.8XG.01 12 2.1.1. 08/07/2022 
 
Referência: Diagrama XRTE - XRTE-SE-GER-CP-002-0D 2 / 32 
 
 
ÍNDICE 
1. OBJETIVO ................................ ................................ ................................ ................................ ..... 4 
2. CONSIDERAÇÕES GERAIS ................................ ................................ ................................ .............. 4 
3. DADOS OPERACIONAIS DE LINHAS DE TRANSMISSÃO ................................ ................................ .... 4 
3.1. LT 800 kV Xingu / Estreito C1 e C2 ................................................................................................. 5 
3.2. LT 800 kV Xingu / Terminal Rio C1 e C2 ......................................................................................... 6 
3.3. Linha de eletrodo do Bipolo Xingu / Estreito da SE Xingu C1 e C2 ................................................ 6 
3.4. Linha de eletrodo do Bipolo Xingu / Estreito da SE Estreito C1 e C2 ............................................ 7 
3.5. Linha de eletrodo do Bipolo Xingu / Terminal Rio da SE Xingu C1 e C2 ........................................ 7 
3.6. Linha de eletrodo do Bipolo Xingu / Terminal Rio da SE Terminal Rio C1 e C2............................. 7 
4. DADOS OPERACIONAIS DE TRANSFORMADORES ................................ ................................ ........... 8 
4.1. DADOS OPERACIONAIS DE TRANSFORMADORES DO BIPOLO XINGU / ESTREITO ........................ 8 
4.1.1. SE Xingu - Transformador conversor do polo 1 1T01 de 500/335,7 kV - 1188 MVA .. 8 
4.1.2. SE Xingu - Transformador conversor do polo 1 1T02 de 500/335,7 kV - 1188 MVA .. 9 
4.1.3. SE Xingu - Transformador conversor do polo 2 2T01 de 500/335,7 kV - 1188 MVA .. 9 
4.1.4. SE Xingu - Transformador conversor do polo 2 2T02 de 500/335,7 kV - 1188 MVA .. 9 
4.1.5. SE Estreito - Transformador conversor do polo 1 1T01 de 500/329,5 kV – 1165 MVA10 
4.1.6. SE Estreito - Transformador conversor do polo 1 1T02 de 500/329,5 kV – 1165 MVA10 
4.1.7. SE Estreito - Transformador conversor do polo 1 2T01 de 500/329,5 kV – 1165 MVA11 
4.1.8. SE Estreito - Transformador conversor do polo 1 2T02 de 500/329,5 kV – 1165 MVA11 
4.2. DADOS OPERACIONAIS DE TRANSFORMADORES DO BIPOLO XINGU / TERMINAL RIO ............. 12 
4.2.1. SE Xingu - Transformador conversor do polo 1 XR1T01 de 500/336,7 kV – 1190,6 MVA12 
4.2.2. SE Xingu - Transformador conversor do polo 1 XR1T02 de 500/336,7 kV – 1190,5 MVA12 
4.2.3. SE Xingu - Transformador conversor do polo 2 XR2T01 de 500/336,7 kV – 1190,6 MVA12 
4.2.4. SE Xingu - Transformador conversor do polo 2 XR2T02 de 500/336,7 kV – 1190,5 MVA13 
4.2.5. SE Terminal Rio - Transformador conversor do polo 1 1T01 de 500/330,9 kV – 1169 MVA13 
4.2.6. SE Terminal Rio - Transformador conversor do polo 1 1T02 de 500/330,9 kV – 1169 MVA14 
4.2.7. SE Terminal Rio - Transformador conversor do polo 2 2T01 de 500/330,9 kV – 1169 MVA14 
4.2.8. SE Terminal Rio - Transformador conversor do polo 2 2T02 de 500/330,9 kV – 1169 MVA14 
5. DADOS OPERACIONAIS DE SISTEMAS HVDC................................ ................................ ................. 15 
5.1. BIPOLO XINGU / ESTREITO........................................................................................................... 15 
5.1.1. SE Xingu – Conversores e Filtros ................................................................................ 15 
5.1.2. SE Estreito – Conversores e Filtros ............................................................................ 16 
5.1.3. Controle de Bipolo ..................................................................................................... 17 
5.1.4. Controle de Polo ........................................................................................................ 18 
Manual de Procedimentos da Operação - Módulo 5 - Submódulo 5.11 
 Cadastro de Informações Operacionais Código Revisão Item Vigência 
Cadastro de Dados Operacionais de Equipamentos da 
Interligação em Corrente Contínua de Xingu CD-CT.8XG.01 12 2.1.1. 08/07/2022 
 
Referência: Diagrama XRTE - XRTE-SE-GER-CP-002-0D 3 / 32 
 
 
5.1.5. Controle dos Conversores ......................................................................................... 18 
5.1.6. Funções de Limitaçãoda Corrente de Polo ................................................................ 19 
5.1.7. Compensação da Margem de Corrente (CMC) ......................................................... 25 
5.1.8. Calculador da Capacidade de Potência do Polo ........................................................ 25 
5.1.9. Coordenação das Ordens de Corrente dos Polos (PCOC) ......................................... 26 
5.1.10. Modo de operação em tensão reduzida ................................................................... 26 
5.1.11. Controle da Tensão CC - DCV ..................................................................................... 26 
5.1.12. Detecção de baixo nível de curto-circuito ................................................................. 26 
5.1.13. Controle de TAP ......................................................................................................... 27 
5.1.14. Demais Funções No Nível De Polo ............................................................................. 27 
5.1.15. Sistemas de Comunicação entre as Estações ............................................................ 28 
5.2. BIPOLO XINGU / TERMINAL RIO .................................................................................................. 29 
5.2.1. SE Xingu – Conversores e Filtros ................................................................................ 29 
5.2.2. SE Terminal Rio – Conversores e Filtros .................................................................... 30 
5.2.3. Controle de Bipolo ..................................................................................................... 31 
5.2.4. Controle de Polo ........................................................................................................ 31 
5.2.5. Controle de Conversor ............................................................................................... 32 
  
Manual de Procedimentos da Operação - Módulo 5 - Submódulo 5.11 
 Cadastro de Informações Operacionais Código Revisão Item Vigência 
Cadastro de Dados Operacionais de Equipamentos da 
Interligação em Corrente Contínua de Xingu CD-CT.8XG.01 12 2.1.1. 08/07/2022 
 
Referência: Diagrama XRTE - XRTE-SE-GER-CP-002-0D 4 / 32 
 
 
1. OBJETIVO 
Apresentar os Dados Operacionais de Equipamentos da Interligação em Corrente Contínua de Xingu, a serem 
observados pelos operadores dos Centros de Operação do ONS e pela Operação dos Agentes envolvidos, de 
acordo com os Procedimentos de Rede.  
2. CONSIDERAÇÕES GERAIS 
2.1. Os dados de linhas de transmissão e equipamentos da Rede de Operação constantes neste Cadastro 
de Informações Operacionais devem ser observados pelos Centros de Operação do ONS para as ações 
de coordenação, supervisão e controle da operação, assim com o pelos Agentes para as ações de 
comando e execução.  
2.1.  As limitações técnicas para tentativas de religamento de equipamentos contidas neste documento 
têm caráter operacional. Poderão ser utilizadas para apuração da qualidade do serviço público de 
transmissão de energia elétrica (apuração de parcela variável)  o valor do “Tempo para energização 
após desligamento” de cada equipamento, desde que sejam atendidos os critérios estabelecidos na 
regulação vigente. 
3. DADOS OPERACIONAIS DE LINHAS DE TRANSMISSÃO 
Orientações sobre os dados operacionais de linhas de transmissão:  
Campo “Religamento Automático”:  
• Campo “Tipo”: indica o tipo de religamento utilizado em operação normal: monopolar, tripolar ou 
monopolar / tripolar; caso não exista religamento instalado, o campo é preenchido com “NE” – não 
existe. 
• Campo “Situação”: indica se o religamento está ligado ou desligado em operação normal; caso não 
exista religamento instalado, o campo é preenchido com “NE” – não existe. 
• Campo “Sentido”: para religamentos tripolares, indica em primeiro lugar a instalação onde se dá o 
fechamento inicial (terminal líder), e após a seta, a instalação de fechamento final (terminal 
seguidor); para religamentos monopolares ou caso não exista religamento instalado, o campo é 
preenchido com hifens (---). 
• Campo “Ajustes”: indica os ajustes de tempo morto, diferença de tensão, defasagem angular e 
diferença de frequência instalados para a função de verificação de sincronismo para o religamento 
automático; caso não exista religamento automático instalado, o campo é preenchido com hifens 
(---). 
Campo “LT em Mesma Estrutura”: apresenta o nome da LT que compartilha estrutura, e quando disponível, 
a informação da extensão do trecho de compartilhamento e da quantidade de torres compartilhadas; caso 
não exista, o campo é preenchido com “NE” – não existe.  
Não deve ser considerado o compartilhamento de estrutura caso esse seja apenas na chegada as subestações 
envolvidas. 
Campo “LT em Mesma Faixa de Passagem ”: apresenta o nome da LT que compartilha a mesma faixa de 
passagem, e quando disponível, a informação da extensão do trecho de compartilhamento; caso não exista, 
o campo é preenchido com “NE” – não existe. 
Não deve ser considerado o compartilhamento de faixa de passagem caso esse seja apenas na chegada as 
subestações envolvidas.  
Campo “Religamentos Manuais”:  
Manual de Procedimentos da Operação - Módulo 5 - Submódulo 5.11 
 Cadastro de Informações Operacionais Código Revisão Item Vigência 
Cadastro de Dados Operacionais de Equipamentos da 
Interligação em Corrente Contínua de Xingu CD-CT.8XG.01 12 2.1.1. 08/07/2022 
 
Referência: Diagrama XRTE - XRTE-SE-GER-CP-002-0D 5 / 32 
 
 
• Campo “Quantidade de Tentativas”: indica quantos religamentos (ou tentativas de religamento) 
manuais são permitidos pelo Agente. 
• Campo “Intervalo entre os Religamentos (min)”: é o intervalo de tempo entre os religamentos, em 
minutos, a ser considerado entre a tentativa de fechamento não-bem-sucedida anterior (incluindo 
o religamento automático) e o novo fechamento do disjuntor. 
• Campo “ Dispositivo de Sincronismo ”: indica os terminais onde esses estão instalados e em 
funcionamento. Dispositivo de Sincronismo é o equipamento utilizado para verificação das 
condições de fechamento em anel ou paralelo entre dois pontos elétricos; caso não exista, o campo 
é preenchido com “NE” – não existe. Se em algum disjuntor do terminal não houver o dispositivo 
de sincronismo essa informação deve ser destacada. 
• Campo “ Ajustes”: indica os ajustes de diferença de tensão, defasagem angular e diferença de 
frequência instalados para a função de verificação de sincronismo para o religamento manual de 
cada terminal; caso não exista dispositivo de sincronismo, o campo é preenchido com hifens (---). 
Campo “ Notas / Restrições ”: campo opcional que  indica informações relevantes a respeito da linha de 
transmissão. 
Caso os dados operacionais não sejam informados pelo Agente, os campos são preenchidos com “NI” – não 
informado. 
3.1. LT 800 KV XINGU / ESTREITO C1 E C2 
Religamento Automático 
LT em Mesma 
Estrutura 
LT em Mesma Faixa 
de Passagem Tipo Situação Sentido Ajustes 
--- Ligado --- --- C1 e C2 C1 e C2 
Notas / Restrições: 
Uma (01) tentativa com tensão normal (800 kV) e uma (01) tentativa com tensão reduzida (560 kV). 
O tempo morto da 1ª tentativa é 150 ms e da 2ª é 200 ms. 
O religamento será inibido automaticamente: 
• quando de sua operação em configuração monopolar (retorno pela terra ou retorno metálico); 
• no polo remanescente, quando de perda de qualquer de seus polos; 
• no polo em tensão normal, quando de operação em tensão reduzida no outro polo; 
• em ambos os polos, quando ambos estiverem com tensão reduzida; 
• no polo com comunicação íntegra entre as estações retificadora e inversora, quando o outro polo 
estiver sem comunicação entre suas estações terminais; 
• em ambos os polos, quando ambos estiverem sem comunicação entre as estações retificadora e 
inversora. 
 
Religamento Manual 
Sentido Quantidade de 
Tentativas 
Intervalo entre os 
religamentos (minutos) 
Dispositivo de 
sincronismo Ajustes 
--- --- --- --- --- 
 
Manual de Procedimentos da Operação - Módulo 5 - Submódulo 5.11 
 Cadastro de Informações Operacionais Código Revisão Item Vigência 
Cadastro de Dados Operacionais de Equipamentos da 
Interligação em Corrente Contínua de Xingu CD-CT.8XG.01 12 2.1.1. 08/07/2022 
 
Referência: Diagrama XRTE - XRTE-SE-GER-CP-002-0D 6 / 32 
 
 
3.2. LT 800 KV XINGU / TERMINAL RIO C1 E C2 
Religamento Automático 
LT em Mesma 
Estrutura 
LT em Mesma Faixa 
de Passagem Tipo Situação Sentido Ajustes 
--- Ligado --- --- C1 e C2 C1 e C2 
Notas / Restrições: 
Uma (01) tentativa com tensão normal (800 kV) e uma (01) tentativa com tensão reduzida (560 kV). 
O tempo morto da 1ª tentativa é 150 ms e da 2ª é 200 ms. 
O religamento será inibido automaticamente: 
• quando de sua operação em configuração monopolar (retorno pela terra ou retorno metálico); 
• no polo remanescente, quando de perda de qualquer de seus polos; 
• no polo em tensão normal, quando de operação em tensão reduzida no outro polo; 
• em ambos os polos, quando ambos estiverem com tensão reduzida; 
• estando um dos polos em controle bipolar de potência (BPC), quando o outro polo estiver 
operando em controle de potência de polo (PPC). 
• no polo com comunicação íntegra entre as estações retificadora e inversora, quando o outro polo 
estiver sem comunicação entre suas estações terminais; 
• em ambos os polos, quando ambos estiverem sem comunicação entre as estações retificadora e 
inversora. 
 
Religamento Manual 
Sentido Quantidade de 
Tentativas 
Intervalo entre os 
religamentos (minutos) 
Dispositivo de 
sincronismo Ajustes 
--- --- --- --- --- 
3.3. LINHA DE ELETRODO DO BIPOLO XINGU / ESTREITO DA SE XINGU C1 E C2 
Religamento Automático 
LT em Mesma 
Estrutura 
LT em Mesma Faixa 
de Passagem Tipo Situação Sentido Ajustes 
NE NE --- --- C1 e C2 C1 e C2 
 
Religamento Manual 
Sentido Quantidade de 
Tentativas 
Intervalo entre os 
religamentos (minutos) 
Dispositivo de 
sincronismo Ajustes 
--- --- --- --- --- 
Manual de Procedimentos da Operação - Módulo 5 - Submódulo 5.11 
 Cadastro de Informações Operacionais Código Revisão Item Vigência 
Cadastro de Dados Operacionais de Equipamentos da 
Interligação em Corrente Contínua de Xingu CD-CT.8XG.01 12 2.1.1. 08/07/2022 
 
Referência: Diagrama XRTE - XRTE-SE-GER-CP-002-0D 7 / 32 
 
 
3.4. LINHA DE ELETRODO DO BIPOLO XINGU / ESTREITO DA SE ESTREITO C1 E C2 
Religamento Automático 
LT em Mesma 
Estrutura 
LT em Mesma Faixa 
de Passagem Tipo Situação Sentido Ajustes 
NE NE --- --- C1 e C2 C1 e C2 
 
Religamento Manual 
Sentido Quantidade de 
Tentativas 
Intervalo entre os 
religamentos (minutos) 
Dispositivo de 
sincronismo Ajustes 
--- --- --- --- --- 
3.5. LINHA DE ELETRODO DO BIPOLO XINGU / TERMINAL RIO DA SE XINGU C1 E C2 
Religamento Automático 
LT em Mesma 
Estrutura 
LT em Mesma Faixa 
de Passagem Tipo Situação Sentido Ajustes 
NE NE --- --- C1 e C2 C1 e C2 
 
Religamento Manual 
Sentido Quantidade de 
Tentativas 
Intervalo entre os 
religamentos (minutos) 
Dispositivo de 
sincronismo Ajustes 
--- --- --- --- --- 
3.6. LINHA DE ELETRODO DO BIPOLO XINGU / TERMINAL RIO DA SE TERMINAL RIO C1 E C2 
Religamento Automático 
LT em Mesma 
Estrutura 
LT em Mesma Faixa 
de Passagem Tipo Situação Sentido Ajustes 
NE NE --- --- C1 e C2 C1 e C2 
 
Religamento Manual 
Sentido Quantidade de 
Tentativas 
Intervalo entre os 
religamentos (minutos) 
Dispositivo de 
sincronismo Ajustes 
--- --- --- --- --- 
 
 
  
Manual de Procedimentos da Operação - Módulo 5 - Submódulo 5.11 
 Cadastro de Informações Operacionais Código Revisão Item Vigência 
Cadastro de Dados Operacionais de Equipamentos da 
Interligação em Corrente Contínua de Xingu CD-CT.8XG.01 12 2.1.1. 08/07/2022 
 
Referência: Diagrama XRTE - XRTE-SE-GER-CP-002-0D 8 / 32 
 
 
4. DADOS OPERACIONAIS DE TRANSFORMADORES 
Orientações sobre os dados operacionais de transformadores: 
Campo “ Dispositivo de Sincronismo ”: indica os terminais onde estão instalados e em funcionamento . 
Dispositivo de Sincronismo é o equipamento utilizado para verificação das condições de fechamento em anel 
ou paralelo entre dois pontos elétricos, o campo é preenchido com “NE” – não existe. Se em algum disjuntor 
do terminal não houver o dispositivo de sincronismo essa informação deve ser destacada. 
Campo “Ajustes”: indica os ajustes de diferença de tensão, defasagem angular e diferença de frequência 
instalados para a função de verificação de sincronismo para o religamento manual de cada terminal;  caso 
não exista dispositivo de sincronismo, o campo é preenchido com hifens (---). 
Campo “Características dos Comutadores”:  
• Campo “Comutador sob carga”: indica o número de posições associando a tensão correspondente 
à identificação das posições mínima, máxima e nominal, bem como a variação de tensão entre cada 
posição, conforme os dados de placa do transformador. Caso os números das posições dos dados 
de placa do transformador sejam diferentes dos números das posições utilizadas no Sistema de 
Supervisão e Controle, incluir, além das posições dos dados de placa, também as posições utilizadas 
no SSC. Caso não exista comutador sob carga no transformador, o campo é preenchido com “NE” 
– não existe. 
• Campo “ Comutador em Vazio ”: indica as posições do comutador em vazio com os respectivos 
valores de tensão e sua posição em serviço. Caso não exista comutador em vazio no transformador, 
o campo é preenchido com “NE” – não existe. 
Campo “ Notas / Restrições ”: campo opcional que  indica informações relevantes a respeito do 
transformador. 
Caso os dados operacionais não sejam informados pelo Agente, os campos são preenchidos com “NI” – não 
informado. 
4.1. DADOS OPERACIONAIS DE TRANSFORMADORES DO BIPOLO XINGU / ESTREITO 
4.1.1. SE XINGU - TRANSFORMADOR CONVERSOR DO POLO 1 1T01 DE 500/335,7 KV - 1188 MVA 
Dispositivo de 
Sincronismo Ajustes 
Características dos Comutadores 
Comutador sob Carga Comutador em Vazio 
NE --- 
1 = 340,18 kV / 475 kV 
.... 
6 = 335,7 kV / 500 kV 
... 
11 = 335,7 kV / 531,25 kV 
... 
13 = 335,7 kV / 543,75 kV 
... 
26 = 295,42 kV / 550 kV 
Tape único 
Notas / Restrições:  
O controle de TAP auta de forma automática,  controla a tensão do bipolo visando manter a potência 
transmitida no valor pré-determinado e o ângulo de disparo dentro da faixa normal de operação. 
Posição 26: Posição do TAP na energização do transformador. 
Posição 13: Posição do TAP no desbloqueio do terminal retificador. 
Posição 11: Posição do TAP no desbloqueio do terminal inversor. 
Manual de Procedimentos da Operação - Módulo 5 - Submódulo 5.11 
 Cadastro de Informações Operacionais Código Revisão Item Vigência 
Cadastro de Dados Operacionais de Equipamentos da 
Interligação em Corrente Contínua de Xingu CD-CT.8XG.01 12 2.1.1. 08/07/2022 
 
Referência: Diagrama XRTE - XRTE-SE-GER-CP-002-0D 9 / 32 
 
 
4.1.2. SE XINGU - TRANSFORMADOR CONVERSOR DO POLO 1 1T02 DE 500/335,7 KV - 1188 MVA 
Dispositivo de 
Sincronismo Ajustes 
Características dos Comutadores 
Comutador sob Carga Comutador em Vazio 
NE --- 
1 = 340,18 kV / 475 kV 
.... 
6 = 335,7 kV / 500 kV 
... 
11 = 335,7 kV / 531,25 kV 
... 
13 = 335,7 kV / 543,75 kV 
... 
26 = 295,42 kV / 550 kV 
Tape único 
Notas / Restrições: 
O controle de TAP auta de forma automática, controla a tensão do bipolo visando manter a potência 
transmitida no valor pré-determinado e o ângulo de disparo dentro da faixa normal de operação. 
Posição 26: Posição do TAP na energização do transformador. 
Posição 13: Posição do TAP no desbloqueio do terminal retificador. 
Posição 11: Posição do TAP no desbloqueio do terminal inversor. 
4.1.3. SE XINGU - TRANSFORMADOR CONVERSOR DO POLO 2 2T01 DE 500/335,7 KV - 1188 MVA 
Dispositivo de 
Sincronismo Ajustes 
Características dos Comutadores 
Comutador sob Carga Comutador em Vazio 
NE --- 
1 = 340,18 kV / 475 kV 
.... 
6 = 335,7 kV / 500 kV 
... 
11 = 335,7 kV / 531,25 kV 
... 
13 = 335,7 kV / 543,75 kV 
... 
26 = 295,42 kV / 550 kV 
Tape único 
Notas / Restrições: 
O controle de TAP auta de forma automática,  controla a tensão do bipolo visando manter a potência 
transmitida no valor pré-determinado e o ângulo de disparo dentro da faixa normal de operação. 
Posição 26: Posição do TAP na energização do transformador. 
Posição 13: Posição do TAP no desbloqueio do terminal retificador. 
Posição 11: Posição do TAP no desbloqueio do terminal inversor. 
4.1.4. SE XINGU - TRANSFORMADOR CONVERSOR DO POLO 2 2T02 DE 500/335,7 KV - 1188 MVA 
Dispositivo de 
Sincronismo Ajustes 
Características dos Comutadores 
Comutador sob Carga Comutador em Vazio 
NE --- 
1 = 340,18 kV / 475 kV 
.... 
6 = 335,7 kV / 500 kV 
Tape único 
Manual de Procedimentos da Operação - Módulo 5 - Submódulo 5.11 
 Cadastro de Informações Operacionais Código Revisão Item Vigência 
Cadastro de Dados Operacionais de Equipamentos da 
Interligação em Corrente Contínua de Xingu CD-CT.8XG.01 12 2.1.1. 08/07/2022 
 
Referência: Diagrama XRTE - XRTE-SE-GER-CP-002-0D 10 / 32 
 
 
Dispositivo de 
Sincronismo Ajustes 
Características dos Comutadores 
Comutador sob Carga Comutador em Vazio 
... 
11 = 335,7 kV / 531,25 kV 
... 
13 = 335,7 kV / 543,75 kV 
... 
26 = 295,42 kV / 550 kV 
Notas / Restrições: 
O controle de TAP auta de forma automática,  controla a tensão do bipolo visando manter a potência 
transmitida no valor pré-determinado e o ângulo de disparo dentro da faixa normal de operação. 
Posição 26: Posição do TAP na energização do transformador. 
Posição 13: Posição do TAP no desbloqueio do terminal retificador. 
Posição 11: Posição do TAP no desbloqueio do terminal inversor. 
4.1.5. SE ESTREITO - TRANSFORMADOR CONVERSOR DO POLO 1 1T01 DE 500/329,5 KV – 1165 MVA 
Dispositivo de 
Sincronismo Ajustes 
Características dos Comutadores 
Comutador sob Carga Comutador em Vazio 
NE --- 
1 = 333,89 kV / 475 kV 
... 
6 = 329,5 kV / 500 kV 
... 
10 = 329,5 kV / 525 kV 
11 = 329,5 kV / 531,25 
... 
26 = 289,96 kV / 550 kV 
Tape único 
Notas / Restrições: O controle de TAP auta de forma automática,  controla a tensão do bipolo visando 
manter a potência transmitida no valor pré-determinado e o ângulo de disparo dentro da faixa normal de 
operação. 
Posição 26: Posição do TAP na energização do transformador. 
Posição 11: Posição do TAP no desbloqueio do terminal retificador. 
Posição 10: Posição do TAP no desbloqueio do terminal inversor. 
4.1.6. SE ESTREITO - TRANSFORMADOR CONVERSOR DO POLO 1 1T02 DE 500/329,5 KV – 1165 MVA 
Dispositivo de 
Sincronismo Ajustes 
Características dos Comutadores 
Comutador sob Carga Comutador em Vazio 
NE --- 
1 = 333,89 kV / 475 kV 
... 
6 = 329,5 kV / 500 kV 
... 
10 = 329,5 kV / 525 kV 
11 = 329,5 kV / 531,25 
... 
26 = 289,96 kV / 550 kV 
Tape único 
Manual de Procedimentos da Operação - Módulo 5 - Submódulo 5.11 
 Cadastro de Informações Operacionais Código Revisão Item Vigência 
Cadastro de Dados Operacionais de Equipamentos da 
Interligação em Corrente Contínua de Xingu CD-CT.8XG.01 12 2.1.1. 08/07/2022 
 
Referência: Diagrama XRTE - XRTE-SE-GER-CP-002-0D 11 / 32 
 
 
Dispositivo de 
Sincronismo Ajustes 
Características dos Comutadores 
Comutador sob Carga Comutador em Vazio 
Notas / Restrições: 
O controle de TAP auta de forma automática,  controla a tensão do bipolo visando manter a potência 
transmitida no valor pré-determinado e o ângulo de disparo dentro da faixa normal de operação. 
Posição 26: Posição do TAP na energização do transformador. 
Posição 11: Posição do TAP no desbloqueio do terminal retificador. 
Posição 10: Posição do TAP no desbloqueio do terminal inversor. 
4.1.7. SE ESTREITO - TRANSFORMADOR CONVERSOR DO POLO 1 2T01 DE 500/329,5 KV – 1165 MVA 
Dispositivo de 
Sincronismo Ajustes 
Características dos Comutadores 
Comutador sob Carga Comutador em Vazio 
NE --- 
1 = 333,89 kV / 475 kV 
... 
6 = 329,5 kV / 500 kV 
... 
10 = 329,5 kV / 525 kV 
11 = 329,5 kV / 531,25 
... 
26 = 289,96 kV / 550 kV 
Tape único 
Notas / Restrições: 
O controle de TAP auta de forma automática,  controla a tensão do bipolo visando manter a potência 
transmitida no valor pré-determinado e o ângulo de disparo dentro da faixa normal de operação. 
Posição 26: Posição do TAP na energização do transformador. 
Posição 11: Posição do TAP no desbloqueio do terminal retificador. 
Posição 10: Posição do TAP no desbloqueio do terminal inversor. 
4.1.8. SE ESTREITO - TRANSFORMADOR CONVERSOR DO POLO 1 2T02 DE 500/329,5 KV – 1165 MVA 
Dispositivo de 
Sincronismo Ajustes 
Características dos Comutadores 
Comutador sob Carga Comutador em Vazio 
NE --- 
1 = 333,89 kV / 475 kV 
... 
6 = 329,5 kV / 500 kV 
... 
10 = 329,5 kV / 525 kV 
11 = 329,5 kV / 531,25 
... 
26 = 289,96 kV / 550 kV 
Tape único 
Notas / Restrições: 
O controle de TAP auta de forma automática,  controla a tensão do bipolo visando manter a potência 
transmitida no valor pré-determinado e o ângulo de disparo dentro da faixa normal de operação. 
Posição 26: Posição do TAP na energização do transformador. 
Posição 11: Posição do TAP no desbloqueio do terminal retificador. 
Posição 10: Posição do TAP no desbloqueio do terminal inversor. 
 
Manual de Procedimentos da Operação - Módulo 5 - Submódulo 5.11 
 Cadastro de Informações Operacionais Código Revisão Item Vigência 
Cadastro de Dados Operacionais de Equipamentos da 
Interligação em Corrente Contínua de Xingu CD-CT.8XG.01 12 2.1.1. 08/07/2022 
 
Referência: Diagrama XRTE - XRTE-SE-GER-CP-002-0D 12 / 32 
 
 
4.2. DADOS OPERACIONAIS DE TRANSFORMADORES DO BIPOLO XINGU / TERMINAL RIO 
4.2.1. SE XINGU - TRANSFORMADOR CONVERSOR DO POLO 1 XR1T01 DE 500/336,7 KV – 1190,6 MVA 
Dispositivo de 
Sincronismo Ajustes 
Características dos Comutadores 
Comutador sob Carga Comutador em Vazio 
NE --- 
1 = 279,54 kV / 550 kV 
... 
14 = 321,31 kV / 550 kV 
... 
17 = 332,78 kV / 550 kV 
... 
31 = 344,88 kV / 475 kV 
Tape único 
Notas / Restrições:  
O controle de TAP auta de forma automática. 
Na estaçao retificadora no modo de controle de ângulo de disparo. 
Na estaçao inversora no modo de controle de tensão. 
Posição 1: Posição do TAP na energização do transformador. 
Posição 14: Posição do TAP no desbloqueio. 
4.2.2. SE XINGU - TRANSFORMADOR CONVERSOR DO POLO 1 XR1T02 DE 500/336,7 KV – 1190,5 MVA 
Dispositivo de 
Sincronismo Ajustes 
Características dos Comutadores 
Comutador sob Carga Comutador em Vazio 
NE --- 
1 = 279,54 kV / 550 kV 
... 
14 = 321,31 kV / 550 kV 
... 
17 = 332,78 kV / 550 kV 
... 
31 = 344,88 kV / 475 kV 
Tape único 
Notas / Restrições: 
O controle de TAP auta de forma automática. 
Na estaçao retificadora no modo de controle de ângulo de disparo. 
Na estaçao inversora no modo de controle de tensão. 
Posição 1: Posição do TAP na energização do transformador. 
Posição 14: Posição do TAP no desbloqueio. 
4.2.3. SE XINGU - TRANSFORMADOR CONVERSOR DO POLO 2 XR2T01 DE 500/336,7 KV – 1190,6 MVA 
Dispositivo de 
Sincronismo Ajustes 
Características dos Comutadores 
Comutador sob Carga Comutador em Vazio 
NE --- 
1 = 279,54 kV / 550 kV 
... 
14 = 321,31 kV / 550 kV 
... 
17 = 332,78 kV / 550 kV 
Tape único 
Manual de Procedimentos da Operação - Módulo 5 - Submódulo 5.11 
 Cadastro de Informações Operacionais Código Revisão Item Vigência 
Cadastro de Dados Operacionais de Equipamentos da 
Interligação em Corrente Contínua de Xingu CD-CT.8XG.01 12 2.1.1. 08/07/2022 
 
Referência: Diagrama XRTE - XRTE-SE-GER-CP-002-0D 13 / 32 
 
 
Dispositivo de 
Sincronismo Ajustes 
Características dos Comutadores 
Comutador sob Carga Comutador em Vazio 
... 
31 = 344,88 kV / 475 kV 
Notas / Restrições:  
O controle de TAP auta de forma automática. 
Na estaçao retificadora no modo de controle de ângulo de disparo. 
Na estaçao inversora no modo de controle de tensão. 
Posição 1: Posição do TAP na energização do transformador. 
Posição 14: Posição do TAP no desbloqueio. 
4.2.4. SE XINGU - TRANSFORMADOR CONVERSOR DO POLO 2 XR2T02 DE 500/336,7 KV – 1190,5 MVA 
Dispositivo de 
Sincronismo Ajustes 
Características dos Comutadores 
Comutador sob Carga Comutador em Vazio 
NE --- 
1 = 279,54 kV / 550 kV 
... 
14 = 321,31 kV / 550 kV 
... 
17 = 332,78 kV / 550 kV 
... 
31 = 344,88 kV / 475 kV 
Tape único 
Notas / Restrições: 
O controle de TAP auta de forma automática. 
Na estaçao retificadora no modo de controle de ângulo de disparo. 
Na estaçao inversora no modo de controle de tensão. 
Posição 1: Posição do TAP na energização do transformador. 
Posição 14: Posição do TAP no desbloqueio. 
4.2.5. SE TERMINAL RIO - TRANSFORMADOR CONVERSOR DO POLO 1 1T01 DE 500/330,9 KV – 1169 MVA 
Dispositivo de 
Sincronismo Ajustes 
Características dos Comutadores 
Comutador sob Carga Comutador em Vazio 
NE --- 
1 = 272,11 kV / 550 kV 
... 
16 = 320,13 kV / 550 kV 
... 
18 = 327,84 kV / 550 kV 
... 
31 = 335,72 kV / 475 kV 
Tape único 
Notas / Restrições: 
O controle de TAP auta de forma automática. 
Na estaçao retificadora no modo de controle de ângulo de disparo. 
Na estaçao inversora no modo de controle de tensão. 
Posição 1: Posição do TAP na energização do transformador. 
Posição 16: Posição do TAP no desbloqueio. 
Manual de Procedimentos da Operação - Módulo 5 - Submódulo 5.11 
 Cadastro de Informações Operacionais Código Revisão Item Vigência 
Cadastro de Dados Operacionais de Equipamentos da 
Interligação em Corrente Contínua de Xingu CD-CT.8XG.01 12 2.1.1. 08/07/2022 
 
Referência: Diagrama XRTE - XRTE-SE-GER-CP-002-0D 14 / 32 
 
 
4.2.6. SE TERMINAL RIO - TRANSFORMADOR CONVERSOR DO POLO 1 1T02 DE 500/330,9 KV – 1169 MVA 
Dispositivo de 
Sincronismo Ajustes 
Características dos Comutadores 
Comutador sob Carga Comutador em Vazio 
NE --- 
1 = 272,11 kV / 550 kV 
... 
16 = 320,13 kV / 550 kV 
... 
18 = 327,84 kV / 550 kV 
... 
31 = 335,72 kV / 475 kV 
Tape único 
Notas / Restrições: 
O controle de TAP auta de forma automática. 
Na estaçao retificadora no modo de controle de ângulo de disparo. 
Na estaçao inversora no modo de controle de tensão. 
Posição 1: Posição do TAP na energização do transformador. 
Posição 16: Posição do TAP no desbloqueio. 
4.2.7. SE TERMINAL RIO - TRANSFORMADOR CONVERSOR DO POLO 2 2T01 DE 500/330,9 KV – 1169 MVA 
Dispositivo de 
Sincronismo Ajustes 
Características dos Comutadores 
Comutador sob Carga Comutador em Vazio 
NE --- 
1 = 272,11 kV / 550 kV 
... 
16 = 320,13 kV / 550 kV 
... 
18 = 327,84 kV / 550 kV 
... 
31 = 335,72 kV / 475 kV 
Tape único 
Notas / Restrições: 
O controle de TAP auta de forma automática. 
Na estaçao retificadora no modo de controle de ângulo de disparo. 
Na estaçao inversora no modo de controle de tensão. 
Posição 1: Posição do TAP na energização do transformador. 
Posição 16: Posição do TAP no desbloqueio. 
4.2.8. SE TERMINAL RIO - TRANSFORMADOR CONVERSOR DO POLO 2 2T02 DE 500/330,9 KV – 1169 MVA 
Dispositivo de 
Sincronismo Ajustes 
Características dos Comutadores 
Comutador sob Carga Comutador em Vazio 
NE --- 
1 = 272,11 kV / 550 kV 
... 
16 = 320,13 kV / 550 kV 
... 
18 = 327,84 kV / 550 kV 
... 
31 = 335,72 kV / 475 kV 
Tape único 
Manual de Procedimentos da Operação - Módulo 5 - Submódulo 5.11 
 Cadastro de Informações Operacionais Código Revisão Item Vigência 
Cadastro de Dados Operacionais de Equipamentos da 
Interligação em Corrente Contínua de Xingu CD-CT.8XG.01 12 2.1.1. 08/07/2022 
 
Referência: Diagrama XRTE - XRTE-SE-GER-CP-002-0D 15 / 32 
 
 
Dispositivo de 
Sincronismo Ajustes 
Características dos Comutadores 
Comutador sob Carga Comutador em Vazio 
Notas / Restrições: 
O controle de TAP auta de forma automática. 
Na estaçao retificadora no modo de controle de ângulo de disparo. 
Na estaçao inversora no modo de controle de tensão. 
Posição 1: Posição do TAP na energização do transformador. 
Posição 16: Posição do TAP no desbloqueio. 
5. DADOS OPERACIONAIS DE SISTEMAS HVDC 
Orientações sobre os dados operacionais de conversores: 
Campo “Potência Nominal”: indica a potência nominal do conversor. 
Campo “Tensão Nominal, Máxima e Mínima”: indica a tensão nominal, máxima e mínima de operação do 
conversor. 
Campo “Ângulo de Disparo ”:  indica os ângulos de disparo nominal, máximo, mínimo, mínimo absoluto e 
banda de controle do conversor. 
Campo “Ângulo de Extinção”:  indica os ângulos de extinção nominal, máximo, mínimo, mínimo absoluto e 
banda de controle do conversor. 
Campo “Equipamento”:  indica os filtros, reatores e bancos de capacitores dos conversores. 
Campo “Potência Reativa (Mvar)”:  indica a potência dos filtros e bancos de capacitores dos conversores. 
Campo “Composição”: indica a composição dos filtros e compensação reativa com suas respectivas sintonias. 
Campo “ Tempo para energização após desligamento ”: é o tempo entre abertura dos disjuntores 
desconectando esse equipamento do sistema e o fechamento dos disjuntores reconectando o equipamento 
no sistema. 
Caso os dados operacionais não sejam informados pelo Agente, os campos são preenchidos com “NI” – não 
informado. 
Caso os dados operacionais não se apliquem, os campos são preenchidos com hifens “---”. 
5.1. BIPOLO XINGU / ESTREITO 
5.1.1. SE XINGU – CONVERSORES E FILTROS 
5.1.1.1. CONVERSOR 1 E 2 
Tensão 
Lado AC (60 Hz) Lado DC 
Tensão nominal 500 kV Tensão nominal +/- 800 kV 
Tensão máxima de operação 550 kV Tensão máxima de operação +/- 820 kV 
Tensão mínima de operação 475 kV Tensão mínima de operação +/- 560 kV 
Ângulo de disparo (α) 
Nominal 14,8° 
Manual de Procedimentos da Operação - Módulo 5 - Submódulo 5.11 
 Cadastro de Informações Operacionais Código Revisão Item Vigência 
Cadastro de Dados Operacionais de Equipamentos da 
Interligação em Corrente Contínua de Xingu CD-CT.8XG.01 12 2.1.1. 08/07/2022 
 
Referência: Diagrama XRTE - XRTE-SE-GER-CP-002-0D 16 / 32 
 
 
Tensão 
Lado AC (60 Hz) Lado DC 
Máximo 17,3° 
Minimo 12,7° 
Minimo Absoluto 8,5° 
Banda de Controle ± 2,5° 
Ângulo de extinção (ϒ) 
Nominal 21,6° 
Filtragem de Harmônicos e Compensação Reativa do lado AC (60 Hz) 
Equipamento Potência Composição 
Tempo para 
Energização após 
Desligamento 
Filtro BP1BF11 (A) 220 Mvar TT 3 / 11 / 50 5 minutos 
Filtro BP1BF12 (B) 180 Mvar TT 13 / 24 / 36 5 minutos 
Filtro BP1BF13 (C) 200 Mvar ST 58 5 minutos 
Filtro BP1BF21 (A) 220 Mvar TT 3 / 11 / 50 5 minutos 
Filtro BP1BF22 (B) 180 Mvar TT 13 / 24 / 36 5 minutos 
Filtro BP1BF23 (C) 200 Mvar ST 58 5 minutos 
Filtro BP1F31 (A) 220 Mvar TT 3 / 11 / 50 5 minutos 
Filtro BP1F32 (B) 180 Mvar TT 13 / 24 / 36 5 minutos 
Filtragem de Harmônicos e Compensação Reativa do lado DC 
Conversor Equipamento Composição 
Tempo para 
Energização após 
Desligamento 
Conversor 1 FDC1B03 ST 50 NI 
FDC1B04 PA 6/ 12/ 50 NI 
Conversor 2 FDC2B03 ST 50 NI 
FDC2B04 PA 6/ 12/ 50 NI 
5.1.2. SE ESTREITO – CONVERSORES E FILTROS 
5.1.2.1. CONVERSOR 1 E 2 
Tensão 
Lado AC (60 Hz) Lado DC 
Tensão nominal 500 kV Tensão nominal +/- 800 kV 
Tensão máxima de operação 550 kV Tensão máxima de operação +/- 820 kV 
Tensão mínima de operação 475 kV Tensão mínima de operação +/- 560 kV 
Ângulo de extinção (ɣ) 
Manual de Procedimentos da Operação - Módulo 5 - Submódulo 5.11 
 Cadastro de Informações Operacionais Código Revisão Item Vigência 
Cadastro de Dados Operacionais de Equipamentos da 
Interligação em Corrente Contínua de Xingu CD-CT.8XG.01 12 2.1.1. 08/07/2022 
 
Referência: Diagrama XRTE - XRTE-SE-GER-CP-002-0D 17 / 32 
 
 
Tensão 
Lado AC (60 Hz) Lado DC 
Nominal 20,4° 
Máximo 21° 
Minimo 18° 
Minimo (controle de gama) 17,5° 
Minimo Absoluto em regime (controle de gama) 17° 
Banda de Controle ± 2,5 % de UDC 
Ângulo de extinção (ϒ) 
Nominal 18,8° 
Filtragem de Harmônicos e Compensação Reativa do lado AC (60 Hz) 
Equipamento Potência Composição 
Tempo para 
Energização após 
Desligamento 
Filtro 9BF11 (A) 220 Mvar TT 3 / 11 / 50 5 minutos 
Filtro 9BF12 (B) 180 Mvar TT 13 / 24 / 36 5 minutos 
Filtro 9BF13 (C) 275 Mvar ST 58 5 minutos 
Filtro 9BF14 (C) 275 Mvar ST 58 5 minutos 
Filtro 9BF21 (A) 220 Mvar TT 3 / 11 / 50 5 minutos 
Filtro 9BF22 (B) 180 Mvar TT 13 / 24 / 36 5 minutos 
Filtro 9BF23 (C) 275 Mvar ST 58 5 minutos 
Filtro 9BF24 (C) 275 Mvar ST 58 5 minutos 
Filtro 9BF31 (A) 220 Mvar TT 3 / 11 / 50 5 minutos 
Filtro 9BF32 (B) 180 Mvar TT 13 / 24 / 36 5 minutos 
Filtro 9BF33 (C) 275 Mvar ST 58 5 minutos 
Filtro 9BF34 (C) 275 Mvar ST 58 5 minutos 
Filtragem de Harmônicos e Compensação Reativa do lado DC 
Conversor Equipamento Composição 
Tempo para 
Energização após 
Desligamento 
Conversor 1 FDC1B03 ST 50 NI 
FDC1B04 PA 6/ 12/ 50 NI 
Conversor 2 FDC2B03 ST 50 NI 
FDC2B04 PA 6/ 12/ 50 NI 
5.1.3. CONTROLE DE BIPOLO 
Ver IO-EE.8XG 
Manual de Procedimentos da Operação - Módulo 5 - Submódulo 5.11 
 Cadastro de Informações Operacionais Código Revisão Item Vigência 
Cadastro de Dados Operacionais de Equipamentos da 
Interligação em Corrente Contínua de Xingu CD-CT.8XG.01 12 2.1.1. 08/07/2022 
 
Referência: Diagrama XRTE - XRTE-SE-GER-CP-002-0D 18 / 32 
 
 
5.1.4. CONTROLE DE POLO 
O controle de polo é responsável por receber a ordem de corrente definida pelos controladores de maior 
hierarquia e traduzi-la em uma sequência de pulsos de disparo para as válvulas. 
O Controle de Polo é responsável pelas seguintes funções que são executadas em nível de polo e de 
conversor. 
• Seleção do modo de operação: modo de potência (P-mode) ou modo de corrente(I-mode); 
• Cálculo da ordem de corrente (COC);  
• Modo de operação em tensão reduzida; 
• Transferência de potência entre polos (PPT); 
• Funções de ajuste da ordem de corrente; 
• Definir Capacidade de Potência do Polo (Pole Power Capability Calculator); 
• Limitação do Ângulo de Disparo; 
• Sequências no nível de polo; 
• Controle dos comutadores de tape dos transformadores conversores; 
• Ajuste de referência da tensão CC; 
5.1.4.1. MODULAÇÃO DO ERRO DE CORRENTE.SELEÇÃO DO MODO DE CONTROLE 
Modo de Controle de Potência (P-Mode): a referência de corrente do polo é obtida a partir da referência de 
potência bipolar dividida pela tensão DC bipolar. É o modo de operação normal . A ordem de corrente para 
o Controle de Polo será Iref DC. 
Modo de Controle de Corrente (I -mode): o operador fornece diretamente a referência de corrente a ser 
controlada pelo polo. A ordem de corrente para o Controle de Polo será Iref manual 
A alteração do modo de controle é sempre efetuada pelo operador. 
O Bipolo Xingu / Estreito deve operar no modo de controle de potência (P-Mode). 
5.1.5. CONTROLE DOS CONVERSORES 
5.1.5.1. CONTROLE DO RETIFICADOR 
Em condições normais o retificador opera controlando a corrente. O controle de tensão fica normalmente 
inativo, funcionando como um controle de back-up. 
Quando o retificador opera controlando a corrente (operação normal), o erro de corrente (ΔIderr=Iref-Idr) é 
zero em regime permanente. Se por algum motivo há uma elevação de Idr, então ΔIderr se torna negativo, 
fazendo com que a saída do controlador aumente, aumentando o ângulo de disparo de referência (αORD), até 
que Id reduza novamente até a referência desejada.  
Ações de controle no sentido contrário ocorrem para uma redução em Idr. 
5.1.5.2. CONTROLE DO INVERSOR 
Em condições normais o inversor opera controlando a tensão . O controle de corrente fica normalmente 
inativo, funcionando como um controle de back -up. Existe ainda uma outra malha de controle de back -up 
que previne reduções elevadas no ângulo de extinção.  O controle de tensão do inversor atua normalmente 
para manter a tensão CC do retificador (Udr calc) igual a um valor de referência (Uref), normalmente ajustado 
na tensão nominal do polo (800 kV).  
Esta referência pode ser alterada manualmente pelo operador via IHM (operação em tensão reduzida) ou 
automaticamente pelas sequências de desbloqueio e de recuperação de faltas na linha CC.  
Manual de Procedimentos da Operação - Módulo 5 - Submódulo 5.11 
 Cadastro de Informações Operacionais Código Revisão Item Vigência 
Cadastro de Dados Operacionais de Equipamentos da 
Interligação em Corrente Contínua de Xingu CD-CT.8XG.01 12 2.1.1. 08/07/2022 
 
Referência: Diagrama XRTE - XRTE-SE-GER-CP-002-0D 19 / 32 
 
 
O erro de controle de tensão ( ΔUderr=Udr_calc-Uref) é zero em regime permanente. A tensão CC do 
retificador é calculada com base em medições locais das tensões CC no terminal inversor e da queda de 
tensão calculada com base nos valores calculados de resistência da linha CC e do caminho de retorno da 
corrente. 
Caso ocorra uma elevação na tensão CC, então ΔUderr se torna positivo resultando na redução do ângulo de 
disparo no inversor (aumento de gama), até que a tensão retorne para a referência desejada. Ações de 
controle no sentido contrário ocorrem para uma redução na tensão CC. 
5.1.5.3. CÁLCULO DA ORDEM DE CORRENTE - COC  
Condição de operação P – P (ou P):  
O valor da ordem de potência do bipolo Pref DC Bipole definido pelo operador é processado no Controle de 
estação pela função POCDC e enviada a cada polo, onde é dividida pela tensão CC bipolar (soma das tensões 
CC individuais dos polos) para a determinação da Iref DC. 
Quando em operação monopolar, a tensão CC do polo fora de operação é considerada igual a zero. 
Iref DC = Pref DC Bipole / (UdP1 + UdP2)  
Onde:  UdP1 e UdP2 são as tensões medidas entre os polos e o neutro. 
Condição de operação P – I:  
Nesta condição de operação é utilizada a  função Transferência de Potência entre Polos - PPT que calcula o 
acréscimo/decréscimo de corrente (∆IPPT).  
∆IPPT: Diferença de potência entre o  polo em Controle de Potência em relação ao valor que lhe seria 
solicitado caso ambos os polos estivessem operando em Controle de Potência (Iref DC).  
Esta função está ativa apenas no terminal retificador. 
Em cada polo, a ordem de corrente resultante (I ref) torna-se a referência de controle para o controlador de 
corrente do retificador que o executa através da modulação do ângulo de disparo (alfa). 
Para possibilitar habilitar um bom perfil da ordem de corrente, especialmente durante a operação em regime 
permanente, é necessário ter um sinal constante de tensão CC. Com esse objetivo, as variações da tensão CC 
para o COC são fortemente filtradas com a introdução de um filtro passa -baixa (constante de tempo de 10 
s).  
Este sinal de tensão CC quase constante também é necessário para faltas na rede CA e para faltas na linha 
CC de cada polo, de modo a manter a ordem de corrente constante ou para permitir que a ordem de corrente 
siga rigorosamente a ordem de potência. 
A tabela a seguir apresenta as faixas de ajustes quando o polo estiver em modo de Controle de corrente. 
AJUSTE  Fluxo Xingu -> Estreito  Fluxo Estreito -> Xingu  
Ordem de Corrente  
(A) 
250 a 3325 (*) 
em intervalos de 1 A  250 a 2718 (*) 
Rampa de Corrente  
(A / min)  
1 a 500  
em intervalos de 1 A/min  
1 a 500  
em intervalos de 1 A/min  
(*) Correspondente a 1.33pu, sobrecarga de 30min 
5.1.6. FUNÇÕES DE LIMITAÇÃODA CORRENTE DE POLO 
A corrente no polo pode ser limitada devido a restrições no próprio terminal ou no terminal remoto. 
O limite originado no terminal inversor é enviado ao terminal retificador através do sistema de 
Manual de Procedimentos da Operação - Módulo 5 - Submódulo 5.11 
 Cadastro de Informações Operacionais Código Revisão Item Vigência 
Cadastro de Dados Operacionais de Equipamentos da 
Interligação em Corrente Contínua de Xingu CD-CT.8XG.01 12 2.1.1. 08/07/2022 
 
Referência: Diagrama XRTE - XRTE-SE-GER-CP-002-0D 20 / 32 
 
 
telecomunicação, onde o menor dos valores é selecionado e aplicado como um limite. 
5.1.6.1. LIMITAÇÃO DA MÍNIMA E MÁXIMA ORDEM DE CORRENTE - PCL 
5.1.6.1.1. LIMITAÇÃO DE CORRENTE PELA CAPACIDADE DE SOBRECARGA DE CURTA DURAÇÃO 
Em condições normais (até 40ºC  de temperatura ambiente ), o limite máximo aplicado à referência de 
corrente (Imax_overload_limit) em cada polo é de: 
Tensão (kV) Valor (MW) Valor (A) Duração Sentido 
transmissão 
800 
3.000 3.875 5 seg Xingu → Estreito 
2.453 3.124 5 seg Estreito → Xingu 
560 
2.100 3.875 5 seg Xingu → Estreito 
1.717 3.124 5 seg Estreito → Xingu 
Após os 5 segundos de sobrecarga o sinal sobrecarga expirada ( Overload expired ) se torna igual a 1 e os 
limites são chaveados para os limites de sobrecarga de longa duração. A transição do limite de curta duração 
para o limite de longa duração é feita em 500ms 
A sobrecarga de curta duração pode ser utilizada uma vez a cada 5 minutos.  
A sobrecarga de curta duração não pode ser acionada pelo operador. 
5.1.6.1.2. LIMITAÇÃO DE CORRENTE PELA CAPACIDADE DE SOBRECARGA DE LONGA DURAÇÃO 
Em condições normais (até 40ºC  de temperatura ambiente ), o limite máximo aplicado à referência de 
corrente em cada polo é de: 
Tensão (kV) Valor (MW) Valor (A) Duração Sentido 
transmissão 
800 
2.660 3.325 
30 min 
Xingu → Estreito 
2.175 2.718 Estreito → Xingu 
560 
1.862 3.875 Xingu → Estreito 
1.522 3.124 Estreito → Xingu 
A sobrecarga de longa duração pode ser utilizada uma vez por dia e é limitada por projeto a 20 vezes por 
ano. Se este ciclo de sobrecarga for violado, sua utilização não será impedida pelo controle, mas irá gerar 
mensagem no registrador de eventos. 
Utilização do ciclo de sobrecarga: 
O monitoramento de sobrecarga é projetado para permitir uma utilização flexível da sobrecarga e garantir o 
atendimento ao modelo térmico de carregamento dos componentes (válvulas, conversores, transformadores 
conversores, etc.).  
É possível utilizar parcialmente a sobrecarga, sendo permitido usar múltiplas ocorrências de sobrecarga 
inferiores a 30 minutos resultando em um tempo total de sobrecarga pode ser maior que 30 min.  O contador 
Manual de Procedimentos da Operação - Módulo 5 - Submódulo 5.11 
 Cadastro de Informações Operacionais Código Revisão Item Vigência 
Cadastro de Dados Operacionais de Equipamentos da 
Interligação em Corrente Contínua de Xingu CD-CT.8XG.01 12 2.1.1. 08/07/2022 
 
Referência: Diagrama XRTE - XRTE-SE-GER-CP-002-0D 21 / 32 
 
 
do número de utilizações da sobrecarga só poderá ser incrementado novamente após a utilização total da 
sobrecarga. 
Caso o ciclo de sobrecarga for totalmente utilizado o próximo ciclo só estará disponível depois que o período 
de resfriamento de 24 h seja completado. 
Esgotada a sobrecarga de longa duração, será emitida mensagem no registrador de eventos de sobrecarga 
expirada ficando indisponível nas próximas 24 horas. 
A sobrecarga de curta duração será utilizada integralmente cada vez que for acionada e a sua aplicação não 
possui restrição quanto ao número de utilizações por ano. 
A figura a seguir exemplifica o processo de monitoramento de sobrecarga. 
 
Se sobrecarga for utilizada várias vezes sem esperar que o período de resfriamento termine, o contador não 
é incrementado. 
Caso a contagem de sobrecarga dentro de um ano exceder o limite de 20, o operador tem a possibilidade de 
bloquear a utilização adicional de sobrecarga. O contador é reiniciado em 01 de janeiro de cada ano. 
5.1.6.1.3. LIMITAÇÃO DE CORRENTE PELA CAPACIDADE DE SOBRECARGA DE LONGA DURAÇÃO DE 
EMERGÊNCIA 
Em condições normais (até 40ºC de temperatura ambiente ), o limite máximo aplicado à referência de 
corrente em cada polo é de: 
Tensão (kV) Valor (MW) Valor (A) Duração Sentido 
transmissão 
800 kV 1.799 2.248 
4 horas 
Estreito → Xingu 
560 kV 1.259 2.248 Estreito → Xingu 

Manual de Procedimentos da Operação - Módulo 5 - Submódulo 5.11 
 Cadastro de Informações Operacionais Código Revisão Item Vigência 
Cadastro de Dados Operacionais de Equipamentos da 
Interligação em Corrente Contínua de Xingu CD-CT.8XG.01 12 2.1.1. 08/07/2022 
 
Referência: Diagrama XRTE - XRTE-SE-GER-CP-002-0D 22 / 32 
 
 
A sobrecarga de longa duração pode ser utilizada uma vez por dia e é limitada por projeto a 20 vezes por 
ano. Se este ciclo de sobrecarga for violado, sua utilização não será impedida pelo controle, mas irá gerar 
mensagem no registrador de eventos. 
5.1.6.1.4. LIMITAÇÃO DE CORRENTE PELA CAPACIDADE DE SOBRECARGA DE LONGA DURAÇÃO DE 
CONTÍNUA 
Em condições de temperatura amena  (até 25ºC de temperatura ambiente ), o limite máximo aplicado à 
referência de corrente em cada polo é de: 
Tensão (kV) Valor (MW) Valor (A) Duração Sentido 
transmissão 
800 
2.200 2.750 
contínua 
Xingu → Estreito 
1.799 2.248 Estreito → Xingu 
560 
1.540 2.750 Xingu → Estreito 
1.259 2.248 Estreito → Xingu 
Estando ativa a sobrecarga de longa duração contínua, a sobrecarga de longa duração de emergência (4h) 
fica inibida.  
Se durante o curso da operação houver perda do resfriamento redundante, e o fluxo estiver no sentido de 
Estreito para Xingu, a sobrecarga de longa duração de emergência (se disponível) será automaticamente 
ativada.  
Se o fluxo estiver no sentido de Xingu para Estreito e houver perda do resfriamento redundante, a sobrecarga 
de longa duração (30 min) será automaticamente ativada. 
5.1.6.2. LIMITAÇÃO DE CORRENTE CONDIÇÕES ANORMAIS DE OPERAÇÃO 
A sobrecarga de longa duração é restrita à operação com tensão CA na faixa de 475 a 550 kV, bem como 
depende da temperatura ambiente e da configuração de filtros/bancos CA disponível.  
Caso a tensão em qualquer um dos terminais violar a faixa de 475 a 550 kV, o limite de corrente nominal é 
aplicado à ordem de corrente dos dois polos. 
Se a violação da faixa ocorrer no terminal inversor, o limite é criado localmente e enviado ao retificador pelo 
sistema de comunicação entre Limitação de corrente pelas chaves CC 
O limite de corrente pela capacidade das chaves CC é aplicável transitoriamente durante a comutação da 
configuração entre Retorno pela Terra e Retorno Metálico. O limite de corrente neste caso é aplicado 
imediatamente sem qualquer taxa de rampa pré-definida e retorna ao valor normal ao final da manobra. 
5.1.6.3. LIMITAÇÃO DE CORRENTE PELA CAPACIDADE DOS FILTROS CA (RATING) 
A função CLIM do Controle de Estação gera um limite de corrente dependente da configuração de filtros 
disponíveis e do modo de operação do bipolo.  
Este limite de corrente é aplicado com uma taxa de 250 A / seg e é liberado com 4000 A / seg. 
5.1.6.4.  LIMITAÇÃO DE CORRENTE PELO OPERADOR 
O operador pode inserir um limite de corrente (Ilim) individualmente para cada um dos dois conversores em 
cada estação.  
Manual de Procedimentos da Operação - Módulo 5 - Submódulo 5.11 
 Cadastro de Informações Operacionais Código Revisão Item Vigência 
Cadastro de Dados Operacionais de Equipamentos da 
Interligação em Corrente Contínua de Xingu CD-CT.8XG.01 12 2.1.1. 08/07/2022 
 
Referência: Diagrama XRTE - XRTE-SE-GER-CP-002-0D 23 / 32 
 
 
Este ajuste pode ser definido para limitar a corrente CC manualmente para um valor específico dentro da 
faixa de operação de 250 A a 3875 A.  
O limite é aplicado com uma taxa de rampa fixa de 400 A / min e liberado com 400 A / s.  
Para desabilitar o limite inserido pelo operador dever ser inserido um novo valor superior a 3.875 A. 
5.1.6.5.  LIMITAÇÃO DE CORRENTE PELA PROTEÇÃO CC 
Limites transitórios de corrente podem ser impostos pela proteção CC e são aplicados com uma temporização 
de 250 ms. 
Estes limites são transmitidos para a outra estação através do sistema de telecomunicação.  
5.1.6.6. LIMITAÇÃO DE CORRENTE PELA PROTEÇÃO DA LINHA DE ELETRODO 
Caso seja identificada sobrecorrente em qualquer circuito da linha de eletrodo é ativada a proteção de 
sobrecarga (Electrode Overcurrent Protection -76EL). 
Se a corrente em qualquer dos circuitos do eletrodo ultrapassar 1.750 A por mais de 7 segundos, é enviada 
uma solicitação de “Redução de Corrente na Linha de Eletrodo" para o Controle de Polo. 
Ao receber este sinal, conforme mostrado na figura abaixo, o controle de polo, que estava com o limite de 
2.260 A (160%), superior a sobrecarga de curta duração de 50%, aplica um limite de 1.375 A (55%). 
O limite é aplicado em uma rampa de 1.000 A/s e liberado com uma rampa de 40 A/s. 
O limite de 1750 A foi definido por ser superior à sobrecarga de longa duração permissível por circuito da 
linha de eletrodo (1662 A) e o atraso de 7 segundos por ser maior que a duração da sobrecarga de curta 
duração (5 segundos).  
 
5.1.6.7.  LIMITAÇÃO DE CORRENTE POR NÍVEL DE CURTO REDUZIDO NA REDE CA (FALHA DE 
COMUTAÇÃO) 
Em condições de baixo nível de curto circuito podem ocorrer falhas de comutação.  
Caso ocorra falhas de comutação dentro de um curto intervalo de tempo, um limite de corrente será aplicado 
para limitar a operação em um nível seguro de transferência de potência.  
Dependendo do número de falhas de comutação detectadas, o limite de corrente será reduzido ainda mais 
de modo a estabilizar o sistema de corrente contínua. 
A identificação de falhas de comutação para fins de limitação de corrente é realizada apenas no lado do 
retificador, de forma indireta, através da detecção de quedas severas da tensão CC no lado de alta tensão do 
conversor.  
A falha de comutação é identificada caso a tensão CC no retificador for inferior a 0,4 pu por mais de 6 ms. 
Detectada uma falha de comutação um temporizador de 60 s será iniciado e um contador será incrementado.  
• Contador > 3: corrente limitada 75% 
• Contador > 5: corrente limitada 50% 
• Contador = 8: acionada a sequência de bloqueio protetivo (ESOF) em ambos os polos. 

Manual de Procedimentos da Operação - Módulo 5 - Submódulo 5.11 
 Cadastro de Informações Operacionais Código Revisão Item Vigência 
Cadastro de Dados Operacionais de Equipamentos da 
Interligação em Corrente Contínua de Xingu CD-CT.8XG.01 12 2.1.1. 08/07/2022 
 
Referência: Diagrama XRTE - XRTE-SE-GER-CP-002-0D 24 / 32 
 
 
O contador será reiniciado quando não forem detectadas novas falhas de comutação no intervalo de tempo 
de 60 segundos. O limite de corrente é aplicado sem qualquer taxa de rampa pré-definida. 
A restauração do nível de transmissão é efetuada pelo operador. 
5.1.6.8.  LIMITAÇÃO DE CORRENTE PELA SEQUÊNCIA DE DESLIGAMENTO RÁPIDO (FASOF) 
Algumas funções de proteção podem disparar a sequência de desligamento rápido (Fast Switch-off - FASOF) 
que promove uma rápida redução da corrente CC antes de emitir o comando de bloqueio protetivo. 
O limite de corrente neste caso é aplicado a uma taxa de 5000 A/s. 
5.1.6.9. LIMITAÇÃO DE CORRENTE EM FUNÇÃO DA TEMPERATURA AMBIENTE 
O controle de polo limita a corrente no Bipolo Xingu - Estreito em função da temperatura ambiente da SE 
Xingu e da SE Estreito efetuando Run back ou bloqueio do Bipolo conforme limites abaixo. 
Temperatura (°C) Temporização (seg) 
Limite Bipolo Xingu - Estreito (MW) 
Monopolar Bipolar 
40 30 1.000 2.000 
41 30 600 1.200 
42 30 200 400 
45 60 
O estágio de bloqueio protetivo ( ESOF) será ativado 
provocando o bloqueio do Bipolo. 
Observação: A energização do transformador conversor e o 
desbloqueio será inibido enquanto a temperatura ambiente 
se mantiver acima de 45 °C. 
 
Devem ser adotados os procedimentos contidos na IO -ON.8XG considerando a operação do Bipolo Xingu – 
Estreito com temperaturas elevadas. 

Manual de Procedimentos da Operação - Módulo 5 - Submódulo 5.11 
 Cadastro de Informações Operacionais Código Revisão Item Vigência 
Cadastro de Dados Operacionais de Equipamentos da 
Interligação em Corrente Contínua de Xingu CD-CT.8XG.01 12 2.1.1. 08/07/2022 
 
Referência: Diagrama XRTE - XRTE-SE-GER-CP-002-0D 25 / 32 
 
 
5.1.6.10.  LIMITAÇÃO DE CORRENTE POR TEMPERATURA ELEVADA DO ÓLEO DO TRANSFORMADOR 
Este limite é aplicado em caso de perda de vários grupos de refrigeração dos transformadores, de modo que 
a plena capacidade de resfriamento total não esteja mais disponível. 
O limite de corrente contínua é calculado com base na temperatura medida do óleo do transformador. 
A temperatura do óleo medida ( ΘOil measured) é a maior dos 6 transformadores do conversor. O limite de 
corrente é aplicado com um atraso de 10 segundos. 
5.1.6.11.  LIMITAÇÃO DE CORRENTE POR LIMITE DE POTÊNCIA IMPOSTO AO BIPOLO 
Ocorrendo ação de Run Back o controle busca sempre o equilíbrio de potência entre os polos. O limite de 
corrente decorrente da ação de Run back é aplicado ao polo que está transmitindo o maior valor de potência. 
Caso a ação de Run-back leve a uma ordem de potência inferior à potência mínima (200 MW monopolar ou 
400 bipolar) a potência será limitada em seu valor mínimo. Não é efetuado o bloqueio automático de um dos 
polos. 
5.1.6.12.  LIMITAÇÃO DE CORRENTE PELA SEQUÊNCIA DE BLOQUEIO/DESBLOQUEIO DO OUTRO 
POLO 
No bloqueio de um dos polos, o polo remanescente deve aumentar a potência para manter a potência do 
bipolo constante.  
O aumento de corrente é controlado pela rampa de limite de corrente (1.333 MW/min), de modo que o 
controle de comutação dos tapes dos transformadores conversores possa acompanhar a elevação de 
potência, evitando que o ângulo de disparo do retificador atinja o seu limite mínimo de 5°. 
O limite é aplicado no polo que será bloqueado. Como consequência, a potência perdida pelo polo que será 
bloqueado é transferida pela função (Pole-Pole-Power-Transfer - PPT) para o outro polo. 
5.1.7. COMPENSAÇÃO DA MARGEM DE CORRENTE (CMC) 
A Compensação da Margem de Corrente (CMC) tem a função de evitar que haja redução da referência de 
corrente do polo quando de perda do controle da corrente pelo retificador.  
A perda de controle da corrente pelo retificador ocorre devido à limitação no ângulo de disparo quando de 
redução da tensão AC no retificador ou variação súbita e elevada na corrente de referência (Iref). 
Quando o ângulo de disparo atinge o seu valor mínimo de 5°, o retificador não consegue mais controlar a 
corrente. Nesta condição, o inversor assume o controle da corrente em um valor 10% menor que a referência 
do retificador. 
Para evitar que ocorra a perda de potência entra em ação a função CMC. Quando a corrente começa a cair 
devido à limitação do ângulo de disparo, é produzido um erro de corrente (Idref -Id). Quando este erro for 
superior a 2%. O erro é somado à Idref, resultando em um aumento na referência de corrente calculada pelo 
COC aumentando a tanto a referência de corrente do retificador quanto a do inversor.  
Após a remoção da limitação do ângulo de disparo do retificador o erro de corrente passa a reduzir, fazendo 
com que o CMC reduza.  
É possível desabilitar esta função pela interface de engenharia (SIMATIC TDC EWS). 
5.1.8.  CALCULADOR DA CAPACIDADE DE POTÊNCIA DO POLO 
A capacidade de transmissão de potência de cada polo (pole power transfer capability – Pcap) é calculada de 
forma contínua e é baseada na capacidade de corrente do polo - Icap. 
Manual de Procedimentos da Operação - Módulo 5 - Submódulo 5.11 
 Cadastro de Informações Operacionais Código Revisão Item Vigência 
Cadastro de Dados Operacionais de Equipamentos da 
Interligação em Corrente Contínua de Xingu CD-CT.8XG.01 12 2.1.1. 08/07/2022 
 
Referência: Diagrama XRTE - XRTE-SE-GER-CP-002-0D 26 / 32 
 
 
A capacidade de corrente é o limite de corrente mais restritivo do polo dentre os limites anteriormente 
descritos e não pode ser superior ao limite de corrente de sobrecarga de curta duração. 
A multiplicação de Icap pelo valor de referência de tensão CC do polo - Uref é denominada capacidade de 
transmissão de potência de cada polo (pole power transfer capability: Pcap = Udref x Icap). 
Ambos os valores de capacidade DC são fornecidos para exibição no nível do operador. 
5.1.9. COORDENAÇÃO DAS ORDENS DE CORRENTE DOS POLOS (PCOC) 
A coordenação das ordens de corrente dos polos (Pole Current Order Coordination) tem como função básica 
coordenar as ordens de corrente dos terminais retificador e inversor para evitar a perda de margem de 
corrente durante rampas de potência e perturbações. 
Estando o Sistema de comunicação disponível ou não, a função PCOC tenta sempre manter a margem de 
ordem de corrente para o controlador de corrente do inversor. 
5.1.10. MODO DE OPERAÇÃO EM TENSÃO REDUZIDA 
O modo de tensão reduzida está localizado no nível de polo e permite a operação com tensão CC entre 70% 
(560 kV) e 95% (760 kV).  
Este modo pode ser selecionado manualmente ou automaticamente pela sequência de religamento 
automático. Na seleção manual a tensão do polo é reduzida em rampa de 20 kV/min até a referência de 
tensão selecionada. A rampa pode ser interrompida a qualquer momento, e uma nova rampa pode ser 
iniciada. 
É possível efetuar o desbloqueio dos polos em tensão reduzida. 
As limitações de corrente são reduzidas considerando de tensão de operação. O limite de corrente é 
interpolado proporcionalmente entre os valores de 70% (560 kV) e 95% (760 kV). 
A configuração de filtros/bancos de capacitores e os requisitos de filtragem para atendimento aos critérios 
de rating e desempenho (HPC) é definida pelo controle, obtida por interpolação linear das correntes entre 
os valores definidos para operação em tens ão normal e tensão reduzida de 560 kV, conforme tabelas 
constantes na IO-ON.8XG. 
Se um polo estiver operando em tensão normal e o outro em tensão reduzida, será feita a interpolação linear 
das correntes tomando como base a tensão média dos dois polos. 
A condição para operação no modo tensão reduzida está definida na IO-ON.8XG. 
5.1.11.  CONTROLE DA TENSÃO CC - DCV 
A tensão CC do terminal retificador é controlada em seu valor de referência pelo ângulo de extinção (gama) 
do terminal inversor. Além disso, um controle de ângulo de extinção opera para evitar que os ângulos de 
extinção do inversor caiam abaixo do ângulo mínimo de extinção. 
Estando o sistema de telecomunicação disponível a ordem de corrente será encaminhada da estação 
retificadora para a estação inversora, que define a ordem de corrente aplicando a margem de corrente. 
Estando o sistema de telecomunicação indisponível a ordem de corrente será determinada apenas na 
estação retificadora. O valor da corrente de referência da estação inversora será definido por uma função de 
rastreamento de corrente. 
5.1.12. DETECÇÃO DE BAIXO NÍVEL DE CURTO-CIRCUITO 
Esta função está implementada no controle de balanço de potência reativa (Q-control) para calcular nível de 
Curto Circuito (SCL) durante a manobra de filtro/banco AC que utiliza a variação de tensão na manobra para 
Manual de Procedimentos da Operação - Módulo 5 - Submódulo 5.11 
 Cadastro de Informações Operacionais Código Revisão Item Vigência 
Cadastro de Dados Operacionais de Equipamentos da 
Interligação em Corrente Contínua de Xingu CD-CT.8XG.01 12 2.1.1. 08/07/2022 
 
Referência: Diagrama XRTE - XRTE-SE-GER-CP-002-0D 27 / 32 
 
 
o cálculo do nível do circuito. 
Quando for identificado um Nível de Curto Circuito abaixo de 25 GVA, o valo de Q margin é automaticamente 
alterado de 40 a 80 Mvar para evitar manobras de filtros/bancos pela função Q-control. 
5.1.13. CONTROLE DE TAP 
O controle dos comutadores de tapes dos transformadores conversores ( Tap Changer Control ) é realizado 
em nível de polo de forma independente para cada conversor de 12 pulsos.  
O comutador de tape é localizado no lado primário dos transformadores (lado de 500 kV). Os comandos de 
aumento e diminuição da posição do tape são realizados de forma sincronizada nas três fases. 
O controle atua visando manter a controlabilidade da tensão e ângulo em função do sistema CA e do nível 
de potência transmitida pelo Bipolo Xingu - Estreito. 
O controle de TAP pode ser operado nos seguintes modos: 
• Controle Manual: Este modo de controle somente executa mudanças na posição do TAP baseado 
em comandos manuais de aumento e diminuição efetuados pelo operador. 
• Controle de ângulo : Este é o modo de controle normal de um conversor durante a transmissão de 
potência. Atua para manter o ângulo de disparo do retificador na faixa de 12.7° a 17.3° e para manter 
o ângulo de extinção do inversor na faixa de 18° a 21°. 
• Controle de tensão DC (Udi0): Este modo de controle é usado quando o conversor está energizado, 
porém bloqueado. Nesta condição, a referência de tensão CC  é escolhida para que o TAP dos 
transformadores conversores seja trazido para a posição requerida à operação com potência mínima, 
de forma que não ocorram mudanças de tape logo após o desbloqueio. Neste modo, o polo opera 
com elevado consumo de potência reativa; 
• Controle otimizado: Este modo de controle faz com que  o modo controle de tensão DC (Udi0)  seja 
ativado automaticamente se a potência for menor que 1.000 MW. O objetivo é elevar o consumo de 
potência reativa dos conversores em potências mais baixas. Para potências superiores a 1 .000 MW, 
o modo de controle é automaticamente alterado para controle de ângulo. 
O modo pode ser selecionado manualmente pelo operador por estação. 
O controle de TAP faz a seleção automática do TAP inicial para minimizar a sobretensão nas válvulas do 
conversor e minimizar a corrente de energização do transformador conversor. 
O Bipolo Xingu – Estreito deve operar no modo de controle de ângulo. 
5.1.14. DEMAIS FUNÇÕES NO NÍVEL DE POLO 
Funções relacionadas a sequência de manobras no polo: 
• Sequência de partida/parada. 
• Conexão de filtros CC/sequência de aterramento. 
• Sequências de testes de linha aberta (OLT) e conversor aberto (OCT). 
•  Controle dos equipamentos de manobra dos filtros CC. 
•  Controle de manobras de aterramento e intertravamento da Sala de válvulas.  
•  Comunicação serial entre os polos, entre os polos e o Controle de Estação e com a interface para o 
Bipolo 2. 
•  Registro de sequência de eventos (SER) para eventos nos polos. 
•  Monitoramento de controle da água de refrigeração dos conversores. 
•  Funções de redundância e follow-up. 
•  Back-up Synchronous Control  (operação quando de perda de comunicação entre as estações 
Manual de Procedimentos da Operação - Módulo 5 - Submódulo 5.11 
 Cadastro de Informações Operacionais Código Revisão Item Vigência 
Cadastro de Dados Operacionais de Equipamentos da 
Interligação em Corrente Contínua de Xingu CD-CT.8XG.01 12 2.1.1. 08/07/2022 
 
Referência: Diagrama XRTE - XRTE-SE-GER-CP-002-0D 28 / 32 
 
 
retificadora e inversora). 
Funções protetivas e de monitoramento do controle de polo 
• Monitoramento de ângulo de disparo excessivo. 
• Monitoramento de falta em Teste de linha aberta - OLT / Testes de circuito aberto – OCT. 
• Detecção de falta em estação remota. 
• Monitoramento de subtensão CA. 
• Monitoramento de falha de comutação. 
• Funções de monitoramento de temperatura. 
• Monitoramento de consistência de medidas. 
Ajuste de referência da tensão CC 
•  Cálculo da tensão do retificador. 
Limitador da ordem de corrente dependente da tensão - VDCL 
Lógica de recuperação de defeito transitório - TFRL 
Controle de corrente CC 
•  Característica de erro de controle – CEC. 
•  Modulação do erro de corrente (se necessária). 
•  Controle do ângulo de extinção. 
•  Ajuste de disparo e interface com as válvulas tiristoras (via VBE). 
•  Controle de amortecimento de ressonância sub-síncrona. 
•  Controle de sequências no nível de conversor (bloqueio / desbloqueio / ESOF / FASOF / recuperação 
de falta na linha CC). 
5.1.15.  SISTEMAS DE COMUNICAÇÃO ENTRE AS ESTAÇÕES  
Dois tipos de canais de comunicação são usados para a comunicação entre as estações retificadora e 
inversora, ambos utilizando redes redundantes:  
• Sistema de Telecomunicação (HVDC Telecom) 
• Sistema de Telecontrole (HVDC Telecontrol). 
O Sistema de Telecomunicação permite a troca direta de dados de uma forma geral entre as estações, sendo 
utilizado para fins de supervisão. Ele é comparativamente lento frente ao Sistema de Telecontrole. 
Caso ambos os canais redundantes do Sistema de Telecomunicação fiquem indisponíveis, todos os dados 
analógicos e digitais serão congelados com os últimos valores válidos. 
O Sistema de Telecontrole é utilizado para a troca de dados de controle e proteção com baixos atrasos de 
comunicação entre os Controles de Estação e entre os Controles de Polo das duas estações. Apenas os dados 
do Controle de Polo e do Controle de Estação que está ativo são utilizados para efeito de controle. 
Caso ambos os canais redundantes do Sistema de Telecontrole fiquem indisponíveis interrompendo a 
comunicação entre os Controles de Estação de ambas as estações, a operação ainda será possível e 
continuará sem que sejam necessárias ações do operador. 
Adotar os procedimentos da IO-OC.8XG durante a indisponibilidade dos canais de comunicação. 
Manual de Procedimentos da Operação - Módulo 5 - Submódulo 5.11 
 Cadastro de Informações Operacionais Código Revisão Item Vigência 
Cadastro de Dados Operacionais de Equipamentos da 
Interligação em Corrente Contínua de Xingu CD-CT.8XG.01 12 2.1.1. 08/07/2022 
 
Referência: Diagrama XRTE - XRTE-SE-GER-CP-002-0D 29 / 32 
 
 
5.2. BIPOLO XINGU / TERMINAL RIO 
5.2.1. SE XINGU – CONVERSORES E FILTROS 
5.2.1.1. CONVERSOR 1 E 2 
Tensão 
Lado AC (60 Hz) Lado DC 
Tensão nominal 500 kV Tensão nominal +/- 800 kV 
Tensão máxima de operação 550 kV Tensão máxima de operação +/- 820 kV 
Tensão mínima de operação 475 kV Tensão mínima de operação +/- 560 kV 
Ângulo de disparo (α) 
Nominal 15,0 
Máximo 17,5 
Minimo 12,5 
Minimo Absoluto 5,0 
Banda de Controle ± 2,5° 
Ângulo de extinção (ϒ) 
Nominal 17,0 
Máximo 18,0 
Minimo 16,0 
Minimo Absoluto 13,0 
 
Filtragem de Harmônicos e Compensação Reativa do lado AC (60 Hz) 
Equipamento Potência Composição 
Tempo para 
Energização após 
Desligamento 
Banco BP2F1G11 (C) 200 Mvar ST 58 NI 
Filtro BP2F1G12 (B) 180 Mvar TT 13 / 24 / 36 NI 
Filtro BP2F1G13 (A) 220 Mvar TT 3 / 11 / 50 NI 
Filtro BP2F2FH21 (A) 220 Mvar TT 3 / 11 / 50 NI 
Filtro BP2F2FH22 (B) 180 Mvar TT 13 / 24 / 36 NI 
Banco BP2F2FH23 (C) 200 Mvar ST 58 NI 
Filtro BP2F3FI31 (A) 220 Mvar TT 3 / 11 / 50 NI 
Filtro BP2F3FI32 (B) 180 Mvar TT 13 / 24 / 36 NI 
Banco BP2F3FI33 (C) 200 Mvar ST 58 NI 
Manual de Procedimentos da Operação - Módulo 5 - Submódulo 5.11 
 Cadastro de Informações Operacionais Código Revisão Item Vigência 
Cadastro de Dados Operacionais de Equipamentos da 
Interligação em Corrente Contínua de Xingu CD-CT.8XG.01 12 2.1.1. 08/07/2022 
 
Referência: Diagrama XRTE - XRTE-SE-GER-CP-002-0D 30 / 32 
 
 
 
Filtragem de Harmônicos e Compensação Reativa do lado DC 
Conversor Equipamento Composição 
Tempo para 
Energização após 
Desligamento 
Conversor 1 XRP1F1 2 x 12/24 NI 
XRP1F2 2 x 2/42 NI 
Conversor 2 XRP2F1 2 x 12/24 NI 
XRP2F1 2 x 2/42 NI 
5.2.2. SE TERMINAL RIO – CONVERSORES E FILTROS 
5.2.2.1. CONVERSOR 1 E 2 
Tensão 
Lado AC (60 Hz) Lado DC 
Tensão nominal 500 kV Tensão nominal +/- 800 kV 
Tensão máxima de operação 550 kV Tensão máxima de operação +/- 820 kV 
Tensão mínima de operação 475 kV Tensão mínima de operação +/- 560 kV 
Ângulo de disparo (α) 
Nominal 15,0 
Máximo 17,5 
Minimo 12,5 
Minimo Absoluto 5,0 
Banda de Controle ± 2,5° 
Ângulo de extinção (ϒ) 
Nominal 17,0 
Máximo 18,0 
Minimo 16,0 
Minimo Absoluto 13,0 
 
Filtragem de Harmônicos e Compensação Reativa do lado AC (60 Hz) 
Equipamento Potência Composição 
Tempo para 
Energização após 
Desligamento 
Filtro BP2F1C11 (B) 225 Mvar TT 13 / 13 / 36 NI 
Filtro BP2F1C12 (A) 225 Mvar DT 11/24 NI 
Banco BP2F1C13 (C) 225 Mvar ST 58 NI 
Banco BP2F1C14 (C) 225 Mvar ST 58 NI 
Manual de Procedimentos da Operação - Módulo 5 - Submódulo 5.11 
 Cadastro de Informações Operacionais Código Revisão Item Vigência 
Cadastro de Dados Operacionais de Equipamentos da 
Interligação em Corrente Contínua de Xingu CD-CT.8XG.01 12 2.1.1. 08/07/2022 
 
Referência: Diagrama XRTE - XRTE-SE-GER-CP-002-0D 31 / 32 
 
 
Filtragem de Harmônicos e Compensação Reativa do lado AC (60 Hz) 
Equipamento Potência Composição 
Tempo para 
Energização após 
Desligamento 
Filtro BP2F2D11 (B) 225 Mvar TT 13 / 13 / 36 NI 
Filtro BP2F2D12 (A) 225 Mvar DT 11/24 NI 
Banco BP2F2D13 (C) 225 Mvar ST 58 NI 
Banco BP2F2D14 (C) 225 Mvar ST 58 NI 
Filtro BP2F3E11 (B) 225 Mvar TT 13 / 13 / 36 NI 
Filtro BP2F3E12 (A) 225 Mvar DT 11/24 NI 
Banco BP2F3E13 (C) 225 Mvar ST 58 NI 
Banco BP2F3E14 (C) 225 Mvar ST 58 NI 
 
Filtragem de Harmônicos e Compensação Reativa do lado DC 
Conversor Equipamento Composição 
Tempo para 
Energização após 
Desligamento 
Conversor 1 P1F1 2 x 12/24 NI 
P1F2 2 x 2/42 NI 
Conversor 2 P2F1 2 x 12/24 NI 
P2F1 2 x 2/42 NI 
5.2.3. CONTROLE DE BIPOLO 
Ver IO-EE.8XG 
5.2.4. CONTROLE DE POLO 
O Controle de Polo é responsável por receber a ordem de potência bipolar definida pelo Controle de Bipolo 
da estação retificadora, determinar a ordem de corrente do polo e encaminhá-la ao Controle de Conversor 
para que este a traduza em uma sequência de pulsos de disparo para as válvulas tiristoras (Valve Base 
Electronics). 
As seguintes funções de controle encontram-se implementadas no nível de polo: 
• Controle de Potência e Corrente 
• Controle de Sobrecarga 
• Controle de Reversão de Potência 
• Cálculo da Ordem de Corrente 
• Controle do Comutador de Tapes dos Transformadores Conversores (TCC) 
• Função de Teste de Linha Aberta 
• Controle de Sequências de Polo 
Manual de Procedimentos da Operação - Módulo 5 - Submódulo 5.11 
 Cadastro de Informações Operacionais Código Revisão Item Vigência 
Cadastro de Dados Operacionais de Equipamentos da 
Interligação em Corrente Contínua de Xingu CD-CT.8XG.01 12 2.1.1. 08/07/2022 
 
Referência: Diagrama XRTE - XRTE-SE-GER-CP-002-0D 32 / 32 
 
 
5.2.5. CONTROLE DE CONVERSOR  
O controle do conversor é o responsável pelo instante de disparo. Ele é composto basicamente por um 
controlador em malha fechada de corrente / tensão, controle de disparo do conversor e controle de limite. 
O controle de disparo do conversor recebe uma ordem de corrente do controle de potência do polo e envia 
pulsos de disparo, de tal maneira que a corrente ordenada é mantida constante.  
A dinâmica do sistema de transmissão CC é determinada basicamente através dos ajustes do Limitador de 
Ordem de Corrente Dependente da Tensão (VDCOL) e do amplificador do controle de corrente. 
As seguintes funções de controle encontram-se implementadas no nível de conversor: 
• Controle de Corrente CC 
• Controle de Tensão CC 
• Controle de Ângulo de Disparo Máximo (AMAX) do Inversor 
• Inter-relacionamento do controlador principal 
• Controle de desbloqueio / bloqueio 
 
