Manual de Procedimentos da Operação
Módulo 5 - Submódulo 5.11
Cadastro de Informações Operacionais
Cadastro de Informações Operacionais Hidráulicas da Bacia do Rio Uruguai
Código Revisão Item Vigência
CD-OR.UR.URU 54 2.3. 25/07/2024
.
MOTIVO DA REVISÃO 
- Adequação do ROH 2 - Condição de Fechamento de Comportas na UHE Itá, devido à substituição do FSAR-
H 5419 pelo FSAR-H 6442-2024.
LISTA DE DISTRIBUIÇÃO
CNOS COSR-S AF ENERGIA BAESA CGT 
ELETROSUL ENERCAN ENGIE
Energisa 
Soluções STATKRAFT FCE Rio Paraná 
Energia 
NOVA 
ENGEVIX 
Manual de Procedimentos da Operação - Módulo 5 - Submódulo 5.11
 Cadastro de Informações Operacionais Código Revisão Item Vigência
Cadastro de Informações Operacionais Hidráulicas da 
Bacia do Rio Uruguai CD-OR.UR.URU 54 2.3. 25/07/2024
Referência: 2 / 56
ÍNDICE
1. OBJETIVO.........................................................................................................................................4
2. CONSIDERAÇÕES GERAIS .................................................................................................................4
3. DADOS DOS RESERVATÓRIOS ..........................................................................................................5
3.1. Dados de Identificação dos Aproveitamentos...............................................................................5
3.2. Dados Atemporais dos Reservatórios – Tabela 1 ..........................................................................6
3.3. Dados Atemporais dos Reservatórios – Tabela 2 ..........................................................................8
3.4. Dados Atemporais dos Reservatórios – Tabela 3 ........................................................................10
4. RESTRIÇÕES OPERATIVAS HIDRÁULICAS (ROH) E INFORMAÇÕES OPERATIVAS RELEVANTES (IOR) .12
4.1. UHE São Roque............................................................................................................................12
4.2. UHE Garibaldi ..............................................................................................................................12
4.3. UHE Campos Novos.....................................................................................................................13
4.4. UHE Barra Grande .......................................................................................................................14
4.5. UHE Machadinho.........................................................................................................................15
4.6. UHE Itá.........................................................................................................................................18
4.7. UHE Foz do Chapecó ...................................................................................................................21
4.8. UHE Monjolinho ..........................................................................................................................24
4.9. UHE Passo Fundo.........................................................................................................................25
4.10. UHE Quebra Queixo ....................................................................................................................26
4.11. UHE São José ...............................................................................................................................26
4.12. UHE Passo São João.....................................................................................................................28
4.13. Quadros Resumo das Restrições Operativas Hidráulicas (ROHs) e das Informações Operativas 
Relevantes (IORs) ........................................................................................................................29
5. REDE HIDROMÉTRICA ....................................................................................................................37
5.1. Estações Hidrométricas – UHE São Roque ..................................................................................37
5.2. Estações Hidrométricas – UHE Garibaldi.....................................................................................41
5.3. Estações Hidrométricas – UHE Foz do Chapecó ..........................................................................42
5.4. Estações Hidrométricas – UHE São José......................................................................................44
5.5. Estações Hidrométricas – UHE Passo São João: ..........................................................................46
5.6. Estações Hidrométricas – UHE Machadinho, UHE Itá e UHE Passo Fundo .................................47
6. DIAGRAMAS DE OPERAÇÃO ...........................................................................................................51
6.1. Diagramas de Operação Normal, Atenção, Alerta e Emergência da UHE Barra Grande.............51
6.2. Diagrama de Operação Normal, Atenção, Alerta e Emergência da UHE Campos Novos............52
6.3. Diagrama de Operação Normal, Atenção, Alerta e de Emergência da UHE Foz do Chapecó .....53
6.4. Diagrama de Operação da UHE São José.....................................................................................54
Manual de Procedimentos da Operação - Módulo 5 - Submódulo 5.11
 Cadastro de Informações Operacionais Código Revisão Item Vigência
Cadastro de Informações Operacionais Hidráulicas da 
Bacia do Rio Uruguai CD-OR.UR.URU 54 2.3. 25/07/2024
Referência: 3 / 56
6.5. Diagrama de Operação da UHE Passo São João ..........................................................................55
7. VOLUMES DE ESPERA PARA O CONTROLE DE CHEIAS .....................................................................56
Manual de Procedimentos da Operação - Módulo 5 - Submódulo 5.11
 Cadastro de Informações Operacionais Código Revisão Item Vigência
Cadastro de Informações Operacionais Hidráulicas da 
Bacia do Rio Uruguai CD-OR.UR.URU 54 2.3. 25/07/2024
Referência: 4 / 56
1. OBJETIVO
Apresentar os Dados Operacionais Hidráulicos dos Reservatórios da Bacia do Rio Uruguai, de acordo com os 
Procedimentos de Rede, a serem observados pelos operadores dos Centros de Operação do ONS e pelas 
Áreas de Operação dos Agentes de Geração envolvidos no controle desses valores.
2. CONSIDERAÇÕES GERAIS
2.1. Os dados constantes neste Cadastro de Informações Operacionais Hidráulicas são informações sobre 
os reservatórios dessa Bacia Hidrográfica, necessárias às ações de coordenação, supervisão e controle 
dos Centros de Operação do ONS para a operação hidráulica desse Sistema de Reservatórios.
2.2. Os operadores dos Centros de Operação do ONS, nas ações de coordenação, supervisão e controle, 
devem observar os dados operacionais constantes neste Cadastro de Informações Operacionais 
Hidráulicas.
2.3. As áreas de operação dos Agentes de Geração, em suas ações de comando e execução, devem 
observar os dados operacionais constantes neste Cadastro de Informações Operacionais Hidráulicas.
2.4. Os campos das tabelas cujos dados operacionais não existam devem ser preenchidos com a sigla “NE” 
– Não Existente.
2.5. Os campos das tabelas cujos dados operacionais não foram informados pelo Agente de Geração 
devem ser preenchidos com a sigla “NI” – Não Informado.
2.6. Os campos das tabelas cujos dados operacionais não se aplicam para um determinado reservatório 
devem ser preenchidos com um hífen “-”.
Manual de Procedimentos da Operação - Módulo 5 - Submódulo 5.11
 Cadastro de Informações Operacionais Código Revisão Item Vigência
Cadastro de Informações Operacionais Hidráulicas da 
Bacia do Rio Uruguai CD-OR.UR.URU 54 2.3. 25/07/2024
Referência: 5 / 56
3. DADOS DOS RESERVATÓRIOS
3.1. DADOS DE IDENTIFICAÇÃO DOS APROVEITAMENTOS
Localização em Relação à BarragemDenominação do 
Reservatório Usina Rio Classificação Regularização
Município Margem Direita Município Margem Esquerda
UHE São Roque UHE São Roque Canoas Acumulação Mensal Vargem – SC São José do Cerrito – SC
UHE Garibaldi UHE Garibaldi Canoas Fio d’Água Diária Abdon Batista – SC Abdon Batista – SC
UHE Campos Novos UHE Campos Novos Canoas Acumulação Diária Campos Novos – SC Celso Ramos – SC
UHE Barra Grande UHE Barra Grande Pelotas Acumulação Mensal Anita Garibaldi – SC Pinhal da Serra – RS
UHE Machadinho UHE Machadinho Uruguai Acumulação Semanal Piratuba – SC Maximilano de Almeida – RS
UHE Itá UHE Itá Uruguai Fio d’Água Diária Itá – SC Aratiba – RS
UHE Foz do Chapecó UHE Foz do Chapecó Uruguai Fio d’Água Diária Águas de Chapecó – SC Alpestre – RS
UHE Passo Fundo UHE Passo Fundo
Erechim /
Passo Fundo Acumulação Anual Entre Rios do Sul – RS Entre Rios do Sul – RS
UHE Monjolinho UHE Monjolinho Passo Fundo Fio d’Água Diária Faxinalzinho – RS Nonoai – RS
UHE Quebra Queixo UHE Quebra Queixo Chapecó Acumulação Diária São Domingos – SC Ipuaçú – SC
UHE São José UHE São José Ijuí Fio d’Água Diária Salvador das Missões – RS Rolador – RS
UHE Passo São João UHE Passo São João Ijuí Fio d’Água Diária Roque Gonzales – RS Dezesseis de Novembro – RS
 
Manual de Procedimentos da Operação - Módulo 5 - Submódulo 5.11
 Cadastro de Informações Operacionais Código Revisão Item Vigência
Cadastro de Informações Operacionais Hidráulicas da 
Bacia do Rio Uruguai CD-OR.UR.URU 54 2.3. 25/07/2024
Referência: 6 / 56
3.2. DADOS ATEMPORAIS DOS RESERVATÓRIOS – TABELA 1
Nível (m) Área de Drenagem 
(km²)
Distâncias e Tempos de Viagem entre 
Aproveitamentos
Nome
Mínimo
Operativo
Máximo
Operativo
Máximo
Maximorum
Coroa-
mento
Canal 
Fuga 
(média)
Total até o
Reservatório
Própria 
do 
Reservat
ório
Distância 
até a Foz 
(km) Aproveitamentos (km) (1) (h) (2)
UHE São Roque 746,00 760,00 765,91 766,10 706,77 10.091 10.091 133,5 São Roque / Garibaldi 46 3
UHE Garibaldi 702,50 705,00 712,37 713,00 660,67 23.155 13.064 87,5 Garibaldi / Campos 
Novos 53,7 1 
UHE Campos Novos 655,00 660,00 665,00 666,30 477,55 24.291 1.136 21 (3) Campos Novos / 
Machadinho 82 1
UHE Barra Grande 617,00 647,00 650,14 651,00 479,75 13.000 13.000 43 (3) Barra Grande / 
Machadinho 90 1
UHE Machadinho 465,00 480,00 485,36 486,50 374,00 42.141 5.050 440 (6) Machadinho / Itá 80 1
UHE Itá 364,00 370,00 375,70 377,00 264,00 54.591 12.450 260 (5) Itá / Foz do Chapecó 125 1
UHE Foz do Chapecó 264,00 265,00 266,60 268,00 212,07 63.091 8.500 135 (5) - - -
UHE Passo Fundo 584,00 598,00 598,50 601,00 335,00 2.300 2.300 40 (3) Passo Fundo / 
Monjolinho 27 1
UHE Monjolinho 326,50 328,50 333,50 334 265,20 3.770 1470 13 Monjolinho / Foz do 
Chapecó 83 1
Manual de Procedimentos da Operação - Módulo 5 - Submódulo 5.11
 Cadastro de Informações Operacionais Código Revisão Item Vigência
Cadastro de Informações Operacionais Hidráulicas da 
Bacia do Rio Uruguai CD-OR.UR.URU 54 2.3. 25/07/2024
Referência: 7 / 56
Nível (m) Área de Drenagem 
(km²)
Distâncias e Tempos de Viagem entre 
Aproveitamentos
Nome
Mínimo
Operativo
Máximo
Operativo
Máximo
Maximorum
Coroa-
mento
Canal 
Fuga 
(média)
Total até o
Reservatório
Própria 
do 
Reservat
ório
Distância 
até a Foz 
(km) Aproveitamentos (km) (1) (h) (2)
UHE Quebra Queixo 544,00 549,00 553,00 553,19 426,38 2.670 2.670 165 (3) Quebra Queixo / Foz 
Chapecó 250 12
UHE São José 153,67 154,67 154,67 156,70 136,78 9.594 9.594 130,60 São José / Passo São 
João 58,4 1,7 (4)
UHE Passo São João 127,35 128,35 128,35 131,50 98,51 10.128 534 66,9 - - -
(1) Valor estimado.
(2) Tempo médio em condições de reservatório.
(3) Até confluência com rio Uruguai.
(4) Tempo de viagem da água em condições de reservatório.
(5) Até fim trecho nacional, confluência com rio Peperi-Guaçu.
(6) Inclui 8 km de trecho em canal natural até início do remanso Itá + trecho reservatório.
Manual de Procedimentos da Operação - Módulo 5 - Submódulo 5.11
 Cadastro de Informações Operacionais Código Revisão Item Vigência
Cadastro de Informações Operacionais Hidráulicas da 
Bacia do Rio Uruguai CD-OR.UR.URU 54 2.3. 25/07/2024
Referência: 8 / 56
3.3. DADOS ATEMPORAIS DOS RESERVATÓRIOS – TABELA 2
Volume (hm³) Dados da Casa de Força
Aproveitamento
Útil
No Nível 
Mínimo
Operativo
No Nível 
Máximo
Operativo 
No Nível 
Máximo
Maximorum
Quantidade 
de 
Unidades 
Geradoras
Potência por 
UG
(MW)
Potência 
Total
(MW)
Engolimento
por UG
(m³/s)
Produtibilidade a 
65% VU
(MW/m³/s)
UHE São Roque 458,95 336,72 795,67 1105,84 3 3 x 47,3 141,9 111 0,41912 
UHE Garibaldi 52,11 244,08 296,19 545,73 3 3 x 63 189 164,23 0,40
UHE Campos Novos 129,62 1341,92 1471,55 1701,47 3 3 x 293,3 880 194 1,6600
UHE Barra Grande 2192,66 2711,79 4904,45 5190,33 3 3 x 230 690 164,80 1,4690
UHE Machadinho 1055,81 2283,31 3339,12 3779,99 3 3 x 380 1140 435 0,9187
UHE Itá 797,85 4301,93 5099,78 5983,79 5 5 x 290 1450 313 0,9186
UHE Foz do Chapecó 74,98 1426,81 1501,80 1635,33 4 4 x 213,75 855 489,1 0,4421
UHE Monjolinho 10,98 139,573 150,553 185,306 2 2 x 37 74 70,72 0,551 
UHE Passo Fundo 1404,61 184,00 1588,61 1665,74 2 2 x 113 226 49 2,2427
UHE Quebra Queixo 25,51 111,12 136,63 162,49 3 3 x 40 120 38,6 1,0400 
Manual de Procedimentos da Operação - Módulo 5 - Submódulo 5.11
 Cadastro de Informações Operacionais Código Revisão Item Vigência
Cadastro de Informações Operacionais Hidráulicas da 
Bacia do Rio Uruguai CD-OR.UR.URU 54 2.3. 25/07/2024
Referência: 9 / 56
Volume (hm³) Dados da Casa de Força
Aproveitamento
Útil
No Nível 
Mínimo
Operativo
No Nível 
Máximo
Operativo 
No Nível 
Máximo
Maximorum
Quantidade 
de 
Unidades 
Geradoras
Potência por 
UG
(MW)
Potência 
Total
(MW)
Engolimento
por UG
(m³/s)
Produtibilidade a 
65% VU
(MW/m³/s)
UHE São José 137,46 165,341 187,88 187,88 2 2 x 25,5 51 144,30 0,176
UHE Passo São João 18,50 83,90 102,40 102,40 2 2 x 39,69 79,38 166,00 0,45
Manual de Procedimentos da Operação - Módulo 5 - Submódulo 5.11
 Cadastro de Informações Operacionais Código Revisão Item Vigência
Cadastro de Informações Operacionais Hidráulicas da 
Bacia do Rio Uruguai CD-OR.UR.URU 54 2.3. 25/07/2024
Referência: 10 / 56
3.4. DADOS ATEMPORAIS DOS RESERVATÓRIOS – TABELA 3
Extravasores
Descarregador de Fundo Vertedouro com Comporta Tulipa Vertedor com Soleira 
Livre
Válvulas 
Dispersoras
Aproveitamento
Quanti-
dade
Cota da
Soleira
(m)
Vazão  
por 
comporta
(m³/s)
Quanti-
dade de 
Vãos
Cota da
Crista da 
Soleira
(m)
Vazão por 
Vão
(m³/s)
Cota da
Soleira
(m)
Vazão 
Máxima
(m³/s)
Quan
tidad
e de 
Vãos
Cota da 
Crista da
Soleira
(m)
Vazão 
por Vão
(m³/s)
Quanti-
dade
Vazão por 
Válvula
(m³/s)
Vazão
Total
(m³/s)
UHE São Roque 2 732 6,85 - - - - - 1 760,00 12.928 - - 12.941,7
UHE Garibaldi - - - - 705,00 - - - 1 705,00 17.360 - 13 17.360
UHE Campos Novos - - - 4 640,00 4.575 - - - - - - - 18.300
UHE Barra Grande - - - 6 627,00 3.508 - - - - - - - 21.048
UHE Machadinho - - - 8 460,00 4.462 - - - - - - - 35.700
UHE Itá - - - 10 350,00 4.994 - - - - - - - 49.940
UHE Foz do Chapecó - - - 15 244,40 4.146 - - - - - - - 62.190
UHE Passo Fundo - - - 6 592,66 324 - - - - - - - 1.944
UHE Monjolinho - - - - 328,50 - - - 1 328,50 6.755 - - 6.755
UHE Quebra Queixo - - - - 549,00 - - - 1 549,00 (1) 4.999 1 0,50 4.999,5
UHE São José - - - 6 136,87 1.949,00 - - - - - - - 11.694
Manual de Procedimentos da Operação - Módulo 5 - Submódulo 5.11
 Cadastro de Informações Operacionais Código Revisão Item Vigência
Cadastro de Informações Operacionais Hidráulicas da 
Bacia do Rio Uruguai CD-OR.UR.URU 54 2.3. 25/07/2024
Referência: 11 / 56
Extravasores
Descarregador de Fundo Vertedouro com Comporta Tulipa Vertedor com Soleira 
Livre
Válvulas 
Dispersoras
Aproveitamento
Quanti-
dade
Cota da
Soleira
(m)
Vazão  
por 
comporta
(m³/s)
Quanti-
dade de 
Vãos
Cota da
Crista da 
Soleira
(m)
Vazão por 
Vão
(m³/s)
Cota da
Soleira
(m)
Vazão 
Máxima
(m³/s)
Quan
tidad
e de 
Vãos
Cota da 
Crista da
Soleira
(m)
Vazão 
por Vão
(m³/s)
Quanti-
dade
Vazão por 
Válvula
(m³/s)
Vazão
Total
(m³/s)
UHE Passo São João - - - 6 110,00 1.928,33 - - - - - - - 11.570
(1)  Na UHE Quebra Queixo, a partir da cota 549,00 m, a taxa de variação da defluência é igual à taxa de variação da afluência. Historicamente, a vazão defluente 
máxima ocorrida foi de 798,40 m³/s, em 22/12/2003.
Manual de Procedimentos da Operação - Módulo 5 - Submódulo 5.11
 Cadastro de Informações Operacionais Código Revisão Item Vigência
Cadastro de Informações Operacionais Hidráulicas da 
Bacia do Rio Uruguai CD-OR.UR.URU 54 2.3. 25/07/2024
Referência: 12 / 56
4. RESTRIÇÕES OPERATIVAS HIDRÁULICAS (ROH) E INFORMAÇÕES OPERATIVAS RELEVANTES (IOR)
4.1. UHE SÃO ROQUE
4.1.1. Restrições Operativas hidráulicas (ROH)
4.1.1.1. Restrições de Jusante
ROH 1 – Vazão Remanescente 
Na operação do reservatório da UHE São Roque, por determinação do IMA-SC, é necessária uma vazão 
ecológica mínima de 13,7 m³/s.
ROH 2 – Vazão Turbinada Mínima 
Na operação do reservatório da UHE São Roque é necessária vazão turbinada mínima de 56 m³/s, referente 
a geração mínima de 24 MW em uma unidade geradora, de modo a manter os sistemas de resfriamento das 
unidades em funcionamento para evitar problemas com mexilhões-dourado. Assim, atendendo também a 
restrição de vazão remanescente (ROH-1) da UHE São Roque. 
4.1.1.2. Restrições de Montante
Não se aplica.
4.1.1.3. Outras Restrições
Não se aplica.
4.1.2. Informações Operativas Relevantes (IOR)
Não se aplica.
4.2. UHE GARIBALDI
4.2.1. Restrições Operativas Hidráulicas (ROH)
4.2.1.1. RESTRIÇÕES DE JUSANTE
ROH 1 – Vazão Defluente Mínima 
Na operação do reservatório da UHE Garibaldi, reservatório sem controle de defluência (vertedouro de 
soleira livre), deve ser observado 13 m³/s para atendimento à vazão defluente remanescente mínima. A 
vazão defluente remanescente mínima é garantida pela operação da unidade geradora G4 (de 2,9 MW) 
localizada na ombreira direita da barragem ou por uma válvula dispersora. 
ROH 2 – Desligamento das Unidades Geradoras
Caso haja necessidade de se desligar todas as unidades geradoras da UHE Garibaldi, de modo se evitar 
impactos ambientais, em especial aqueles relacionados ao aprisionamento de peixes em lagoas que se 
formam à jusante do reservatório, esse desligamento deve ser programado com, no mínimo, 24 horas de 
antecedência, bem como, ocorrer durante o período diurno, devido à necessidade de acompanhamento pela 
Área de Meio Ambiente do Agente.
4.2.1.2. Restrições de Montante
Não se aplica.
Manual de Procedimentos da Operação - Módulo 5 - Submódulo 5.11
 Cadastro de Informações Operacionais Código Revisão Item Vigência
Cadastro de Informações Operacionais Hidráulicas da 
Bacia do Rio Uruguai CD-OR.UR.URU 54 2.3. 25/07/2024
Referência: 13 / 56
4.2.1.3. Outras Restrições
Não se aplica.
4.2.2. Informações Operativas Relevantes (IOR)
Não se aplica.
4.3. UHE CAMPOS NOVOS
4.3.1. Restrições Operativas Hidráulicas (ROH)
4.3.1.1. Restrições de Jusante
Não se aplica.
4.3.1.2. Restrições de Montante
Não se aplica.
4.3.1.3. Outras Restrições
Não se aplica.
4.3.2. Informações Operativas Relevantes (IOR)
IOR 1 – Vazão Defluente Mínima 
Com a finalidade da proteção da ictiofauna, estando o nível do reservatório da UHE Machadinho abaixo da 
cota 473 metros, é recomendada uma vazão defluente mínima em torno de 18 m³/s. Esta vazão poderá não 
ser obrigatoriamente contínua, conforme a avaliação, pelo ENERCAN, das condições ambientais locais no 
trecho a jusante da UHE Campos Novos (entre a barragem e o encontro do Rio Canoas com o reservatório da 
UHE Machadinho).
IOR 2 – Taxa de Fechamento de Comportas 
Recomenda-se que para proteção da Ictiofauna à jusante do vertedouro, o procedimento para fechamento 
das comportas, seja feito de maneira gradual. As taxas de fechamento estão condicionadas à observação das 
condições locais, principalmente em períodos de Piracema. 
IOR 3 – Nível de Jusante  
Estando o nível a jusante em ascensão, com possibilidade de ultrapassar a cota 481,00 metros, a operação 
da UHE Campos Novos deve proceder o tamponamento das válvulas de aeração das turbinas, situação esta 
em que deve ser evitada a geração na faixa entre 170 MW a 220 MW.
IOR 4 – Taxa de Variação Máxima da Defluência
Para valores de defluência QD em m³/s conforme faixa abaixo, recomenda-se utilizar a respectiva taxa 
referencial de variação máxima da defluência:
QD ≤ 8.000 m³/s → Taxa ≤ 200m³/s/h;
QD > 8.000 m³/s → Taxa ≤ 400m³/s/h.
Manual de Procedimentos da Operação - Módulo 5 - Submódulo 5.11
 Cadastro de Informações Operacionais Código Revisão Item Vigência
Cadastro de Informações Operacionais Hidráulicas da 
Bacia do Rio Uruguai CD-OR.UR.URU 54 2.3. 25/07/2024
Referência: 14 / 56
4.4. UHE BARRA GRANDE
4.4.1. Restrições Operativas hidráulicas (ROH)
4.4.1.1. Restrições de Jusante
ROH 1 – Vazão Defluente Mínima
Recomenda-se a manutenção de vazão mínima para jusante da ordem de 16 m³/s, para fins de proteção da 
ictiofauna. Esse valor pode ser superior, em função da observação das condições locais vigentes. Na 
impossibilidade de se ter geração mínima em pelo menos uma unidade geradora, o vertedouro deve ser 
aberto imediatamente para atendimento a essa restrição.
A UHE Barra Grande não possui equipamento extravasor abaixo da cota 627 m, correspondente à soleira do 
vertedouro livre. Portanto, entre a cota 627,20 m e a cota 617 m (nível mínimo operativo), a vazão defluente 
se dá unicamente pela geração, sendo que abaixo da cota 617 m não é possível qualquer vazão defluente.
ROH 2 – Vazão Turbinada Mínima
Conforme curva de colina das unidades geradoras a faixa de trabalho é de 190 MW (aproximadamente 140 
m³/s) a 230 MW.
4.4.1.2. Restrições de Montante
Não se aplica.
4.4.1.3. Outras Restrições
Não se aplica.
4.4.2. Informações Operativas Relevantes (IOR)
IOR 1 – Taxa de Fechamento de Comportas 
Recomenda-se que para proteção da Ictiofauna à jusante do vertedouro, o procedimento para fechamento 
das comportas, seja feito de maneira gradual. As taxas de fechamento estão condicionadas à observação das 
condições locais, principalmente em períodos de Piracema. 
IOR 2 – Quando do Bloqueio de Todas as Unidades Geradoras
Recomenda-se para a proteção da Ictiofauna, quando do bloqueio de todas as unidades geradoras ao mesmo 
tempo, cuja previsão de retorno não seja de imediato, compensar a defluência através do vertedor com 
vazão em torno de 16 m³/s.
IOR 3 – Taxa de Variação Máxima da Defluência
Considerando a defluência QD em m³/s, recomenda-se utilizar a respectiva taxa referencial de variação 
máxima da defluência:
QD ≤ 12.000 m³/s  → Taxa ≤ 400m³/s/h;
QD > 12.000 m³/s → Taxa ≤ 500m³/s/h.
IOR 4 – Vazão Turbinada Mínima
Conforme curva de colina das unidades geradoras a faixa de trabalho é de 190 a 230 MW, sendo 140 m³/s é 
equivalente aproximadamente 190 MW conforme a queda bruta.
Manual de Procedimentos da Operação - Módulo 5 - Submódulo 5.11
 Cadastro de Informações Operacionais Código Revisão Item Vigência
Cadastro de Informações Operacionais Hidráulicas da 
Bacia do Rio Uruguai CD-OR.UR.URU 54 2.3. 25/07/2024
Referência: 15 / 56
4.5. UHE MACHADINHO
4.5.1. Restrições Operativas hidráulica (ROH)
4.5.1.1. Restrições de Jusante
ROH 1 – Vazão Defluente Mínima
Com a finalidade de proteção da ictiofauna é recomendada a manutenção de uma vazão mínima da ordem 
de 120 m³/s. Esta vazão poderá ser superior conforme a observação das condições locais. Diante da 
impossibilidade de uma unidade geradora ser despachada com carga mínima ou da operação das três 
unidades geradoras como compensador síncrono, de forma a atender a essa restrição, o vertedouro deve ser 
aberto imediatamente com a vazão equivalente.
ROH 2 – Vazão Turbinada Mínima
Considerando o risco elevado de danos a ictiofauna quando ocorre operação com geração nula, estando em 
condições normais de armazenamento (maior que 0%VU), essa Usina não pode operar com com vazão 
turbinada zerada. Essa situação favorece a supersaturação da água no canal de fuga, podendo causar dano à 
ictiofauna por embolia gasosa. 
Como na UHE Machadinho existe a possibilidade de operar em uma faixa operativa menor que a faixa normal 
para uma condição específica de queda bruta, a vazão turbinada mínima será determinada de acordo com o 
nível do reservatório, conforme tabela abaixo:
ROH 3 – Outras Restrições
A operação das unidades geradoras da usina no modo compensador síncrono ou desligadas favorece a 
aproximação e entrada de peixes no tubo de sucção da respectiva máquina. Portanto, para evitar riscos à 
ictiofauna, é necessário que a equipe de resgate acompanhe sempre que for necessária a partida ou reversão 
(de compensador para gerador) das unidades. No entanto, devido à falta de luminosidade natural, esse 
acompanhamento não pode ser realizado durante o horário noturno por questões de segurança. 
Portanto, nos períodos das 0h às 8h e das 16h às 24h, não devem ser realizadas partidas ou reversões (de 
compensador para gerador) nas unidades geradoras da usina.
4.5.1.2. Restrições de Montante
Não se aplica.
4.5.2. Informações Operativas Relevantes (IOR)
Nível do Reservatório (NR) e 
Queda Bruta (HB) 
(m)
Vazão Turbinada Mínima 
(m³/s)
Geração Equivalente 
(MW) 
para (MW/m3/s) = 0,88
NR ≥ 469,9
HB ≥ 95,7 295 260
NR < 469,9 e NR ≥ 465
HB 95,7 m 250 220
NR < 465 0 0
Manual de Procedimentos da Operação - Módulo 5 - Submódulo 5.11
 Cadastro de Informações Operacionais Código Revisão Item Vigência
Cadastro de Informações Operacionais Hidráulicas da 
Bacia do Rio Uruguai CD-OR.UR.URU 54 2.3. 25/07/2024
Referência: 16 / 56
IOR 1 – Nível Máximo de Montante
Recomenda-se que o nível máximo de 480,00 m, não seja ultrapassado, considerando que:
•Em um dos braços do reservatório, pela margem esquerda, está instalada a fábrica de pasta de celulose 
Hachmann S.A., onde o canal de fuga da PCH e o canal de restituição da fábrica estão muito próximos do 
nível 480,00m, colocando em risco de inundação das instalações;
•A cota de desapropriação também está muito próxima de 480,00 m;
•A oscilação dos níveis do reservatório acima de 480,00 m aumenta o transporte de detritos flutuantes 
(troncos, madeiras, vegetação) das margens para o corpo do reservatório. Estes detritos tendem a se 
acumular nas grades da tomada de água, afetando o rendimento das unidades geradoras e também 
podendo causar esforços adicionais nas estruturas de ferro, aumentando o risco de rompimento das 
grades.
IOR 2 – Taxa de Fechamento das Comportas
Recomenda-se que para proteção da Ictiofauna à jusante do vertedouro, o procedimento para fechamento 
das comportas, seja feito de maneira gradual. As taxas de fechamento estão condicionadas à observação das 
condições locais, principalmente em períodos de Piracema. Estas operações devem ser acompanhadas pelo 
pessoal da usina para verificar e evitar eventuais consequências indesejáveis de caráter ambiental.  
IOR 3 – Taxa de Variação Máxima da Defluência
Considerando a defluência QD em m³/s, recomenda-se utilizar a respectiva taxa referencial de variação 
máxima da defluência:
QD ≤ 5.000 m³/s → Taxa ≤ 500 m³/s/h               
QD > 5.000 m³/s → Taxa ≤ 1.000 m³/s/h  
IOR 4 – Redução da Vazão Defluente
Redução da Vazão Defluente com Vertimento
a)Estando a vazão defluente superior a 2.500 m 3/s não há restrições para redução da vazão defluente. 
 
b)Estando a vazão defluente igual ou inferior a 2.500 m 3/s, para preservação da ictiofauna do rio 
Uruguai, evitando aprisionamento de peixes em rochas à jusante do canal de fuga e vertedouro da 
UHE Machadinho, todas as reduções de vazão defluente devem ter acompanhamento das equipes 
de campo.
Nos períodos das 0h às 8h e das 16h às 24h, por questões de segurança (falta de luminosidade natural 
nas ações de proteção de ictiofauna) não é possível este acompanhamento.
Horários Vazão Defluente com Vertimento 
(m³/s) 0h a 8h 8h a 16h 16h a 24h
Se estiver superior a 2.500 Sem restrição Sem restrição Sem restrição
Se estiver igual ou inferior a 2.500 permitida 
somente elevação permitida redução permitida 
somente elevação
Notas:
(1)  As reduções de defluência total serão possíveis apenas entre às 08h e às 16h, devendo levar também 
em consideração o tempo de deslocamento das equipes de campo, que leva aproximadamente 
Manual de Procedimentos da Operação - Módulo 5 - Submódulo 5.11
 Cadastro de Informações Operacionais Código Revisão Item Vigência
Cadastro de Informações Operacionais Hidráulicas da 
Bacia do Rio Uruguai CD-OR.UR.URU 54 2.3. 25/07/2024
Referência: 17 / 56
uma hora.
(2)  Havendo a necessidade de diminuir a vazão turbinada, em situações em que a redução da vazão 
defluente não é permitida, essa deve ser compensada por vazão vertida no sentido de não variar o 
nível de jusante e vice-versa.
Redução da Vazão Defluente sem Vertimento
a)Estando a vazão turbinada superior a 910 m 3/s não há restrições para redução da vazão turbinada. 
 
b)Estando a vazão turbinada entre 300 e 910 m 3/s, para preservação da ictiofauna do rio Uruguai, 
evitando aprisionamento de peixes em rochas à jusante do canal de fuga e vertedouro da UHE 
Machadinho, todas as reduções de vazão turbinada devem ter acompanhamento das equipes de 
campo.
Nos períodos das 0h às 8h e das 16h às 24h, por questões de segurança (falta de luminosidade natural 
nas ações de proteção de ictiofauna) não é possível este acompanhamento.
Horários Vazão Defluente sem Vertimento 
(m³/s) 0h a 8h 8h a 16h 16h a 24h
Se estiver superior a 910 Sem restrição Sem restrição Sem restrição
Se estiver entre 300 e 910 permitida 
somente elevação
Permitida redução, 
porém 
condicionada (2)
permitida 
somente elevação
Notas:
(1)   As reduções de defluência serão possíveis apenas entre às 08h e às 16h, devendo levar também em 
consideração o tempo de deslocamento das equipes de campo, que leva aproximadamente uma 
hora.
(2)  A redução da vazão turbinada deve ser realizada em patamares com intervalos de 30 minutos, 
conforme segue:
Intervalos de 30 minutos Vazão Turbinada 
(m³/s)
Geração 
Equivalente (MW) 
para (MW/m3/s) = 0,8573
0 min a 30 min 910 780
30 min a 1h 747 640
1h a 1h30 607 520
1h30 a 2h 443 380
2h a 2h30 303 260
IOR 5 – Operação das Unidade Geradoras  
Para minimizar a mortalidade de peixes que entram no tubo de sucção quando as unidades geradoras estão 
paradas ou operando como compensador síncrono orienta-se operar as três unidades geradoras, o máximo 
de tempo possível, como gerador.  Nos fins de semana, conforme a necessidade, a vazão turbinada pode ser 
reduzida para o equivalente à operação como de uma unidade geradora.
Manual de Procedimentos da Operação - Módulo 5 - Submódulo 5.11
 Cadastro de Informações Operacionais Código Revisão Item Vigência
Cadastro de Informações Operacionais Hidráulicas da 
Bacia do Rio Uruguai CD-OR.UR.URU 54 2.3. 25/07/2024
Referência: 18 / 56
IOR 6 – Vertimento Inicial Mínimo
Antes da abertura inicial do vertedouro, haverá inspeção do local (para verificar inexistência de pessoas na 
calha do vertedouro) durante aproximadamente 15 minutos, e após a inspeção, alerta sonoro com duração 
de 5 minutos. Posteriormente, será aberta uma única comporta com 0,10 m (totalizando uma vazão 
aproximada de 20 m³/s), por, no mínimo, 15 minutos, de modo a permitir uma variação gradual do nível de 
jusante.
IOR 7 - Taxa Máxima de Deplecionamento
Após a ocorrência de seca severa na região sul do Brasil nos anos de 2019 e 2020, o armazenamento no 
reservatório da UHE Machadinho superou valores históricos, chegando a operar abaixo da faixa mínima 
operativa de projeto (465,00 m). Neste cenário, observou-se uma série de formações de bolsões às margens 
do reservatório, necessitando da intervenção de grande contingente da equipe de meio ambiente para 
mitigar eventuais efeitos danosos à ictiofauna. 
Recomenda-se, de modo a evitar novas situações como estas, adotar as taxas de deplecionamento máximo 
diário por faixas do reservatório, conforme tabela a seguir:
Faixas de Armazenamento / Nível do reservatório Taxa Máxima de 
Deplecionamento (m/dia) (*)
45% (472,20m) a 0 % (465,00m) 0,15
(*) As taxas máximas de deplecionamento se referem à diferença entre Nível do Reservatório de fechamento 
do dia anterior (D-1 às 23hs59min) e o Nível do Reservatório de fechamento do dia em curso (D às 
23hs59min). Caso seja necessário, poderá haver oscilação no Nível do Reservatório ao longo do dia.
Estas condicionantes são necessárias para permitir a mobilização de equipes de resgate, principalmente para 
o monitoramento em regiões mais distantes e de difícil acesso.
IOR 8 – Operação como Compensador Síncrono com Vazão Turbinada Nula
Quando a vazão turbinada da UHE Machadinho é zerada, a operação de 2 (duas) ou mais unidades geradoras 
como compensador síncrono favorece a ocorrência de supersaturação da água no canal de fuga, causando 
danos a ictiofauna. Dessa forma, visando a proteção da ictiofauna, quando a vazão turbinada da UHE 
Machadinho for zero, apenas uma unidade geradora deve ser mantida como compensador síncrono, as 
demais unidades devem permanecer desligadas.
4.6. UHE ITÁ
4.6.1. Restrições Operativas hidráulicas (ROH)
4.6.1.1. Restrições de Jusante
ROH 1 – Vazão Defluente Mínima
Recomenda-se a manutenção de uma vazão mínima para jusante da ordem de 150 m³/s. Este valor pode ser 
superior, conforme a observação das condições locais para fins de proteção da Ictiofauna. Na impossibilidade 
de se ter geração mínima em pelo menos uma unidade geradora ou quatro unidades rodando a vazio, o 
vertedouro deve ser aberto imediatamente para atender a esta restrição.
Manual de Procedimentos da Operação - Módulo 5 - Submódulo 5.11
 Cadastro de Informações Operacionais Código Revisão Item Vigência
Cadastro de Informações Operacionais Hidráulicas da 
Bacia do Rio Uruguai CD-OR.UR.URU 54 2.3. 25/07/2024
Referência: 19 / 56
ROH 2 - Condição de Fechamento de Comportas
Recomenda-se que, para proteção da ictiofauna à jusante dos vertedouros nº 1, nº 2 e na região da Volta do 
Uvá, na condição de operação com vazão vertida total igual ou inferior a 7.000 m³/s, o procedimento para 
fechamento das comportas dos vertedouros nº 1 ou nº 2 seja feito de maneira gradual em período diurno 
(08h às 16h), com supervisão e acompanhamento das equipes de campo. Nos períodos das 0h às 8h e das 
16h às 24h, por questões de segurança (falta de luminosidade natural nas ações de proteção da ictiofauna), 
não é possível realizar este acompanhamento.
Considerando o tempo de execução da manobra e o tempo de deslocamento das equipes de campo 
(aproximadamente uma hora para atendimentos de segunda a sexta-feira e duas horas para os finais de 
semana e feriados), é importante que o acionamento sempre seja feito o mais breve possível. Recomenda-
se que, em dias úteis, a equipe de campo seja acionada antes das 15h, e nos finais de semana e feriados, 
antes das 14h.
As taxas de fechamento estão condicionadas à observação das condições locais, principalmente em períodos 
de Piracema. Estas operações devem ser acompanhadas pelo pessoal da usina para verificar e evitar 
eventuais consequências indesejáveis de caráter ambiental.
Para vazões vertidas totais superiores a 7000 m³/s, durante o fechamento das comportas, não é necessário 
o acompanhamento da equipe de resgate, devendo ser feita uma inspeção no local assim que possível. Uma 
inspeção na primeira hora do dia é necessária caso a manobra de fechamento tenha sido realizada em 
período noturno.
ROH 3 - Taxa de Variação Máxima de Redução de Vazão Vertida
Considerando a vazão vertida QV (em m³/s) é recomendado utilizar a respectiva taxa referencial de variação 
máxima horária para redução do vertimento, a seguir:
QV > 7.000 m³/s e QV ≤ 10.000 m³/s → Taxa ≤ 500 m³/s/h; 
QV ≤ 7.000 m³/s → As taxas de fechamento estão condicionadas à observação das condições locais, com 
acompanhamento da equipe de resgate, conforme ROH 2.
Devido aos elevados vertimentos praticados em decorrência de altas vazões verificadas na bacia do Rio 
Uruguai no segundo semestre de 2023, ocorreram modificações significativas na conformação de rochas 
situadas na bacia de dissipação a jusante do Vertedouro 01 e 02 e respectivas margens e leito do rio Uruguai, 
criando condições favoráveis para aprisionamento de peixes nestas áreas. Verificou-se que reduções 
abruptas das vazões vertidas entre 10.000 m³/s e 7.000 m³/s favorecem a criação de bolsões de água no leito 
do rio imediatamente a jusante. Como recurso de mitigação, é necessário que as reduções de vertimento 
sejam realizadas de forma gradativa, em patamares de 500m³/s/hora.
4.6.1.2. Restrições de Montante
Não se aplica.
4.6.1.3. Outras Restrições
Não se aplica.
4.6.2. Informações Operativas Relevantes (IOR)
IOR 1 – Nível Máximo de Montante
Recomenda-se que o nível máximo de 370,00 m, não seja ultrapassado, considerando que:
•A oscilação dos níveis do reservatório acima de 370,00 m aumenta o transporte de detritos flutuantes 
Manual de Procedimentos da Operação - Módulo 5 - Submódulo 5.11
 Cadastro de Informações Operacionais Código Revisão Item Vigência
Cadastro de Informações Operacionais Hidráulicas da 
Bacia do Rio Uruguai CD-OR.UR.URU 54 2.3. 25/07/2024
Referência: 20 / 56
(troncos, madeiras, vegetação) das margens para o corpo do reservatório. 
•Estes detritos tendem a se acumular nas grades da tomada de água, afetando o rendimento das unidades 
geradoras e causando esforços adicionais nas estruturas de ferro, aumentando o risco de rompimento 
das grades.
IOR 2 – Vertimento Inicial Mínimo 
Antes da abertura inicial do vertedouro, haverá acionamento de alarmes sonoros (duração de 5 minutos), 
seguido da abertura de uma comporta até a posição 0,10 m, por, no mínimo, 15 minutos.
O vertimento mínimo admissível é de uma comporta com abertura de 0,10 m, totalizando uma vazão 
aproximada de 22 m³/s.
IOR 3 – Taxa de Variação Máxima de Aumento da Defluência
Considerando a defluência QD em m³/s é recomendado utilizar a respectiva taxa referencial de variação 
máxima de aumento da defluência:
QD ≤ 6.000 m³/s → Taxa ≤ 500 m³/s/h;
QD > 6.000 m³/s → Taxa ≤ 1.000 m³/s/h.
IOR 4 – Vazão Máxima Defluente / Rebaixamento Dinâmico do Reservatório da UHE Itá
Durante os eventos de cheia ocorridos no histórico de operação da UHE Itá, a Engie constatou que devem 
ser observadas vazões máximas defluentes, de modo a mitigar danos em estruturas de linhas de transmissão 
e danos ao patrimônio público, conforme segue: 
•para vazão defluente máxima de 24.000 m³/s, poderão ocorrer danos estruturais na base da torre 
da LT 525 kV Itá / Nova Santa Rita C2, localizada à jusante da casa de força, na margem direita do rio 
Uruguai;
•para vazão defluente máxima de 32.000 m³/s, poderão ocorrer danos estruturais da ponte 
interestadual que liga as rodovias estaduais RS-420 e SC-155, localizada logo à jusante do vertedouro 
nº 1.
De modo a minimizar a ocorrência dessas vazões defluentes recomenda-se aplicar uma regra de operação 
de rebaixamento dinâmico no reservatório da UHE Itá, que considera as previsões de vazões afluentes em 
um horizonte de até 5 dias, permitindo rebaixar previamente o reservatório à chegada da onda de cheia e o 
amortecimento do pico da cheia, conforme segue:
Rebaixamento Dinâmico do Reservatório da UHE Itá
Vazão Afluente Prevista
(m3/s) Rebaixamento (m) Nível Máximo de 
Referência (m) (1) Volume útil (%)
até 1.600 0,00 370,00 100
até 2.000 0,25 369,75 96
até 3.000 0,50 369,50 91
até 4.000 0,75 369,25 87
até 6.000 1,50 368,50 74
até 8.000 2,25 367,75 61
Manual de Procedimentos da Operação - Módulo 5 - Submódulo 5.11
 Cadastro de Informações Operacionais Código Revisão Item Vigência
Cadastro de Informações Operacionais Hidráulicas da 
Bacia do Rio Uruguai CD-OR.UR.URU 54 2.3. 25/07/2024
Referência: 21 / 56
Rebaixamento Dinâmico do Reservatório da UHE Itá
Vazão Afluente Prevista
(m3/s) Rebaixamento (m) Nível Máximo de 
Referência (m) (1) Volume útil (%)
até 10.000 3,00 367,00 48
(1) O nível máximo de referência é o nível máximo recomendado para a operação hidráulica. Entretanto, 
é permitido operar abaixo desses níveis, sem necessidade de recuperação imediata do reservatório 
para atingimento do nível de referência. 
(2) As diretrizes para utilização e atingimento dos níveis máximos de referências serão determinadas no 
âmbito da Programação Diária da Operação a partir das vazões afluentes previstas no horizonte de 
5 dias e serão apresentadas no PDF. Eventualmente, poderão ser alteradas em tempo real no caso 
de mudança das condições hidrometeorológicas da bacia, sendo niveladas entre ONS e agentes 
envolvidos.  
(3) O reenchimento do armazenamento total do reservatório (100%) deve ser realizado quando a 
afluência estiver em recessão, conjuntamente com a existência de condições meteorológicas 
favoráveis.
IOR 5 - Taxa Máxima de Deplecionamento
Recomenda-se limitar o rebaixamento do reservatório ao nível 367,10 m, para evitar o aprisionamento de 
peixes em lagoas que se formam dentro da área do reservatório da UHE Itá. 
Entretanto, por necessidade eletroenergética do SIN, é permitido rebaixar o nível do reservatório abaixo da 
cota 367,10 m, desde que a Engie seja comunicada com antecedência mínima de 72 horas e seja adotada 
uma taxa de deplecionamento de no máximo 10 cm em períodos de 24 horas e sem oscilação negativa do 
nível do reservatório. Ou seja, o deplecionamento referente à diferença entre o nível máximo e nível mínimo 
praticado na janela móvel das últimas 24hs não poderá ser superior à 0,10 m.   
Estas condicionantes são necessárias para permitir a mobilização de equipes de resgate de peixes e o resgate 
destes em locais de difícil acesso.
4.7. UHE FOZ DO CHAPECÓ
4.7.1. Restrições Operativas hidráulicas (ROH)
4.7.1.1. Restrições de Jusante
ROH 1 – Vazão Defluente Vertida Mínima 
1 - A UHE Foz do Chapecó deve manter uma Vazão Defluente Vertida Mínima de 75 m³/s para proteção da 
ictiofauna à jusante dos vertedores, estabelecida pelo IBAMA por meio do Ofício nº 54/2009 – 
CGENE/DILIC/IBAMA, de 14 de abril de 2009. 
2 - Adicionalmente, a UHE Foz do Chapecó deve manter uma Vazão Mínima de 125 m³/s no trecho de alça 
do rio Uruguai, entre a confluência do rio Chapecó e a casa de força, exigida pela condicionante 2.19_a da 
LO_IBAMA - Licença de Operação número 949/2010, para garantir a navegação e a pesca nesse trecho do 
rio. Para isso, a UHE Foz do Chapecó deve manter um monitoramento constante da vazão proveniente do rio 
Chapecó, de modo a atender a seguinte inequação:
VDVM FCE (Mínima de 75 m³/s) + VD Rio Chapecó ≥ 125 m³/s
Onde:
Manual de Procedimentos da Operação - Módulo 5 - Submódulo 5.11
 Cadastro de Informações Operacionais Código Revisão Item Vigência
Cadastro de Informações Operacionais Hidráulicas da 
Bacia do Rio Uruguai CD-OR.UR.URU 54 2.3. 25/07/2024
Referência: 22 / 56
VDVM FCE = Vazão Defluente Vertida Mínima da UHE Foz do Chapecó;
VD Rio Chapecó = Vazão Defluente do rio Chapecó no rio Uruguai.
Nota: Todas as vezes que a vazão do rio Chapecó estiver abaixo de 50 m³/s, e a UHE Foz do Chapecó estiver 
vertendo a vazão remanescente de 75 m3/s, a UHE Foz do Chapecó deve complementar a vazão neste trecho 
de modo a manter uma vazão total de 125 m³/s.
3 – Quando houver necessidade de reduzir o vertimento para valores menores que 125 m³/s até o valor da 
restrição de vazão mínima de 75 m³/s, deverá manter-se uma vazão vertida de 100 m³/s por um período 
mínimo de 2 horas para depois reduzir para 75 m³/s. Esta manobra visa manter um escoamento suficiente 
para evitar o aprisionamento de peixes.
As manobras de comporta para essas reduções de vazão devem ser realizadas no período da manhã, tendo 
em vista que a temperatura da água influencia diretamente na oxigenação e na condição ambiental da alça 
de vazão reduzida do rio.
Notas:
a)   O rio Chapecó entra no rio Uruguai pela margem direita a aproximadamente 6,5 km a jusante dos 
vertedores UHE Foz do Chapecó.
b)   A alça do rio Uruguai entre o vertedor e o canal de fuga da UHE Foz do Chapecó tem aproximadamente 
19 km.
c) Vazões abaixo de 50 m³/s no rio Chapecó ocorrem esporadicamente de 2 a 4 dias por ano, conforme 
informações da FCE.
d) O medidor de vazão do UHE Foz do Chapecó só mede vazões acima de 10 m³/s, com isso, quando a vazão 
do rio está abaixo desse valor, a usina considera como 0 m³/s a contribuição do Rio Chapecó.
ROH 2 – Vazão Defluente Total Mínima
Na operação do reservatório da UHE Foz do Chapecó, à jusante da casa de força, deve ser observado o 
atendimento a restrição de vazão remanescente de 200 m³/s, para atendimento às demandas ambientais 
(ordem sanitária e proteção da ictiofauna), navegabilidade na cidade de Itapiranga e uso consuntivo da água 
quando nenhuma unidade geradora estiver operando como gerador. Para isso, a UHE Foz do Chapecó deve 
manter um monitoramento constante da vazão proveniente do rio Chapecó, de modo a atender a seguinte 
inequação:
VD UHFC + VD Rio Chapecó ≥ 200 m³/s
Onde:
VD UHFC = Vazão Defluente Total Mínima da UHE Foz do Chapecó;
VD Rio Chapecó = Vazão Defluente do rio Chapecó no rio Uruguai.
Esta restrição pode ser violada caso a vazão afluente ao reservatório seja menor que o valor necessário para 
atender a inequação acima, e após o esgotamento do armazenamento do reservatório da UHE Foz do 
Chapecó.
Caso haja a necessidade de atender essa inequação, somente a partir do vertedouro da UHE Foz do Chapecó, 
devem ser realizadas com uma hora e meia de antecedência ao desligamento da última unidade geradora 
como gerador, para evitar variação no nível à jusante da casa de força.
Para o retorno da geração da UHE Foz do Chapecó deve ser ligada uma unidade geradora e está permanecer 
operando com geração mínima de 150 MW durante um período de 30 (trinta) minutos. Esta manobra deve 
ser realizada preferencialmente durante o período diurno evitando riscos associados ao aumento repentino 
Manual de Procedimentos da Operação - Módulo 5 - Submódulo 5.11
 Cadastro de Informações Operacionais Código Revisão Item Vigência
Cadastro de Informações Operacionais Hidráulicas da 
Bacia do Rio Uruguai CD-OR.UR.URU 54 2.3. 25/07/2024
Referência: 23 / 56
de defluência à jusante da casa de força, e possibilitando uma eventual evacuação das populações ribeirinhas 
que adentrarem o leito do rio.
4.7.1.2. Restrições de Montante
Não se aplica.
4.7.1.3. Outras Restrições
Não se aplica.
4.7.2. Informações Operativas Relevantes (IOR)
IOR 1 – Nível Máximo de Montante
Recomenda-se que o nível máximo de montante de 265,00 m não seja ultrapassado. 
IOR 2 – Nível Mínimo de Montante
Recomenda-se que o nível mínimo de montante de 264,00 m não seja ultrapassado, considerando que:
•A operação das turbinas hidráulicas da UHE Foz do Chapecó está condicionada à queda líquida mínima 
operacional igual a 43,20 m, correspondente ao despacho de 4 Unidades Geradoras a plena carga e 
vertimento maior que a cheia de julho de 1983 (10.172 m³/s).
IOR 3 – Taxa de Variação Máxima da Defluência
Considerando a defluência QD em m³/s, recomenda-se utilizar a respectiva taxa referencial de variação 
máxima da defluência:    
a) Abertura inicial do vertedouro: 
Aberturas do vertedouro da UHE Foz do Chapecó para controle de nível do reservatório, será efetuada 
após comunicação do ONS com antecedência de 01h30min para acionamento do sistema de alerta de 
vertimento, e será conforme segue abaixo:
1ª a 4ª aberturas, até totalizar vertimento igual a 1.500 m³/s:
•1ª abertura – T = 0h – Grupo 3 (comportas 8, 9, 10 e 11) – 400 m³/s;
•2ª abertura – T = 30min – Grupo 4 (comportas 12, 13, 14 e 15) – 400 m³/s;
•3ª abertura – T = 1h – Grupo 2 (comportas 5, 6 e 7) – 300 m³/s ;
• 4ª abertura – T = 1h30 – Grupo 1 (comportas 1, 2, 3 e 4) – 400 m³/s.
b) A partir da 5ª abertura, ou seja, da 2ª hora em diante, proceder com aberturas respeitando as taxas 
abaixo:
QD ≤ 10.000 m³/s  → Taxa ≤ 800 m³/s/h;
QD > 10.000 m³/s  → Taxa ≤ 1.200 m³/s/h.
IOR 4 – Taxa de Fechamento das Comportas
Recomenda-se que, para proteção da ictiofauna à jusante da UHE Foz do Chapecó, o procedimento para 
fechamento das comportas seja feito de maneira gradual. As taxas de fechamento estão condicionadas à 
observação das condições locais, principalmente em períodos de Piracema. Estas operações devem ser 
acompanhadas pelo pessoal da usina para verificar e evitar eventuais consequências indesejáveis de caráter 
Manual de Procedimentos da Operação - Módulo 5 - Submódulo 5.11
 Cadastro de Informações Operacionais Código Revisão Item Vigência
Cadastro de Informações Operacionais Hidráulicas da 
Bacia do Rio Uruguai CD-OR.UR.URU 54 2.3. 25/07/2024
Referência: 24 / 56
ambiental.
O ONS deve comunicar a UHE Foz do Chapecó com antecedência mínima de 24 horas, quando houver 
necessidade de reduzir o vertimento para valores menores que 120 m³/s até o valor da restrição de vazão 
mínima de 75 m³/s.
A taxa de fechamento das comportas deverá seguir a sequência inversa da taxa variação máxima de 
defluência (abertura) e respeitar a vazão defluente vertida mínima.
IOR 5 – Parada das Unidades Geradoras
Em situações específicas de elevada vazão afluente à UHE Foz do Chapecó, que conduzem a uma situação de 
grandes volumes de descarga total da usina, que somadas às vazões do rio Chapecó, se aproximam de 20.000 
m3/s, o nível de cota jusante da usina poderá chegar ao valor de 224,19 m comprometendo a segurança 
operativa das unidades geradoras. Sendo assim, é necessária a parada de todas as unidades geradoras com 
a finalidade de atender a especificação do fabricante.
IOR 6 – Vazão Defluente Máxima
Para atender a resolução ANA n° 49, de 17 de julho de 2018. A restrição é semanal, iniciando às 12 horas da 
sexta-feira e terminando às 12 horas de domingo. Sujeito à Previsão de Afluências Médias à usina entre sexta 
e domingo inferior a 1.000m³/s.
A programação energética horária para o período citado, deverá ser realizada de forma que não ultrapasse 
1.000 m3/s de defluência total para a UHE Foz do Chapecó, considerando que a vazão sanitária vertida 
mínima para este empreendimento é de 75 m3/s.
Deverá ser informado imediatamente a UHE Foz do Chapecó qualquer alteração na programação, oriunda 
de ocorrências no sistema elétrico ou controle de cheias.
4.8. UHE MONJOLINHO
4.8.1. Restrições Operativas hidráulica (ROH)
4.8.1.1. Restrições de Jusante
ROH 1 – Vazão Defluente Mínima
Recomenda-se manter uma vazão mínima para jusante de 8,14 m³/s, para atendimento às demandas 
ambientais conforme Licença nº 6464-DL pela FEPAM, em 10/11/2011, considerando o seguinte:
•Se o nível do reservatório da UHE Foz do Chapecó, localizado à jusante, for inferior ou igual ao seu nível 
mínimo operativo de 264,00 m, a UHE Monjolinho deve manter uma vazão mínima para jusante de 8,14 
m³/s. Caso a UHE Monjolinho não estiver gerando, o nível do seu reservatório deve ser mantido acima da 
cota 328,55 m, de forma a garantir o vertimento pelo seu vertedouro de soleira livre.  Se o nível do 
reservatório da UHE Foz do Chapecó for superior a 264,00 m, não há necessidade de vazão defluente 
mínima na UHE Monjolinho.
•Nos períodos de severa estiagem (*) em que as vazões afluentes naturais ao reservatório da UHE 
Monjolinho atingirem valores inferiores a 8,14 m³/s, a vazão defluente mínima pode ser igual a vazão 
afluente natural. (*) É considerado severa estiagem afluência igual ou menor a 8,14m³/s.
•A STATKRAFT deve monitorar os referentes níveis e informar ao ONS e a FEPAM conforme previsto no 
item 4.5 da referida Licença.
4.8.1.2. Restrições de Montante
Manual de Procedimentos da Operação - Módulo 5 - Submódulo 5.11
 Cadastro de Informações Operacionais Código Revisão Item Vigência
Cadastro de Informações Operacionais Hidráulicas da 
Bacia do Rio Uruguai CD-OR.UR.URU 54 2.3. 25/07/2024
Referência: 25 / 56
Não se aplica.
4.8.1.3. Outras Restrições
Não se aplica.
4.8.2. Informações Operativas Relevantes (IOR)
Não se aplica.
4.9. UHE PASSO FUNDO
4.9.1. Restrições Operativas Hidráulicas (ROH)
4.9.1.1. Restrições de Jusante
Não se aplica.
4.9.1.2. Restrições de Montante
Não se aplica.
4.9.1.3. Outras Restrições
Não se aplica.
4.9.2. Informações Operativas Relevantes (IOR)
IOR 1 – Vertimento Inicial Mínimo 
O início do vertimento para a UHE Passo Fundo deve ser programado com uma antecedência mínima de 4h 
e em horário comercial, devido à necessidade da veiculação do alerta a população ribeirinha localizada à 
jusante da barragem. 
Recomenda-se que a vazão vertida inicial seja de 1 m³/s por, pelo menos, uma hora, podendo ser elevada 
conforme necessidades operativas.
IOR 2 – Taxa de Fechamento de Comportas 
Quando for necessário realizar o fechamento total das comportas do vertedouro, a vazão vertida deve ser 
reduzida de 5 m³/s para 0 m³/s de forma imediata, de modo a minimizar o risco a população, uma vez que 
abaixo de 5 m³/s é possível o tráfego de veículos, porém com certo risco, na estrada vicinal, no Rio Passo 
Fundo, à jusante do vertedouro.
IOR 3 – Taxa de Variação Máxima da Defluência
Conforme faixa abaixo, para determinados valores de defluência QD em m³/s, recomenda-se utilizar a 
respectiva taxa referencial de variação máxima da defluência:
QD < 400 m³/s  → Taxa ≤ 100 m³/s/h;
QD ≥ 400 m³/s  → Taxa ≤ 200 m³/s/h.
Observa-se que estas taxas podem ser reavaliadas em tempo real para adequação do controle hidráulico do 
reservatório em condições de cheia.
IOR 4 – Taxa Máxima de Deplecionamento   
Manual de Procedimentos da Operação - Módulo 5 - Submódulo 5.11
 Cadastro de Informações Operacionais Código Revisão Item Vigência
Cadastro de Informações Operacionais Hidráulicas da 
Bacia do Rio Uruguai CD-OR.UR.URU 54 2.3. 25/07/2024
Referência: 26 / 56
Recomenda-se limitar o deplecionamento do reservatório nas cotas apresentadas a seguir, para evitar o 
aprisionamento de peixes em lagoas que se formam dentro da área do reservatório da UHE Passo Fundo.
Nível do reservatório (m) Taxa Máxima de Deplecionamento 
(m/dia) (*)
de 589,35 até 590,00 0,05
menor que 589,35 0,02
Entretanto, por necessidade eletroenergética do SIN, é permitido deplecionar o nível do reservatório abaixo 
dessas cotas, desde que a ENGIE seja comunicada com antecedência mínima de 3 (três) dias e sejam adotadas 
as referentes taxas de deplecionamentos por dia e sem oscilação do nível do reservatório.
Estas condicionantes são necessárias para permitir a mobilização de equipes de resgate de peixes e o resgate 
destes em locais de difícil acesso.
4.10. UHE QUEBRA QUEIXO
4.10.1. Restrições Operativas hidráulica (ROH)
4.10.1.1. Restrições de Jusante
ROH 1 – Vazão Defluente Mínima
Na operação do reservatório da UHE Quebra Queixo deve ser observado o atendimento a restrição de vazão 
remanescente de 0,5 m³/s, para atendimento às demandas ambientais, quando necessário, por meio da 
válvula dispersora que permite esta descarga.
ROH 2 – Nível Mínimo de Montante
Deve-se manter um nível mínimo de montante de 545,00 m, de forma a evitar o desligamento das unidades 
geradoras e consequentemente interrupção no fluxo de água à jusante da usina, deste modo, garantindo 
uma vazão mínima no curso do rio Chapecó. Assim, evitando situações críticas como a ocorrida no primeiro 
trimestre de 2012, quando o rio Chapecó praticamente secou no trecho da UHE Quebra Queixo até a cidade 
de Nova Erechim, SC.
4.10.1.2. RESTRIÇÕES DE MONTANTE
Não se aplica.
4.10.1.3. OUTRAS RESTRIÇÕES
Não se aplica.
4.10.2. Informações Operativas Relevantes (IOR)
Não se aplica.
4.11. UHE SÃO JOSÉ
4.11.1. Restrições Operativas hidráulica (ROH)
4.11.1.1. Restrições de Jusante
ROH 1 – Vazão Defluente Mínima
Manual de Procedimentos da Operação - Módulo 5 - Submódulo 5.11
 Cadastro de Informações Operacionais Código Revisão Item Vigência
Cadastro de Informações Operacionais Hidráulicas da 
Bacia do Rio Uruguai CD-OR.UR.URU 54 2.3. 25/07/2024
Referência: 27 / 56
Na operação do reservatório da UHE São José deve ser observado o atendimento a restrição de vazão 
remanescente de 43,8 m³/s, para atendimento às demandas ambientais (FEPAM). 
Quando a vazão afluente for inferior a 43,8 m³/s, a vazão defluente mínima deve ser igual a vazão afluente, 
conforme acordado com o órgão ambiental, em reunião realizada em 10/05/2012, envolvendo a Ijuí Energia 
S.A. e a FEPAM. 
ROH 2 – Nível Mínimo de Montante
Deve-se considerar um nível mínimo de montante de 153,67 m, em decorrência de tratativas com o órgão 
ambiental, realizadas em reunião 10/05/2012, envolvendo a Ijuí Energia S.A. e a FEPAM.
4.11.1.2. RESTRIÇÕES DE MONTANTE
ROH 3 – Nível Máximo de Montante
O Nível Montante máximo a ser considerado deverá levar em conta o valor da vazão afluente de referência, 
conforme segue:
Nível de Montante Máximo Vazão Afluente de Referência (*)
153,75 m Maior que 1000 m3/s
154,00 m Maior que 800 m3/s e Menor ou Igual a 1000 m3/s
154,20 m Maior que 700 m3/s e Menor ou Igual a 800 m3/s
154,50 m Maior que 500 m3/s e Menor ou Igual a 700 m3/s
154,60 m Maior que 300 m3/s e Menor ou Igual a 500 m3/s
154,67 m Menor ou Igual a 300 m3/s
(*) Considerar como Vazão Afluência de Referência como sendo a média aritmética da “Vazão Afluente” das 
últimas quatro horas.
4.11.1.3. Outras Restrições
Não se aplica.
4.11.2. Informações Operativas Relevantes (IOR)
IOR 1 – Taxa de Variação Máxima da Defluência
a) Abertura inicial dos vertedores na 1ª hora:
Recomenda-se, a título de proteção aos ribeirinhos do rio Ijuí à jusante do vertedor, que a vazão vertida 
inicial, seja de até 105 m³/s por pelo menos 1 hora.
b) A partir da 2ª hora em diante:
Recomenda-se proceder com aberturas dos vertedores respeitando as taxas abaixo:
QD ≤ 3.000 m³/s → Taxa ≤ 300 m³/s/h;
3.000 m³/s < QD ≤ 6.000 m³/s → Taxa ≤ 400 m³/s/h;
6.000 m³/s < QD ≤ 9.000 m³/s → Taxa ≤ 500 m³/s/h;
Manual de Procedimentos da Operação - Módulo 5 - Submódulo 5.11
 Cadastro de Informações Operacionais Código Revisão Item Vigência
Cadastro de Informações Operacionais Hidráulicas da 
Bacia do Rio Uruguai CD-OR.UR.URU 54 2.3. 25/07/2024
Referência: 28 / 56
QD > 9.000 m³/s → Taxa ≤ 600 m³/s/h.
IOR 2 – Queda Líquida Mínima
Recomenda-se que, estando o reservatório no seu nível mínimo operativo (146,41 m), a queda líquida 
mínima necessária para geração seja de 13,79 m.
4.12. UHE PASSO SÃO JOÃO
4.12.1. Restrições Operativas hidráulica (ROH)
4.12.1.1. Restrições de Jusante
ROH 1 – Vazão Defluente Mínima
Recomenda-se manter uma vazão defluente mínima de 50 m3/s, à jusante da casa de força da UHE Passo São 
João, prescritas pela FEPAM pela AG 40/2012-DL.
ROH 2 – Vazão na AVR (Alça de vazão reduzida)
Recomenda-se manter a vazão mínima para jusante variando mensalmente, segundo a Tabela abaixo e em 
atendimento às demandas ambientais (preservação da biota aquática na AVR) prescritas pela FEPAM através 
da Licença de Operação LO Nº 817/2012-DL, de 09/02/2012.
Vazões no Cenário qEco b11 (m³/s)
Jan Fev Mar Abr Mai Jun Jul Ago Set Out Nov Dez
20,9 21 18 18 18 25,5 33,8 40,8 61,3 46,2 36,6 27
4.12.1.2. Restrições de Montante
ROH 3 – Taxa de Variação Máxima da Defluência
Para valores de defluência QD em m³/s conforme faixa abaixo, recomenda-se utilizar a respectiva taxa 
referencial de variação máxima da defluência:
QD ≤ 3.000 m³/s  → Taxa ≤ 315 m³/s/h;
3.000 m³/s < QD ≤ 6.000 m³/s → Taxa ≤ 420 m³/s/h;
6.000 m³/s < QD ≤ 9.000 m³/s → Taxa ≤ 525 m³/s/h;
QD > 9.000 m³/s  → Taxa ≤ 630 m³/s/h.
As taxas de variação máxima de defluência da UHE Passo São João são excedidas quando de partidas ou 
paradas das unidades geradoras, devido ao engolimento máximo ser igual a 332 m³/s (das duas unidades 
geradoras).
4.12.1.3. Outras Restrições
Não se aplica.
4.12.2. Informações Operativas Relevantes (IOR)
Não se aplica.
Manual de Procedimentos da Operação - Módulo 5 - Submódulo 5.11
 Cadastro de Informações Operacionais Código Revisão Item Vigência
Cadastro de Informações Operacionais Hidráulicas da 
Bacia do Rio Uruguai CD-OR.UR.URU 54 2.3. 25/07/2024
Referência: 29 / 56
4.13. QUADROS RESUMO DAS RESTRIÇÕES OPERATIVAS HIDRÁULICAS (ROHS) E DAS INFORMAÇÕES 
OPERATIVAS RELEVANTES (IORS)
4.13.1. Síntese das Restrições Operativas Hidráulicas
Restrições Operativas Hidráulicas (ROHs)
Aproveitamento Descrição Valor
ROH 1 – Vazão Remanescente
(razões ambientais) 13,7 m³/s
São Roque
ROH 2 – Vazão Turbinada Mínima 56 m³/s
ROH 1 – Vazão Defluente Mínima
(razões ambientais) 13 m³/s
Garibaldi
ROH 2 – Desligamento das Unidades Geradoras
(razões ambientais)
Programar com, no mínimo, 24 horas 
de antecedência
ROH 1 – Vazão Defluente Mínima
(razões ambientais)
16 m³/s (até a cota 617,00 m; abaixo 
desse valor não é possível qualquer 
vazão defluente)
Barra Grande
ROH 2 – Vazão Turbinada Mínima
Faixa de trabalho das UGs:
190 MW (aproximadamente 140 
m³/s) a 230 MW.
ROH 1 – Vazão Defluente Mínima 
(razões ambientais) 120 m³/s
ROH 2 – Vazão Turbinada Mínima
(razões ambientais)
•295 m³/s (Vazão Turbinada 
Mínima)
oNR ≥ 469,9 e HB ≥ 95,7;
o260 MW.
•250 m³/s (Vazão Turbinada 
Mínima)
oNR < 469,9 e NR ≥ 465 e HB 
95,7 m;
o220 MW.
•0 m³/s (Vazão Turbinada Mínima)
oNR < 465
o0 MW.
Machadinho
ROH 3 – Outras Restrições
(razões ambientais)
Partida ou reversão (de 
compensador para gerador) 
somente das 8h às 16h com 
acompanhamento das equipes de 
resgate de peixes. 
ROH 1 – Vazão Defluente Mínima 
(razões ambientais) 150 m³/s
Itá ROH 2 – Condição de Fechamento de 
Comportas
(razões ambientais)
Fechamento das comportas dos 
vertedouros nº 1 ou nº 2 para vazão 
vertida total abaixo de 7.000 m 3/s 
deve ser executado de maneira 
Manual de Procedimentos da Operação - Módulo 5 - Submódulo 5.11
 Cadastro de Informações Operacionais Código Revisão Item Vigência
Cadastro de Informações Operacionais Hidráulicas da 
Bacia do Rio Uruguai CD-OR.UR.URU 54 2.3. 25/07/2024
Referência: 30 / 56
Restrições Operativas Hidráulicas (ROHs)
Aproveitamento Descrição Valor
gradual em período diurno, das 8h às 
17h, com supervisão e 
acompanhamento das equipes de 
campo.
Fechamento das comportas do 
vertedouro nº 1 ou nº 2 para vazão 
vertida total acima de 7.000 m 3/s 
pode ser executada sem 
acompanhamento da equipe de 
resgate, devendo ser feita inspeção 
assim que possível.
ROH 3 - Taxa de Variação Máxima de Redução 
de Vazão Vertida
(razões ambientais)
QV > 7.000 m³/s e QV ≤ 10.000 m³/s 
→ Taxa ≤ 500 m³/s/h; 
QV ≤ 7.000 m³/s → As taxas de 
fechamento estão condicionadas à 
observação das condições locais, 
com acompanhamento da equipe 
de resgate, conforme ROH 2.
ROH 1 – Vazão Defluente Vertida Mínima
(razões ambientais)
75 m³/s à jusante dos vertedores
125 m³/s no trecho de alça do rio 
Uruguai (VDVM FCE (Mínima de 75 
m³/s) + VD Rio Chapecó ≥ 125 m³/s)Foz do Chapecó
ROH 2 – Vazão Defluente Total Mínima
(razões ambientais, navegabilidade e uso 
consuntivo da água)
200 m³/s à jusante da casa de força
Monjolinho ROH 1 – Vazão Defluente Mínima
(razões ambientais)
8,14 m³/s (se o nível do reservatório 
a UHE Foz do Chapecó for inferior ou 
igual a 264,00 m)
(em caso de severa estiagem a vazão 
defluente mínima pode ser igual a 
vazão afluente natural)
ROH 1 – Vazão Defluente Mínima
(razões ambientais) 0,5 m³/s 
Quebra Queixo ROH 2 – Nível Mínimo de Montante
(evitar o desligamento das unidades geradoras 
e consequentemente interrupção no fluxo de 
água à jusante da usina)
545,00 m
ROH 1 – Vazão Defluente Mínima
(razões ambientais)
43,8 m³/s 
(ou vazão afluente, se menor)São José
ROH 2 – Nível Mínimo de Montante 153,67 m
Manual de Procedimentos da Operação - Módulo 5 - Submódulo 5.11
 Cadastro de Informações Operacionais Código Revisão Item Vigência
Cadastro de Informações Operacionais Hidráulicas da 
Bacia do Rio Uruguai CD-OR.UR.URU 54 2.3. 25/07/2024
Referência: 31 / 56
Restrições Operativas Hidráulicas (ROHs)
Aproveitamento Descrição Valor
ROH 3 – Nível Máximo de Montante
153,75 m, quando vazão afluente de 
referência maior que 1000 m3/s.
154,00 m, quando vazão afluente de 
referência for maior que 800 e 
menor ou igual a 1000 m3/s.
154,20 m, quando vazão afluente de 
referência for maior que 700 e 
menor ou igual a 800 m3/s.
154,50 m, quando vazão afluente de 
referência for maior que 500 e 
menor ou igual a 700 m3/s.
154,60 m, quando vazão afluente de 
referência for maior que 300 e 
menor ou igual a 500 m3/s.
154,67 m, quando vazão afluente de 
referência for menor ou igual a 300 
m3/s.
ROH 1 – Vazão Defluente Mínima
(razões ambientais) 50 m³/s 
ROH 2 – Vazão na AVR (Alça de vazão reduzida)
(razões ambientais)
Janeiro: 20,9 m³/s
Fevereiro: 21,0 m³/s
Março: 18,0 m³/s
Abril: 18,0 m³/s
Maio: 18,0 m³/s
Junho: 25,5 m³/s
Julho: 33,8 m³/s
Agosto: 40,8 m³/s
Setembro: 61,3 m³/s
Outubro: 46,2 m³/s
Novembro: 36,6 m³/s
Dezembro: 27,0 m³/s
Passo São João
ROH 3 – Taxa de Variação Máxima da 
Defluência
≤ 315 m³/s/h (QD ≤ 3.000 m³/s)
≤ 420 m³/s/h (3.000 m³/s < QD ≤ 
6.000 m³/s)
≤ 525 m³/s/h (6.000 m³/s < QD ≤ 
9.000 m³/s)
≤ 630 m³/s/h (QD > 9.000 m³/s)
Manual de Procedimentos da Operação - Módulo 5 - Submódulo 5.11
 Cadastro de Informações Operacionais Código Revisão Item Vigência
Cadastro de Informações Operacionais Hidráulicas da 
Bacia do Rio Uruguai CD-OR.UR.URU 54 2.3. 25/07/2024
Referência: 32 / 56
4.13.2. Síntese das Informações Operativas Relevantes
Informações Operativas Relevantes (IORs)
Aproveitamento Descrição Valor
IOR 1 – Vazão Defluente Mínima
(razões ambientais)
18 m³/s (se o nível do reservatório da 
UHE Machadinho abaixo da cota 473 
metros)
IOR 2 – Taxa de Fechamento de Comportas
(razões ambientais)
Fechamento das comportas deve ser 
executado de maneira gradual 
observando condições locais.
IOR 3 – Nível de Jusante
Acima da cota 481,00 m, a operação 
da usina deve proceder o 
tamponamento das válvulas de 
aeração das turbinas, situação essa 
em que deve ser evitada a geração na 
faixa entre 170 MW a 220 MW
Campos Novos
IOR 4 – Taxa de Variação Máxima da 
Defluência
≤ 200 m³/s/h (QD ≤ 8.000 m³/s)
≤ 400 m³/s/h (QD > 8.000 m³/s)
IOR 1 – Taxa de Fechamento de Comportas
(razões ambientais)
Fechamento das comportas deve ser 
executado de maneira gradual 
observando condições locais.
IOR 2 – Quando do Bloqueio de Todas as 
Unidades Geradoras
(razões ambientais)
Compensar a defluência através do 
vertedor com vazão em torno de 
16 m³/s
IOR 3 – Taxa de Variação Máxima da 
Defluência
≤ 400 m³/s/h (QD ≤ 12.000 m³/s)
≤ 500 m³/s/h (QD > 12.000 m³/s)
Barra Grande
IOR 4 – Vazão Turbinada Mínima faixa de trabalho é de 190 a 230 
MW
IOR 1 – Nível Máximo de Montante
(risco de inundação das instalações da 
Hachmann S.A.; risco de inundações em zonas 
ribeirinhas; risco de acúmulo de troncos, 
madeiras e vegetação nas grades de tomada de 
água)
480,00 m
IOR 2 – Taxa de Fechamento de Comportas
(razões ambientais)
Fechamento das comportas deve ser 
executado de maneira gradual 
observando condições locais.
IOR 3 – Taxa de Variação Máxima da 
Defluência
≤ 500 m³/s/h (QD ≤ 5.000 m³/s)
≤ 1.000 m³/s/h (QD > 5.000 m³/s)
Machadinho
IOR 4 – Redução da Vazão Defluente
(razões ambientais)
Com Vertimento
•vazão defluente superior a 
2.500 m 3/s: sem restrição para 
Manual de Procedimentos da Operação - Módulo 5 - Submódulo 5.11
 Cadastro de Informações Operacionais Código Revisão Item Vigência
Cadastro de Informações Operacionais Hidráulicas da 
Bacia do Rio Uruguai CD-OR.UR.URU 54 2.3. 25/07/2024
Referência: 33 / 56
Informações Operativas Relevantes (IORs)
Aproveitamento Descrição Valor
redução;
•vazão defluente igual ou inferior 
a 2.500 m 3/s: redução permitida 
das 8h às 16h com 
acompanhamento das equipes 
de campo.
Sem Vertimento
•vazão turbinada superior a 
910 m 3/s: sem restrição para 
redução;
•vazão turbinada entre 300 a 910 
m3/s: redução permitida das 8h 
às 16h com acompanhamento 
das equipes de campo e em 
intervalos de 30 min (ver subitem 
4.4.2).
IOR 5 – Operação das Unidades Geradoras
(razões ambientais)
Operar as três unidades geradoras, o 
máximo de tempo possível, como 
gerador.
IOR 6 – Vertimento Inicial Mínimo
0,10 m de uma comporta 
(aproximadamente 20 m³/s) por, no 
mínimo, 15 minutos, precedido de 
15 minutos de inspeção e 5 minutos 
de alertas sonoros
IOR 7 – Taxa Máxima de Deplecionamento 
(razões ambientais)
Armazenamento entre 45% e 0%: 
taxa máxima de deplecionamento 
de 0,15 m/dia 
IOR 8 – Operação como Compensador Síncrono 
com vazão turbinada nula
(razões ambientais)
Apenas uma unidade geradora deve 
ser mantida como compensador 
síncrono, as demais unidades devem 
permanecer desligadas.
IOR 1 – Nível Máximo de Montante
(risco de acúmulo de troncos, madeiras e 
vegetação nas grades de tomada de água)
370,00 m
IOR 2 – Vertimento Inicial Mínimo 
0,10 m de uma comporta 
(aproximadamente 22 m³/s) por, no 
mínimo, 15 minutos, precedido de 
5 minutos de alarmes sonoros
Itá
IOR 3 – Taxa de Variação Máxima de Aumento 
da Defluência ≤ 500 m³/s/h (QD ≤ 6.000 m³/s)
Manual de Procedimentos da Operação - Módulo 5 - Submódulo 5.11
 Cadastro de Informações Operacionais Código Revisão Item Vigência
Cadastro de Informações Operacionais Hidráulicas da 
Bacia do Rio Uruguai CD-OR.UR.URU 54 2.3. 25/07/2024
Referência: 34 / 56
Informações Operativas Relevantes (IORs)
Aproveitamento Descrição Valor
≤ 1.000 m³/s/h (QD > 6.000 m³/s)
IOR 4 – Vazão Máxima Defluente / 
Rebaixamento Dinâmico do Reservatório da 
UHE Itá
(base da torre da LT 525 kV Itá / Nova Santa 
Rita C2)
(ponte interestadual que liga as rodovias 
estaduais RS-420 e SC-155)
24.000 m³/s
32.000 m³/s
IOR 5 – Taxa Máxima de Deplecionamento
(evitar o aprisionamento de peixes em lagoas)
Nível mínimo de 367,10 m, sendo 
permitido abaixo desse valor, desde 
que comunicada com antecedência 
mínima de 3 (três) dias e adotada taxa 
de deplecionamento de 0,10 m em 
períodos de 24 horas e sem oscilação 
negativa do nível do reservatório 
(diferença entre o nível máximo e 
nível mínimo praticado na janela 
móvel das últimas 24hs não poderá 
ser superior à 0,10 m). 
IOR 1 – Nível Máximo de Montante 265,00 m
IOR 2 – Nível Mínimo de Montante 264,00 m
Foz do Chapecó
IOR 3 – Taxa de Variação Máxima da 
Defluência
a) Abertura inicial do vertedouro: 
A 1ª abertura do vertedouro da UHE 
Foz do Chapecó será efetuada após 
comunicação do ONS com 
antecedência de 01h30min, e será 
conforme segue abaixo:
1ª a 4ª aberturas, até totalizar 
vertimento igual a 1.500 m³/s:
•1ª abertura – T = 0h – Grupo 3 
(comportas 8, 9, 10 e 11) – 
400 m³/s;
•2ª abertura – T = 30min – Grupo 
2 (comportas 5, 6 e 7) – 
300 m³/s;
•3ª abertura – T = 1h – Grupo 4 
(comportas 12, 13, 14 e 15) – 
400 m³/s;
Manual de Procedimentos da Operação - Módulo 5 - Submódulo 5.11
 Cadastro de Informações Operacionais Código Revisão Item Vigência
Cadastro de Informações Operacionais Hidráulicas da 
Bacia do Rio Uruguai CD-OR.UR.URU 54 2.3. 25/07/2024
Referência: 35 / 56
Informações Operativas Relevantes (IORs)
Aproveitamento Descrição Valor
• 4ª abertura – T = 1h30 – Grupo 1 
(comportas 1, 2, 3 e 4) – 
400 m³/s.
b) A partir da 5ª abertura, ou seja, 
da 2ª hora em diante, proceder com 
aberturas respeitando as taxas 
abaixo:
800 m³/s/h (QD ≤ 10.000 m³/s)
1.200 m³/s/h (QD > 10.000 m³/s)
IOR 4 – Taxa de Fechamento de Comportas
(razões ambientais)
Fechamento das comportas deve ser 
executado de maneira gradual 
observando condições locais.
O ONS deve comunicar a UHE Foz do 
Chapecó com antecedência mínima 
de 24 horas, quando houver 
necessidade de reduzir o vertimento 
para valores menores que 120 m³/s 
até o valor da restrição de vazão 
mínima de 75 m³/s.
IOR 5 – Parada das Unidades Geradoras
(segurança operativa das unidades geradoras)
É necessária a parada das unidades 
geradoras quando nível de cota 
jusante da usina for igual ou superior 
a 224,19 m
IOR 6 – Vazão Defluente Máxima
(atender a resolução ANA n° 49, de 17 de julho 
de 2018).
A restrição é semanal, iniciando às 
12 horas da sexta-feira e terminando 
às 12 horas de domingo. Afluências 
Médias à usina inferior a 1.000m³/s.
IOR 1 – Vertimento Inicial Mínimo 
1 m³/s por, no mínimo, 1 hora, 
programado com antecedência 
mínima de 4h e em horário comercial
IOR 2 – Taxa de Fechamento de Comportas
Para o fechamento total das 
comportas, a vazão deve ser reduzida 
de 5 m³/s para 0 m³/s de forma 
imediata
IOR 3 – Taxa de Variação Máxima da 
Defluência
≤ 100 m³/s/h (QD < 400 m³/s) 
≤ 200 m³/s/h (QD ≥ 400 m³/s)
Passo Fundo
IOR 4 – Taxa Máxima de Deplecionamento
(razões ambientais)
Nível mínimo de 590,00 m, sendo 
permitido abaixo desse valor, desde 
que comunicada com antecedência 
Manual de Procedimentos da Operação - Módulo 5 - Submódulo 5.11
 Cadastro de Informações Operacionais Código Revisão Item Vigência
Cadastro de Informações Operacionais Hidráulicas da 
Bacia do Rio Uruguai CD-OR.UR.URU 54 2.3. 25/07/2024
Referência: 36 / 56
Informações Operativas Relevantes (IORs)
Aproveitamento Descrição Valor
mínima de 3 (três) dias e adotadas 
taxas de deplecionamento por dia e 
sem oscilação do nível do 
reservatório.
Nível do reservatório entre 590m e 
589,35: taxa máxima de 
deplecionamento de 0,05 m/dia 
Nível do reservatório inferior 
589,35m: taxa máxima de 
deplecionamento de 0,02 m/dia. 
IOR 1 – Taxa de Variação Máxima da 
Defluência
(proteção aos ribeirinhos)
a) Abertura inicial dos vertedores na 
1ª hora: 105 m³/s por pelo menos 1 
hora.
b) A partir da 2ª hora em diante:
≤ 300 m³/s/h (QD ≤ 3.000 m³/s)
≤ 400 m³/s/h (3.000 m³/s < QD ≤ 
6.000 m³/s)
≤ 500 m³/s/h (6.000 m³/s < QD ≤ 
9.000 m³/s)
≤ 600 m³/s/h (QD > 9.000 m³/s)
São José
IOR 2 – Queda Líquida Mínima 13,79 m (se o reservatório no nível 
mínimo operativo) 
Manual de Procedimentos da Operação - Módulo 5 - Submódulo 5.11
 Cadastro de Informações Operacionais Código Revisão Item Vigência
Cadastro de Informações Operacionais Hidráulicas da 
Bacia do Rio Uruguai CD-OR.UR.URU 54 2.3. 25/07/2024
Referência: 37 / 56
5. REDE HIDROMÉTRICA
5.1. ESTAÇÕES HIDROMÉTRICAS – UHE SÃO ROQUE
Estação Latitude Longitude Descrição da Localização
UHE São Roque 
Barramento 
(Limnimétrica)
27°29’42.71” 50°48’27.7”
A Estação localiza-se no rio Canoas, instalada na crista do 
barramento da UHE São Roque na ombreira da margem 
direita no município de Vargem/SC. 
UHE São Roque 
Barramento
27°29'14.74" 50°48'44.10" A estação está localizada no canteiro de obras da UHE 
São Roque no município de Vargem/SC.
UHE São Roque 
Montante 01 - 
Canoas
27°29'2.70" 50°08'52.0"
A Estação localiza-se no rio Canoas na margem esquerda, 
na propriedade do Sr. José Pedro Coelho. Linha Balsa São 
Sebastião, município de Palmeira/SC.
UHE São Roque 
Montante 02 - 
Marombas
27°13'0.22" 50°39'55.24"
A Estação Fluviométrica localiza-se no Rio das Marombas, 
margem esquerda, na propriedade do Sr. Rogério Melo 
Maciel. Linha Tabuleiro, no município de Curitibanos/SC.
UHE São Roque 
Montante 03 - 
Correntes
27°08'2.36" 50°42'9.04"
A Estação localiza-se no rio Correntes na margem direita, 
na propriedade do Sr. Samuel. Linha Potreiros, próximo à 
Linha Laomelo, no município de Fraiburgo/SC.
Manual de Procedimentos da Operação - Módulo 5 - Submódulo 5.11
 Cadastro de Informações Operacionais Código Revisão Item Vigência
Cadastro de Informações Operacionais Hidráulicas da 
Bacia do Rio Uruguai CD-OR.UR.URU 54 2.3. 25/07/2024
Referência: 38 / 56
Diagrama Unifilar da rede hidrométrica no âmbito da UHE São Roque
Estação UHE São Roque Barramento (Limnimétrica)

Manual de Procedimentos da Operação - Módulo 5 - Submódulo 5.11
 Cadastro de Informações Operacionais Código Revisão Item Vigência
Cadastro de Informações Operacionais Hidráulicas da 
Bacia do Rio Uruguai CD-OR.UR.URU 54 2.3. 25/07/2024
Referência: 39 / 56
Estação UHE São Roque Barramento
Estação UHE São Roque Barramento Montante 01 - Canoas

Manual de Procedimentos da Operação - Módulo 5 - Submódulo 5.11
 Cadastro de Informações Operacionais Código Revisão Item Vigência
Cadastro de Informações Operacionais Hidráulicas da 
Bacia do Rio Uruguai CD-OR.UR.URU 54 2.3. 25/07/2024
Referência: 40 / 56
Estação UHE São Roque Barramento Montante 02 - Marombas
Estação UHE São Roque Barramento Montante 03 - Correntes

Manual de Procedimentos da Operação - Módulo 5 - Submódulo 5.11
 Cadastro de Informações Operacionais Código Revisão Item Vigência
Cadastro de Informações Operacionais Hidráulicas da 
Bacia do Rio Uruguai CD-OR.UR.URU 54 2.3. 25/07/2024
Referência: 41 / 56
5.1.1. Características das Estações Hidrométricas
Coleta de Dados
Estação Tipo de Dado 
Coletado
Leitura de 
Dados Transmissão
Frequência
UHE São 
Roque 
Barramento 
(Limnimétrica)
Fluviométrica Horária Satélite Horária
UHE São 
Roque 
Barramento
Pluviométrica Horária Celular/GPRS Horária
UHE São 
Roque 
Montante 01 - 
Canoas
Pluviométrica + 
Fluviométrica +
Sedimentométrico
Horária Satélite Horária
UHE São 
Roque 
Montante 02 - 
Marombas
Pluviométrica + 
Fluviométrica +
Sedimentométrico
Horária Satélite Horária
UHE São 
Roque 
Montante 03 - 
Correntes
Fluviométrica Horária Satélite Horária
5.2. ESTAÇÕES HIDROMÉTRICAS – UHE GARIBALDI
Estação Montante I – Rio Canoas
Latitude - 27°31´01.54´´- S
Longitude – 50°31´56.16´´ - W
Estação Montante II – Rio Caveiras
Latitude – 27°38´2.74´´ - S
Longitude – 50°46´50.43´´ - W
Barramento UHE Garibaldi
Latitude – 27°37´32´´ - S
Longitude – 50°59´09´´ - W
Jusante UHE Garibaldi
Latitude – 27°38´14.42´´ - S
Longitude – 51°00´17.67´´ - W
Manual de Procedimentos da Operação - Módulo 5 - Submódulo 5.11
 Cadastro de Informações Operacionais Código Revisão Item Vigência
Cadastro de Informações Operacionais Hidráulicas da 
Bacia do Rio Uruguai CD-OR.UR.URU 54 2.3. 25/07/2024
Referência: 42 / 56
5.3. ESTAÇÕES HIDROMÉTRICAS – UHE FOZ DO CHAPECÓ
Estação Latitude Longitude Descrição da Localização
Chapecó 27°05'07'' 52°38'08'' A estação está localizada junto a sede da EPAGRI, no município 
de Chapecó, SC.
Barragem Foz
do Chapecó
27°08'48'' 53°03'08'' A estação localiza-se próxima a UHE Foz do Chapecó, no 
município de Alpestre, RS.
Caibi 27°04'30'' 53°14'21'' A estação localiza-se na área da Sede da Associação de 
funcionários da Prefeitura, no município de Caibi, SC.
Nonoai 27°19'58'' 52°47'15''
A estação está localizada na propriedade Cerealista Barbiero 
no município de Nonoai-RS, margens da RS406, na intersecção 
com acesso para cidade de Rio dos Índios - RS.
Foz do Chapecó
Jusante
27°09'30'' 53°04'25''
A estação localiza-se na margem direita do rio Uruguai, junto 
a sede da Água Mineral Ilha Redonda LTDA., situada no distrito 
de Ilha Redonda no município de Palmitos, SC.

Manual de Procedimentos da Operação - Módulo 5 - Submódulo 5.11
 Cadastro de Informações Operacionais Código Revisão Item Vigência
Cadastro de Informações Operacionais Hidráulicas da 
Bacia do Rio Uruguai CD-OR.UR.URU 54 2.3. 25/07/2024
Referência: 43 / 56
Estação Latitude Longitude Descrição da Localização
Barra do 
Chapecó
Auxiliar
27°02'04'' 52°57'16''
A estação localiza-se na margem direita do rio Chapecó, junto 
a estrada que liga São Carlos a Aguinhas, no município de São 
Carlos, SC.
Rio
Douradinho
27°18'01'' 52°31'49''
A estação localiza-se na margem direita do rio Douradinho. 
Linha Povoado Cominett, situada no município de Itatiba do 
Sul, RS.
Iraí 27°11'25'' 53°15'55''
A estação está localizada na margem esquerda do rio Uruguai, 
logo a montante da ponte sobre a BR 386 no município de Iraí, 
RS.
Paloma 27°18'51'' 52°23'48''
A estação localiza-se na margem esquerda do rio Palomas, na 
propriedade do Sr. Anacleto Munaro. Linha Campo Alegre, 
situada no município de Barra do Rio Azul, RS.
(*) Estas estações são operadas também pela ANA
5.3.1. Características das Estações Hidrométricas
Coleta de Dados
Estação
Tipo de 
dado 
coletado
Leitura de 
dados Transmissão
Frequência
Chapecó CliT Horária GPRS Horária
Barragem Foz
 do Chapecó CliT Horária GPRS Horária
Caibi CliT Horária GPRS Horária
Nonoai CliT Horária GPRS Horária
 Foz do Chapecó
 Jusante FdT Horária Satélite Horária
Barra do Chapecó
 Auxiliar FdS 7h e 17h Telefone Diária
Manual de Procedimentos da Operação - Módulo 5 - Submódulo 5.11
 Cadastro de Informações Operacionais Código Revisão Item Vigência
Cadastro de Informações Operacionais Hidráulicas da 
Bacia do Rio Uruguai CD-OR.UR.URU 54 2.3. 25/07/2024
Referência: 44 / 56
Coleta de Dados
Estação
Tipo de 
dado 
coletado
Leitura de 
dados Transmissão
Frequência
Rio Douradinho FdST 7h e 17h 
Horária  Boletim Satélite Mensal Horária
Rio Paloma FdST 7h e 17h 
Horária  Boletim GPRS Mensal Horária
Observações:
CliT:Climatológica telemedida;
FdT: Fluviométrica telemedida;
FdS:Fluviométrica Sedimentométrica;
FdSQ: Fluviométrica Sedimentométrica Qualidade da água;
FdST: Fluviométrica Sedimentométrica Telemedida;
GPRS: Transmissão via pacote de dados – Celular.
5.4. ESTAÇÕES HIDROMÉTRICAS – UHE SÃO JOSÉ

Manual de Procedimentos da Operação - Módulo 5 - Submódulo 5.11
 Cadastro de Informações Operacionais Código Revisão Item Vigência
Cadastro de Informações Operacionais Hidráulicas da 
Bacia do Rio Uruguai CD-OR.UR.URU 54 2.3. 25/07/2024
Referência: 45 / 56
Estação Latitude Longitude Descrição da Localização
Montante 28o 13’ 30,28” S 54º 40’ 34,8” W Margem direita do rio Ijuí, a 11,9 km da cidade 
de Cerro Largo e a 1,7 km da travessia de balsa.
Arroio 
Uruquá
28o 15’ 35,16” S 54º 41’ 40,09” W
Margem direita do rio Uruquá, a 21,4 km da 
cidade de Cerro Largo, e a 40 m a jusante de 
uma ponte.
Arroio 
Riacho 
Fundo
28o 12’ 49,43” S 54º 45’ 10,13” W
Margem esquerda do Rio Riacho Fundo, a 11,3 
km da cidade de Cerro Largo e a 300 m da 
ponte sobre o rio Riacho Fundo.
Barragem 28o 10’ 29,6” S 54º 48’ 37,2” W A 14 km da cidade de Cerro Largo, a 100m a 
montante da Barragem.
Jusante 28o 10’ 27,1” S 54º 49’ 07,8” W A jusante 30 m da Barragem
5.4.1. Características das Estações Hidrométricas
Coleta de Dados
Estação
Tipo de 
Dado 
Coletado
Leitura de Dados Transmissão
Frequência
Montante FRDT Horária Satélite Horária
Arroio 
Uruquá FRDT Horária Satélite Horária

Manual de Procedimentos da Operação - Módulo 5 - Submódulo 5.11
 Cadastro de Informações Operacionais Código Revisão Item Vigência
Cadastro de Informações Operacionais Hidráulicas da 
Bacia do Rio Uruguai CD-OR.UR.URU 54 2.3. 25/07/2024
Referência: 46 / 56
Coleta de Dados
Estação
Tipo de 
Dado 
Coletado
Leitura de Dados Transmissão
Frequência
Arroio 
Riacho 
Fundo
FRDT Horária Satélite Horária
Barragem FRD Horária Satélite Horária
Jusante FRDT Horária Satélite Horária
5.5. ESTAÇÕES HIDROMÉTRICAS – UHE PASSO SÃO JOÃO:
Estação Latitude Longitude Descrição da Localização
James 28°12’25,01” ” 54º52´11,12” Arroio Rolador é afluente do Rio Ijuí que é 
afluente do Rio Uruguai
Lago UHPJ 28°07’57,85” 55°03’06,99”
Localizada no lago da Hidrelétrica Passo São 
João no Rio Ijuí, que é afluente do Rio 
Uruguai.
Jusante 
UHPJ 28°07’26,77”’” 55°03’12,83”
No Rio Ijuí a jusante da restituição da usina 
Passo São João, que é afluente do Rio 
Uruguai.
SITIO 28°09’32.12” 55°03’45,65” O Rio Lageado das Pedras é afluente do Rio 

Manual de Procedimentos da Operação - Módulo 5 - Submódulo 5.11
 Cadastro de Informações Operacionais Código Revisão Item Vigência
Cadastro de Informações Operacionais Hidráulicas da 
Bacia do Rio Uruguai CD-OR.UR.URU 54 2.3. 25/07/2024
Referência: 47 / 56
Estação Latitude Longitude Descrição da Localização
VALDIR 
COIMBRA
Ijuí na altura do Lago da HPSJ, fazendo parte 
da bacia do Rio Uruguai.
5.5.1. Características das Estações Hidrométricas
Coleta de Dados
Estação Tipo de Dado 
Coletado
Leitura de 
Dados Transmissão
Frequência
James Pluviométrica + 
Fluviométrica Horária GSM/GPRS Horária
Lago UHPJ Pluviométrica + 
Linimimétrica Horária GSM/GPRS Horária
Jusante 
UHPJ
Pluviométrica + 
Fluviométrica Horária GSM/GPRS Horária
SITIO 
VALDIR 
COIMBRA
Pluviométrica + 
Fluviométrica Horária GSM/GPRS Horária
5.6. ESTAÇÕES HIDROMÉTRICAS – UHE MACHADINHO, UHE ITÁ E UHE PASSO FUNDO 
UHE ITÁESTADO DO RIO GRANDE DO SUL
ESTADO DE SANTA CATARINAUHE MACHADINHOUHE PASSO FUNDOARGENTINA CACADORURUBICIVIDEIRACONCORDIAPASSOCOLOMBELLIVACARIAITAJUSANTEBARRA DOFACAOPASSO FUNDOEMBRAPALAGOAVERMELHAPASSOGRANZOTTOSECAO 5ERECHIMLAGESCURITIBANOSPASSO CARUCAMPOS NOVOSCELSO RAMOSOUROBARRAGEMMACHADINHOBARRAGEMITARio PelotasRio InhandavaRio ApuaeRio Passo FundoRio do PeixeRio CanoasRio Uruguai
Manual de Procedimentos da Operação - Módulo 5 - Submódulo 5.11
 Cadastro de Informações Operacionais Código Revisão Item Vigência
Cadastro de Informações Operacionais Hidráulicas da 
Bacia do Rio Uruguai CD-OR.UR.URU 54 2.3. 25/07/2024
Referência: 48 / 56
Estação Latitude Longitude Descrição da Localização
UHE Itá (S) 
27º16’35,00”
(W)
52º22’38,00”
A usina localiza-se no Rio Uruguai (SC e RS), na divisa dos 
municípios de Itá (SC) e Aratiba (RS).
Barragem Itá (S) 
27º16’24,00”
(W)
52º23’20,00”
A estação localiza-se junto à UHE Itá.
Concórdia (S) 
27º18’47,00”
(W)
51º59’29,00”
A estação localiza-se na Embrapa Suínos e Aves. BR 153, 
km 110, Vila Tamanduá.
Ouro (S) 
27º20’19,00”
(W)
51º36’38,00”
A estação localiza-se na rua Javarino Andreoni n°120, 
cerca de 170 m a montante da ponte de acesso a Ouro, no 
lado direito.
Seção 5 (S) 
27º31’11,00”
(W)
51º48’36,00”
A estação localiza-se na margem direita do rio Uruguai, 
aproximadamente 3000 m a jusante do barramento da 
UHE Machadinho.
Erechim (S) 
27º39’24,00”
(W)
52º18’19,00”
A estação localiza-se no Colégio Agrícola Estadual de 
Erechim.
Itá Jusante (S) 
27º17’01,00”
(W)
52º24’49,00”
A estação localiza-se na margem direita do rio Uruguai, 
após 1 km da gruta, na localidade de Volta Redonda.
Passo 
Colombelli
(S) 
27º33’43,00”
(W)
51º51’28,00”
A estação localiza-se ao lado da ponte que liga 
Maximiliano de Almeida a Marcelino Ramos no rio Ligeiro.
Caçador (S) 
26º49’18,00”
(W)
50º52’12,00”
A estação localiza-se na Epagri de Caçador.
Videira (S) 
27º01’47,00”
(W)
51º09’37,00”
A estação localiza-se na Epagri de Videira.
UHE 
Machadinho
(S) 
27º31’31,00”
(W)
51º47’03,00”
A usina localiza-se no Rio Pelotas (SC e RS), entre os 
municípios de Maximiliano de Almeida (RS) e Piratuba 
(SC).
Barragem 
Machadinho
(S) 
27º31’09,00”
(W)
51º47’44,00”
A estação localiza-se na Repetidora de rádio da UHE 
Machadinho.
Celso Ramos (S) 
27º38’06,00”
(W)
51º19’55,00”
A estação localiza-se nos fundos da rua Idalino F. 
Sobrinho. 
Curitibanos (S) 
27º17’15,00”
(W)
50º36’29,00”
A estação localiza-se próximo ao aeroporto.
Passo do 
Granzotto
(S) 
27º52’43,00”
(W)
51º45’17,00”
A estação localiza-se cerca de 70 m a jusante da seção de 
réguas.
Campos 
Novos
(S) 
27º22’59,00”
(W)
51º11’33,00”
A estação localiza-se no Centro de Treinamento de 
Campos Novos – EPAGRI.
Urubici (S) 
27º59’33,00”
(W)
49º35’06,00”
A estação localiza-se na rua Rodolfo Andermann, nº1259 
(Fundos).
Manual de Procedimentos da Operação - Módulo 5 - Submódulo 5.11
 Cadastro de Informações Operacionais Código Revisão Item Vigência
Cadastro de Informações Operacionais Hidráulicas da 
Bacia do Rio Uruguai CD-OR.UR.URU 54 2.3. 25/07/2024
Referência: 49 / 56
Estação Latitude Longitude Descrição da Localização
Lages (S) 
27º48’56,00”
(W)
50º20’15,00”
A estação localiza-se na Epagri de Lages.
Passo Carú (S) 
27º32’16,00”
(W)
50º51’08,00”
A estação localiza-se na margem esquerda junto a ponte 
na Br. 282 Km 74.
Lagoa 
Vermelha
(S) 
28º13’35,00”
(W)
51º31’15,00”
A estação localiza-se no INMET.
Vacaria (S) 
28º27’11,00”
(W)
50º57’10,00”
A estação localiza-se na fazenda experimental da Fepagro.
UHE Passo 
Fundo
(S) 
27º33’14,00”
(W)
52º44’33,00”
A usina localiza-se no Rio Passo Fundo (RS), no município 
de Entre Rios do Sul (RS).
Barra do 
Facão
(S) 
27º56’43,00”
(W)
52º34’49,00”
A estação localiza-se na estrada geral de Pontão a Quatro 
Irmãos próximo á ponte sobre o rio Passo Fundo.
Passo Fundo 
Embrapa
(S) 
28º13’33,00”
(W)
52º24’12,00”
A estação localiza-se na Embrapa.
5.6.1. Características das Estações Hidrométricas
Coleta de Dados
Estação
Tipo de 
dado 
coletado
Leitura de 
dados Transmissão
Frequência
UHE Itá LT Horária FTP Horária
Ouro FdT, PT Horária Satélite Horária
Seção 5 FdT, PT Horária Satélite Horária
Erechim PT Horária Satélite Horária
Itá Jusante FdT, PT Horária Satélite Horária
Passo 
Colombelli FdT, PT Horária Satélite Horária
Caçador PT Horária Satélite Horária
Videira PT Horária Satélite Horária
UHE 
Machadinho LT Horária FTP Horária
Curitibanos PT Horária Satélite Horária
Passo do 
Granzotto FdT, PT Horária Satélite Horária
Manual de Procedimentos da Operação - Módulo 5 - Submódulo 5.11
 Cadastro de Informações Operacionais Código Revisão Item Vigência
Cadastro de Informações Operacionais Hidráulicas da 
Bacia do Rio Uruguai CD-OR.UR.URU 54 2.3. 25/07/2024
Referência: 50 / 56
Coleta de Dados
Estação
Tipo de 
dado 
coletado
Leitura de 
dados Transmissão
Frequência
Campos 
Novos PT Horária Satélite Horária
Urubici PT Horária Satélite Horária
Lages PT Horária Satélite Horária
Passo Carú FdT, PT Horária Satélite Horária
Lagoa 
Vermelha PT Horária Satélite Horária
Vacaria PT Horária Satélite Horária
São Joaquim 
CETREJO PT Horária GPRS (Celular) Horária
UHE Passo 
Fundo LT Horária FTP Horária
Barra do 
Facão FdT, PT Horária Satélite Horária
Passo Fundo 
Embrapa PT Horária Satélite Horária
Observações: 
FdT: Fluviométrica telemedida; LT: Linimétrica telemedida; 
CliT: Climatológica telemedida; PT: Pluviométrica telemedida.
Manual de Procedimentos da Operação - Módulo 5 - Submódulo 5.11
 Cadastro de Informações Operacionais Código Revisão Item Vigência
Cadastro de Informações Operacionais Hidráulicas da 
Bacia do Rio Uruguai CD-OR.UR.URU 54 2.3. 25/07/2024
Referência: 51 / 56
6. DIAGRAMAS DE OPERAÇÃO
6.1. DIAGRAMAS DE OPERAÇÃO NORMAL, ATENÇÃO, ALERTA E EMERGÊNCIA DA UHE BARRA GRANDE

Manual de Procedimentos da Operação - Módulo 5 - Submódulo 5.11
 Cadastro de Informações Operacionais Código Revisão Item Vigência
Cadastro de Informações Operacionais Hidráulicas da 
Bacia do Rio Uruguai CD-OR.UR.URU 54 2.3. 25/07/2024
Referência: 52 / 56
6.2. DIAGRAMA DE OPERAÇÃO NORMAL, ATENÇÃO, ALERTA E EMERGÊNCIA DA UHE CAMPOS NOVOS

Manual de Procedimentos da Operação - Módulo 5 - Submódulo 5.11
 Cadastro de Informações Operacionais Código Revisão Item Vigência
Cadastro de Informações Operacionais Hidráulicas da 
Bacia do Rio Uruguai CD-OR.UR.URU 54 2.3. 25/07/2024
Referência: 53 / 56
6.3. DIAGRAMA DE OPERAÇÃO NORMAL, ATENÇÃO, ALERTA E DE EMERGÊNCIA DA UHE FOZ DO CHAPECÓ

Manual de Procedimentos da Operação - Módulo 5 - Submódulo 5.11
 Cadastro de Informações Operacionais Código Revisão Item Vigência
Cadastro de Informações Operacionais Hidráulicas da 
Bacia do Rio Uruguai CD-OR.UR.URU 54 2.3. 25/07/2024
Referência: 54 / 56 
6.4. DIAGRAMA DE OPERAÇÃO DA UHE SÃO JOSÉ

Manual de Procedimentos da Operação - Módulo 5 - Submódulo 5.11
 Cadastro de Informações Operacionais Código Revisão Item Vigência
Cadastro de Informações Operacionais Hidráulicas da 
Bacia do Rio Uruguai CD-OR.UR.URU 54 2.3. 25/07/2024
Referência: 55 / 56 
6.5. DIAGRAMA DE OPERAÇÃO DA UHE PASSO SÃO JOÃO

Manual de Procedimentos da Operação - Módulo 5 - Submódulo 5.11
 Cadastro de Informações Operacionais Código Revisão Item Vigência
Cadastro de Informações Operacionais Hidráulicas da 
Bacia do Rio Uruguai CD-OR.UR.URU 54 2.3. 25/07/2024
Referência: 56 / 56 
7. VOLUMES DE ESPERA PARA O CONTROLE DE CHEIAS
Não se aplica, devido à inexistência de reservatório com controle de cheias nesta Bacia Hidrográfica.
