 
Manual de Procedimentos da Operação 
Módulo 5 - Submódulo 5.11 
 
Cadastro de Informações Operacionais 
Cadastro de Informações Operacionais Hidráulicas da Bacia do Rio Iguaçu 
 
 
Código Revisão Item Vigência 
CD-OR.PR.IGU 37 2.3. 29/10/2024 
 
. 
 
MOTIVO DA REVISÃO 
Atualização conforme Relatório RT-ONS DOP 0439/2024  – “Regras para Operação de Controle de Cheias 
Bacias do Rio Iguaçu (Ciclo 2024-2025)”, com modificações nos subitens 6.2.1., 6.2.2. e 7.1. 
 
LISTA DE DISTRIBUIÇÃO 
CNOS COSR-S Copel GeT Engie (COG) MCQ Neoenergia 
(CORE) 
 
Manual de Procedimentos da Operação - Módulo5 - Submódulo 5.11 
 Cadastro de Informações Operacionais Código Revisão Item Vigência 
Cadastro de Informações Operacionais Hidráulicas da 
Bacia do Rio Iguaçu CD-OR.PR.IGU 37 2.3. 29/10/2024 
 
Referência: RT-CD.OR.01 – Rev. 02 2 / 49 
 
ÍNDICE 
1. OBJETIVO ................................ ................................ ................................ ................................ ..... 3 
2. CONSIDERAÇÕES GERAIS ................................ ................................ ................................ .............. 3 
3. DADOS DOS RESERVATÓRIOS ................................ ................................ ................................ ........ 4 
3.1. Dados de Identificação dos Aproveitamentos............................................................................... 4 
3.2. Dados Atemporais dos Reservatórios – Tabela 1 .......................................................................... 5 
3.3. Dados Atemporais dos Reservatórios – Tabela 2 .......................................................................... 6 
3.4. Dados Atemporais dos Reservatórios – Tabela 3 .......................................................................... 8 
4. RESTRIÇÕES OPERATIVAS HIDRÁULICAS (ROH) E INFORMAÇÕES OPERATIVAS RELEVANTES (IOR) ... 9 
4.1. UHE Gov. Bento Munhoz da Rocha Netto (Foz do Areia) ............................................................. 9 
4.2. UHE Governador Ney Aminthas de Barros Braga (Segredo) ....................................................... 10 
4.3. UHE Santa Clara ........................................................................................................................... 10 
4.4. UHE Fundão ................................................................................................................................. 10 
4.5. Desvio Jordão ............................................................................................................................... 11 
4.6. UHE Salto Santiago ...................................................................................................................... 11 
4.7. UHE Salto Osório.......................................................................................................................... 14 
4.8. UHE Governador José Richa (Salto Caxias) .................................................................................. 16 
4.9. UHE Baixo Iguaçu ......................................................................................................................... 17 
4.10. Quadros Resumo das Restrições Operativas Hidráulicas (ROHs) e das Informações Operativas Relevantes 
(IORs) 18 
5. REDE HIDROMÉTRICA ................................ ................................ ................................ ................. 23 
5.1. Estações Hidrométricas – Copel GeT / MCQ ............................................................................... 23 
5.2. Estações Hidrométricas – Engie................................................................................................... 26 
5.3. Estações Hidrométricas – Neoenergia......................................................................................... 27 
6. DIAGRAMAS DE OPERAÇÃO ................................ ................................ ................................ ........ 28 
6.1. Reservatórios da UHE GBM e da UHE GNB ................................................................................. 28 
6.2. Reservatório da UHE Salto Santiago ............................................................................................ 30 
7. VOLUME DE ESPERA PARA CONTROLE DE CHEIAS ................................ ................................ ........ 39 
7.1. Reservatório da UHE Salto Santiago ............................................................................................ 39 
7.2. Reservatório do Conjunto GBM / GNB ........................................................................................ 39 
8. ANEXOS................................ ................................ ................................ ................................ ...... 40 
8.1. ANEXO 1 – Metodologia para determinação da vazão defluente dos reservatórios das usinas 
hidrelétricas GBM e GNB ............................................................................................................. 40 
8.2. ANEXO 2 – Tabela de Vazão Transferida do Desvio Jordão para o Rio Iguaçu ........................... 49 
 
Manual de Procedimentos da Operação - Módulo5 - Submódulo 5.11 
 Cadastro de Informações Operacionais Código Revisão Item Vigência 
Cadastro de Informações Operacionais Hidráulicas da 
Bacia do Rio Iguaçu CD-OR.PR.IGU 37 2.3. 29/10/2024 
 
Referência: RT-CD.OR.01 – Rev. 02 3 / 49 
 
1. OBJETIVO 
Apresentar os Dados Operacionais Hidráulicos dos Reservatórios da Bacia Hidrográfica do Rio Iguaçu, de 
acordo com os Procedimentos de Rede, a serem observados pelos operadores dos Centros de Operação do 
ONS e pelas Áreas de Operação dos Agentes de Geração envolvidos no controle desses valores. 
2. CONSIDERAÇÕES GERAIS 
2.1. Os dados constantes neste Cadastro de Informações Operacionais Hidráulicas são informações sobre 
os reservatórios dessa Bacia Hidrográfica, necessárias às ações de coordenação, supervisão e controle 
dos Centros de Operação do ONS para a operação hidráulica desse Sistema de Reservatórios. 
2.2. Os operadores dos Centros de Operação do ONS, nas ações de coordenação, supervisão e controle, 
devem observar os  dados operacionais constantes n este Cadastro de Informações Operacionais 
Hidráulicas. 
2.3. As áreas de operação dos Agentes de Geração, em suas aç ões de comando e execução, devem  
observar os dados operacionais constantes neste Cadastro de Informações Operacionais Hidráulicas. 
2.4. Os campos das tabelas cujos dados operacionais não existam devem ser preenchidos com a sigla “NE” 
– Não Existente. 
2.5. Os campos das tabelas cujos dados operacionais não foram informados pelo Agente de Geração  
devem ser preenchidos com a sigla “NI” – Não Informado. 
2.6. Os campos das tabelas cujos dados operacionais não se aplicam para um determinado reservatório 
devem ser preenchidos com um hífen “-”. 
Manual de Procedimentos da Operação - Módulo5 - Submódulo 5.11 
 Cadastro de Informações Operacionais Código Revisão Item Vigência 
Cadastro de Informações Operacionais Hidráulicas da 
Bacia do Rio Iguaçu CD-OR.PR.IGU 37 2.3. 29/10/2024 
 
Referência: 4 / 49 
 
3. DADOS DOS RESERVATÓRIOS 
3.1. Dados de Identificação dos Aproveitamentos 
Denominação do 
Reservatório Usina Rio Classificação Regularização 
Localização em Relação à Barragem 
Município Margem Direita Município Margem Esquerda 
Gov. Bento Munhoz da 
Rocha Netto   
UHE Gov. Bento Munhoz 
da Rocha Netto   Iguaçu Acumulação Mensal Pinhão – PR Bituruna – PR 
Gov. Ney Aminthas de 
Barros Braga 
UHE Gov. Ney Aminthas 
de Barros Braga Iguaçu Acumulação Mensal Reserva do Iguaçu – PR Mangueirinha – PR 
Santa Clara UHE Santa Clara Jordão Fio d’Água Mensal Candói – PR Pinhão – PR 
Fundão UHE Fundão Jordão Fio d’Água Diária Foz do Jordão – PR Pinhão – PR 
Derivação do Rio Jordão Desvio Jordão Jordão Fio d’Água Mensal Foz do Jordão – PR Reserva do Iguaçu – PR 
Salto Santiago UHE Salto Santiago  Iguaçu Acumulação Mensal Rio Bonito do Iguaçu – PR Saudade do Iguaçu – PR 
Salto Osório UHE Salto Osório Iguaçu Fio d’Água Diária Quedas do Iguaçu – PR São Jorge do Oeste – PR 
Gov. José Richa UHE Gov. José Richa Iguaçu Fio d’Água Diária Capitão Leônidas Marques – PR Nova Prata do Iguaçu – PR 
Baixo Iguaçu UHE Baixo Iguaçu Iguaçu Fio d’Água Diária Capitão Leônidas Marques – PR Capanema – PR 
  
 
Manual de Procedimentos da Operação - Módulo5 - Submódulo 5.11 
 Cadastro de Informações Operacionais Código Revisão Item Vigência 
Cadastro de Informações Operacionais Hidráulicas da 
Bacia do Rio Iguaçu CD-OR.PR.IGU 37 2.3. 29/10/2024 
 
Referência: 5 / 49 
 
3.2. Dados Atemporais dos Reservatórios – Tabela 1 
Nome 
Nível (m) Área de Drenagem 
(km²) Distância 
até a Foz 
(km) 
Distâncias e Tempos de Viagem 
entre Aproveitamentos 
Mínimo 
Operativo 
Máximo 
Operativo 
Máximo 
Maximorum 
Coroa-
mento 
Canal de 
Fuga 
(média) 
Total até o 
Reserva-
tório 
Própria do 
Reserva-
tório 
Aproveitamentos (km) (1) (h) (2) 
 Gov. Bento Munhoz 
da Rocha Netto 700,00 742,00 745,00 748,00 602,00 30.127 29.900 550 GBM / GNB 95 1 
Gov. Ney Aminthas 
de Barros Braga  602,00 607,00 608,00 610,00 490,00 34.346 4.219 450 GNB / UHSS 80 1 
Santa Clara 787,50 805,00 810,15 811,00 706,10 3.900 3.900 32 (3) SCL / FND 20 2 
Fundão 705,00 (4) 705,50 711,00 712,50 610,05 4.090 190 23 (3) FND / DRJ 12 1,8 
Desvio Jordão 602,00 610,00 614,80 615,00 538,35 4.730 640 3 (3) DRJ / UHSS 80 1 
Salto Santiago 481,00 506,00 509,00 510,00 397,00 43.852 4.776 357 UHSS / UHSO 70 1 
Salto Osório 389,00 397,00 398,00 401,00 324,00 45.769 1.917 307 UHSO / GJR 95 1 
Gov. José Richa 323,00 325,00 326,00 328,00 259,00 56.977 11.208 210 GJR / UHBI 36 1 
Baixo Iguaçu 258,00 259,00 261,60 263,00 243,06 61.580 4.603 174 - - - 
Observações: 
(1) Valor estimado. 
(2) Tempo médio em condições de reservatório. 
(3) Até a confluência com o rio Iguaçu. 
(4) Na UHE Fundão, o nível da soleira vertente é 705,50 m (vertedor de superfície) e o nível operacional mínimo de projeto é 703,50 m, mas devido à impossibilidade 
prática de se operar esse Reservatório em níveis inferiores a 0,50 m abaixo do nível máximo normal (crista do vertedor), adotou-se o nível de 705,00 m como o 
novo nível mínimo operativo do R eservatório que atende aos requisitos de cobrimento mínimo na tomada d’água , para evitar entrada de ar e formação de 
vórtices. 
Manual de Procedimentos da Operação - Módulo5 - Submódulo 5.11 
 Cadastro de Informações Operacionais Código Revisão Item Vigência 
Cadastro de Informações Operacionais Hidráulicas da 
Bacia do Rio Iguaçu CD-OR.PR.IGU 37 2.3. 29/10/2024 
 
Referência: 6 / 49 
 
3.3. Dados Atemporais dos Reservatórios – Tabela 2 
Aproveitamento 
Volume (hm³) Dados da Casa de Força 
Útil 
No Nível  
Mínimo 
Operativo 
No Nível 
Máximo 
Operativo 
No Nível  
Máximo 
Maximorum 
Quantidade 
de 
Unidades 
Geradoras 
Potência 
por UG 
(MW) 
Potência Total 
(MW) 
Engolimento 
por UG 
(m³/s) 
Produtibilidade a  
65% VU 
(MW/m³/s) 
Gov. Bento Munhoz da 
Rocha Netto 3.805 1.974 5.779 6.216 
3 (3) 436 
1.727 
360 1,1618 
1 (4) 419 372 1,1477 
Gov. Ney Aminthas de 
Barros Braga  384 2.559 2.942 3.022 4 315 1.260 349,50 1,0242 
Santa Clara 262 169 431 545 2 60,1 120,2 76 (1) 0,8133 
Fundão 7,23 23,4 30,6 47,2 2 60,1 120,2 76 (1) 0,8299 
Desvio Jordão 25,1 84,9 110 127 1 6,5 6,5 10 0,6500 
Salto Santiago 4.113 2.662 6.775 7.418 4 355 1.420 382,27 (2) 0,9088 
Salto Osório 403 722 1.124 1.180 
4 182 
1.103,67 
283 0,6431 
2 187,835 310 0,6044 
Gov. José Richa 273 3.300 3.573 3.714 4 310 1.240 525 0,5930 
Baixo Iguaçu 24,7 187,2 211,9 302,4 3 116,73 350,2 840 0,1472 
Manual de Procedimentos da Operação - Módulo5 - Submódulo 5.11 
 Cadastro de Informações Operacionais Código Revisão Item Vigência 
Cadastro de Informações Operacionais Hidráulicas da 
Bacia do Rio Iguaçu CD-OR.PR.IGU 37 2.3. 29/10/2024 
 
Referência: 7 / 49 
 
Notas: 
(1) No nível máximo operativo e com potência máxima. 
(2) Para queda líquida nominal. 
(3) Unidades geradoras em que já foi concluído processo de modernização. 
(4) Unidade geradora em que ainda não foi concluído processo de modernização. 
Manual de Procedimentos da Operação - Módulo5 - Submódulo 5.11 
 Cadastro de Informações Operacionais Código Revisão Item Vigência 
Cadastro de Informações Operacionais Hidráulicas da 
Bacia do Rio Iguaçu CD-OR.PR.IGU 37 2.3. 29/10/2024 
 
Referência: 8 / 49 
 
3.4. Dados Atemporais dos Reservatórios – Tabela 3 
Aproveitamento 
Extravasores 
Descarregador de Fundo Vertedor com Comporta Tulipa Vertedor com Soleira Livre Válvula Dispersora 
Vazão 
Total 
(m³/s) 
Quanti-
dade 
Cota da 
Soleira 
(m) 
Vazão por 
Comporta 
(m³/s) 
Quanti-
dade de 
Vãos 
Cota da 
Crista da 
Soleira 
(m) 
Vazão por 
Vão 
(m³/s) 
Cota da 
Soleira 
(m) 
Vazão 
Máxima 
(m³/s) 
Quanti-
dade de 
Vãos 
Cota da 
Crista da 
Soleira 
(m) 
Vazão 
por Vão 
(m³/s) 
Quanti-
dade 
Vazão por 
Válvula 
(m³/s) 
 
Gov. Bento Munhoz da 
Rocha Netto - - - 4 725,50 2.500 - - - - - - - 10.000 
Gov. Ney Aminthas de 
Barros Braga - - - 6 587,00 2.700 - - - - - - - 16.200 
Santa Clara - - -   - - - 1 805,00 6.134 1 6,47 6.141 
Fundão - - - - -  - - - 1 705,50 7.227 1 6,92 7.234 
Desvio Jordão - - - - - - - - 1 610,00 7.070 1 10,0 7.080 
Salto Santiago - - - 8 486,00 3.478 - - - - - - - 27.830 
Salto Osório - - - 9 377,00 3.000 - - - - - - - 27.000 
Gov. José Richa - - - 14 305,00 3.393 - - - - - - - 47.500 
Baixo Iguaçu - - - 16 241,50 3.349 - - - - - - - 53.585 
Manual de Procedimentos da Operação - Módulo5 - Submódulo 5.11 
 Cadastro de Informações Operacionais Código Revisão Item Vigência 
Cadastro de Informações Operacionais Hidráulicas da 
Bacia do Rio Iguaçu CD-OR.PR.IGU 37 2.3. 29/10/2024 
 
Referência: RT-CD.OR.01 – Rev. 02 9 / 49 
 
4. RESTRIÇÕES OPERATIVAS HIDRÁULICAS (ROH) E INFORMAÇÕES OPERATIVAS RELEVANTES (IOR) 
4.1.  UHE Gov. Bento Munhoz da Rocha Netto (Foz do Areia) 
4.1.1. Restrições Operativas (ROH) 
4.1.1.1. Restrições de Jusante 
Não há. 
4.1.1.2. Restrições de Montante 
ROH 1 – Nível Máximo Operativo (variável, até 742,00 m) 
Segundo o projeto inicial da UH E Gov. Bento Munhoz da Rocha Netto, o Reservatório deveria operar com 
nível máximo normal de 744,00 m; porém, o estudo “Influência no Reservatório de Foz do Areia sobre Níveis 
de Enchente em União da Vitória” – SPE AGO/80 constatou que , para esse nível  e em algumas cheias , o 
Reservatório poderia atingir  as cidades de União da Vitória (PR) e de Porto União  (SC), situadas cerca de 
106 km a montante da barragem, ocasionando remanso acima da cota de desapropriação  (744,50 m). 
Sugeriu-se, então, que o nível máximo normal fosse alterado para  742,00 m.  Desse modo, o estudo de 
remanso seria confirmado por campanhas de medição de descarga antes de se operar em níveis mais altos. 
Após a cheia de 1983, onde se registrou nível de água recorde no posto fluviométrico de União da Vitória, 
esse estudo foi revisado, concluindo-se que, para um nível máximo normal de 742,00 m em Foz do Areia, não 
haveria agravamento nos níveis de água em Uni ão da Vitória , para cheias de até  15 anos de tempo de 
recorrência, e para o nível do Reservatório em 741,50 m, a influência só seria registrada a partir de enchentes 
com 100 anos de tempo de recorrência. 
Atualmente, adota-se a operação de rebaixamento dinâmico do Reservatório de Foz do Areia, com o objetivo 
de não agravar as condições de cheias em União da Vitória em relação às condições naturais. Es se 
rebaixamento é determinado em função de uma curva de recessão crítica da vazão afluente ao Reservatório, 
o que permite o deplecionamento desse durante a fase inicial cheia, até o limite em que fica plenamente 
assegurada a recuperação do nível máximo normal. 
Os estudos de remanso foram atualizados em 2002, incorporando todas as informações hidrológicas obtidas 
desde 1983, resultando no relatório “CEHPAR – Projeto 175 – Estudo de Revisão do Comportamento 
Hidráulico do Rio Iguaçu no Trecho entre União da Vitória  e Foz do Areia – Dezembro de 2002”. Não são 
previstas mudanças nos métodos operativos a partir dess es novos resultados, que implicam somente em 
pequenas diferenças na avaliação das condições de remanso no trecho estudado. 
4.1.1.3. Outras Restrições 
Nada consta. 
4.1.2. Informações Operativas Relevantes (IOR) 
IOR 1 – Taxa Máxima de Variação das Defluências 
Recomenda-se adotar as seguintes taxas referenciais de variação máxima de defluência: 
• QD ≤ 2.000 m3/s → Taxa Máxima de Variação da Defluência = 600 m³/s/h; 
• QD > 2.000 m3/s → Taxa Máxima de Variação da Defluência = 1.000 m³/s/h; 
onde QD é a Vazão Defluente. 
Manual de Procedimentos da Operação - Módulo5 - Submódulo 5.11 
 Cadastro de Informações Operacionais Código Revisão Item Vigência 
Cadastro de Informações Operacionais Hidráulicas da 
Bacia do Rio Iguaçu CD-OR.PR.IGU 37 2.3. 29/10/2024 
 
Referência: RT-CD.OR.01 – Rev. 02 10 / 49 
 
4.2. UHE Governador Ney Aminthas de Barros Braga (Segredo) 
4.2.1. Restrições Operativas (ROH) 
Não há. 
4.2.2. Informações Operativas Relevantes (IOR) 
IOR 1 – Taxa Máxima de Variação das Defluências 
Recomenda-se adotar as seguintes taxas referenciais de variação máxima de defluência: 
• QD ≤ 2.000 m3/s → Taxa Máxima de Variação da Defluência = 600 m³/s/h; 
• QD > 2.000 m3/s → Taxa Máxima de Variação da Defluência = 1.000 m³/s/h; 
onde QD é a Vazão Defluente. 
4.3. UHE Santa Clara 
4.3.1. Restrições Operativas (ROH) 
4.3.1.1. Restrições de Jusante 
ROH 1 – Vazão Mínima Defluente 
A vazão defluente mínima remanescente é de 6,47 m3/s, correspondendo à vazão a ser mantida para atender 
aos requisitos ambientais. 
4.3.1.2. Restrições de Montante 
Não há. 
4.3.1.3. Outras Restrições 
Nada consta. 
4.4. UHE Fundão 
4.4.1. Restrições Operativas (ROH) 
4.4.1.1. Restrições de Jusante 
ROH 1 – Vazão Mínima Defluente 
A vazão defluente mínima remanescente é de 6,92 m3/s, correspondendo à vazão a ser mantida para atender 
aos requisitos ambientais. 
4.4.1.2. Restrições de Montante 
Não há. 
4.4.1.3. Outras Restrições 
Nada consta. 
Manual de Procedimentos da Operação - Módulo5 - Submódulo 5.11 
 Cadastro de Informações Operacionais Código Revisão Item Vigência 
Cadastro de Informações Operacionais Hidráulicas da 
Bacia do Rio Iguaçu CD-OR.PR.IGU 37 2.3. 29/10/2024 
 
Referência: RT-CD.OR.01 – Rev. 02 11 / 49 
 
4.5. Desvio Jordão 
4.5.1. Restrições Operativas (ROH) 
4.5.1.1. Restrições de Jusante 
ROH 1 – Vazão Mínima Defluente 
A vazão defluente mínima é de 10 m3/s, correspondendo à vazão a ser mantida para atender aos requisitos 
ambientais e ao turbinamento da PCH localizada imediatamente à jusante. 
4.5.1.2. Restrições de Montante 
Não há. 
4.5.1.3. Outras Restrições 
Nada consta. 
4.6. UHE Salto Santiago 
4.6.1. Restrições Operativas (ROH) 
4.6.1.1. Restrições de Jusante 
ROH 1 – Vazão Máxima Defluente 
A vazão defluente máxima é de 19.000 m³/s, para proteção da casa de força da própria Usina. 
Durante a cheia de julho de 1983, verificou -se que , para vazões defluentes da ordem de 16.000 m 3/s, 
correspondente à cota 416,00 m no canal de fuga, a casa de for ça poderia ser inundada. Após esse evento , 
foi construído um muro de proteção entre a casa de força e o canal de fuga, com coroamento na cota 419,00 
metros, elevando o valor da restrição para 19.000 m3/s. 
ROH 2 – Vazão Máxima Vertida 
A vazão vertida máxima é de 17.000 m³/s, para evitar danos em ponte rodoviária na BR-158.  
Durante os eventos de cheia ocorridos no histórico de operação da UHE Salto Santiago, constatou -se que a 
implementação da vazão vertida a partir de 17.000 m³/s se inicia o processo de danos estruturais na ponte 
localizada na rodovia BR-158, localizada logo à jusante do vertedouro. Tal situação foi comprovada na cheia 
ocorrida em junho de 2014, quando a vazão vertida atingiu 16.000 m³/s e se estava na iminência de 
ocorrerem danos nessa ponte. 
4.6.1.2. Restrições de Montante 
Não há. 
4.6.1.3. Outras Restrições 
Nada consta. 
Manual de Procedimentos da Operação - Módulo5 - Submódulo 5.11 
 Cadastro de Informações Operacionais Código Revisão Item Vigência 
Cadastro de Informações Operacionais Hidráulicas da 
Bacia do Rio Iguaçu CD-OR.PR.IGU 37 2.3. 29/10/2024 
 
Referência: RT-CD.OR.01 – Rev. 02 12 / 49 
 
4.6.2. Informações Operativas Relevantes (IOR) 
IOR 1 – Taxa Máxima de Variação das Defluências 
Recomenda-se adotar as seguintes taxas referenciais de variação máxima de defluência: 
• QD ≤ 2.000 m3/s → Taxa Máxima de Variação da Defluência = 600 m³/s/h; 
• QD > 2.000 m3/s → Taxa Máxima de Variação da Defluência = 1.000 m³/s/h; 
onde QD é a Vazão Defluente. 
IOR 2 – Plano de Contingências 
Com a elevação das vazões defluentes e do respectivo nível do canal de fuga, há a necessidade de se tomar 
medidas preventivas de modo a se evitar o risco de inundações parciais antes da ocorrência da inundação 
irreversível, citada na ROH 1. Para tanto se estabeleceu um Plano de Contingências que deve ser respeitado 
de modo a preservar a integridade da casa de for ça, observando a evolução das defluências e do nível do 
canal de fuga, de acordo com os seguintes patamares: 
IOR 2.1 – Vazão defluente de 4.000 m3/s e/ou nível do canal de fuga em 403,00 m 
• Início da redução de potência em função da diminuição de queda, conforme indicação da curva de 
capabilidade; 
• Fechamento de drenos do piso 4S para o canal de fuga; 
• Fechamento das válvulas de aeração das turbinas. 
IOR 2.2 – Vazão defluente de 8.500 m3/s e/ou nível do canal de fuga em 408,00 m 
• Isolamento de áreas e estruturas situadas à jusante; 
• Tamponamento e vedação dos 12 exaustores da casa de força, situados junto ao canal de fuga. 
IOR 2.3 – Vazão defluente de 11.500 m3/s e/ou nível do canal de fuga em 411,50 m 
Fechamento de comportas estanques do muro de proteção e acionamento de bombas de drenagem. 
Isolamento de áreas e estruturas situadas à jusante. 
IOR 2.4 – Vazão defluente de 13.000 m3/s e/ou nível do canal de fuga em 413,00 m 
Desvio do trânsito da rodovia BR -158 (pontes à jusante do canal de fuga e rio Iguaçu) por sobre a pista de 
rolamento da barragem. 
IOR 2.5 – Vazão defluente de 15.000 m3/s e/ou nível do canal de fuga em 415,00 m 
Fechamento de drenos da sala de controle e da área administrativa para o canal de fuga. 
IOR 3 – Nível Máximo de Montante 
Recomenda-se que o nível máximo de 506,00 m não seja ultrapassado, considerando que: 
• estando-se com as comportas fechadas , ocorrem vazamentos por cima das comportas e nas laterais do 
defletor de ondas, o que causa molhamento dos cabos de aço que movimentam as comportas , 
prejudicando a conservação desses; 
• a oscilação dos níveis do reservatório acima de 506,00  m aumenta o transporte de detritos flutuantes 
(troncos, madeiras, vegetação) das margens para o corpo do Reservatório e para o canal de adução. Esses 
detritos tendem a se acumular nas grades da tomada de água, afetando o rendimento das máquinas e 
causando esforços adicionais nas estruturas de ferro, aumentando o risco de rompimento das grades. 
Manual de Procedimentos da Operação - Módulo5 - Submódulo 5.11 
 Cadastro de Informações Operacionais Código Revisão Item Vigência 
Cadastro de Informações Operacionais Hidráulicas da 
Bacia do Rio Iguaçu CD-OR.PR.IGU 37 2.3. 29/10/2024 
 
Referência: RT-CD.OR.01 – Rev. 02 13 / 49 
 
IOR 4 – Regras para Vertimento 
IOR 4.1 – Abertura Inicial do Vertedouro 
Antes da abertura inicial do vertedouro, haverá inspeção do local , com duração de 15 minutos , e 
acionamento de alertas sonoros, com duração de 5 minutos, visando a segurança de pessoas nas adjacências 
da calha do rio. 
A abertura do vertedouro seguirá a seguinte sequência: 
• abertura de uma comporta até a posição 0,20 m, com vazão equivalente de cerca de 30 m³/s, durante 15 
minutos; 
• abertura da segunda comporta até a posição 0,20 m , totalizando vazão de cerca de 60 m³/s, durante 45 
minutos. 
Decorridas as etapas anteriores, dá -se prosseguimento à manobra de abertura até a vazão desejada, de 
acordo com as necessidades operativas. 
IOR 4.2 – Operação de Fechamento Total do Vertedouro 
Na fase de fechamento total  das comportas do vertedouro, deve -se manter vazão mínima de 60 m³/s , 
durante 2 horas, para permitir escoamento lento sobre as rochas do leito original do rio Iguaçu e favorecer 
a saída de peixes dessa área. Conforme observação das condições locais, a vazão vertida e o período poderão 
ser aumentados. 
Sempre que for necessário cessar a vazão vertida, recomenda-se que a Engie seja informada dessa ação com 
2 horas de antecedência, que deve ser efetuada preferencialmente  em horário comercial e dias úteis. No 
caso de ocorrência em finais de semana e feriados, esse procedimento deverá ser realizado com 
antecedência mínima de 4 horas. 
Em ambos os casos, a operação de fechamento total das comportas do vertedouro deverá ser efetuada a té 
o horário máximo de 15h, pelos seguintes motivos: 
• obrigatoriedade de resgate de peixes, logo após o fechamento total das comportas do vertedouro; 
• tempo necessário para comunicação e deslocamento da equipe de vigilância ambiental para o resgate de 
peixes; 
• impossibilidade de realização de resgate de peixes ao final da tarde, por motivos de segurança da equipe, 
devido a dificuldades de acesso à jusante do vertedouro e à necessidade de se dispor de luminosidade 
natural, durante todo processo de proteção da ictiofauna. 
Esse procedimento visa atender aos critérios internos de Meio Ambiente e Segurança do Trabalho da Engie.  
Caso não seja possível realizar o fechamento total das comportas do vertedouro da UHE Salto Santiago, 
deverá ser aplicado ou mantido o vertimento mínimo, ou elevado em caso de necessidade operacional. 
IOR 4.3 – Vertimento Mínimo 
O vertimento mínimo admissível para a UHE Salto Santiago é de 60 m³/s. 
IOR 5 – Taxa Máxima de Deplecionamento 
Durante o processo de deplecionamento do reservatório da UHE Salto Santiago , ocorre formação de lagoas 
temporárias em suas margens, com consequente aprisionamento de peixes. Em situações em que a taxa de 
deplecionamento seja muito elevada, torna -se inviável a realização do processo de salvamento efetivo de 
todos os peixes, devido à formação de grande número de bolsões. 
Manual de Procedimentos da Operação - Módulo5 - Submódulo 5.11 
 Cadastro de Informações Operacionais Código Revisão Item Vigência 
Cadastro de Informações Operacionais Hidráulicas da 
Bacia do Rio Iguaçu CD-OR.PR.IGU 37 2.3. 29/10/2024 
 
Referência: RT-CD.OR.01 – Rev. 02 14 / 49 
 
Esse fenômeno se agrava quando o deplecionamento ocorre nas situações de operação do reservatório em 
níveis inferiores à elevação 500,00 m (equivalente a 71,19% do volume útil ), condição que se agrava nos  
períodos de Piracema ( meses de novembro a março) , quando existe grande movimentação de cardumes 
durante o processo migratório nos braços do reservatório. 
Para minimizar esses efeitos de caráter ambiental, sempre quando da ocorrência de operação abaixo da cota 
500,00 m (71,29% V.U.) , a taxa máxima de deplecionamento  do reser vatório deverá ser de 20 cm/dia, 
independentemente da época do ano. 
Essas condicionantes são necessárias para permitir a mobilização de equipes de resgate de peixes e a 
realização dos serviços correspondentes nos locais de difícil acesso. 
4.7. UHE Salto Osório 
4.7.1. Restrições Operativas (ROH) 
4.7.1.1. Restrições de Jusante 
ROH 1 – Vazão Mínima Defluente 
A vazão defluente mínima é de 200 m3/s, para preservação da ictiofauna; sendo assim, sempre que não 
houver vazão turbinada (unidades geradoras operando na modalidade de compensador síncrono  ou 
desligadas), deve-se realizar vertimento, utilizando-se, obrigatoriamente, o Vertedouro nº 1 , de maneira 
manter vazão pelo canal de fuga. 
Essa restrição se deve às condições físicas específicas na região do canal de fuga da Usina, ocorrendo 
surgimento de cardumes no leito desse canal, junto à casa força, podendo as espécies de peixes serem 
afetadas pela falta de oxigenação e variação de temperatura da água. 
4.7.1.2. Restrições de Montante 
ROH 2 – Nível Mínimo de Montante 
O nível mínimo de montante é de 395,70 m, de maneira proporcionar afogamento mínimo no canal de fuga 
de usina a montante. 
Para evitar cavitação nos rotores das turbinas da UHE Salto Santiago e, em decorrência, elevado risco, no 
curto prazo, de ocorrência de danos cumulativos e irreversíveis nos rotores das turbinas dessa Usina, devidos 
a erosão excessiva, é necessário operar-se esse Reservatório com nível mínimo de jusante na cota 396,00 m, 
o qual permite afogamento mínimo de 5 metros no canal de fuga. Para assegurar esse afogamento mínimo, 
deve-se operar o Reservatório da UHE Salto Osório com nível de montante igual ou superior a 395,70 m. 
Nota importante: Para fins de controle de cheias, o Reservatório da UHE Salto Osório poderá ser rebaixado 
até o seu valor mínimo operacional, quando as vazões afluentes forem maiores que 1.700 m³/s. 
ROH 3 – Nível Mínimo de Montante 
No período compreendido entre o dia 1º de novembro até o dia 31 de março, devido à “Piracema”, o nível 
mínimo de operação do Reservatório é de 396,00 m, para proteção da ictiofauna. 
4.7.1.3. Outras Restrições 
Nada consta. 
Manual de Procedimentos da Operação - Módulo5 - Submódulo 5.11 
 Cadastro de Informações Operacionais Código Revisão Item Vigência 
Cadastro de Informações Operacionais Hidráulicas da 
Bacia do Rio Iguaçu CD-OR.PR.IGU 37 2.3. 29/10/2024 
 
Referência: RT-CD.OR.01 – Rev. 02 15 / 49 
 
4.7.2. Informações Operativas Relevantes (IOR) 
IOR 1 – Nível Máximo de Montante 
Recomenda-se que o nível máximo de 397,00 m não seja ultrapassado, considerando que: 
• estando-se com as comportas fechadas ocorrem vazamentos por cima das comportas e nas laterais do 
defletor de ondas, o que causa molhamento dos cabos de aço que movimentam as comportas 
prejudicando a conservação desses; 
• a oscilação nos níveis do Reservatório acima desse valor aumenta o transporte de detritos flutuantes 
(troncos, madeiras, vegetação), das margens para o corpo do Reservatório. Esses detritos tendem a se 
acumular nas grades da tomada d´água, afetando o rendimento das máquinas e causan do esforços 
adicionais nas estruturas de ferro, aumentando o risco de rompimento das grades. 
IOR 2 – Taxa Máxima de Variação das Defluências 
Recomenda-se adotar as seguintes taxas referenciais de variação máxima de defluência: 
• QD ≤ 2.000 m3/s → Taxa Máxima de Variação da Defluência = 600 m³/s/h; 
• QD > 2.000 m3/s → Taxa Máxima de Variação da Defluência = 1.000 m³/s/h; 
onde QD é a Vazão Defluente. 
IOR 3 – Nível Mínimo de Montante 
No período compreendido entre o dia 1º de abril até o dia 31 de outubro , recomenda -se operar o 
Reservatório com ní vel acima de 396,00 m, sendo permitida a incursão até o nível 395,70 m, por curtos 
períodos de tempo, mediante comunicação prévia. 
Além de motivos ambientais, objetivando evitar aprisionamento de peixes em áreas próximas às margens do 
Reservatório, em poças formadas aleatoriamente ao longo do perímetro desse, cujo resgate é difícil, o 
deplecionamento do Reservatório, abaixo do nível 396,00  m, compromete o rendimento das unidades 
geradoras. 
Observação: 
Eventuais necessidades de rebaixamento, para atendimento das condições eletroenergéticas do SIN, deverão 
ser programadas com antecedência suficiente, de forma garantir que possam ser feitos acompanhamentos 
pela UHE Salto Osório, a fim de verificar as condições locais e tomar as providências de salvamento cabíveis, 
bem como emitir alerta aos órgãos ambientais para se evitar consequências indesejáveis. 
IOR 4 – Regras para Vertimento 
IOR 4.1 – Abertura inicial e prioridade para utilização do Vertedouro nº 2 – minimizar restrições de geração 
por redução de queda bruta / acúmulo de detritos na tomada d’água 
Quando da realização de descargas de vazão vertida, é recomendada a utilização preferencial do Vertedor 2, 
uma vez que esse apresenta  menor influência sobre o canal de fuga, eliminando possíveis restrições de 
geração por redução de queda bruta, e contribuindo na redução de acúmulo de entulhos / detritos nas grades 
da tomada d'água das unidades geradoras,  minimizando possível restrição  de geração por perda de carga 
nessas grades. 
Antes da abertura inicial do vertedouro, haverá inspeção do local , com duração de 15 minutos , e 
acionamento de alertas sonoros, com duração de 5 minutos. 
A abertura do vertedouro será iniciada com apenas  uma comporta  até a posição 0,20 m , com vazão 
equivalente de cerca de 60 m³/s, durante 15 minutos. 
Manual de Procedimentos da Operação - Módulo5 - Submódulo 5.11 
 Cadastro de Informações Operacionais Código Revisão Item Vigência 
Cadastro de Informações Operacionais Hidráulicas da 
Bacia do Rio Iguaçu CD-OR.PR.IGU 37 2.3. 29/10/2024 
 
Referência: RT-CD.OR.01 – Rev. 02 16 / 49 
 
Decorrida a etapa anterior, dá -se prosseguimento à manobra de abertura até a vazão desejada, de acordo 
com as necessidades operativas. 
IOR 4.2 – Operação de Fechamento Total do Vertedouro 
Na fase de fechamento total  das comportas do vertedouro, deve -se manter vazão mínima de 60 m³/s , 
durante 2 horas, para permitir escoamento lento sobre as rochas do leito original do rio Iguaçu e favorecer 
a saída de peixes dessa área. Conforme observação das condições locais, a vazão vertida e o período poderão 
ser aumentados. 
Sempre que for necessário cessar a vazão vertida, recomenda-se que a Engie seja informada dessa ação com 
2 horas de antecedência, que deve ser efetuada preferencialmente em horário comercial e dias úteis. No 
caso de ocorrência em finais de semana e feriados, esse procedimento deverá ser realizado com 
antecedência mínima de 4 horas. 
Em ambos os casos, a operação de fechamento total das comportas do vertedouro deverá ser efetuada até 
o horário máximo de 15h, pelos seguintes motivos: 
• obrigatoriedade de resgate de peixes, logo após o fechamento total das comportas do vertedouro; 
• tempo necessário para comunicação e deslocamento da equipe de vigilância ambiental para o resgate de 
peixes; 
• impossibilidade de realização de resgate de peixes ao final da tarde, por motivos de segurança da equipe, 
devido a dificuldades de acesso à jusante do vertedouro e à necessidade de se dispor de luminosidade 
natural, durante todo processo de proteção da ictiofauna. 
Esse procedimento visa atender aos critérios internos de Meio Ambiente e Segurança do Trabalho da Engie.  
Caso não seja possível realizar o fechamento total das comportas do vertedouro da UHE Salto Osório, deverá 
ser aplicado ou mantido o vertimento mínimo, ou elevado em caso de necessidade operacional. 
IOR 4.3 – Vertimento Mínimo 
O vertimento mínimo admissível para a UHE Salto Osório é de 60 m3/s. 
4.8. UHE Governador José Richa (Salto Caxias) 
4.8.1. Restrições Operativas (ROH)  
4.8.1.1. Restrições de Jusante 
ROH 1 – Vazão Máxima Defluente 
A vazão defluente máxima é de 30.000 m3/s, para a qual o nível do rio Iguaçu, junto à ponte rodoviária BR-
163, que liga os municípios de Capitão Leônidas Marques e Realeza, começa a provocar danos aos acessos e 
estruturas da ponte, atingindo o pé do aterro do encontro da margem direita. 
ROH 2 – Vazão Mínima Defluente 
A vazão defluente mínima é de 200 m3/s, ou igual à vazão natural, caso essa seja inferior a esse valor, para 
preservar condições mínimas para a ictiofauna. 
4.8.1.2. Restrições de Montante 
Não há. 
4.8.1.3. Outras Restrições 
Nada consta. 
Manual de Procedimentos da Operação - Módulo5 - Submódulo 5.11 
 Cadastro de Informações Operacionais Código Revisão Item Vigência 
Cadastro de Informações Operacionais Hidráulicas da 
Bacia do Rio Iguaçu CD-OR.PR.IGU 37 2.3. 29/10/2024 
 
Referência: RT-CD.OR.01 – Rev. 02 17 / 49 
 
4.8.2. Informações Operativas Relevantes (IOR) 
IOR 1 – Vazão Máxima Afluente 
Vazão afluente máxima de 5.000 m3/s, a partir da qual ocorre a necessidade de implementação de variação 
de defluência com maior frequência.  
IOR 2 – Vazão Máxima de Jusante 
Vazão defluente máxima de 6.000 m3/s, a partir da qual ocorre progressivamente inundação de plantações, 
acessos, rodovias municipais, residências e outras instalações situadas em zonas e vilas rurais. 
IOR 3 – Vazão Máxima de Jusante 
Vazão defluente máxima de 16.000 m 3/s, a partir da qual ocorrem danos em propriedades particulares 
situadas ao longo das margens do Rio Cotegipe, conforme observado na cheia ocorrida em junho de 2014. 
IOR 4 – Taxa Máxima de Variação das Defluências 
Recomenda-se adotar as seguintes taxas referenciais de variação máxima de defluência: 
• QD ≤ 2.000 m3/s → Taxa Máxima de Variação da Defluência = 600 m³/s/h; 
• QD > 2.000 m3/s → Taxa Máxima de Variação da Defluência = 1.000 m³/s/h; 
onde QD é a Vazão Defluente. 
IOR 5 – Operação de Fechamento do Vertedor 
Antes do fechamento total do vertedor, o vertimento deve ser reduzido à vazão por uma comporta , com 
abertura de 0,50 m, que equivale a 100 m3/s de vertimento, durante um período de 1 hora. Com isso, se 
reduz a quantidade de peixes que ficam aprisionados em poças formadas logo à jusante do vertedor, bem 
como, se asseguram a oxigenação e a temperatura da água para a sobrevivência dos peixes, até que seja 
efetuado o resgate desses. 
Pelo fato de o resgate dos peixes ser efetuado manualmente, em local de difícil acesso, é necessário que essa 
atividade seja realizada durante o dia, ou seja, requer iluminação natural, com vistas a  se preservar a  
segurança da equipe associada, definindo-se como horário limite para início até às 15h30. Considerando que, 
em condições normais, o tempo adequado para mobilização da equipe de resgate é de 6 horas  (em horário 
comercial), bem como, o fato de a duração do resgate variar em função da quantidade de p eixes 
aprisionados, as solicitações para fechamento do vertedor devem ser feitas, preferencialmente, em dias úteis 
e no período da manhã. 
4.9. UHE Baixo Iguaçu 
4.9.1. Restrições Operativas (ROH)  
4.9.1.1. Restrições de Jusante 
ROH 1 – Vazão Mínima Defluente (ambiental) 
A vazão defluente mínima é de 200 m3/s, ou igual à vazão natural, caso essa seja inferior a esse valor, para 
preservar condições mínimas ambientais. 
ROH 2 – Vazão Mínima Defluente (condições cênicas do Parque Nacional do Iguaçu) 
Diariamente, no período das 15h até às 24h, a vazão defluente mínima  deve ser de 350 m3/s, visando o 
atendimento das condições cênicas do Parque Nacional do Iguaçu – PNI, conforme estabelecido na Resolução 
ANA- nº 1262/2020. 
Manual de Procedimentos da Operação - Módulo5 - Submódulo 5.11 
 Cadastro de Informações Operacionais Código Revisão Item Vigência 
Cadastro de Informações Operacionais Hidráulicas da 
Bacia do Rio Iguaçu CD-OR.PR.IGU 37 2.3. 29/10/2024 
 
Referência: RT-CD.OR.01 – Rev. 02 18 / 49 
 
Nota: o intervalo de horários acima foi definido levando em conta  o tempo de trânsito da água  entre a 
Barragem e as Cataratas do Iguaçu,  objetivando potencializar os efeitos desejados, durante os períodos 
diários de visitação ao Parque. 
4.9.1.2. Restrições de Montante 
Não há. 
4.9.1.3. Outras Restrições 
Nada consta. 
4.9.2. Informações Operativas Relevantes (IOR) 
IOR 1 – Operação de Fechamento do Vertedor 
Antes do fechamento total do vertedor, o vertimento deve ser reduzido à vazão por duas comportas, com 
abertura de 0,60 m, que equivale a 210 m3/s de vertimento, durante um período de 1 hora, visando mitigar 
impactos ambientais de jusante. As solicitações para fechamento do vertedor deverão ser realizadas, 
preferencialmente, em dias úteis e no período diurno. 
IOR 2 – Atenuação das Oscilações das Vazões Decorrentes da Operação da UHE Gov. José Richa 
Conforme e stabelecido na Resolução ANA -142/2014, durante os períodos normais de operação , em não 
havendo ocorrência de cheias, a operação diária do Reservatório deverá ser tal que atenue ao máximo, 
para jusante, os efeitos das oscilações de vazão decorrentes  da operação diária da UHE Gov. José Richa. 
Para tanto, objetivando-se o cumprimento da meta de minimização das variações das vazões defluentes da 
UHE Baixo Iguaçu, a operação do Reservatório deve fazer uso de ferramenta de teste de hipóteses, 
denominada “SOLVER”. O algoritmo dessa ferramenta leva em conta o somatório da vazão defluente média 
diária da UHE Gov. José Richa, dos valores de vazão telemedidos nas estações telemétricas localizadas no Rio 
Andradas e no Rio Capanema ocorridos nas últimas 24 horas, e da vazão regularizada pelo volume útil 
disponível no Reservatório da UHE Baixo Iguaçu, entre os níveis mínimo operativo e máximo operativo. Com 
isso, a ferramenta calcula o desvio padrão do referido somatório dessas grandezas, sendo a vazão defluente 
a ser praticada pelo Reservatório da UHE  Baixo Iguaçu determinada de maneira a se obter o menor desvio 
padrão possível. 
4.10. Quadros Resumo das Re strições Operativas Hidráulicas (ROHs) e das Informações Operativas 
Relevantes (IORs) 
4.10.1. Síntese das Restrições Operativas Hidráulicas 
Restrições Operativas Hidráulicas (ROHs) 
Aproveitamento Descrição Valor 
Gov. Bento Munhoz 
da Rocha Netto 
(Foz do Areia) 
ROH 1 – Nível Máximo de Montante 
(influência do remanso do Reservatório da UHE 
GBM no nível do Rio Iguaçu, nas cidades de União 
da Vitória  e de Porto União, podendo, durante 
situações de cheias, afetar os níveis de inundação 
nessas cidades) 
Variável, até 742,00 m (1) 
Manual de Procedimentos da Operação - Módulo5 - Submódulo 5.11 
 Cadastro de Informações Operacionais Código Revisão Item Vigência 
Cadastro de Informações Operacionais Hidráulicas da 
Bacia do Rio Iguaçu CD-OR.PR.IGU 37 2.3. 29/10/2024 
 
Referência: RT-CD.OR.01 – Rev. 02 19 / 49 
 
Restrições Operativas Hidráulicas (ROHs) 
Aproveitamento Descrição Valor 
Santa Clara ROH 1 – Vazão Mínima de Jusante 
(razões ambientais) 6,47 m³/s 
Fundão ROH 1 – Vazão Mínima de Jusante 
(razões ambientais) 6,92 m³/s 
Desvio Jordão ROH 1 – Vazão Mínima de Jusante 
(razões ambientais / operação da PCH à jusante) 10 m³/s 
Salto Santiago 
ROH 1 – Vazão Máxima Defluente 
(inundação da casa de força da Usina) 19.000 m³/s 
ROH 2 – Vazão Máxima Vertida 
(ponte rodoviária na BR -158, logo à jusante do 
vertedouro) 
17.000 m³/s 
Salto Osório 
ROH 1 – Vazão Mínima Defluente 
(ictiofauna, na área do canal de fuga) 
200 m3/s  
(turbinada ou pelo Vertedor 1) 
ROH 2 – Nível Mínimo de Montante 
(nível mínimo no canal de fuga da UHE Salto 
Santiago – danos cumulativos nos ro tores das 
turbinas dessa Usina) 
395,70 m 
(para afluência ≤ 1.700 m³/s) 
ROH 3 – Nível Mínimo de Montante 
(“Piracema”) 
396,00 m 
(de 1º/nov a 31/mar) 
Gov. José Richa 
(Salto Caxias) 
ROH 1 – Vazão Máxima Defluente 
(ponte rodoviária na BR-163) 30.000 m³/s 
ROH 2 – Vazão Mínima de Jusante 
(razões ambientais) 
200 m³/s 
(ou vazão natural, se menor) 
Baixo Iguaçu 
ROH 1 – Vazão Mínima Defluente 
(razões ambientais) 
200 m³/s 
(ou vazão natural, se menor) 
ROH 2 – Vazão Mínima Defluente 
(preservação das condições cênicas do Parque 
Nacional do Iguaçu) 
350 m3/s  
(diariamente, das 15h até às 
24h) 
Nota: 
(1) Função do nível da água em Porto Vitória e em União da Vitória, determinado pelas curvas de descarga 
em União da Vitória e em Porto Vitória (subitem 5.1.1.). 
Manual de Procedimentos da Operação - Módulo5 - Submódulo 5.11 
 Cadastro de Informações Operacionais Código Revisão Item Vigência 
Cadastro de Informações Operacionais Hidráulicas da 
Bacia do Rio Iguaçu CD-OR.PR.IGU 37 2.3. 29/10/2024 
 
Referência: RT-CD.OR.01 – Rev. 02 20 / 49 
 
4.10.2. Síntese das Informações Operativas Relevantes 
Informações Operativas Relevantes (IORs) 
Aproveitamento Descrição Valor 
Gov. Bento Munhoz da Rocha 
Netto 
(Foz do Areia) 
IOR 1 – Taxa Máxima de 
Variação de Defluência 
600 m³/s/h (QD ≤ 2.000 m³/s) (1) 
1.000 m³/s/h (QD > 2.000 m³/s) (1) 
Gov. Ney Aminthas de Barros 
Braga 
(Segredo) 
IOR 1 – Taxa Máxima de 
Variação de Defluência 
600 m³/s/h (QD ≤ 2.000 m³/s) (1) 
1.000 m³/s/h (QD > 2.000 m³/s) (1) 
Salto Santiago 
IOR 1 – Taxa Máxima de 
Variação da Defluência 
600 m³/s/h (QD ≤ 2.000 m³/s) (1) 
1.000 m³/s/h (QD > 2.000 m³/s) (1) 
IOR 2 – Plano de Contingências 
(em Função da Vazão Defluente e 
do Nível no Canal de Fuga): 
- IOR 2.1 – Ação 1 
- IOR 2.2 – Ação 2 
- IOR 2.3 – Ação 3 
- IOR 2.4 – Ação 4 
- IOR 2.5 – Ação 5 
QD / Nível Canal de Fuga 
 4.000 m3/s   /   403,00 m 
 8.500 m3/s   /   408,00 m 
11.500 m3/s   /   411,50 m 
13.000 m3/s   /   413,00 m 
15.000 m3/s   /   415,00 m 
IOR 3 – Nível Máximo de 
Montante 506,00 m 
IOR 4 – Regras para Vertimento 
- IOR 4.1 – Abertura Inicial do 
Vertedouro: 
1. Inspeção local 
2. Alertas sonoros 
3. Abertura de uma 
comporta 
4. Abertura de duas 
comportas 
- IOR 4.2 – Fechamento do 
Vertedouro 
• Horário limite para 
fechamento total 
• Vazão mínima 
- IOR 4.3 – Vertimento Mínimo 
 
15 min 
5 min 
0,20 m / 30 m³/s   / 15 min 
0,20 m / 60 m³/s   / 45 min 
até às 15h 
60 m³/s, por 1 hora 
60 m3/s 
IOR 5 – Taxa Máxima de 
Deplecionamento 
20 cm/dia 
(para N.R. < 500,00 m) 
Manual de Procedimentos da Operação - Módulo5 - Submódulo 5.11 
 Cadastro de Informações Operacionais Código Revisão Item Vigência 
Cadastro de Informações Operacionais Hidráulicas da 
Bacia do Rio Iguaçu CD-OR.PR.IGU 37 2.3. 29/10/2024 
 
Referência: RT-CD.OR.01 – Rev. 02 21 / 49 
 
Informações Operativas Relevantes (IORs) 
Aproveitamento Descrição Valor 
Salto Osório 
IOR 1 – Nível Máximo de 
Montante 397,00 m 
IOR 2 – Taxa Máxima de 
Variação da Defluência 
600 m³/s/h (QD ≤ 2.000 m³/s) (1) 
1.000 m³/s/h (QD > 2.000 m³/s) (1) 
IOR 3 – Nível Mínimo de 
Montante 
(ictiofauna) 
396,00 m 
(de 1º/abr a 31/out) 
IOR 4 – Regras para Vertimento 
- IOR 4.1 – Prioridade para 
Utilização de Vertedor / 
Abertura Inicial: 
1. Inspeção local 
2. Alertas sonoros 
3. Abertura de uma 
comporta 
- IOR 4.2 – Fechamento do 
Vertedouro 
• Horário limite para 
fechamento total 
• Vazão mínima 
- IOR 4.3 – Vertimento Mínimo 
 
Vertedor nº 2 
15 min 
5 min 
0,20 m / 60 m³/s   /  15 min 
 
até às 15h 
60 m³/s, por 1 hora 
60 m³/s 
Gov. José Richa 
(Salto Caxias) 
IOR 1 – Vazão Máxima Afluente 
(variação de defluência fica mais 
frequente) 
5.000 m³/s 
IOR 2 – Vazão Máxima Defluente 
(iniciam-se inundações em zonas 
rurais) 
6.000 m³/s 
IOR 3 – Vazão Máxima Defluente 
(danos a propriedades 
particulares, às margens do Rio 
Cotegipe) 
16.000 m³/s 
IOR 4 – Taxa Máxima de 
Variação de Defluência 
600 m³/s/h (QD ≤ 2.000 m³/s) (1) 
1.000 m³/s/h (QD > 2.000 m³/s) (1) 
IOR 5 – Operação de 
Fechamento do Vertedor 
(período com vertimento 
reduzido, antes do fechamento 
total, para resgate de peixes) 
100 m3/s, por 1 hora 
Manual de Procedimentos da Operação - Módulo5 - Submódulo 5.11 
 Cadastro de Informações Operacionais Código Revisão Item Vigência 
Cadastro de Informações Operacionais Hidráulicas da 
Bacia do Rio Iguaçu CD-OR.PR.IGU 37 2.3. 29/10/2024 
 
Referência: RT-CD.OR.01 – Rev. 02 22 / 49 
 
Informações Operativas Relevantes (IORs) 
Aproveitamento Descrição Valor 
Baixo Iguaçu 
IOR 1 – Operação de 
Fechamento do Vertedor 
(período com vertimento 
reduzido, antes do fechamento 
total, para mitigar questões 
ambientais) 
210 m³/s (0,60 m), por 1 hora 
IOR 2 – Atenuação das 
Oscilações das Vazões 
Decorrentes da Operação da 
UHE Gov. José Richa 
Mín. Δ Q defluente UHBI (2) 
Notas: 
(1) As taxas apresentadas são consideradas referenciais, tendo em vista que foram obtidas com base no 
histórico de vazões naturais afluentes. Elas poderão variar em função do monitoramento , em tempo 
real, das variações das afluências durante as cheias ou em função do estado dos reservatórios à jusante. 
(2) Sendo a vazão defluente pela UHE Baixo Iguaçu determinada  pela ferramenta SOLVER, a qual leva em 
conta o somatório das afluências médias diárias provenientes da UHE Gov. José Richa e da bacia 
incremental ao Reservatório da UHE Baixo Iguaçu, e das vazões regularizadas pelo volume útil disponível 
nesse Reservatório, de forma a minimizar o desvio padrão desse somatório. 
Manual de Procedimentos da Operação - Módulo5 - Submódulo 5.11 
 Cadastro de Informações Operacionais Código Revisão Item Vigência 
Cadastro de Informações Operacionais Hidráulicas da 
Bacia do Rio Iguaçu CD-OR.PR.IGU 37 2.3. 29/10/2024 
 
Referência: RT-CD.OR.01 – Rev. 02 23 / 49 
 
5. REDE HIDROMÉTRICA 
5.1. Estações Hidrométricas – Copel GeT / MCQ 
Estação Código ANA 
Localização Tipo de Dado 
Coletado Latitude (S) Longitude (W) Rio 
Madeireira 
Gavazzoni 02551054 25°48’27” 51°17’19” - PT 
Jangada do Sul 02651057 26°23’12” 51°16’19” - PT 
Fluviópolis 02650027 26°01’15” 50°35’30” - PT 
União da Vitória 02651059 26°13’41” 51°04’49” - PT 
Barragem UHE Foz 
do Areia 02651055 26°00’24” 51°40’01” - PT 
Solais Novo 02651054 26°04’00” 51°54’49” - PT 
Barragem UHE 
Segredo 02552057 25°47’28” 52°07’08” - PT 
Porto Amazonas 02549106 25°32’53” 49°53’22” - PT 
São Mateus do Sul 02550069 25°52’37” 50°23’08” - PT 
Rio Negro 02649074 26°06’35” 49°48’07” - PT 
Divisa 02650026 26°05’16” 50°19’53” - PT 
Foz do Cachoeira 02650028 26°35’26” 50°43’35” - PT 
Porto Vitória 02651058 26°09’34” 51°13’46” - PT 
Madeireira 
Gavazzoni 65764001 25°48’27” 51°17’19” Areia FdT 
Jangada do Sul 65370001 26°01’15” 50°35’30” Jangada FdT 
Fluviópolis 65220001 25°48’27” 51°17’19” Iguaçu FdT 
União da Vitória 65310001 26°01’15” 50°35’30” Iguaçu FdT 
Solais Novo 65775901 26°04’00” 51°54’49” Iratim FdT 
Porto Amazonas 65035001 25°32’53” 49°53’22” Iguaçu FdT 
São Mateus do Sul 65060001 26°06’35” 49°48’07” Iguaçu FdT 
Rio Negro 65100001 26°35’26” 50°43’35” Negro FdT 
Divisa 65175001 25°32’53” 49°53’22” Negro FdT 
Foz do Cachoeira 65260001 26°06’35” 49°48’07” Timbó FdT 
Porto Vitória 65365801 26°35’26” 50°43’35” Iguaçu FT 
Manual de Procedimentos da Operação - Módulo5 - Submódulo 5.11 
 Cadastro de Informações Operacionais Código Revisão Item Vigência 
Cadastro de Informações Operacionais Hidráulicas da 
Bacia do Rio Iguaçu CD-OR.PR.IGU 37 2.3. 29/10/2024 
 
Referência: RT-CD.OR.01 – Rev. 02 24 / 49 
 
Estação Código ANA 
Localização Tipo de Dado 
Coletado Latitude (S) Longitude (W) Rio 
São Bento 02549105 25°56’40” 49°47’46” - PT 
Águas do Verê 02552056 25°46’22” 52°55’56” - PT 
Porto Capanema 02553070 25°34'51'' 53°55'19'' - PT 
Porto Santo Antônio 02553062 25°23’38” 53°06’14” - PT 
Barragem UHE Salto 
Caxias 02553068 25°32’31” 53°29’04” - PT 
Porto Capanema 65987001 25°34'51'' 53°55'19'' Iguaçu FdT 
Porto Santo Antônio 65970001 25°23’38” 53°06’14” Guarani FdT 
Águas do Verê 65960001 25°46’22” 52°55’56” Chopim FdT 
Guarapuavinha 
Novo 02551074 25°36'44" 51°39'11" - PT 
Fazenda Aurora 02551073 25°29’16” 51°44’16” - PT 
Pinhão 02551071 25°38’00" 51°57’00” - PT 
Guarapuava 02551070 25°23’06" 51°29’38" - PT 
Entre Rios 02551072 25°32’46" 51°29’19" - PT 
Barragem UHE 
Santa Clara 02551059 25°38’46” 51°57’26” - PT 
Barragem UHE 
Fundão 02551060 25°42’12” 52°00’07” - PT 
Guarapuavinha 
Novo 65819300 25°36'44" 51°39'11" Pinhão FdT 
Fazenda Aurora 65813100 25°29’16” 51°44’16” Jordão FdT 
Porto Palmeirinha 02652048 26°01’46” 52°37’42” - PT 
Barragem PCH Foz 
do Chopim 02553065 25°34’05” 53°04’27” - PT 
Porto Palmeirinha 65927001 26°01’46” 52°37’42” Chopim FdT 
Foz do Timbó 02650029 26°17'00'' 50°53'00'' - PT 
Santa Cruz do 
Timbó 02650030 26°23'02" 50°52'42'' - PT 
Fragosos 02649073 26°09'17'' 49°22'50'' - PT 
Palmital do Meio 02651056 26°01'50'' 51°08'31'' - PT 
Foz do Timbó 65299001 26°17'41'' 50°53'42'' Timbó FT 
Manual de Procedimentos da Operação - Módulo5 - Submódulo 5.11 
 Cadastro de Informações Operacionais Código Revisão Item Vigência 
Cadastro de Informações Operacionais Hidráulicas da 
Bacia do Rio Iguaçu CD-OR.PR.IGU 37 2.3. 29/10/2024 
 
Referência: RT-CD.OR.01 – Rev. 02 25 / 49 
 
Estação Código ANA 
Localização Tipo de Dado 
Coletado Latitude (S) Longitude (W) Rio 
Santa Cruz do 
Timbó 65295001 26°23'02'' 50°52'42'' Timbó FdT 
Fazenda Maracanã 
(Palmital do Meio) 65415001 26°01'50'' 51°08'31'' Palmital FdT 
Hotel Cataratas 65992500 25°40'59" 54°25'45" Iguaçu FdT 
Fragosos 65090001 26°09'20'' 49°23'01'' Negro FdT 
 Vau dos Ribeiros 02552062 25°22’52” 52°01’34” - PT 
Vau dos Ribeiros 65854500 25°22’52” 52°01’34” Cavernoso FdT 
Barragem PCH 
Cavernoso II 02552073 25°29’25” 52°13’09” - PT 
Sítio Laranjal 65855110 25°30’35” 52°13’47” - FdT 
Sítio Laranjal 02552061 25°30’35” 52°13’47” Cavernoso PT 
Notas: 
FT ou FdT: Fluviométrica telemedida; 
F ou Fd: Fluviométrica convencional; 
PT: Pluviométrica telemedida. 
5.1.1. Curvas de Descarga em União da Vitória e em Porto Vitória 
5.1.1.1. Curvas de Descarga em União da Vitória 
 

Manual de Procedimentos da Operação - Módulo5 - Submódulo 5.11 
 Cadastro de Informações Operacionais Código Revisão Item Vigência 
Cadastro de Informações Operacionais Hidráulicas da 
Bacia do Rio Iguaçu CD-OR.PR.IGU 37 2.3. 29/10/2024 
 
Referência: RT-CD.OR.01 – Rev. 02 26 / 49 
 
5.1.1.2. Curvas de Descarga em Porto Vitória 
 
 
 
 
 
 
 
 
 
 
 
 
 
 
 
 
 
 
 
 
Nota: O nível do zero da régua de Porto Vitória é 739,901 m. 
5.2. Estações Hidrométricas – Engie 
Estação Código ANA 
Localização Tipo de Dado 
Coletado Latitude (S) Longitude (W) Rio 
Chopinzinho 02552030 25°51’36,34" 52°31’37,75" - PT 
Colônia Vitória 02551008 25°32'33,89" 51°27'15,17" - PT 
Foz do Jordão 02552055 25°46’29,91" 52°06’50,86" - PT 
Guarapuava 02551000 25°21’56,07" 51°29’44,20" - PT 
Laranjeiras do Sul 02552009 25°23'52,35" 52°26'06,07" - PT 
Pinhão 02551024 25°39'41,59" 51°39'44,52" - PT 
Tigre Preto 02551063 25°14'26,18" 51°55'39,43" - PT 
UHE Salto Osório 
Rio das Cobras a definir 25°26’53,47" 52°45’13,54" Rio das Cobras FdT 
” a definir 25°26'54,60" 52°45'13,93" - PT 
UHE Salto Santiago 
Chopinzinho a definir 25°46'50,33" 52°29'30,61" Chopinzinho FdT 
740,0
740,5
741,0
741,5
742,0
742,5
743,0
743,5
744,0
744,5
745,0
745,5
746,0
746,5
0 500 1000 1500 2000 2500 3000 3500 4000 4500 5000 5500 6000
Vazão em Porto Vitória (m3/s)
Cota na R5 - Porto Vitória (m)
FA = 744 m
FA = 743.5 m
FA = 743 m
FA = 742.5 m
FA = 742 m
FA = 741.5 m
FA = 741 m
FA = 740.5 m
R5 natural
SIMBOLOGIA
Manual de Procedimentos da Operação - Módulo5 - Submódulo 5.11 
 Cadastro de Informações Operacionais Código Revisão Item Vigência 
Cadastro de Informações Operacionais Hidráulicas da 
Bacia do Rio Iguaçu CD-OR.PR.IGU 37 2.3. 29/10/2024 
 
Referência: RT-CD.OR.01 – Rev. 02 27 / 49 
 
Notas: 
FdT: Fluviométrica telemedida; 
PT: Pluviométrica telemedida. 
5.3. Estações Hidrométricas – Neoenergia 
Estação Código ANA 
Localização Tipo de Dado 
Coletado Latitude (S) Longitude (W) Rio 
UHE Baixo Iguaçu 
Jusante 65984000 25°35'08" 53°43'40" Iguaçu FT 
UHE Baixo Iguaçu 
Montante – Rio 
Capanema 
65980500 25°39'42" 53°37'05" Capanema FT 
UHE Baixo Iguaçu 
Montante II – Rio 
Andrada 
65975300 25°25'18" 53°30'01" Andrada FT 
Nota: 
FT: Fluviométrica telemedida. 
Manual de Procedimentos da Operação - Módulo5 - Submódulo 5.11 
 Cadastro de Informações Operacionais Código Revisão Item Vigência 
Cadastro de Informações Operacionais Hidráulicas da 
Bacia do Rio Iguaçu CD-OR.PR.IGU 37 2.3. 29/10/2024 
 
Referência: RT-CD.OR.01 – Rev. 02 28 / 49 
 
6. DIAGRAMAS DE OPERAÇÃO 
6.1. Reservatórios da UHE GBM e da UHE GNB  
6.1.1. Diagrama de Operação Normal 
Sistema Equivalente GBM + GNB  →  Diagrama de Operação Normal 
Período:  03/05/2011  a  31/10/2011     VE = 0,0 km3 
Volume:  3.500 a 4.180 km3 
Afluência:  0  a  15.000  m3/s 
Vazão Natural Afluente (m3/s) 
Vol. 
(km3) 
Vol. 
Vazio 
(km3) 
Afluência (m3/s) 
0 1000 2000 3000 4000 5000 6000 7000 8000 9000 10000 11000 12000 13000 14000 15000 
3,500 0,688         4 220 513 854 1232 1641 2076 2532 
3,520 0,668         43 285 593 946 1336 1754 2199 2664 
3,540 0,648         91 354 677 1043 1443 1872 2326 2800 
3,560 0,628         146 428 765 1143 1554 1994 2456 2941 
3,580 0,608         207 506 857 1248 1670 2119 2591 3084 
3,600 0,588        30 273 589 954 1356 1789 2249 2731 3233 
3,620 0,568        77 344 676 1054 1469 1913 2383 2875 3386 
3,640 0,548        132 420 768 1159 1586 2042 2521 3023 3544 
3,660 0,528        194 501 864 1269 1708 2174 2666 3177 3707 
3,680 0,508       18 261 587 965 1384 1834 2312 2814 3336 3875 
3,700 0,488       63 335 679 1071 1503 1966 2456 2968 3500 4050 
3,720 0,468       118 414 774 1183 1628 2104 2605 3127 3670 4229 
3,740 0,448       181 498 877 1300 1758 2246 2759 3293 3846 4415 
3,760 0,428      6 251 589 985 1422 1894 2395 2920 3465 4028 4608 
3,780 0,408      50 327 686 1098 1551 2037 2550 3087 3644 4218 4807 
3,800 0,388      105 409 788 1217 1686 2185 2712 3261 3829 4415 5015 
Manual de Procedimentos da Operação - Módulo5 - Submódulo 5.11 
 Cadastro de Informações Operacionais Código Revisão Item Vigência 
Cadastro de Informações Operacionais Hidráulicas da 
Bacia do Rio Iguaçu CD-OR.PR.IGU 37 2.3. 29/10/2024 
 
Referência: RT-CD.OR.01 – Rev. 02 29 / 49 
 
Vol. 
(km3) 
Vol. 
Vazio 
(km3) 
Afluência (m3/s) 
0 1000 2000 3000 4000 5000 6000 7000 8000 9000 10000 11000 12000 13000 14000 15000 
3,820 0,368      169 499 897 1343 1827 2342 2881 3442 4022 4619 5230 
3,840 0,348      241 596 1014 1477 1976 2505 3058 3631 4224 4832 5454 
3,860 0,328     36 321 700 1137 1618 2133 2676 3243 3830 4434 5054 5688 
3,880 0,308     91 410 811 1269 1767 2298 2856 3437 4037 4654 5287 5932 
3,900 0,288     158 507 932 1408 1924 2472 3046 3641 4255 4885 5530 6187 
3,920 0,268     234 612 1061 1558 2092 2657 3246 3856 4484 5128 5785 6456 
3,940 0,248    22 320 727 1199 1717 2270 2852 3457 4083 4726 5383 6054 6737 
3,960 0,228    77 418 853 1348 1887 2460 3060 3683 4323 4982 5654 6339 7035 
3,980 0,208    148 526 990 1510 2070 2664 3282 3922 4580 5253 5940 6639 7349 
4,000 0,188    231 647 1139 1685 2268 2881 3520 4178 4853 5543 6245 6960 7684 
4,020 0,168   8 329 780 1303 1875 2482 3118 3776 4453 5146 5854 6573 7303 8043 
4,040 0,148   65 441 930 1484 2083 2715 3374 4054 4751 5463 6189 6926 7673 8429 
4,060 0,128   142 571 1099 1686 2314 2973 3655 4358 5077 5810 6555 7310 8075 8848 
4,080 0,108   241 722 1290 1912 2571 3258 3968 4695 5437 6192 6958 7733 8517 9309 
4,100 0,088   363 898 1510 2170 2864 3581 4319 5073 5841 6619 7409 8206 9011 9823 
4,120 0,068  54 515 1109 1770 2471 3202 3955 4724 5509 6305 7110 7925 8747 9576 10411 
4,140 0,048  155 709 1371 2087 2837 3611 4403 5210 6029 6858 7695 8539 9389 10246 11107 
4,160 0,028  312 976 1719 2502 3312 4139 4981 5833 6696 7564 8440 9321 10207 11098 11992 
4,180 0,008  602 1423 2287 3170 4069 4977 5892 6814 7740 8670 9604 10540 11480 12421 13364 
Observações: 
1) Os espaços em branco indicam que não há necessidade de defluências para controle de cheias. 
2) Atingido o volume de espera do reservatório equivalente (utilizar as regras de operação normal). 
Manual de Procedimentos da Operação - Módulo5 - Submódulo 5.11 
 Cadastro de Informações Operacionais Código Revisão Item Vigência 
Cadastro de Informações Operacionais Hidráulicas da 
Bacia do Rio Iguaçu CD-OR.PR.IGU 37 2.3. 29/10/2024 
 
Referência: RT-CD.OR.01 – Rev. 02 30 / 49 
 
6.2. Reservatório da UHE Salto Santiago 
6.2.1. Diagrama de Operação Normal 
 

Manual de Procedimentos da Operação - Módulo5 - Submódulo 5.11 
 Cadastro de Informações Operacionais Código Revisão Item Vigência 
Cadastro de Informações Operacionais Hidráulicas da 
Bacia do Rio Iguaçu CD-OR.PR.IGU 37 2.3. 29/10/2024 
 
Referência: RT-CD.OR.01 – Rev. 02 31 / 49 
 
 

Manual de Procedimentos da Operação - Módulo5 - Submódulo 5.11 
 Cadastro de Informações Operacionais Código Revisão Item Vigência 
Cadastro de Informações Operacionais Hidráulicas da 
Bacia do Rio Iguaçu CD-OR.PR.IGU 37 2.3. 29/10/2024 
 
Referência: RT-CD.OR.01 – Rev. 02 32 / 49 
 
 

Manual de Procedimentos da Operação - Módulo5 - Submódulo 5.11 
 Cadastro de Informações Operacionais Código Revisão Item Vigência 
Cadastro de Informações Operacionais Hidráulicas da 
Bacia do Rio Iguaçu CD-OR.PR.IGU 37 2.3. 29/10/2024 
 
Referência: RT-CD.OR.01 – Rev. 02 33 / 49 
 
 

Manual de Procedimentos da Operação - Módulo5 - Submódulo 5.11 
 Cadastro de Informações Operacionais Código Revisão Item Vigência 
Cadastro de Informações Operacionais Hidráulicas da 
Bacia do Rio Iguaçu CD-OR.PR.IGU 37 2.3. 29/10/2024 
 
Referência: RT-CD.OR.01 – Rev. 02 34 / 49 
 
 

Manual de Procedimentos da Operação - Módulo5 - Submódulo 5.11 
 Cadastro de Informações Operacionais Código Revisão Item Vigência 
Cadastro de Informações Operacionais Hidráulicas da 
Bacia do Rio Iguaçu CD-OR.PR.IGU 37 2.3. 29/10/2024 
 
Referência: RT-CD.OR.01 – Rev. 02 35 / 49 
 
 

Manual de Procedimentos da Operação - Módulo5 - Submódulo 5.11 
 Cadastro de Informações Operacionais Código Revisão Item Vigência 
Cadastro de Informações Operacionais Hidráulicas da 
Bacia do Rio Iguaçu CD-OR.PR.IGU 37 2.3. 29/10/2024 
 
Referência: RT-CD.OR.01 – Rev. 02 36 / 49 
 
 

Manual de Procedimentos da Operação - Módulo5 - Submódulo 5.11 
 Cadastro de Informações Operacionais Código Revisão Item Vigência 
Cadastro de Informações Operacionais Hidráulicas da 
Bacia do Rio Iguaçu CD-OR.PR.IGU 37 2.3. 29/10/2024 
 
Referência: RT-CD.OR.01 – Rev. 02 37 / 49 
 
 
Observações: 
1) Vazio indica defluência menor ou igual a turbinamento. 
2) X indica defluência maior que a restrição. 
  

Manual de Procedimentos da Operação - Módulo5 - Submódulo 5.11 
 Cadastro de Informações Operacionais Código Revisão Item Vigência 
Cadastro de Informações Operacionais Hidráulicas da 
Bacia do Rio Iguaçu CD-OR.PR.IGU 37 2.3. 29/10/2024 
 
Referência: RT-CD.OR.01 – Rev. 02 38 / 49 
 
6.2.2. Diagrama de Operação em Emergência 
 
Observações: 
1) Vazio indica defluência menor ou igual a turbinamento. 
2) X indica defluência maior que a restrição. 

Manual de Procedimentos da Operação - Módulo5 - Submódulo 5.11 
 Cadastro de Informações Operacionais Código Revisão Item Vigência 
Cadastro de Informações Operacionais Hidráulicas da 
Bacia do Rio Iguaçu CD-OR.PR.IGU 37 2.3. 29/10/2024 
 
Referência: RT-CD.OR.01 – Rev. 02 39 / 49 
 
7. VOLUME DE ESPERA PARA CONTROLE DE CHEIAS 
Neste Item constam os valores de volumes de espera dos reservatórios da UHE Salto Santiago e do Conjunto 
GBM e GNB / Bacia Hidrográfica do rio Iguaçu em seu período de controle de cheias. 
Caso ocorram ajustes nos valores de volumes de espera durante o período de controle de cheias , os novos 
valores são informados no PDF. 
7.1. RESERVATÓRIO DA UHE SALTO SANTIAGO 
A UHE Salto Santiago deve alocar volume de espera, no período de 17 de maio de 2024 a 18 de julho de 2025, 
num valor típico de 480 hm³ (88,3%), sendo de 150 hm³ (96,3%) na primeira semana e de 500 hm³ (87,8%) 
na última semana. As  eventuais transições de nível do Reservatório devem ser realizadas na semana que 
antecede e na semana sucede esse período de alocação de volume de espera. 
A figura abaixo também apresenta a evolução temporal desses volumes de espera. 
Volumes de Espera para Controle de Cheias em Salto Santiago 
Período Maio / 2025 a Julho / 2025 
Cenário Independente 
TR = 400 anos (QDFL = 19.000 m3/s) 
TR = 200 anos (QDFL = 17.000 m3/s) 
Período  Volume de Espera  
(hm³) 
Nível de Montante 
(m) 
Volume Útil 
(%) 
17/05/2025 a 23/05/2025 150 505,27 96,3 
24/05/202 5 a 11/07/2025 480 503,65 88,3 
12/07/2025 a 18/07/2025 500 503,55 87,8 
 
7.2. RESERVATÓRIO DO CONJUNTO GBM / GNB 
A restrição de montante de Foz do Areia (Reservatório da UHE GBM) é controlada por meio da operação de 
rebaixamento dinâmico nesse mesmo Reservatório, realizada em Tempo Real pela consideração da 
disponibilidade de volumes vazios nos reservatórios de jusante e da garantia de recuperação do nível máximo 
normal no final da cheia. 
 
Manual de Procedimentos da Operação - Módulo5 - Submódulo 5.11 
 Cadastro de Informações Operacionais Código Revisão Item Vigência 
Cadastro de Informações Operacionais Hidráulicas da 
Bacia do Rio Iguaçu CD-OR.PR.IGU 37 2.3. 29/10/2024 
 
Referência: RT-CD.OR.01 – Rev. 02 40 / 49 
 
8. ANEXOS 
8.1. ANEXO 1 – METODOLOGIA PARA DETERMINAÇÃO DA VAZÃO DEFLUENTE DOS RESERVATÓRIOS 
DAS USINAS HIDRELÉTRICAS GBM E GNB 
Situação de Operação Normal no Conjunto GBM / GNB 
Vazão Defluente na UHE GBM 
: defluência para manter o nível do reservatório em torno do seu nível máximo operativo normal,  
 
 
 
 
Onde:  = volume correspondente a  
A vazão defluente  ainda está sujeita às taxas máximas de variação da defluência, indicadas no item 4. 
A restrição hidráulica do reservatório da UHE GBM é caracterizada pela influência do remanso do reservatório 
dessa nos níveis de inundação das cidades de União da Vitória e Porto União. 
O remanso do reservatório da UHE GBM é estabelecido pelas curvas de descarga apresentadas no subitem 
5.1.1., com base nas leituras simultâneas dos níveis do rio Iguaçu em União da Vitória e e m Porto Vitória 
(régua R5). Nesse gráfico, considera-se haver influência do reservatório da UHE GBM na inundação de União 
da Vitória e de Porto União quando as curvas indicarem vazões menores do que aquelas que seriam 
verificadas em condições naturais. Por exemplo: supondo que os níveis em União da Vitória e Porto União 
sejam, respectivamente, 746,20 m e 744,88 m (R5 = 5,00 m), observa-se no gráfico  que o remanso atinge 
aproximadamente 1,00 m, ou seja, em condições naturais, o nível estaria 1,00 m mais baixo. 
 
Vazão Defluente na UHE GNB 
: defluência para manter o nível do reservatório em torno do seu nível máximo operativo normal,  
 
 
 
Onde: 
MAX
SEV  = volume correspondente a 
 mNSE 00,607=  
 
A vazão defluente  ainda está sujeita às taxas máximas de variação da defluência, indicadas no item 4. 
 
1
FAD
,00mNFA 742=
FAV
,00mNFA 742=
FAD
1
SED
,00mNSE 607=
SED
Manual de Procedimentos da Operação - Módulo5 - Submódulo 5.11 
 Cadastro de Informações Operacionais Código Revisão Item Vigência 
Cadastro de Informações Operacionais Hidráulicas da 
Bacia do Rio Iguaçu CD-OR.PR.IGU 37 2.3. 29/10/2024 
 
Referência: RT-CD.OR.01 – Rev. 02 41 / 49 
 
Situação de Operação Atenção no Conjunto GBM / GNB 
Vazão Defluente na UHE GBM 
: defluência para manter o nível do reservatório em torno do seu nível máximo operativo normal,  
 
 
 
 
Onde:  = volume correspondente a  
 
A vazão defluente  ainda está sujeita às taxas máximas de variação da defluência, indicadas no item 4. 
A restrição hidráulica do reservatório da UHE GBM é caracterizada pela influência do remanso do reservatório 
dessa nos níveis de inundação das cidades de União da Vitória e Porto União. 
O remanso do reservatório da UHE GBM é estabelecido pelas curvas de descarga apresentadas no subitem 
5.1.1. 
Vazão Defluente na UHE GNB  
: defluência para manter o nível do reservatório em torno do seu nível máximo operativo normal,  
 
 
 
Onde: 
MAX
SEV  = volume correspondente a 
 mNSE 00,607=  
 
A vazão defluente  ainda está sujeita às taxas máximas de variação da defluência, indicadas no item 4. 
 
1
FAD
,00mNFA 742=
FAV
,00mNFA 742=
FAD
1
SED
,00mNSE 607=
SED
Manual de Procedimentos da Operação - Módulo5 - Submódulo 5.11 
 Cadastro de Informações Operacionais Código Revisão Item Vigência 
Cadastro de Informações Operacionais Hidráulicas da 
Bacia do Rio Iguaçu CD-OR.PR.IGU 37 2.3. 29/10/2024 
 
Referência: RT-CD.OR.01 – Rev. 02 42 / 49 
 
Situação de Operação Alerta no Conjunto GBM / GNB (Método de Rebaixamento e Recuperação de Foz do 
Areia) 
Para minimizar o risco de influência (remanso) do reservatório no local da restrição de montante (cidades de 
União da Vitória e Porto União) é necessário rebaixar o reservatório antes da ocorrência do pico da cheia. 
Para cheias de pequeno e médio porte, as mais frequentes, um pequeno rebaixamento até o nível 741,50 m 
já evitaria o remanso. Para cheias maiores o reservatório poderá voltar a elevar -se por insuficiência de 
capacidade de descarga do vertedor, o que justifica a maximização do rebaixamento, já qu e é impossível 
prever a magnitude de uma cheia no Iguaçu para horizontes acima de dois dias, pois dependem de previsões 
meteorológicas. 
Naturalmente esse rebaixamento é condicionado pela situação dos reservatórios e das restrições à jusante, 
e pela necessidade de otimização energética, ou seja, o reservatório deverá estar cheio quando cessar o 
vertimento ao final da cheia, de modo a não haver perda de reg ularização que penalize a produção 
energética. Aplicando a metodologia detalhada na sequência, é quase nula a probabilidade dessas perdas. 
 O rebaixamento do Reservatório é baseado na estimativa do volume d'água em trânsito na bacia a montante 
do Reservatório, que exceda a necessidade de turbinamento futuro, o qual seria vertido de qualquer forma. 
Com o emprego do método, adiantam -se esses vertimentos, causando um rebaixamento do reservatório a 
partir do nível 742,00 m, ou interrompe-se o reenchimento do volume útil, dependendo do nível de partida 
no início da cheia. 
Devido à falta de homogeneidade das precipitações e à diversidade das características físicas entre a bacia a 
montante de União da Vitória e à jusante (até a barragem), devido ao grande aumento de declividade, na 
avaliação do volume excedente utilizam-se duas hipóteses: 1ª) considerando a bacia a montante de União 
da Vitória; e, 2ª) considerando toda a bacia a montante de Foz do Areia.  Estas duas avaliações resultam em 
volumes excedentes diferentes, sendo tomado o maior para a determinação da operação do reservatório, 
resultando uma operação mais segura quanto ao remanso. 
Considerando a bacia a montante de União da Vitória (primeira hipótese) tem -se na Figura 1 o hi drograma 
previsto. Até o máximo  de 48 horas  à frente (pontos B, C, D e E espaçados de 12 horas) o hidrograma é 
previsto por modelo estatístico auto -regressivo, que utiliza as últimas informações de vazão do posto 
fluviométrico de União da Vitória.  Apesar de o modelo ser o melhor disponível até o horizonte de 48 horas, 
para horizontes maiores, os resultados vão se tornando imprecisos e não podem mais ser utilizados. A partir 
desse ponto o hidrograma futuro é completado pela "curva de recessão crítica em União Vitória". Tal curva 
foi construída a partir das recessões mais críticas de todo o histórico de vazões, de modo que nenhuma 
recessão histórica apresenta volumes d'água inferiores a ela. Um outro método utilizado a partir das 48 horas 
é o hidrograma previsto por modelos de transformação chuva-vazão a partir de hipótese de precipitação nula 
no futuro. Des sa forma, o hidrograma assim composto tende a subavaliar o v olume afluente futuro, 
característica que dá maior segurança para a recuperação total do reservatório ao final da cheia. 
Manual de Procedimentos da Operação - Módulo5 - Submódulo 5.11 
 Cadastro de Informações Operacionais Código Revisão Item Vigência 
Cadastro de Informações Operacionais Hidráulicas da 
Bacia do Rio Iguaçu CD-OR.PR.IGU 37 2.3. 29/10/2024 
 
Referência: RT-CD.OR.01 – Rev. 02 43 / 49 
 
 
Figura 1: Hidrograma para estimativa do volume excedente a montante de União da Vitória 
 
Ainda na Figura 1, se considerarmos uma previsão de vazão turbinada constante ou média, o volume da cheia 
correspondente à área hachurada (
ex
UV
V ) é o volume excedente mínimo que poderá ser vertido no futuro sem 
prejudicar a operação energética.  Isto equivale a afirmar que se o reservatório estivesse com um volume 
vazio correspondente a 
ex
UV
V , ele poderia ser totalmente recuperado no futuro se fosse mantida uma 
defluência igual à vazão turbinada prevista  sem, portanto, afetar sua produção energética. Assim, a meta 
para o rebaixamento corresponde a igualar o volume vazio no reservatório ao volume excedente, o que é 
feito por meio de defluência calculada pela seguinte expressão: 
 
Qt
VD FA
reb
UV
exUV
FA
Vv +−=

   (1) 
 
 onde: 
 
Vv
  :  Volume vazio real em FA; 
treb
 :  Intervalo de tempo de rebaixamento ou recuperação; 
QFA
 :  Vazão afluente prevista em FA. 
 

Manual de Procedimentos da Operação - Módulo5 - Submódulo 5.11 
 Cadastro de Informações Operacionais Código Revisão Item Vigência 
Cadastro de Informações Operacionais Hidráulicas da 
Bacia do Rio Iguaçu CD-OR.PR.IGU 37 2.3. 29/10/2024 
 
Referência: RT-CD.OR.01 – Rev. 02 44 / 49 
 
- note-se que 
rebt  é o intervalo ao final do qual se deseja atingir a condição de equilíbrio com 
Vv  = 
ex
UV
V
, o que ocorrerá se a vazão afluente coincidir com a prevista. Quanto menor esse intervalo de tempo maiores 
serão as diferenças entre a vazão defluente e a afluente a serem implementadas. Para níveis superiores a 
741,00 m esse intervalo é de 12 horas. Entre 740,00 m e 741,00 m é de 24 horas. Abaixo de 740,00 m é de 
48 h. Essa diferenciação faz com que, após rapidamente conseguido um rebaixamento inicial , por exemplo, 
de 0,50 m, as variações e o aumento de defluência em relação à afluência se tornem menores. 
A expressão 1 aplica-se tanto para o rebaixamento, quando 
ex
UV
V  será maior que o volume vazio 
Vv , como 
na recuperação, quando ocorre o inverso. Es sas condições já estão implícitas na expressão (1) que fornece 
uma vazão defluente maior ou menor que a prevista (
FAQ ), conforme o caso. 
 
Pelo 2 º critério, isto é, considerando toda a bacia a montante de Foz do Areia, o hidrograma previsto 
considera que no próximo intervalo de tempo de operação (Δt até o ponto A do hidrograma da Figura 2), a 
vazão afluente em Foz do Areia será igual à registrada no  intervalo anterior, e a partir daí, utiliza -se uma 
"recessão crítica em Foz do Areia", analogamente ao que foi feito para União da Vitória. Em Foz do Areia os 
modelos de previsão fornecem resultados mais instáveis e em horizonte de tempo muito limitado, razão pela 
qual adotou-se a previsão somente até o ponto A, como explicitado acima. O volume excedente é avaliado 
como no primeiro critério (União da Vitória) e a expressão para a vazão defluente de Foz do Areia é em tudo 
análoga à 1: 
 
FA
FA ex
FA
reb
FAD V
t Q
Vv= − +

 (2) 
 
Figura 2 – Hidrograma para estimativa do volume excedente a montante de Foz do Areia 

Manual de Procedimentos da Operação - Módulo5 - Submódulo 5.11 
 Cadastro de Informações Operacionais Código Revisão Item Vigência 
Cadastro de Informações Operacionais Hidráulicas da 
Bacia do Rio Iguaçu CD-OR.PR.IGU 37 2.3. 29/10/2024 
 
Referência: RT-CD.OR.01 – Rev. 02 45 / 49 
 
Dependendo da formação da cheia, se proveniente da parte a montante de União da Vitória, ou com 
contribuição mais forte da bacia entre União da Vitória e Foz do Areia, a defluência 
FA
UV
D será maior ou menor 
que 
FA
FA
D . Escolhe-se a maior das duas para ser implementada, isto é, considera-se a maior estimativa para o 
volume excedente entre os dois critérios, de modo a maximizar a segurança para a restrição de montante, 
causando maior rebaixamento e recuperando mais lentamente. Es sa va zão defluente escolhida para o 
rebaixamento em FA será designada por 
DFA
' . 
 
Diagrama de Operação de Segredo 
Este diagrama é utilizado na fase de enchimento dos reservatórios de Foz do Areia e Segredo, que geralmente 
ocorre no início das cheias. Faz com que as operações de aumento de defluência sejam antecipadas com 
base na previsão dos volumes afluentes, permitindo u m enchimento mais gradual do volume vazio dos 
reservatórios e variações menores das vazões defluentes ao final do enchimento, quando as vazões 
defluentes devem ficar próximas das afluências, de modo a atender ao controle de nível dos reservatórios. 
A Figura 3 ilustra a obtenção das defluências do "reservatório equivalente em Segredo", que é um 
reservatório hipotético composto pela soma dos volumes dos reservatórios a montante, nes se caso Foz do 
Areia e Segredo, situando -se no local do último reservatório considerado. A vazão afluente utilizada é a 
natural, que ocorreria se não houvesse a influência do armazenamento no reservatório de montante (Foz do 
Areia). O hidrograma a esquerda do ponto A (presente) é suposto conhecido. A partir de "A" considera -se 
que ocorra a "recessão crítica", construída a partir das recessões mais pronunciadas do histórico, de forma a 
permitir a avaliação do volume mínimo afluente no futuro. A vazão defluente do reservatório equivalente é 
a máxima vazão para a qual ainda é pos sível encher o volume vazio restante considerando a ocorrência da 
"recessão crítica". Na figura 3 a área hachurada entre a curva de "recessão crítica" e a vazão defluente 
corresponde ao volume vazio no "reservatório equivalente" (
REV ). Numericamente calcula -se uma vazão 
defluente que atenda a condição acima. A partir do "presente" (ponto A) a vazão defluente calculada garante 
que os volumes vazios dos reservatórios a montante serão totalmente preenchidos, pois qualquer afluência 
futura será superior ou igual às vazões da "recessão crítica". A vazão defluente calculada poderá ser superior 
à vazão turbinada e exigir vertimentos antes do enchimento total, mas nessa situação os reservatórios podem 
ser considerados como virtualmente cheios. Caso este método não fosse adotado, haveria situações em que 
os reservatórios seriam enchidos com altas vazões afluentes e com vazões defluentes iguais às turbinadas. 
Quando os níveis máximos normais fossem atingidos seriam necessários grandes e rápidos a umentos de 
vazão vertida para controlar os níveis, dificultando o atendimento às limitações impostas pelas taxas de 
variação de defluência. 
Aumentos abruptos de vazão, em geral, são pouco desejáveis para as áreas situadas à jusante e a 
metodologia empregada reduz essa necessidade. Outro efeito obtido é o de preservar mais o volume vazio 
para o futuro, com mais chance de ser preenchido durante o pico de cheia, proporcionando algum 
abatimento desse. Uma propriedade deste método é que a vazão defluente é sempre inferior ou igual à 
afluência, não causando aumento das vazões à jusante em relação à afluência natural. A defluência do 
reservatório equivalente calculada pelo "Diagrama de Operação" será designado por 
DSG
' . 
Manual de Procedimentos da Operação - Módulo5 - Submódulo 5.11 
 Cadastro de Informações Operacionais Código Revisão Item Vigência 
Cadastro de Informações Operacionais Hidráulicas da 
Bacia do Rio Iguaçu CD-OR.PR.IGU 37 2.3. 29/10/2024 
 
Referência: RT-CD.OR.01 – Rev. 02 46 / 49 
 
 
Figura 3: Hidrograma para cálculo da vazão defluente do reservatório equivalente FA-SG 
 
Operação Integrada do Sistema Foz do Areia e Segredo 
As defluências dos dois reservatórios são decididas em conjunto, satisfazendo a exigência física de 
continuidade (conservação de massa), e as restrições impostas pela máxima vazão defluente à jusante do 
sistema Foz do Areia e Segredo , além das taxas máximas de variação de defluências nos dois locais. Ness e 
contexto, utiliza-se a metodologia de rebaixamento do reservatório de Foz do Areia  e o "diagrama de  
reservatório equivalente" em Segredo. 
Na descrição dos algoritmos de determinação das vazões defluentes serão empregados os seguintes 
símbolos: 
Q - vazão afluente natural; 
Q
- vazão afluente natural prevista; 
N - nível de água no reservatório; 
D - vazão defluente do reservatório; 
A - vazão afluente regularizada; 
V - volume armazenado no reservatório; 
t - intervalo de tempo para correção do N.A.R. 
Observação:  O subscrito indica o local a que se refere a variável:  FA para Foz do Areia, SG para Segredo e 
FA/SG para a bacia incremental entre as duas usinas. 

Manual de Procedimentos da Operação - Módulo5 - Submódulo 5.11 
 Cadastro de Informações Operacionais Código Revisão Item Vigência 
Cadastro de Informações Operacionais Hidráulicas da 
Bacia do Rio Iguaçu CD-OR.PR.IGU 37 2.3. 29/10/2024 
 
Referência: RT-CD.OR.01 – Rev. 02 47 / 49 
 
Vazão Defluente na UHE GBM 
Sejam: 
DFA
'
: defluência de Foz do Areia  considerando o método de rebaixamento e recuperação do reservatório 
descrito no subitem 7.3. 
DFA
''
: defluência máxima de Foz do Areia considerando a limitação imposta à defluência de Segredo 
(máx. 
QSG   = 
QSG   + ΔQSG  é  a máxima vazão afluente natural prevista para Segredo, com ΔQSG  fixado em 
função da previsão de vazão máxima), do controle de nível  de Segredo em torno do nível máximo normal 
(607,00 m), e da vazão afluente prevista na incremental Foz do Areia – Segredo.  
 
Ou seja: 
FA SG
SG SG
FA /SGD V V
t Qmáx Q
'' = + − −


 (4) 
 
Onde 
SGV
  é o volume correspondente ao nível máximo normal de Segredo, ou seja, o nível meta ou de 
controle. 
A vazão defluente para controle do nível máximo é: 
 
FA FA
FA FA
D V V
t
Q
''' = + −


                       (5) 
Onde: 
FAV

 é o volume correspondente ao nível meta ou de controle (742,00 m);  
FAV
 é o volume do reservatório no instante da decisão. 
 
A decisão final de vazão defluente é dada pela seguinte regra: 
 
FA FA
'
FA
'''
FA
''
D D D Dm ín[m áx ( ),= ]
    (6) 
 
Na primeira decisão escolhe -se o maior valor de vazão defluente entre a necessária para 
rebaixamento/recuperação do reservatório e aquela para correção do nível para o máximo normal. Na 
decisão final limita-se a defluência ao valor que é compatível com a defluência máxima à jusante do sistema.  
 
Manual de Procedimentos da Operação - Módulo5 - Submódulo 5.11 
 Cadastro de Informações Operacionais Código Revisão Item Vigência 
Cadastro de Informações Operacionais Hidráulicas da 
Bacia do Rio Iguaçu CD-OR.PR.IGU 37 2.3. 29/10/2024 
 
Referência: RT-CD.OR.01 – Rev. 02 48 / 49 
 
Vazão Defluente na UHE GNB 
Esta vazão é determinada levando em consideração a vazão defluente em Foz do Areia  (determinada 
previamente), a previsão de vazão na bacia incremental entre Foz do Areia e Segredo, o controle de nível do 
reservatório, o "diagrama de reservatório equivalente em SG" (
SG
'
D ), e a vazão defluente máxima prevista, 
considerada como limite. 
A defluência para controle de nível é: 
 
SG FA FA /SG
SG SG
D D V V
t
Q
'' = + + −


  (7) 
 
- onde 
FAD  + 
QFA/SG  é a vazão afluente média prevista para o intervalo de tempo t, composta da vazão 
defluente de Foz do Areia, acrescida da previsão de vazão incremental. 
 
A decisão de defluência é dada pela seguinte regra: 
 
]Qˆmáx),,(máx[mín SG
''
SG
'
SGSG DDD =
        (8) 
 
- i.e., toma-se a maior defluência entre a necessária para controle em torno do nível normal (
SG
''
D ) e aquela 
proveniente do "diagrama de reservatório equivalente" (
SG
'
D ), limitando -a ao valor da máxima vazão 
afluente prevista (máx
QSG ). O critério empregado na previsão das vazões na bacia incremental Foz do Areia 
– Segredo considera que a última vazão conhecida continue a ocorrer durante o próximo intervalo de tempo.   
Como em qualquer outro método de previsão, há um erro associado, que se reflete no controle do nível. Esse 
erro é continuamente compensado no decorrer do tempo pelo último termo da expressão 7. 
Todos os critérios e algoritmos apresentados constam do software FASG desenvolvido pela C opel GeT para 
operação em tempo real do sistema formado pelos reservatórios de Foz do Areia e Segredo. Foram 
exaustivamente testados em simulações numéricas em computador com as maiores cheias históricas (como 
as de 1983, de 1992 e de 2014) bem como com as cheias de projeto. O software ainda leva em conta detalhes 
da operação de tempo real como a consideração do programa de geração das usinas, para determinar as 
manobras de comportas a serem implementadas a cada intervalo de tempo de operação. 
 
Situação de Operação Emergência no Conjunto GBM / GNB 
Os algoritmos para a determinação da vazão defluente dos reservatórios das usinas GBM e GNB são os 
mesmos apresentados para a situação Alerta. 
 
Manual de Procedimentos da Operação - Módulo5 - Submódulo 5.11 
 Cadastro de Informações Operacionais Código Revisão Item Vigência 
Cadastro de Informações Operacionais Hidráulicas da 
Bacia do Rio Iguaçu CD-OR.PR.IGU 37 2.3. 29/10/2024 
 
Referência: RT-CD.OR.01 – Rev. 02 49 / 49 
 
8.2. ANEXO 2 – TABELA DE VAZÃO TRANSFERIDA DO DESVIO JORDÃO PARA O RIO IGUAÇU 
 
 
 

