Manual de Procedimentos da Operação
Módulo 5 - Submódulo 5.12
Instrução de Operação para Procedimentos Sistêmicos da Instalação
Procedimentos Sistêmicos para a Operação da UHE 14 de Julho
Código Revisão Item Vigência
IO-OI.S.UHQJ 12 3.7.5.2. 20/05/2024
.
MOTIVO DA REVISÃO
- Padronização da denominação dos Agentes ao longo do Documento. 
- Adequação das considerações gerais, resultando na alteração no item 2.5.
LISTA DE DISTRIBUIÇÃO
CNOS COSR-S Ceran
Manual de Procedimentos da Operação - Módulo5 - Submódulo 5.12
Instrução de Operação para Procedimentos Sistêmicos da Instalação Código Revisão Item Vigência
Procedimentos Sistêmicos para a Operação da UHE 14 
de Julho IO-OI.S.UHQJ 12 3.7.5.2. 20/05/2024
Referência: 2 / 7
ÍNDICE
1. OBJETIVO.........................................................................................................................................3
2. CONSIDERAÇÕES GERAIS .................................................................................................................3
3. CONFIGURAÇÃO NORMAL DE OPERAÇÃO DA INSTALAÇÃO..............................................................3
3.1. Unidades Geradoras......................................................................................................................3
4. CONTROLE DE TENSÃO E DE GERAÇÃO NA OPERAÇÃO NORMAL......................................................4
4.1. Procedimentos Gerais ...................................................................................................................4
4.2. Procedimentos Específicos............................................................................................................4
5. RECOMPOSIÇÃO APÓS DESLIGAMENTO DA INSTALAÇÃO ................................................................4
5.1. Procedimentos Gerais ...................................................................................................................4
5.2. Procedimentos para Recomposição Fluente.................................................................................5
5.3. Procedimentos após Desligamento Total da Instalação................................................................6
5.3.1. Preparação da Instalação após Desligamento Total....................................................6
5.3.2. Recomposição após Desligamento Total da Instalação...............................................6
5.4. Procedimentos após Desligamento Parcial da Instalação .............................................................6
5.4.1. Preparação da Instalação para a Recomposição após Desligamento Parcial ..............6
5.4.2. Recomposição após Desligamento Parcial da Instalação ............................................6
6. MANOBRAS DE UNIDADES GERADORAS, DE LINHAS DE TRANSMISSÃO E DE EQUIPAMENTOS.........6
6.1. Procedimentos Gerais ...................................................................................................................6
6.2. Procedimentos Específicos............................................................................................................6
6.2.1. Desligamento de Unidades Geradoras e Desenergização de Linhas de Transmissão e 
de Equipamentos.........................................................................................................6
6.2.2. Sincronismo de Unidades Geradoras e Energização de Linhas de Transmissão e de 
Equipamentos..............................................................................................................7
7. NOTAS IMPORTANTES .....................................................................................................................7
Manual de Procedimentos da Operação - Módulo5 - Submódulo 5.12
Instrução de Operação para Procedimentos Sistêmicos da Instalação Código Revisão Item Vigência
Procedimentos Sistêmicos para a Operação da UHE 14 
de Julho IO-OI.S.UHQJ 12 3.7.5.2. 20/05/2024
Referência: 3 / 7
1. OBJETIVO
Estabelecer os procedimentos para a operação da UHE 14 de Julho, definidos pelo ONS, responsável pela 
coordenação, supervisão e controle da Rede de Operação, conforme estabelecido nos Procedimentos de 
Rede.
2. CONSIDERAÇÕES GERAIS
2.1. Os procedimentos contidos nesta Instrução de Operação são aqueles de interesse sistêmico, realizados 
com autonomia pelo Agente Operador da Instalação, devendo fazer parte do manual de operação 
próprio elaborado pelo Agente quando existente, observando-se a complementaridade das ações que 
devem ser realizadas com coordenação e controle pelos Centros de Operação do ONS.
2.2. A comunicação operacional entre o COSR-S e a Instalação, de propriedade da Ceran, é realizada por 
intermédio da UHE Monte Claro, agente responsável pela operação da Instalação, por intermédio da 
operação da UHE Monte Claro.
2.3. As unidades geradoras, equipamentos e linha de transmissão desta Instalação fazem parte da Área 
230 kV do Rio Grande do Sul.
2.4. O COSR-S controla e supervisiona o despacho de geração desta Usina.
2.5. Esta Usina:
•está conectada na Rede Básica;
•não participa do Controle Automático da Geração – CAG;
•é de autorrestabelecimento;
•é despachada centralizadamente;
•participa do processo de recomposição fluente da Área Foz do Chapecó.
2.6. Os dados operacionais desta Usina estão descritos no Cadastro de Informações Operacionais da 
respectiva Área Elétrica.
2.7. No que se refere ao religamento manual de linhas de transmissão ou de equipamentos:
2.7.1. A definição do número de tentativas de religamento manual de linha de transmissão ou de 
equipamento, bem como o intervalo entre elas, é de responsabilidade do Agente e devem estar 
descritos no Cadastro de Informações Operacionais da respectiva Área Elétrica.
2.7.2. Depois de efetuadas as tentativas de religamento manual previstas pelo Agente, e não havendo 
sucesso, esse deve definir a necessidade de tentativas adicionais e solicitar autorização ao COSR-S 
autorização para religamento. Nessa oportunidade, o Agente pode solicitar também a alteração no 
sentido normal para envio de tensão, caso não tenha autonomia para tal.
Para a referida autorização, além de buscar obter informações com o Agente, para diagnóstico das 
possíveis causas do desligamento, o COSR-S levará em consideração as condições operativas do 
sistema.
2.8. Quando caracterizado impedimento de linha de transmissão ou de equipamento, devem ser adotados 
os procedimentos descritos na instrução de operação em contingência da respectiva área elétrica.
3. CONFIGURAÇÃO NORMAL DE OPERAÇÃO DA INSTALAÇÃO
3.1. Unidades Geradoras
As unidades geradoras UG 1 e UG 2 13,8 kV estão conectadas ao barramento de 230 kV pelo 
Manual de Procedimentos da Operação - Módulo5 - Submódulo 5.12
Instrução de Operação para Procedimentos Sistêmicos da Instalação Código Revisão Item Vigência
Procedimentos Sistêmicos para a Operação da UHE 14 
de Julho IO-OI.S.UHQJ 12 3.7.5.2. 20/05/2024
Referência: 4 / 7
transformador TE 1 13,8/230 kV e da LT 230 kV Monte Claro / Usina Hidrelétrica 14 de Julho, que se 
encontra rigidamente conectado à barra de 13,8 kV da UHE 14 de Julho, com todas as seccionadoras e 
disjuntores fechados.
4.CONTROLE DE TENSÃO E DE GERAÇÃO NA OPERAÇÃO NORMAL 
4.1. Procedimentos Gerais
4.1.1. A Usina deve manter os valores de geração de acordo com os valores programados, constantes no 
Programa Diário de Operação – PDO. Para atendimento dos valores programados constantes no PDO, 
não é necessária a autorização prévia do COSR-S.
Qualquer alteração no valor de geração da Usina em relação ao valor de geração ao constante no PDO 
somente pode ser executada após autorização do COSR-S.
As reprogramações de geração quando de necessidades sistêmicas serão executadas pela Usina 
quando solicitadas pelo COSR-S.
Após reprogramação de geração solicitada pelo COSR-S, o Agente somente poderá alterar a geração 
da Usina com autorização do ONS, inclusive para adoção de valores contidos no PDO.
4.1.2. Os desvios de geração da Usina em relação aos valores previstos no PDO ou em relação às 
reprogramações devem ser controlados observando-se os valores máximos permitidos explicitados na 
Instrução de Operação IO-CG.BR.01 – Controle da Geração em Condição Normal.
4.1.3. Quando não existir ou não estiver disponível a supervisão da Usina para o ONS, essa deve seguir as 
orientações para envio de dados conforme Rotina Operacional RO-AO.BR.08 – Apuração de Dados de 
Despacho de Geração e de Intercâmbios.
4.1.4. A Usina deve registrar e informar imediatamente os seguintes dados ao COSR-S:
•movimentação de unidades geradoras hidráulicas (mudança de estado operativo / disponibilidade); 
•restrições e ocorrências na Usina ou na conexão elétrica que afetem a disponibilidade de geração, 
com o respectivo valor da restrição, contendo o horário de início e término e a descrição do evento;
•demais informações sobre a operação da Instalação, solicitadas pelo ONS.
4.1.5. O controle de tensão, por meio da geração ou absorção de potência reativa das unidades geradoras 
da Usina, é controlado pelo COSR-S, com comando e execução pela operação do Agente.
4.2. Procedimentos Específicos 
Não se aplica.
5. RECOMPOSIÇÃO APÓS DESLIGAMENTO DA INSTALAÇÃO
5.1. Procedimentos Gerais
5.1.1. Quando de desligamento da Instalação, a operação dessa deve identificar o desligamento e a 
configuração da Instalação, conforme critério a seguir:
•Desligamento total da Instalação: caracterizado por meio da verificação de ausência de tensão em 
todos os terminais de suas conexões ou ausência de fluxo de potência ativa nessas conexões.
•Desligamento parcial da Instalação: qualquer outra configuração que não se enquadre como 
desligamento total.
Manual de Procedimentos da Operação - Módulo5 - Submódulo 5.12
Instrução de Operação para Procedimentos Sistêmicos da Instalação Código Revisão Item Vigência
Procedimentos Sistêmicos para a Operação da UHE 14 
de Julho IO-OI.S.UHQJ 12 3.7.5.2. 20/05/2024
Referência: 5 / 7
5.1.2. Quando de desligamento total ou parcial, a operação da Instalação deve fornecer ao COSR-S as 
seguintes informações:
•horário da ocorrência;
•configuração da Instalação após a ocorrência;
•configuração da Instalação após ações realizadas com autonomia pela operação dessa.
5.1.3. Caracterizado desligamento total da Instalação, a operação dessa deve adotar os procedimentos de 
recomposição constantes no Subitem 5.2, sem necessidade de autorização prévia por parte do ONS. 
Caso o ONS intervenha no processo de recomposição, identificando a não aplicabilidade da 
recomposição fluente ou interrompendo a autonomia do Agente Operador da Instalação na 
recomposição, deve ser utilizado o Subitem 5.3.
5.1.4. Caracterizado desligamento parcial da Instalação, deve ser utilizado o Subitem 5.4.
5.2. Procedimentos para Recomposição Fluente
5.2.1. Preparação da Instalação para a Recomposição Fluente
No caso de desligamento total, o Agente Operador deve configurar os disjuntores das seguintes 
unidades geradoras, conforme condição apresentada a seguir.
Abrir ou manter abertos os disjuntores: 
•das unidades geradoras:
UG 1 13,8 kV(de 13,8 kV);
UG 2 13,8 kV (de 13,8 kV).
Cabe ao Agente UHE Monte Claro, informar ao COSR-S quando a configuração de preparação da 
Instalação não estiver atendida para o início da recomposição, independentemente de o equipamento 
ser próprio ou de outros agentes. Nesse caso, o COSR-S fará contato com os agentes envolvidos para 
identificar o motivo do não-atendimento e, após confirmação do Agente UHE Monte Claro de que os 
barramentos estão com a configuração atendida, o COSR-S coordenará os procedimentos para 
recomposição em função da configuração desta Instalação.
5.2.2. Recomposição Fluente da Instalação
A Instalação faz parte da recomposição da Área Foz do Chapecó. O Agente Operador deve adotar os 
procedimentos a seguir para a recomposição fluente:
Passo Executor Procedimentos Condições ou Limites Associados
1
Receber tensão da SE Monte Claro pela LT 
230 kV Monte Claro / Usina Hidrelétrica 14 
de Julho e pelo transformador TE 1 230/13,8 
kV, energizando a barra de 13,8 kV.
1.1
Partir uma das unidades geradoras, caso 
essa estivesse operando antes do 
desligamento, e sincronizá-la.
Tensão terminal em 13,1 kV.
Elevar a geração da UHE 14 de Julho 
para 10 MW.
1.2
Ceran
Partir a segunda unidade geradora, caso essa 
estivesse operando antes do desligamento, e 
sincronizá-la.
Tensão terminal em 13,1 kV.
Manual de Procedimentos da Operação - Módulo5 - Submódulo 5.12
Instrução de Operação para Procedimentos Sistêmicos da Instalação Código Revisão Item Vigência
Procedimentos Sistêmicos para a Operação da UHE 14 
de Julho IO-OI.S.UHQJ 12 3.7.5.2. 20/05/2024
Referência: 6 / 7
5.3. PROCEDIMENTOS APÓS DESLIGAMENTO TOTAL DA INSTALAÇÃO
5.3.1. PREPARAÇÃO DA INSTALAÇÃO APÓS DESLIGAMENTO TOTAL
O Agente Operador da Instalação deve realizar a preparação conforme Subitem 5.2.1.
5.3.2. RECOMPOSIÇÃO APÓS DESLIGAMENTO TOTAL DA INSTALAÇÃO
O Agente Operador da Instalação deve realizar os procedimentos do Subitem 5.2.2, enquanto não 
houver intervenção do COSR-S no processo de recomposição ou interrupção da autonomia destes na 
recomposição.  
Havendo intervenção, a recomposição da Instalação é executada com o controle do COSR-S. 
5.4. PROCEDIMENTOS APÓS DESLIGAMENTO PARCIAL DA INSTALAÇÃO
5.4.1. PREPARAÇÃO DA INSTALAÇÃO PARA A RECOMPOSIÇÃO APÓS DESLIGAMENTO PARCIAL
A configuração não deve ser alterada pelo Agente Operador da Instalação até o início da 
recomposição da Instalação.
5.4.2. RECOMPOSIÇÃO APÓS DESLIGAMENTO PARCIAL DA INSTALAÇÃO 
Devem ser utilizados os procedimentos descritos no Subitem 5.3.2, observando a configuração 
resultante do desligamento.
6. Manobras de Unidades Geradoras, de Linhas de Transmissão e de Equipamentos
6.1. Procedimentos Gerais
6.1.1. Os procedimentos para desligamento programado ou de urgência de unidades geradoras só podem 
ser efetuados com controle do COSR-S.
6.1.2. Os procedimentos para sincronismo de unidades geradoras, após desligamentos programados, de 
urgência ou de emergência, só podem ser efetuados com controle do COSR-S.
6.1.3. Os procedimentos para sincronismo de unidades geradoras, após desligamento automático sem 
atuação de proteção que impeça o retorno do equipamento, só podem ser executados com autonomia 
pelo Agente Operador da Instalação quando estiverem explicitados e estiverem atendidas as condições 
do Subitem 6.2.2. desta Instrução de Operação.
6.1.4. Os procedimentos de segurança a serem adotados na Instalação, durante execução de intervenções, 
são de responsabilidade do Agente. 
6.1.5. A partida de unidades geradoras deve seguir critérios próprios do Agente. O sincronismo à Rede de 
Operação só pode ser executado com autonomia pela operação da Usina quando estiver explicitado e 
estiverem atendidas as condições do Subitem 6.2.2. A tomada de carga deve ser realizada com controle 
do COSR-S.
6.2.PROCEDIMENTOS ESPECÍFICOS
6.2.1. DESLIGAMENTO DE UNIDADES GERADORAS E DESENERGIZAÇÃO DE LINHAS DE TRANSMISSÃO E DE 
EQUIPAMENTOS
O desligamento de unidades geradoras e a desenergização de linhas de transmissão ou de 
equipamentos, pertencentes à Rede de Operação, é sempre controlado pelo COSR-S.
Manual de Procedimentos da Operação - Módulo5 - Submódulo 5.12
Instrução de Operação para Procedimentos Sistêmicos da Instalação Código Revisão Item Vigência
Procedimentos Sistêmicos para a Operação da UHE 14 
de Julho IO-OI.S.UHQJ 12 3.7.5.2. 20/05/2024
Referência: 7 / 7
6.2.2. SINCRONISMO DE UNIDADES GERADORAS E ENERGIZAÇÃO DE LINHAS DE TRANSMISSÃO E DE 
EQUIPAMENTOS
6.2.2.1. Quando da atuação de esquema especial de proteção, as ações de restabelecimento dos 
equipamentos e linhas de transmissão, desligados pela atuação do esquema, devem ser adotadas 
após autorização do COSR-S.
6.2.2.2. Os procedimentos listados a seguir devem ser adotados pelo Agente Operador da Instalação, após 
desligamento automático de unidades geradoras, de equipamentos ou de linhas de transmissão.
O Agente Operador da Instalação deve identificar os desligamentos automáticos observando na 
Instalação as demais unidades geradoras, linhas de transmissão e equipamentos em operação, 
conforme explicitado nas condições de energização para a manobra.
Para os demais desligamentos parciais, proceder conforme Subitem 5.4.
Linha de Transmissão / 
Equipamento / Unidade 
Geradora 
Procedimentos Condições ou Limites Associados
Sentido Único: UHE 14 de Julho recebe tensão da SE Monte Claro LT 230 kV Monte Claro / 
Usina Hidrelétrica 14 de 
Julho e Transformador TE-
1 230/13,8 kV
Energizando o barramento de 
13,8 kV.
Unidade Geradora
UG 1 ou UG 2 13,8 kV
Partir e sincronizar a unidade 
geradora.
•13,11 ≤ V UHQJ-13,8 ≤ 14,49 kV; e
•elevar a geração da unidade 
geradora, após autorização do 
COSR-S.
7. NOTAS IMPORTANTES
Não se aplica.
