Manual de Procedimentos da Operação
Módulo 5 - Submódulo 5.12
Instrução de Operação para Procedimentos Sistêmicos da Instalação
Procedimentos Sistêmicos para a Operação da SE Candiota
Código Revisão Item Vigência
IO-OI.S.CTA 12 3.7.5.1. 14/06/2024
.
MOTIVO DA REVISÃO
- Inclusão dos Subitens 5.4.1.2. e 5.4.2.2. e complementação do Subitem 5.4.2.3. para casos de desligamentos 
parciais.
- Adequação à RT-OI.BR revisão 36, com destaque à inclusão dos Subitens 6.1.8 e 6.1.9. 
LISTA DE DISTRIBUIÇÃO
CNOS COSR-S CGT Eletrosul 
(COT Sul) 
Manual de Procedimentos da Operação - Módulo5 - Submódulo 5.12
 Instrução de Operação para Procedimentos Sistêmicos da Instalação Código Revisão Item Vigência
Procedimentos Sistêmicos para a Operação da SE 
Candiota IO-OI.S.CTA 12 3.7.5.1. 14/06/2024
Referência: 2 / 10
ÍNDICE 
1. OBJETIVO.........................................................................................................................................3
2. CONSIDERAÇÕES GERAIS .................................................................................................................3
3. CONFIGURAÇÃO NORMAL DE OPERAÇÃO DA INSTALAÇÃO..............................................................4
3.1. Barramento de 525 kV ..................................................................................................................4
3.2. Barramento de 230 kV ..................................................................................................................4
3.3. Alteração da Configuração dos Barramentos................................................................................4
4. CONTROLE DE TENSÃO NA OPERAÇÃO NORMAL .............................................................................5
4.1. Procedimentos Gerais ...................................................................................................................5
4.2. Procedimentos Específicos............................................................................................................5
4.2.1. Operação do Comutador Sob Carga ............................................................................5
4.2.2. Operação dos Reatores ...............................................................................................5
5. RECOMPOSIÇÃO APÓS DESLIGAMENTO DA INSTALAÇÃO ................................................................5
5.1. Procedimentos Gerais ...................................................................................................................5
5.2. Procedimentos para Recomposição Fluente.................................................................................6
5.2.1. Preparação da Instalação para a Recomposição Fluente ............................................6
5.2.2. Recomposição com Autonomia Após Desligamento Total da Instalação....................6
5.3. Procedimentos após Desligamento Total da Instalação................................................................6
5.3.1. Preparação da Instalação após Desligamento Total....................................................6
5.3.2. Recomposição após Desligamento Total da Instalação...............................................7
5.4. Procedimentos após Desligamento Parcial da Instalação .............................................................7
5.4.1. Preparação da Instalação para a Recomposição após Desligamento Parcial ..............7
5.4.2. Recomposição após Desligamento Parcial da Instalação ............................................7
6. MANOBRAS DE LINHAS DE TRANSMISSÃO E DE EQUIPAMENTOS.....................................................8
6.1. Procedimentos Gerais ...................................................................................................................8
6.2. Procedimentos Específicos............................................................................................................9
6.2.1. Desenergização de Equipamentos ..............................................................................9
6.2.2. Energização de Linhas de Transmissão e de Equipamentos........................................9
7. NOTAS IMPORTANTES ...................................................................................................................10
Manual de Procedimentos da Operação - Módulo5 - Submódulo 5.12
 Instrução de Operação para Procedimentos Sistêmicos da Instalação Código Revisão Item Vigência
Procedimentos Sistêmicos para a Operação da SE 
Candiota IO-OI.S.CTA 12 3.7.5.1. 14/06/2024
Referência: 3 / 10
1. OBJETIVO
Estabelecer os procedimentos para a operação da SE Candiota, definidos pelo ONS, responsável pela 
coordenação, supervisão e controle da Rede de Operação, conforme estabelecido nos Procedimentos de 
Rede.
2. CONSIDERAÇÕES GERAIS
2.1. Os procedimentos contidos nesta Instrução de Operação são somente aqueles de interesse sistêmico, 
realizados com autonomia pelo Agente Operador da Instalação, devendo fazer parte do manual de 
operação próprio elaborado pelo Agente quando existente, observando-se a complementaridade das 
ações que devem ser realizadas com coordenação e controle pelos Centros de Operação do ONS.
2.2. A comunicação operacional entre o COSR-S e a Instalação, no que se refere aos equipamentos de 
manobra da Instalação, é realizada conforme segue:
Linha de Transmissão ou 
Equipamento Agente de Operação Agente Operador Centro de Operação 
do Agente Operador
Barramento de 525 kV Eletrobras CGT Eletrosul COT Sul
Barramento de 230 kV Eletrobras CGT Eletrosul COT Sul
LT 525 kV Candiota / 
Conversora Melo Eletrobras / UTE CGT Eletrosul COT Sul
LT 230 kV Candiota / 
Presidente Médici Eletrobras CGT Eletrosul COT Sul
Reator RE 1 525 kV Eletrobras CGT Eletrosul COT Sul
Transformador TF 1 
525/230/13,8 kV Eletrobras CGT Eletrosul COT Sul
2.3. Os equipamentos e linhas de transmissão desta Instalação fazem parte das seguintes áreas elétricas:
Linha de Transmissão ou Equipamento Área Elétrica
Barramento de 525 kV 525 kV da Região Sul
Barramento de 230 kV 230 kV do Rio Grande do Sul
LT 525 kV Candiota / Conversora Melo 525 kV da Região Sul
LT 230 kV Candiota / Presidente Médici 230 kV do Rio Grande do Sul
Reator RE 1 525 kV 525 kV da Região Sul
Transformador TF 1 525/230/13,8 kV 525 kV da Região Sul
2.4. No que se refere ao religamento manual de linhas de transmissão ou de equipamentos:
2.4.1. A definição da quantidade de tentativas de religamento manual de linha de transmissão ou de 
equipamento, bem como o intervalo entre elas, é de responsabilidade do Agente e devem estar 
descritos no Cadastro de Informações Operacionais da respectiva Área Elétrica.
Manual de Procedimentos da Operação - Módulo5 - Submódulo 5.12
 Instrução de Operação para Procedimentos Sistêmicos da Instalação Código Revisão Item Vigência
Procedimentos Sistêmicos para a Operação da SE 
Candiota IO-OI.S.CTA 12 3.7.5.1. 14/06/2024
Referência: 4 / 10
2.4.2. Depois de efetuadas as tentativas de religamento manual previstas pelo Agente, e não havendo 
sucesso, esse deve definir a necessidade de tentativas adicionais e solicitar ao COSR-S autorização 
para religamento. Nessa oportunidade, o Agente pode solicitar também a alteração no sentido 
normal para envio de tensão, caso não tenha autonomia para tal.
Para a referida autorização, além de buscar obter informações com o Agente, para diagnóstico das 
possíveis causas do desligamento, o COSR-S levará em consideração as condições operativas do 
sistema.
2.5. Quando caracterizado impedimento de linha de transmissão ou de equipamento, devem ser 
adotados os procedimentos descritos na instrução de operação em contingência da respectiva área 
elétrica.
2.6. Para manobra de desenergização de linha de transmissão ou de equipamento, devem ser adotados 
os procedimentos descritos na instrução de operação de preparação para manobras da respectiva 
área elétrica.
2.7. Para manobra de energização de linha de transmissão ou de equipamento, devem ser adotados os 
procedimentos descritos na instrução de operação de preparação para manobras da respectiva área 
elétrica caso a manobra seja realizada sob coordenação do COSR-S, ou os procedimentos descritos 
no Subitem 6.2.2 desta Instrução de Operação quando o Agente tiver autonomia para energizar a 
linha de transmissão ou o equipamento.
3. CONFIGURAÇÃO NORMAL DE OPERAÇÃO DA INSTALAÇÃO
3.1. BARRAMENTO DE 525 KV
A configuração do barramento de 525 kV (Barra A e Barra B) é do tipo Anel. Na operação normal desse 
barramento, todos os disjuntores e seccionadoras devem estar fechados.
3.2. BARRAMENTO DE 230 KV
A configuração do barramento de 230 kV é do tipo Barra Dupla (Barra P e Barra PT) a Quatro Chaves. Na 
operação normal desse barramento, as barras P e PT devem estar interligadas, com todos os disjuntores e 
seccionadoras fechados, exceto as seccionadoras de transferência e uma das seletoras de barra de cada linha 
de transmissão ou equipamento.
3.3. ALTERAÇÃO DA CONFIGURAÇÃO DOS BARRAMENTOS
A mudança de configuração dos barramentos de 525 kV e 230 kV desta Instalação é executada com controle 
do COSR-S.
A mudança de configuração dos demais barramentos é executada sob responsabilidade dos Agente Operador 
da Instalação.
Manual de Procedimentos da Operação - Módulo5 - Submódulo 5.12
 Instrução de Operação para Procedimentos Sistêmicos da Instalação Código Revisão Item Vigência
Procedimentos Sistêmicos para a Operação da SE 
Candiota IO-OI.S.CTA 12 3.7.5.1. 14/06/2024
Referência: 5 / 10
4. CONTROLE DE TENSÃO NA OPERAÇÃO NORMAL
4.1. PROCEDIMENTOS GERAIS
4.1.1. Os barramentos de 525 kV e de 230 kV, pertencentes à Rede de Operação, têm a sua regulação de 
tensão controlada pelo COSR-S. 
As faixas para controle de tensão para os barramentos de 525 kV e de 230 kV estão estabelecidas no 
Cadastro de Informações Operacionais de Faixas para Controle de Tensão da respectiva Área Elétrica.
4.1.2. Os demais barramentos, não pertencentes à Rede de Operação, têm a sua regulação de tensão 
executada sob a responsabilidade da Instalação.
4.2. PROCEDIMENTOS ESPECÍFICOS
4.2.1. OPERAÇÃO DO COMUTADOR SOB CARGA
Os LTCs do transformador TF 1 525/230/13,8 kV operam em modo manual.
A movimentação dos comutadores é realizada pela CGT Eletrosul com controle do COSR-S.
4.2.2. OPERAÇÃO DOS REATORES
A operação do reator RE 1 525 kV – 75 Mvar da SE Candiota é executada sob controle do COSR-S.
5. RECOMPOSIÇÃO APÓS DESLIGAMENTO DA INSTALAÇÃO
5.1. PROCEDIMENTOS GERAIS
5.1.1. Quando de desligamento da Instalação, a operação dessa deve identificar o desligamento e a 
configuração da Instalação, conforme critério a seguir:
•Desligamento total da Instalação: caracterizado quando não há tensão em todos os terminais de 
suas linhas de transmissão.
•Desligamento parcial da Instalação: qualquer outra configuração que não se enquadre como 
desligamento total.
5.1.2. Quando de desligamento total ou parcial, o Agente Operador da Instalação deve fornecer ao COSR-S 
as seguintes informações:
•horário da ocorrência;
•configuração da Instalação após a ocorrência;
•configuração da Instalação após ações realizadas com autonomia pela operação dessa.
5.1.3. Caracterizado desligamento total da Instalação, a operação dessa deve adotar os procedimentos de 
recomposição constantes no Subitem 5.2., sem necessidade de autorização prévia por parte do ONS. 
Caso o ONS intervenha no processo de recomposição, identificando a não aplicabilidade da 
recomposição fluente ou interrompendo a autonomia da operação da instalação na recomposição, 
deve ser utilizado o Subitem 5.3. 
Manual de Procedimentos da Operação - Módulo5 - Submódulo 5.12
 Instrução de Operação para Procedimentos Sistêmicos da Instalação Código Revisão Item Vigência
Procedimentos Sistêmicos para a Operação da SE 
Candiota IO-OI.S.CTA 12 3.7.5.1. 14/06/2024
Referência: 6 / 10
5.1.4. Caracterizado desligamento parcial da Instalação, deve ser utilizado o Subitem 5.4. 
5.2. PROCEDIMENTOS PARA RECOMPOSIÇÃO FLUENTE
5.2.1. PREPARAÇÃO DA INSTALAÇÃO PARA A RECOMPOSIÇÃO FLUENTE 
No caso de desligamento total, o Agente Operador deve configurar os disjuntores dos seguintes 
equipamentos e linhas de transmissão, conforme condição apresentada a seguir:
Abrir ou manter abertos os disjuntores:
•das linhas de transmissão: 
LT 230 kV Candiota / Presidente Médici;
LT 525 kV Candiota / Conversora Melo.
•dos filtros de harmônicos de 525 kV.
•do Transformador:
TF 1 525/230/13,8 kV (lados de 525 kV e de 230 kV).
Fechar ou manter fechado o disjuntor:
•do módulo de interligação de barras de 230 kV, exceto quando esse estiver substituindo o disjuntor de 
um equipamento ou de uma linha de transmissão.
Desligar ou manter desligado o modo de comutação automática dos comutadores sob carga da 
transformação 525/230/13,8 kV da SE Candiota.
5.2.2. RECOMPOSIÇÃO COM AUTONOMIA APÓS DESLIGAMENTO TOTAL DA INSTALAÇÃO
O Agente Operador da Instalação deve realizar com autonomia os seguintes procedimentos para a 
recomposição:
Passo Executor Procedimentos Condições ou Limites Associados
1 CGT Eletrosul 
(COT Sul)
Receber tensão, da SE Presidente Médici, pela 
LT 230 kV Candiota / Presidente Médici e ligar, 
energizando o barramento de 230 kV.
1.1 CGT Eletrosul 
(COT Sul)
Energizar, pelo lado de 230 kV, o Transformador 
TF 1 525/230/13,8 kV da SE Candiota.
Todos os disjuntores de 525 kV 
devem estar abertos.
O fechamento dos disjuntores de 
525 kV somente pode ser realizado 
com coordenação do COSR-S.
Os demais equipamentos desta Instalação são restabelecidos sob controle do COSR-S, conforme 
procedimentos contidos nas respectivas Instruções de Preparação para Manobras.
5.3. PROCEDIMENTOS APÓS DESLIGAMENTO TOTAL DA INSTALAÇÃO
5.3.1. PREPARAÇÃO DA INSTALAÇÃO APÓS DESLIGAMENTO TOTAL
O Agente Operador da Instalação deve realizar a preparação conforme Subitem 5.2.1.
Manual de Procedimentos da Operação - Módulo5 - Submódulo 5.12
 Instrução de Operação para Procedimentos Sistêmicos da Instalação Código Revisão Item Vigência
Procedimentos Sistêmicos para a Operação da SE 
Candiota IO-OI.S.CTA 12 3.7.5.1. 14/06/2024
Referência: 7 / 10
5.3.2. RECOMPOSIÇÃO APÓS DESLIGAMENTO TOTAL DA INSTALAÇÃO
O Agente Operador da Instalação deve realizar os procedimentos do Subitem 5.2.2., enquanto não houver 
intervenção do COSR-S no processo de recomposição ou interrupção da autonomia da operação da instalação 
na recomposição. 
Havendo intervenção, a recomposição da Instalação é executada com o controle do COSR-S, conforme 
procedimentos contidos nas respectivas Instruções de Preparação para Manobras. 
5.4. PROCEDIMENTOS APÓS DESLIGAMENTO PARCIAL DA INSTALAÇÃO
5.4.1. PREPARAÇÃO DA INSTALAÇÃO PARA A RECOMPOSIÇÃO APÓS DESLIGAMENTO PARCIAL
5.4.1.1. Caracterizado desligamento parcial da Instalação que seja: 
•ausência de tensão em todos os barramentos,
•ausência de fluxo de potência ativa nas linhas de transmissão, e
•existência de tensão de retorno em pelo menos uma das linhas de transmissão da Instalação, o 
Agente Operador deve preparar a Instalação conforme Subitem 5.2.1., sem necessidade de 
autorização do ONS.
5.4.1.2. Caracterizado desligamento parcial da Instalação que seja: 
•ausência de tensão nas barras de 525 kV, e
•ausência de fluxo de potência ativa nas linhas de transmissão de 525 kV, o Agente Operador 
deve preparar o setor de 525 kV da Instalação (disjuntores das linhas de transmissão e 
equipamentos) conforme Subitem 5.2.1., sem necessidade de autorização do ONS. 
5.4.1.3. Caracterizado desligamento parcial da Instalação que seja: 
•ausência de tensão nas barras de 230 kV, o Agente Operador deve preparar o setor de 230 kV 
da Instalação (disjuntores das linhas de transmissão e equipamentos) conforme Subitem 5.2.1., 
sem necessidade de autorização do ONS. 
5.4.1.4. Para demais desligamentos parciais da Instalação, não há necessidade de preparação da Instalação.
5.4.2. RECOMPOSIÇÃO APÓS DESLIGAMENTO PARCIAL DA INSTALAÇÃO 
5.4.2.1. Caracterizado desligamento parcial da Instalação, conforme Subitem 5.4.1.1., o Agente Operador 
deve recompor a Instalação conforme Subitem 5.2.2., sem necessidade de autorização do ONS.
5.4.2.2. Caracterizado desligamento parcial da Instalação, conforme Subitens 5.4.1.2. e 5.4.1.3., os Agentes 
Operadores devem informar ao COSR-S, para que a recomposição da Instalação seja executada com 
controle do COSR-S.
5.4.2.3. Caracterizado desligamento parcial da Instalação, conforme Subitem 5.4.1.2., o Agente Operador 
deve recompor a Instalação conforme Subitem 6.2.2., sem necessidade de autorização do ONS.  
Manual de Procedimentos da Operação - Módulo5 - Submódulo 5.12
 Instrução de Operação para Procedimentos Sistêmicos da Instalação Código Revisão Item Vigência
Procedimentos Sistêmicos para a Operação da SE 
Candiota IO-OI.S.CTA 12 3.7.5.1. 14/06/2024
Referência: 8 / 10
Quando as condições ou limites associados, constantes no Subitem 6.2.2., não estiverem atendidos, 
os Agentes Operadores devem informar ao COSR-S, para que a recomposição da Instalação seja 
executada com controle do COSR-S.
6. MANOBRAS DE LINHAS DE TRANSMISSÃO E DE EQUIPAMENTOS
6.1. PROCEDIMENTOS GERAIS
6.1.1. Os procedimentos para desenergização programada ou de urgência de linhas de transmissão ou de 
equipamentos, só podem ser efetuados com controle do COSR-S.
6.1.2. Os procedimentos para energização de linhas de transmissão ou de equipamentos, após desligamento 
programado, de urgência ou de emergência, só podem ser efetuados com controle do COSR-S.
6.1.3. Os procedimentos para energização e fechamento em anel de linhas de transmissão ou de 
equipamentos, após desligamento automático sem atuação de proteção que impeça o retorno do 
equipamento, só podem ser executados com autonomia pelo Agente Operador da Instalação quando 
explicitados e estiverem atendidas as condições do Subitem 6.2.2. desta Instrução de Operação.
Quando as condições ou limites associados não estiverem atendidos ou quando não existir autonomia, 
a energização deve ser executada com controle do COSR-S, conforme Instrução de Operação de 
Preparação para Manobras da respectiva área elétrica.
6.1.4. Antes do fechamento de qualquer disjuntor, o Agente Operador da Instalação deve verificar se existe 
tensão de retorno e se a condição de fechamento será em anel.
O fechamento em anel só pode ser executado com autonomia pelo Agente Operador da Instalação 
quando estiver especificado nesta Instrução de Operação e estiverem atendidas as condições do 
Subitem 6.2.2.
O fechamento de paralelo só pode ser efetuado com controle do COSR-S.
6.1.5. No que se refere ao sentido de energização de linha de transmissão ou de equipamento:
6.1.5.1. A energização em sentido normal ou, quando permitida, em sentido inverso, pode ser feita com 
autonomia pelo Agente Operador, conforme procedimentos para manobras que estão definidos 
nesta Instrução de Operação, Subitem 6.2.2. Os procedimentos para energização controlados pelo 
COSR-S estão definidos na Instrução de Operação de Preparação para Manobras da respectiva área 
elétrica.
A energização em sentido inverso deve ser efetuada quando, na energização em sentido normal, 
as condições não estiverem atendidas ou não houver sucesso na energização.
6.1.6. Os procedimentos de segurança a serem adotados na Instalação, durante execução de intervenções, 
são de responsabilidade do Agente. 
6.1.7. Em caso de abertura apenas do terminal / lado pelo qual a linha de transmissão ou transformador é 
energizado, o Agente Operador da Instalação deve fechá-lo em anel desde que tenha autonomia para 
tal, adotando as condições para o fechamento constantes no Subitem 6.2.2.
Manual de Procedimentos da Operação - Módulo5 - Submódulo 5.12
 Instrução de Operação para Procedimentos Sistêmicos da Instalação Código Revisão Item Vigência
Procedimentos Sistêmicos para a Operação da SE 
Candiota IO-OI.S.CTA 12 3.7.5.1. 14/06/2024
Referência: 9 / 10
6.1.8. Em caso de abertura manual indevida de qualquer disjuntor da instalação, implicando ou não em 
desligamento de linha de transmissão ou equipamento, o fechamento desse disjuntor deve ser 
realizado com controle do COSR-S. 
6.1.9. Em caso de abertura automática de disjuntor da instalação que não implique em desligamento de linha 
de transmissão ou equipamento, o fechamento desse disjuntor deve ser realizado com controle do 
COSR-S.
6.1.10. Os procedimentos para manobras de linhas de transmissão dotadas de reatores de linha fixo 
consideram esse equipamento conectado; caso contrário, essa informação constará no respectivo 
procedimento para manobra.
6.2. PROCEDIMENTOS ESPECÍFICOS
6.2.1. DESENERGIZAÇÃO DE EQUIPAMENTOS
A desenergização de linhas de transmissão ou de equipamentos, pertencentes à Rede de Operação, é 
sempre controlada pelo COSR-S.
6.2.2. ENERGIZAÇÃO DE LINHAS DE TRANSMISSÃO E DE EQUIPAMENTOS
6.2.2.1. Quando da atuação de esquema especial de proteção, as ações de restabelecimento dos 
equipamentos e linhas de transmissão, desligados pela atuação do esquema, devem ser adotadas 
após autorização do COSR-S.
6.2.2.2. Os procedimentos listados a seguir devem ser adotados pelo Agente Operador da Instalação, após 
desligamento automático de equipamentos ou de linhas de transmissão.
O Agente Operador da Instalação deve identificar os desligamentos automáticos observando na 
Instalação as demais linhas de transmissão e equipamentos em operação, conforme explicitado nas 
condições de energização para a manobra.
Para os demais desligamentos parciais, proceder conforme Subitem 5.4.
Linha de Transmissão / 
Equipamento Procedimentos Condições ou Limites Associados
Sentido Único: SE Candiota envia tensão para a SE Conversora MeloLT 525 kV Candiota / 
Conversora Melo
Permitido somente com controle do COSR-S, conforme IO-PM.S.5SU.
Sentido Único: SE Candiota recebe tensão da SE Presidente MédiciLT 230 kV Candiota / 
Presidente Médici Ligar, energizando o barramento 
230 kV, a LT 230 kV Candiota / 
Presidente Médici.
Manual de Procedimentos da Operação - Módulo5 - Submódulo 5.12
 Instrução de Operação para Procedimentos Sistêmicos da Instalação Código Revisão Item Vigência
Procedimentos Sistêmicos para a Operação da SE 
Candiota IO-OI.S.CTA 12 3.7.5.1. 14/06/2024
Referência: 10 / 10
Linha de Transmissão / 
Equipamento Procedimentos Condições ou Limites Associados
Sentido Único: A partir do lado de 230 kVTransformador TF 1 
525/230/13,8 kV Energizar pelo lado de 230 kV o 
Transformador TF 1 525/230/13,8 kV.
VCTA-230 ≤ 242 kV.
O fechamento dos disjuntores de 
525 kV somente pode ser realizado 
com coordenação do COSR-S.
Reator RE 1 525 kV A manobra deste Reator é controlada pelo COSR-S.
7. NOTAS IMPORTANTES
7.1. Os Filtros de Harmônicos FH 1 e FH 2 525 kV são manobrados pelo DCU.
