 
Alterado pela(s) MOP(s): 
MOP/ONS 508-R/2024;  
Manual de Procedimentos da Operação 
Módulo 5 - Submódulo 5.12 
 
Instrução de Operação para Procedimentos Sistêmicos da Instalação 
Procedimentos Sistêmicos para a Operação da SE Porto Alegre 1 
 
 
Código Revisão Item Vigência 
IO-OI.S.PAL1 02 3.7.5.2. 06/11/2023 
 
. 
 
MOTIVO DA REVISÃO 
- Alteração da apresentação das condições de energização e fechamento em anel no item 6.2.2, conforme 
IO-PM.S.2RS. 
LISTA DE DISTRIBUIÇÃO 
CNOS COSR-S CEEE-D CEEE-T CPFL Sul II 
Manual de Procedimentos da Operação - Módulo 5 - Submódulo 5.12 
Instrução de Operação para Procedimentos Sistêmicos da Instalação Código Revisão Item Vigência 
Procedimentos Sistêmicos para a Operação da SE Porto 
Alegre 1 IO-OI.S.PAL1 02 3.7.5.2. 06/11/2023 
 
Referência:  2 / 10 
 
Alterado pela(s) MOP(s): 
MOP/ONS 508-R/2024;  
ÍNDICE 
1. OBJETIVO ................................ ................................ ................................ ................................ ..... 3 
2. CONSIDERAÇÕES GERAIS ................................ ................................ ................................ .............. 3 
3. CONFIGURAÇÃO NORMAL DE OPERAÇÃO DA INSTALAÇÃO ................................ ............................  4 
3.1. Barramento de 230 kV ................................................................................................................... 4 
3.2. Alteração da Configuração dos Barramentos ................................................................................ 4 
4. CONTROLE DE TENSÃO NA OPERAÇÃO NORMAL ................................ ................................ ........... 4 
4.1. Procedimentos Gerais ................................................................................................................... 4 
4.2. Procedimentos Específicos ............................................................................................................ 5 
4.2.1. Operação dos Comutadores de Tapes Sob Carga (LTC) .............................................. 5 
5. RECOMPOSIÇÃO APÓS DESLIGAMENTO DA INSTALAÇÃO ................................ ..............................  5 
5.1. Procedimentos Gerais ................................................................................................................... 5 
5.2. Procedimentos para Recomposição com Autonomia ................................................................... 5 
5.2.1. Preparação da Instalação para a Recomposição com Autonomia .............................. 5 
5.2.2. Recomposição com Autonomia após Desligamento Total da Instalação.................... 6 
5.3. Procedimentos após Desligamento Total da Instalação ............................................................... 6 
5.3.1. Preparação da Instalação após Desligamento Total ................................................... 6 
5.3.2. Recomposição após Desligamento Total da Instalação .............................................. 7 
5.4. Procedimentos após Desligamento Parcial da Instalação ............................................................. 7 
5.4.1. Preparação da Instalação para a Recomposição após Desligamento Parcial ............. 7 
5.4.2. Recomposição após Desligamento Parcial da Instalação ............................................ 7 
6. MANOBRAS DE LINHAS DE TRANSMISSÃO E DE EQUIPAMENTOS ................................ ................... 7 
6.1. Procedimentos Gerais ................................................................................................................... 7 
6.2. Procedimentos Específicos ............................................................................................................ 8 
6.2.1. Desenergização de Linhas de Transmissão e de Equipamentos ................................. 8 
6.2.2. Energização de Linhas de Transmissão e de Equipamentos ....................................... 8 
7. NOTAS IMPORTANTES ................................ ................................ ................................ ................ 10 
 
Manual de Procedimentos da Operação - Módulo 5 - Submódulo 5.12 
Instrução de Operação para Procedimentos Sistêmicos da Instalação Código Revisão Item Vigência 
Procedimentos Sistêmicos para a Operação da SE Porto 
Alegre 1 IO-OI.S.PAL1 02 3.7.5.2. 06/11/2023 
 
Referência:  3 / 10 
 
Alterado pela(s) MOP(s): 
MOP/ONS 508-R/2024;  
1. OBJETIVO 
Estabelecer os procedimentos para a operação da SE Porto Alegre 1, definidos pelo ONS, responsável pela 
coordenação, supervisão e controle da Rede de Operação, conforme estabelecido nos Procedimentos de 
Rede. 
2. CONSIDERAÇÕES GERAIS 
2.1. Os procedimentos contidos nesta Instrução de Operação são aqueles de interesse sistêmico, realizados 
com autonomia pelo Agente Operador  da Instalação, devendo fazer parte do manual de operação 
próprio elaborado pelo Agente quando existente, observando-se a complementaridade das ações que 
devem ser realizadas com coordenação e controle pelos Centros de Operação do ONS. 
2.2. A comunicação operacional entre o COSR -S e a Instalação, de propriedade da CPFL Sul II, é realizada 
pela CEEE-T, agente responsável pela operação da Instalação, por intermédio do COT CEEE-T. 
2.3. Os equipamentos e linhas de transmissão desta Instalação fazem parte da Área 230 kV do Rio Grande 
do Sul. 
2.4. No que se refere ao religamento manual de linhas de transmissão ou de equipamentos: 
2.4.1. A definição da quantidade  de tentativas de religamento manual de linha de transmissão ou de 
equipamento, bem como o intervalo entre elas, é de responsabilidade do Agente e deve m estar 
descritos no Cadastro de Informações Operacionais da respectiva Área Elétrica. 
2.4.2. Depois de efetuadas as tentativas de religamento manual previstas pelo Agente, e não havendo 
sucesso, esse deve definir a necessidade de tentativas adicionais e solicitar ao COSR -S autorização 
para religamento. Nessa oportunidade, o Agente também pode solicitar alteração no sentido normal 
para envio de tensão, caso não tenha autonomia para tal. 
Para a referida autorização, além de buscar obter informações com o Agente, para diagnóstico das 
possíveis causas do desligamento, o COSR -S levará em consideração as condições operativas do 
sistema. 
2.5. Quando caracterizado impedimento de linha de transmissão ou de equipamento, devem ser adotados 
os procedimentos descritos na instrução de operação em contingência da respectiva área elétrica. 
2.6. Para manobra de desenergização de linha de transmissão ou de equipamento, devem ser adotados os 
procedimentos descritos na instrução de operação de preparação para manobras da respectiva área 
elétrica. 
Manual de Procedimentos da Operação - Módulo 5 - Submódulo 5.12 
Instrução de Operação para Procedimentos Sistêmicos da Instalação Código Revisão Item Vigência 
Procedimentos Sistêmicos para a Operação da SE Porto 
Alegre 1 IO-OI.S.PAL1 02 3.7.5.2. 06/11/2023 
 
Referência:  4 / 10 
 
Alterado pela(s) MOP(s): 
MOP/ONS 508-R/2024;  
2.7. Para manobra de energização de linha de transmissão ou de equipamento, devem ser adotados os 
procedimentos descritos na instrução de operação de preparação para manobras da respectiva área 
elétrica caso a manobra seja realizada sob coordenação do COSR-S, ou os procedimentos descritos no 
Subitem 6.2.2. desta Instrução de Operação quando o Agente  tiver autonomia para energizar a linha 
de transmissão ou o equipamento. 
3. CONFIGURAÇÃO NORMAL DE OPERAÇÃO DA INSTALAÇÃO 
3.1. BARRAMENTO DE 230 KV 
A configuração do barramento de 230 kV é do tipo Barra Dupla (Barra I e Barra II) a Três Chaves. Na 
operação normal desse barramento, todos os disjuntores e seccionadoras devem estar fechados, exceto 
as seccionadoras de transferência e uma das seletoras de barra da s linhas de transmissão  ou 
equipamentos. 
A Instalação deve operar em condição normal com a seguinte configuração: 
Em uma das barras – I (ou II) Na outra barra – II (ou I) 
LT 230 kV Porto Alegre 1 / Porto Alegre 8 LT 230 kV Jardim Botânico / Porto Alegre 1 
Dois (ou um) transformadores 230/69/13,8 kV 
(TF1, TF2 ou TF3) 
Um (ou dois) transformador(es) 230/69/13,8 kV 
(TF3, TF2 ou TF1) 
3.2. ALTERAÇÃO DA CONFIGURAÇÃO DOS BARRAMENTOS 
A mudança de configuração do barramento de 230 kV desta Instalação é executada com controle do 
COSR-S. 
A mudança de configuração dos demais barramentos é executada sob responsabilidade do Agente 
Operador da Instalação. 
4. CONTROLE DE TENSÃO NA OPERAÇÃO NORMAL 
4.1. PROCEDIMENTOS GERAIS 
4.1.1. O barramento de 230 kV, pertencente à Rede de Operação, tem a sua regulação de tensão controlada 
pelo COSR-S.  
As faixas para controle de tensão para esse barramento  estão estabelecidas no Cadastro de 
Informações Operacionais de Faixas para Controle de Tensão da respectiva Área Elétrica. 
4.1.2. O barramento de 69 kV, não pertencente à Rede de Operação, onde se conecta a transformação 
230/69/13,8 kV, tem a sua regulação de tensão executada com autonomia pelo Agente Operador da 
Instalação, por meio da utilização de recursos locais disponíveis de autonomia dessa. 
Esgotados esses recursos, o Agente deve acionar o COSR -S, que deve verificar a disponibilidade dos 
recursos sistêmicos. 
As faixas de controle de tensão para o barramento de 69 kV estão estabelecidas no Cadastro de 
Informações Operacionais de Faixas para Controle de Tensão da respectiva Área Elétrica. 
4.1.3. Os demais barramentos, não pertencentes à Rede de Operação, têm a sua regulação de tensão 
executada sob a responsabilidade da Instalação. 
Manual de Procedimentos da Operação - Módulo 5 - Submódulo 5.12 
Instrução de Operação para Procedimentos Sistêmicos da Instalação Código Revisão Item Vigência 
Procedimentos Sistêmicos para a Operação da SE Porto 
Alegre 1 IO-OI.S.PAL1 02 3.7.5.2. 06/11/2023 
 
Referência:  5 / 10 
 
Alterado pela(s) MOP(s): 
MOP/ONS 508-R/2024;  
4.2. PROCEDIMENTOS ESPECÍFICOS 
4.2.1. OPERAÇÃO DOS COMUTADORES DE TAPES SOB CARGA (LTC) 
Os LTCs dos transformadores TF1, TF2 e TF3 230/69 /13,8 kV operam em modo manual.  
A movimentação dos comutadores é realizada com autonomia pela operação do Agente CEEE-T. 
5. RECOMPOSIÇÃO APÓS DESLIGAMENTO DA INSTALAÇÃO 
5.1. PROCEDIMENTOS GERAIS 
5.1.1. Quando de desligamento da Instalação, a operação dessa deve identificar o desligamento e a 
configuração da Instalação, conforme critério a seguir: 
• Desligamento total da Instalação: caracterizado quando não há tensão em todos os terminais de 
suas linhas de transmissão. 
• Desligamento parcial da Instalação : qualquer outra configuração  que não se enquadre como 
desligamento total. 
5.1.2. Quando de desligamento total ou parcial, a operação da Instalação deve fornecer ao COSR -S as 
seguintes informações: 
• horário da ocorrência; 
• configuração da Instalação após a ocorrência; 
• configuração da Instalação após ações realizadas com autonomia pela operação dessa. 
5.1.3. Caracterizado desligamento total da Instalação, a operação dessa deve adotar os procedimentos de 
recomposição constantes no Subitem 5.2., sem necessidade de autorização prévia por parte do ONS. 
Caso o ONS intervenha no processo de recomposição, identificando a não aplicabilidade da 
recomposição fluente ou interrompendo a autonomia do Agente Operador  da Instalação na 
recomposição, deve ser utilizado o Subitem 5.3.  
5.1.4. Caracterizado desligamento parcial da Instalação, deve ser utilizado o Subitem 5.4.  
5.2. PROCEDIMENTOS PARA RECOMPOSIÇÃO COM AUTONOMIA 
5.2.1. PREPARAÇÃO DA INSTALAÇÃO PARA A RECOMPOSIÇÃO COM AUTONOMIA 
No caso de desligamento total, o Agente Operador deve configurar os disjuntores dos seguintes 
equipamentos e linhas de transmissão, conforme condição apresentada a seguir: 
Abrir ou manter abertos os disjuntores: 
• das linhas de transmissão:  
LT 230 kV Jardim Botânico / Porto Alegre 1; 
LT 230 kV Porto Alegre 1 / Porto Alegre 8. 
• de todas as linhas de transmissão de 69 kV. 
Manual de Procedimentos da Operação - Módulo 5 - Submódulo 5.12 
Instrução de Operação para Procedimentos Sistêmicos da Instalação Código Revisão Item Vigência 
Procedimentos Sistêmicos para a Operação da SE Porto 
Alegre 1 IO-OI.S.PAL1 02 3.7.5.2. 06/11/2023 
 
Referência:  6 / 10 
 
Alterado pela(s) MOP(s): 
MOP/ONS 508-R/2024;  
• dos transformadores:  
TF1 230/69/13,8 kV (lados de 230 kV e de 69 kV); 
TF2 230/69/13,8 kV (lados de 230 kV e de 69 kV); 
TF3 230/69/13,8 kV (lados de 230 kV e de 69 kV). 
• do módulo de interligação barras de 230 kV. 
Cabe ao Agente CEEE-T informar ao COSR-S quando a configuração de preparação da Instalação não estiver 
atendida para o início da recomposição, independentemente de o equipamento ser próprio ou de outros 
agentes. Nesse caso, o COSR -S fará contato com os agentes envolvidos  para identificar o motivo do não -
atendimento e , após confirmação do Agente CEEE -T de que os barramentos estão com a configuração 
atendida, o COSR -S coordenar á os procedimentos para recomposição em função da configuração desta 
Instalação. 
5.2.2. RECOMPOSIÇÃO COM AUTONOMIA APÓS DESLIGAMENTO TOTAL DA INSTALAÇÃO 
O Agente Operador da Instalação  deve realizar com autonomia os seguintes procedimentos para a 
recomposição: 
Passo Executor Procedimentos Condições ou Limites Associados 
1 CEEE-T 
Receber tensão da SE Porto Alegre 8, pela LT 230 
kV Porto Alegre 1  / Porto Alegre 8 e fechar, 
energizando o barramento de 230  kV, o 
disjuntor. 
 
2  CEEE-T 
Receber tensão da SE Jardim Botânico, pela LT 
230 kV Porto Alegre 1 / Jardim Botânico e fechar, 
em anel, o disjuntor. 
 
3 CEEE-T 
Energizar, pelo lado de 230 kV, um dos 
transformadores 230/69/13,8 kV da SE Porto 
Alegre 1 e ligar, energizando o barramento de 
69 kV, o lado de 69 kV. 
1 ≤ TAPPAL1-230/69 ≤ 11 
Restabelecer carga somente após 
autorização do COSR-S. 
4 CEEE-T 
Energizar, pelo lado de 230 kV, o segundo 
transformador 230/69/13,8 kV e ligar, 
interligando esse transformador com o outro 
transformador 230/69/13,8 kV da SE  Porto 
Alegre 1, o lado de 69 kV. 
1 ≤ TAPPAL1-230/69 ≤ 11 
Após fluxo de potência ativa  no 
transformador 230/69/13,8  kV da 
SE Porto Alegre 1 energizado. 
5 CEEE-T 
Energizar, pelo lado de 230 kV, o terceiro 
transformador 230/69/13,8 kV e ligar, 
interligando esse transformador com os outros 
transformadores 230/69/13,8 kV da SE  Porto 
Alegre 1, o lado de 69 kV. 
1 ≤ TAPPAL1-230/69 ≤ 11 
Após fluxo de potência ativa  nos 
transformadores 230/69/13,8 kV 
da SE Porto Alegre 1 energizados. 
5.3. PROCEDIMENTOS APÓS DESLIGAMENTO TOTAL DA INSTALAÇÃO 
5.3.1. PREPARAÇÃO DA INSTALAÇÃO APÓS DESLIGAMENTO TOTAL 
O Agente Operador da Instalação deve realizar a preparação conforme Subitem 5.2.1. 
Manual de Procedimentos da Operação - Módulo 5 - Submódulo 5.12 
Instrução de Operação para Procedimentos Sistêmicos da Instalação Código Revisão Item Vigência 
Procedimentos Sistêmicos para a Operação da SE Porto 
Alegre 1 IO-OI.S.PAL1 02 3.7.5.2. 06/11/2023 
 
Referência:  7 / 10 
 
Alterado pela(s) MOP(s): 
MOP/ONS 508-R/2024;  
5.3.2. RECOMPOSIÇÃO APÓS DESLIGAMENTO TOTAL DA INSTALAÇÃO 
O Agente Operador da Instalação deve executar os procedimentos do Subitem 5.2.2. após a autorização do 
COSR-S. 
5.4. PROCEDIMENTOS APÓS DESLIGAMENTO PARCIAL DA INSTALAÇÃO 
5.4.1. PREPARAÇÃO DA INSTALAÇÃO PARA A RECOMPOSIÇÃO APÓS DESLIGAMENTO PARCIAL 
5.4.1.1. Caracterizado desligamento parcial da Instalação que seja:  
• ausência de tensão em todos os barramentos, 
• ausência de fluxo de potência ativa nas linhas de transmissão, e 
• existência de tensão de retorno em pelo menos uma das linhas de transmissão da Instalação, o 
Agente Operador  deve preparar a Instalação conforme Subitem 5.2 .1., sem necessidade de 
autorização do ONS. 
5.4.1.2. Para demais desligamentos parciais da Instalação, não há necessidade de preparação da Instalação. 
5.4.2. RECOMPOSIÇÃO APÓS DESLIGAMENTO PARCIAL DA INSTALAÇÃO  
5.4.2.1. Caracterizado desligamento parcial da Instalação, conforme Subitem 5.4.1.1., o Agente Operador  
deve recompor a Instalação conforme Subitem 5.2.2., sem necessidade de autorização do ONS. 
5.4.2.2. Caracterizado desligamento parcial da Instalação, conforme Subitem 5.4.1.2., o Agente Operador  
deve recompor a Instalação conforme Subitem 6.2.2., sem necessidade de autorização do ONS.    
6. MANOBRAS DE LINHAS DE TRANSMISSÃO E DE EQUIPAMENTOS 
6.1. PROCEDIMENTOS GERAIS 
6.1.1. Os procedimentos para desenergização programada ou de urgência de linhas de transmissão ou de 
equipamentos, só podem ser efetuados com controle do COSR-S. 
6.1.2. Os procedimentos para energização de linhas de transmissão ou de equipamentos, após desligamento 
programado, de urgência ou de emergência, só podem ser efetuados com controle do COSR-S. 
6.1.3. Os procedimentos para energização e fechamento em anel de linhas de transmissão ou de 
equipamentos, após desligamento automático sem atuação de proteção que impeça o retorno do 
equipamento, só podem ser executados com autonomia pelo Agente Operador da Instalação quando 
explicitados e estiverem atendidas as condições do Subitem 6.2.2. desta Instrução de Operação. 
Quando as condições ou limites associados não estiverem atendidos ou quando não existir autonomia, 
a energização deve ser executada com controle do COSR -S, conforme Instrução de Operação de 
Preparação para Manobras da respectiva área elétrica. 
Manual de Procedimentos da Operação - Módulo 5 - Submódulo 5.12 
Instrução de Operação para Procedimentos Sistêmicos da Instalação Código Revisão Item Vigência 
Procedimentos Sistêmicos para a Operação da SE Porto 
Alegre 1 IO-OI.S.PAL1 02 3.7.5.2. 06/11/2023 
 
Referência:  8 / 10 
 
Alterado pela(s) MOP(s): 
MOP/ONS 508-R/2024;  
6.1.4. Antes do fechamento de qualquer disjuntor, o Agente Operador da Instalação deve verificar se existe 
tensão de retorno e se a condição de fechamento será em anel. 
O fechamento em anel só pode ser executado com autonomia pelo Agente Operador  da Instalação 
quando estiver especificado nesta Instrução de O peração e estiverem atendidas as condições do 
Subitem 6.2.2. 
O fechamento de paralelo só pode ser efetuado com controle do COSR-S. 
6.1.5. No que se refere ao sentido de energização de linha de transmissão ou de equipamento: 
6.1.5.1. A energização em sentido normal ou , quando permitida, em sentido  inverso, pode ser feita com 
autonomia pela operação do Agente, conforme procedimentos para manobras que estão definidos 
nesta Instrução de Operação, Subitem 6.2.2. Os procedimentos para energização controlados pelo 
COSR-S estão definidos na Instrução de Operação de Preparação para Manobras da respectiva área 
elétrica.  
 A energização em sentido inverso deve ser efetuada quando, na energização em sentido normal, 
as condições não estiverem atendidas ou não houver sucesso na energização.  
6.1.6. Os procedimentos de segurança a serem adotados na Instalação, durante execução de intervenções, 
são de responsabilidade do Agente.  
6.1.7. Em caso de abertura apenas do terminal / lado pelo qual a linha de transmissão ou transformador é 
energizado, o operador da Instalação deve fechá -lo em anel desde que tenha autonomia  para tal, 
adotando as condições para o fechamento constantes no Subitem 6.2.2. 
6.1.8. Os procedimentos para manobras de linhas de transmissão dotadas de reatores de linha fixo 
consideram esse equipamento conectado; caso contrário, essa informação constará no respectivo 
procedimento para manobra. 
6.2. PROCEDIMENTOS ESPECÍFICOS 
6.2.1. DESENERGIZAÇÃO DE LINHAS DE TRANSMISSÃO E DE EQUIPAMENTOS 
A desenergização de linhas de transmissão ou de equipamentos, pertencentes à Rede de Operação, é 
sempre controlada pelo COSR-S. 
6.2.2. ENERGIZAÇÃO DE LINHAS DE TRANSMISSÃO E DE EQUIPAMENTOS 
6.2.2.1. Quando da atuação de esquema especial de proteção, as ações de restabelecimento dos 
equipamentos e linhas de transmissão, desligados pela atuação do esquema, devem ser adotadas 
após autorização do COSR-S. 
6.2.2.2. Os procedimentos listados a seguir devem ser adotados pelo Agente Operador da Instalação, após 
desligamento automático de equipamentos ou de linhas de transmissão. 
O Agente Operador  da Instalação deve identificar os desligamentos automáticos observando na 
Instalação as demais linhas de transmissão e equipamentos em operação, conforme explicitado nas 
condições de energização para a manobra. 
Manual de Procedimentos da Operação - Módulo 5 - Submódulo 5.12 
Instrução de Operação para Procedimentos Sistêmicos da Instalação Código Revisão Item Vigência 
Procedimentos Sistêmicos para a Operação da SE Porto 
Alegre 1 IO-OI.S.PAL1 02 3.7.5.2. 06/11/2023 
 
Referência:  9 / 10 
 
Alterado pela(s) MOP(s): 
MOP/ONS 508-R/2024;  
Para os demais desligamentos parciais, proceder conforme Subitem 5.4. 
Linha de Transmissão / 
Equipamento  Procedimentos Condições ou Limites Associados 
LT 230 kV Jardim Botânico / 
Porto Alegre 1 
Sentido Normal: SE Porto Alegre 1 recebe tensão da SE Jardim Botânico 
Ligar, em anel ou energizando o 
barramento de 230 kV, a LT 230 kV 
Jardim Botânico / Porto Alegre 1. 
 
Sentido Inverso: SE Porto Alegre 1 envia tensão para SE Jardim Botânico 
A energização em sentido inverso é controlada pelo COSR-S, conforme IO-
PM.S.2RS. 
LT 230 kV Porto Alegre 1 / 
Porto Alegre 8 
Sentido Normal: SE Porto Alegre 1 recebe tensão da SE Porto Alegre 8 
Ligar, em anel ou energizando o 
barramento de 230 kV, a LT 230 kV 
Porto Alegre 1 / Porto Alegre 8. 
 
Sentido Inverso: SE Porto Alegre 1 envia tensão para SE Porto Alegre 8 
A energização em sentido inverso é controlada pelo COSR-S, conforme IO-
PM.S.2RS. 
Transformador TF1, TF2 ou 
TF3 230/69/13,8 kV 
Sentido Normal: A partir do lado de 230 kV 
Energizar, pelo lado de 230 kV, o 
transformador TF1 230/69/13,8  kV 
(TF2 ou TF3). 
Sistema completo de LT ou N-1 de 
LT na SE Porto Alegre 1 230 kV 
Como primeiro, segundo ou 
terceiro transformador: 
• VPAL1-230 ≤ 242 kV; e 
• 1 ≤ TAPPAL1-230/69 ≤ 11. 
Antes de energizar cada 
transformador, verificar fluxo de 
potência ativa nos 
transformadores 230/69/13,8 kV 
que já foram energizados. 
Ligar, energizando o barramento de 69 
kV ou interligando esse transformador 
com outro já em operação, ou em anel, 
pelo lado de 69 kV, o transformador 
TF1 230/69/13,8 kV (TF2 ou TF3). 
Barramento de 69 kV da SE Porto 
Alegre 1 desenergizado ou 
energizado por outro 
transformador 230/69/13,8 kV da 
SE Porto Alegre 1. 
Sentido Inverso: A partir do lado de 69 kV 
Manual de Procedimentos da Operação - Módulo 5 - Submódulo 5.12 
Instrução de Operação para Procedimentos Sistêmicos da Instalação Código Revisão Item Vigência 
Procedimentos Sistêmicos para a Operação da SE Porto 
Alegre 1 IO-OI.S.PAL1 02 3.7.5.2. 06/11/2023 
 
Referência:  10 / 10 
 
Alterado pela(s) MOP(s): 
MOP/ONS 508-R/2024;  
Linha de Transmissão / 
Equipamento  Procedimentos Condições ou Limites Associados 
Energizar, pelo lado de 69 kV, o 
transformador TF1 230/69/13,8  kV 
(TF2 ou TF3). 
Sistema completo de LT ou N-1 de 
LT na SE Porto Alegre 1 230 kV 
Como segundo ou terceiro 
transformador: 
• VPAL1-69 ≤ 72,4 kV. 
Antes de energizar cada 
transformador, verificar fluxo de 
potência ativa nos 
transformadores 230/69/13,8 kV 
que já foram energizados. 
Ligar, interligando esse transformador 
com outro já em operação, ou em anel, 
pelo lado de 230 kV, o transformador 
TF1 230/69/13,8 kV (TF2 ou TF3). 
 
7. NOTAS IMPORTANTES 
Não se aplica. 
