Manual de Procedimentos da Operação
Módulo 5 - Submódulo 5.12
Instrução de Operação para Procedimentos Sistêmicos da Instalação
Procedimentos Sistêmicos para a Operação da SE Areia
Código Revisão Item Vigência
IO-OI.S.ARE 39 3.7.5.1. 05/07/2024
.
MOTIVO DA REVISÃO
- Alteração das condições de autonomia do Agente para energização, desvinculando os procedimentos do 
Subitem 6.2.2 dos procedimentos de recomposição fluente da Instalação constantes no Subitem 5.2.2, 
passando-se a adotar, no Subitem 6.2.2, condições de sistema completo e/ou sistema N-1 para energização 
das seguintes linhas de transmissão e equipamentos:
•LT 525 kV Areia / Bateias;
•LT 525 kV Areia / Curitiba;
•LT 525 kV Areia / Usina Hidrelétrica Gov. Bento Munhoz da Rocha Netto C1 ou C2;
•LT 525 kV Areia / Ivaiporã (CGT Eletrosul);
•LT 230 kV Areia / União da Vitória Norte (exclusão de texto sobre desligamento total);
•LT 230 kV Areia / Salto Osório C1 ou C2;
•LT 230 kV Areia / São Mateus do Sul;
•Transformador TF 1 ou TF 3 230/138/13,8 kV.
- Alteração das condições de autonomia do Agente para fechamento em anel, no Subitem 6.2.2, das seguintes 
linhas de transmissão e equipamentos:
•LT 525 kV Areia / Segredo;
•Transformador TF 1 ou TF 3 230/138/13,8 kV.
Alterações das condições de energização e fechamento em anel do Transformador TF 2 525/230/13,8 kV 
compatibilizando-a com a IO-PM.S.5SU.
LISTA DE DISTRIBUIÇÃO
Manual de Procedimentos da Operação - Módulo 5 - Submódulo 5.12 
 Instrução de Operação para Procedimentos Sistêmicos da Instalação Código Revisão Item Vigência
Procedimentos Sistêmicos para a Operação da SE Areia IO-OI.S.ARE 39 3.7.5.1. 05/07/2024
Referência: 2 / 18
CNOS COSR-S Copel DIS Copel GeT CGT Eletrosul 
(COT Norte)
Engie 
(COT)
Manual de Procedimentos da Operação - Módulo 5 - Submódulo 5.12 
 Instrução de Operação para Procedimentos Sistêmicos da Instalação Código Revisão Item Vigência
Procedimentos Sistêmicos para a Operação da SE Areia IO-OI.S.ARE 39 3.7.5.1. 05/07/2024
Referência: 3 / 18
ÍNDICE
1. OBJETIVO.........................................................................................................................................4
2. CONSIDERAÇÕES GERAIS .................................................................................................................4
3. CONFIGURAÇÃO NORMAL DE OPERAÇÃO DA INSTALAÇÃO..............................................................6
3.1. Barramento de 525 kV ..................................................................................................................6
3.2. Barramento de 230 kV ..................................................................................................................6
3.3. Alteração da Configuração dos Barramentos................................................................................7
4. CONTROLE DE TENSÃO NA OPERAÇÃO NORMAL .............................................................................7
4.1. Procedimentos Gerais ...................................................................................................................7
4.2. Procedimentos Específicos............................................................................................................7
4.2.1. Operação dos Comutadores Sob Carga .......................................................................7
5. RECOMPOSIÇÃO APÓS DESLIGAMENTO DA INSTALAÇÃO ................................................................8
5.1. Procedimentos Gerais ...................................................................................................................8
5.2. Procedimentos para Recomposição Fluente.................................................................................8
5.2.1. Preparação da Instalação para a Recomposição Fluente ............................................8
5.2.2. Recomposição Fluente da Instalação ..........................................................................9
5.3. Procedimentos após Desligamento Total da Instalação..............................................................12
5.3.1. Preparação da Instalação após Desligamento Total..................................................12
5.3.2. Recomposição após Desligamento Total da Instalação.............................................12
5.4. Procedimentos após Desligamento Parcial da Instalação ...........................................................12
5.4.1. Preparação da Instalação para a Recomposição após Desligamento Parcial ............12
5.4.2. Recomposição após Desligamento Parcial da Instalação ..........................................12
6. MANOBRAS DE LINHAS DE TRANSMISSÃO E DE EQUIPAMENTOS...................................................13
6.1. Procedimentos Gerais .................................................................................................................13
6.2. Procedimentos Específicos..........................................................................................................14
6.2.1. Desenergização de Equipamentos ............................................................................14
6.2.2. Energização de Linhas de Transmissão e de Equipamentos......................................14
7. NOTAS IMPORTANTES ...................................................................................................................18
Manual de Procedimentos da Operação - Módulo 5 - Submódulo 5.12 
 Instrução de Operação para Procedimentos Sistêmicos da Instalação Código Revisão Item Vigência
Procedimentos Sistêmicos para a Operação da SE Areia IO-OI.S.ARE 39 3.7.5.1. 05/07/2024
Referência: 4 / 18
1. OBJETIVO
Estabelecer os procedimentos para a operação da SE Areia, definidos pelo ONS, responsável pela 
coordenação, supervisão e controle da Rede de Operação, conforme estabelecido nos Procedimentos de 
Rede.
2. CONSIDERAÇÕES GERAIS
2.1. Os procedimentos contidos nesta Instrução de Operação são aqueles de interesse sistêmico, 
realizados com autonomia pelos Agentes Operadores da Instalação, devendo fazer parte do manual 
de operação próprio elaborado pelo Agente quando existente, observando-se a complementaridade 
das ações que devem ser realizadas com coordenação e controle pelos Centros de Operação do ONS.
2.2. A comunicação operacional entre o COSR-S e a Instalação, no que se refere aos equipamentos de 
manobra da Instalação, é realizada conforme segue:
Linha de Transmissão ou 
Equipamento Agente de Operação Agente Operador Centro de Operação 
do Agente Operador
Barramento de 525 kV CGT Eletrosul CGT Eletrosul COT Norte
Barramento de 230 kV CGT Eletrosul CGT Eletrosul COT Norte
LT 525 kV Areia / Bateia CGT Eletrosul CGT Eletrosul COT Norte
LT 525 kV Areia / Curitiba CGT Eletrosul CGT Eletrosul COT Norte
LT 525 kV Areia / Campos 
Novos CGT Eletrosul CGT Eletrosul COT Norte
LT 525 kV Areia / Ivaiporã (CGT 
Eletrosul) CGT Eletrosul CGT Eletrosul COT Norte
LT 525 kV Areia / Segredo CGT Eletrosul CGT Eletrosul COT Norte
LT 525 kV Areia / Usina 
Hidrelétrica Gov. Bento 
Munhoz da Rocha C1
CGT Eletrosul CGT Eletrosul COT Norte
LT 525 kV Areia / Usina 
Hidrelétrica Gov. Bento 
Munhoz da Rocha C2
CGT Eletrosul CGT Eletrosul COT Norte
LT 230 kV Areia / Guarapuava 
Oeste C1 CGT Eletrosul CGT Eletrosul COT Norte
LT 230 kV Areia / Guarapuava 
Oeste C2 Gralha Azul Engie COT Engie
LT 230 kV Areia / Salto Osório 
C1 CGT Eletrosul CGT Eletrosul COT Norte
LT 230 kV Areia / Salto Osório 
C2 CGT Eletrosul CGT Eletrosul COT Norte
Manual de Procedimentos da Operação - Módulo 5 - Submódulo 5.12 
 Instrução de Operação para Procedimentos Sistêmicos da Instalação Código Revisão Item Vigência
Procedimentos Sistêmicos para a Operação da SE Areia IO-OI.S.ARE 39 3.7.5.1. 05/07/2024
Referência: 5 / 18
Linha de Transmissão ou 
Equipamento Agente de Operação Agente Operador Centro de Operação 
do Agente Operador
LT 230 kV Areia / São Mateus 
do Sul CGT Eletrosul CGT Eletrosul COT Norte
LT 230 kV Areia / União da 
Vitória Norte Gralha Azul Engie COT Engie
Transformador TF 2 
525/230/13,8 kV CGT Eletrosul CGT Eletrosul COT Norte
Transformador TF 1 e TF 3 
230/138/13,8 kV (somente o 
lado de 230 kV)
CGT Eletrosul CGT Eletrosul COT Norte
Transformador TF 1 e TF 3 
230/138/13,8 kV (lados de 
138 kV e de 13,8 kV)
Copel GeT Copel GeT COGT Copel
2.3. Os equipamentos e linhas de transmissão desta Instalação fazem parte das seguintes áreas elétricas:
Linha de Transmissão ou Equipamento Área Elétrica
LT 525 kV Areia / Bateia Área 525 kV da Região Sul
LT 525 kV Areia / Curitiba Área 525 kV da Região Sul
LT 525 kV Areia / Campos Novos Área 525 kV da Região Sul
LT 525 kV Areia / Ivaiporã (CGT Eletrosul) Área 525 kV da Região Sul
LT 525 kV Areia / Segredo Área 525 kV da Região Sul
LT 525 kV Areia / Usina Hidrelétrica Gov. Bento Munhoz da Rocha C1 Área 525 kV da Região Sul
LT 525 kV Areia / Usina Hidrelétrica Gov. Bento Munhoz da Rocha C2 Área 525 kV da Região Sul
Transformador TF 2 525/230/13,8 kV Área 525 kV da Região Sul
Barramento de 525 kV Área 525 kV da Região Sul
LT 230 kV Areia / Guarapuava Oeste C1 Área 230 kV do Paraná
LT 230 kV Areia / Guarapuava Oeste C2 Área 230 kV do Paraná
LT 230 kV Areia / Salto Osório C1 Área 230 kV do Paraná
LT 230 kV Areia / Salto Osório C2 Área 230 kV do Paraná
LT 230 kV Areia / São Mateus do Sul Área 230 kV do Paraná
LT 230 kV Areia / União da Vitória Norte Área 230 kV do Paraná
Transformador TF 1 e TF 3 230/138/13,8 kV Área 230 kV do Paraná
Barramento de 230 kV Área 230 kV do Paraná
Manual de Procedimentos da Operação - Módulo 5 - Submódulo 5.12 
 Instrução de Operação para Procedimentos Sistêmicos da Instalação Código Revisão Item Vigência
Procedimentos Sistêmicos para a Operação da SE Areia IO-OI.S.ARE 39 3.7.5.1. 05/07/2024
Referência: 6 / 18
2.4. No que se refere ao religamento manual de linhas de transmissão ou de equipamentos:
2.4.1. A definição da quantidade de tentativas de religamento manual de linha de transmissão ou de 
equipamento, bem como o intervalo entre elas, é de responsabilidade do Agente e devem estar 
descritos no Cadastro de Informações Operacionais da respectiva Área Elétrica.
2.4.2. Depois de efetuadas as tentativas de religamento manual previstas pelo Agente, e não havendo 
sucesso, esse deve definir a necessidade de tentativas adicionais e solicitar autorização ao COSR-S 
autorização para religamento. Nessa oportunidade, o Agente pode solicitar também a alteração no 
sentido normal para envio de tensão, caso não tenha autonomia para tal.
Para a referida autorização, além de buscar obter informações com o Agente, para diagnóstico das 
possíveis causas do desligamento, o COSR-S levará em consideração as condições operativas do 
sistema.
2.5. Quando caracterizado impedimento de linha de transmissão ou de equipamento, devem ser 
adotados os procedimentos descritos na instrução de operação em contingência da respectiva área 
elétrica.
2.6. Para manobra de desenergização de linha de transmissão ou de equipamento, devem ser adotados 
os procedimentos descritos na instrução de operação de preparação para manobras da respectiva 
área elétrica.
2.7. Para manobra de energização de linha de transmissão ou de equipamento, devem ser adotados os 
procedimentos descritos na instrução de operação de preparação para manobras da respectiva área 
elétrica caso a manobra seja realizada sob coordenação do COSR-S, ou os procedimentos descritos 
no Subitem 6.2.2 desta Instrução de Operação quando o Agente tiver autonomia para energizar a 
linha de transmissão ou o equipamento.
3. CONFIGURAÇÃO NORMAL DE OPERAÇÃO DA INSTALAÇÃO
3.1. BARRAMENTO DE 525 KV
A configuração do barramento de 525 kV (Barra A e Barra B) é do tipo Disjuntor e Meio. Na operação normal 
desse barramento, todos os disjuntores e seccionadoras devem estar fechados. 
3.2. BARRAMENTO DE 230 KV
A configuração do barramento de 230 kV é do tipo Barra Dupla (Barra P e Barra PT) a Quatro Chaves. Na 
operação normal desse barramento, todos os disjuntores e seccionadoras devem estar fechados, exceto as 
seccionadoras de transferência e uma das seletoras de barra das linhas de transmissão ou equipamentos, 
operando da seguinte forma:
Em uma das barras – P (ou PT) Na outra barra – PT (ou P)
LT 230 kV Areia / Salto Osório C1 (ou C2) LT 230 kV Areia / Salto Osório C2 (ou C1)
LT 230 kV Areia / São Mateus do Sul
(ou LT 230 kV Areia / União da Vitória Norte)
LT 230 kV Areia / União da Vitória Norte
(ou LT 230 kV Areia / São Mateus do Sul)
LT 230 kV Areia / Guarapuava Oeste C1 (ou C2) LT 230 kV Areia / Guarapuava Oeste C2 (ou C1)
Manual de Procedimentos da Operação - Módulo 5 - Submódulo 5.12 
 Instrução de Operação para Procedimentos Sistêmicos da Instalação Código Revisão Item Vigência
Procedimentos Sistêmicos para a Operação da SE Areia IO-OI.S.ARE 39 3.7.5.1. 05/07/2024
Referência: 7 / 18
Em uma das barras – P (ou PT) Na outra barra – PT (ou P)
Transformador TF 1 (ou TF 3) 230/138/13,8 kV Transformador TF 3 (ou TF 1) 230/138/13,8 kV
Transformador TF 2 525/230/13,8 kV -
Nota:
a) O Transformador TF-2 525/230/13,8 kV pode operar em qualquer uma das barras de 230 kV (P ou PT).
3.3. ALTERAÇÃO DA CONFIGURAÇÃO DOS BARRAMENTOS
A mudança de configuração dos barramentos de 525 kV e de 230 kV desta Instalação é executada com 
controle do COSR-S.
A mudança de configuração dos demais barramentos é executada sob responsabilidade dos Agentes 
Operadores da Instalação.
4. CONTROLE DE TENSÃO NA OPERAÇÃO NORMAL
4.1. PROCEDIMENTOS GERAIS
4.1.1. Os barramentos de 525 kV e de 230 kV, pertencentes à Rede de Operação, têm a sua regulação de 
tensão controlada pelo COSR-S. 
As faixas para controle de tensão para os barramentos de 525 kV e de 230 kV estão estabelecidas no 
Cadastro de Informações Operacionais de Faixas para Controle de Tensão da respectiva Área Elétrica.
4.1.2. O barramento de 138 kV, não pertencente à Rede de Operação, onde se conecta a transformação 
230/138/13,8 kV, tem a sua regulação de tensão executada com autonomia pelos Agentes 
Operadores da Instalação por meio da utilização de recursos locais disponíveis de autonomia dessa.
Esgotados esses recursos, o Agente deve acionar o COSR-S, que deve verificar a disponibilidade dos 
recursos sistêmicos.
As faixas para controle de tensão para o barramento 138 kV estão estabelecidas no Cadastro de 
Informações Operacionais de Faixas para Controle de Tensão da respectiva Área Elétrica.
4.1.3. Os demais barramentos, não pertencentes à Rede de Operação, têm a sua regulação de tensão 
executada sob a responsabilidade da Instalação.
4.2. PROCEDIMENTOS ESPECÍFICOS
4.2.1. OPERAÇÃO DOS COMUTADORES SOB CARGA
O LTC do transformador TF 2 525/230/13,8 kV opera em modo manual.
A movimentação dos comutadores é realizada pela CGT Eletrosul com controle do COSR-S.
Os LTCs dos Transformadores TF 1 e TF 3 230/138/13,8 kV operam em modo automático.
Alterações no modo de operação desses comutadores são executadas com autonomia pela operação do 
Agente Copel GeT.
Manual de Procedimentos da Operação - Módulo 5 - Submódulo 5.12 
 Instrução de Operação para Procedimentos Sistêmicos da Instalação Código Revisão Item Vigência
Procedimentos Sistêmicos para a Operação da SE Areia IO-OI.S.ARE 39 3.7.5.1. 05/07/2024
Referência: 8 / 18
5. RECOMPOSIÇÃO APÓS DESLIGAMENTO DA INSTALAÇÃO
5.1. PROCEDIMENTOS GERAIS
5.1.1. Quando de desligamento da Instalação, a operação dessa deve identificar o desligamento e a 
configuração da Instalação, conforme critério a seguir:
•Desligamento total da Instalação: caracterizado quando não há tensão em todos os terminais de 
suas linhas de transmissão.
•Desligamento parcial da Instalação: qualquer outra configuração que não se enquadre como 
desligamento total.
5.1.2. Quando de desligamento total ou parcial, os Agentes Operadores da Instalação devem fornecer ao 
COSR-S as seguintes informações:
•horário da ocorrência;
•configuração da Instalação após a ocorrência;
•configuração da Instalação após ações realizadas com autonomia pela operação dessa.
5.1.3. Caracterizado desligamento total da Instalação, a operação dessa deve adotar os procedimentos de 
recomposição constantes no Subitem 5.2., sem necessidade de autorização prévia por parte do ONS. 
Caso o ONS intervenha no processo de recomposição, identificando a não aplicabilidade da 
recomposição fluente ou interrompendo a autonomia dos Agentes Operadores da Instalação na 
recomposição, devem ser utilizado o Subitem 5.3. 
5.1.4. Caracterizado desligamento parcial da Instalação, deve ser utilizado o Subitem 5.4. 
5.2. PROCEDIMENTOS PARA RECOMPOSIÇÃO FLUENTE
5.2.1. PREPARAÇÃO DA INSTALAÇÃO PARA A RECOMPOSIÇÃO FLUENTE 
No caso de desligamento total, os Agentes Operadores devem configurar os disjuntores dos seguintes 
equipamentos e linhas de transmissão, conforme condição apresentada a seguir:
Abrir ou manter abertos os disjuntores:
•das linhas de transmissão: 
LT 525 kV Areia / Segredo; 
LT 525 kV Areia / Bateias;
LT 525 kV Areia / Campos Novos;
LT 525 kV Areia / Curitiba;
LT 525 kV Areia / Usina Hidrelétrica Gov. Bento Munhoz da Rocha C1;
LT 525 kV Areia / Usina Hidrelétrica Gov. Bento Munhoz da Rocha C2;
LT 525 kV Areia / Ivaiporã (CGT Eletrosul);
LT 230 kV Areia / Guarapuava Oeste C1;
Manual de Procedimentos da Operação - Módulo 5 - Submódulo 5.12 
 Instrução de Operação para Procedimentos Sistêmicos da Instalação Código Revisão Item Vigência
Procedimentos Sistêmicos para a Operação da SE Areia IO-OI.S.ARE 39 3.7.5.1. 05/07/2024
Referência: 9 / 18
LT 230 kV Areia / Guarapuava Oeste C2;
LT 230 kV Areia / Salto Osório C1;
LT 230 kV Areia / Salto Osório C2;
LT 230 kV Areia / São Mateus do Sul;
LT 230 kV Areia / União da Vitória Norte.
•de todas as linhas de transmissão de 138 kV. 
•dos transformadores:
TF 1 (lados de 230 kV, de 138 kV e de 13,8 kV); 
TF 2 (lados de 525 kV, de 230 kV e de 13,8 kV);
TF 3 (lados de 230 kV, de 138 kV e de 13,8 kV).
•das interligações de módulos:
LT 525 kV Areia / Segredo - Transformador TF 2 525/230/13,8 kV;
LT 525 kV Areia / Ivaiporã (CGT Eletrosul) – Barra B 525 kV;
LT 525 kV Areia / Bateias – LT 525 kV Areia / Usina Hidrelétrica Gov. Bento Munhoz da Rocha C2;
LT 525 kV Areia / Curitiba – LT 525 kV Areia / Usina Hidrelétrica Gov. Bento Munhoz da Rocha C1;
LT 525 kV Areia / Campos Novos – Barra A 525 kV.
Desligar ou manter desligado o modo de comutação automática dos comutadores sob carga da 
transformação 525/230/13,8 kV e 230/138/13,8 kV da SE Areia.
Cabe à CGT Eletrosul para o barramento de 525 kV e de 230 kV informarem ao COSR-S quando a configuração 
de preparação desses barramentos não estiver atendida para o início da recomposição, independentemente 
de o equipamento ser próprio ou de outros Agentes. Nesse caso, o COSR-S fará contato com os agentes 
envolvidos para identificar o motivo do não-atendimento e, após confirmação do agente afetado de que o 
barramento está com a configuração atendida, o COSR-S coordenará os procedimentos para recomposição, 
caso necessário, em função da configuração desta Instalação.
5.2.2. RECOMPOSIÇÃO FLUENTE DA INSTALAÇÃO 
A Instalação faz parte da recomposição da Área Gov. Ney Aminthas de Barros Braga. Os Agentes Operadores 
da devem adotar os procedimentos a seguir para a recomposição fluente:
Passo Executor Procedimentos Condições ou Limites Associados
1 CGT Eletrosul 
(COT Norte)
Colocar o comutador sob carga do 
Transformador TF 2 525/230/13,8 kV na posição 
7R.
Permitir a energização desse 
Transformador.
1.1 Copel GeT
Colocar o comutador sob carga dos 
transformadores 230/138/13,8 kV da SE Areia 
na posição 9.
A Copel GeT deve informar à CGT 
Eletrosul que o comutador sob 
carga está na posição 9, de modo a 
permitir a energização dos 
transformadores 230/138/13,8 kV 
pela CGT Eletrosul.
Manual de Procedimentos da Operação - Módulo 5 - Submódulo 5.12 
 Instrução de Operação para Procedimentos Sistêmicos da Instalação Código Revisão Item Vigência
Procedimentos Sistêmicos para a Operação da SE Areia IO-OI.S.ARE 39 3.7.5.1. 05/07/2024
Referência: 10 / 18
Passo Executor Procedimentos Condições ou Limites Associados
2 CGT Eletrosul 
(COT Norte)
Receber tensão da SE Segredo, pela LT 525 kV 
Areia / Segredo e ligá-la, energizando a Barra B 
de 525 kV.
2.1 CGT Eletrosul 
(COT Norte)
Energizar, pelo lado de 525 kV, o Transformador 
TF 2 525/230/13,8 kV da SE Areia e ligar, 
energizando o barramento de 230 kV, o lado de 
230 kV, e energizar a Barra A de 525 kV.
Manter a tensão no barramento de 
230 kV em 235 kV, durante toda a 
recomposição.
2.2 CGT Eletrosul 
(COT Norte)
Energizar, pelo lado 230 kV, um dos 
transformadores 230/138/13,8 kV da SE Areia.
Após informado pela Copel GeT 
que os comutadores sob carga dos 
transformadores 230/138/13,8 kV 
da SE Areia estão na posição 9.
2.2.1 Copel GeT
Ligar, energizando o barramento de 138 kV, o 
lado de 138 kV do transformador 
230/138/13,8 kV da SE Areia que foi energizado.
Possibilitar o restabelecimento de 
carga prioritária na SE Areia e nas 
subestações atendidas pela SE 
Areia.
2.2.2 Copel DIS
Restabelecer carga prioritária na SE Areia e nas 
subestações atendidas pela SE Areia.
Restabelecer, no máximo, 120 
MW.
Respeitar o limite mínimo de 
tensão de 124 kV no barramento 
de 138 kV.
2.3 CGT Eletrosul 
(COT Norte)
Energizar a LT 230 kV Areia / São Mateus do Sul, 
enviando tensão para SE São Mateus do Sul.
2.4 CGT Eletrosul 
(COT Norte)
Energizar, pelo lado 230 kV, o segundo 
transformador 230/138/13,8 kV da SE Areia.
Após fluxo de potência ativa no 
transformador 230/138/13,8 kV da 
SE Areia que foi energizado.
2.4.1 Copel GeT
Ligar, interligando esse transformador com o 
outro transformador 230/138/13,8 kV da SE 
Areia, o lado de 138 kV do transformador 
230/138/13,8 kV da SE Areia que foi energizado.
2.5 CGT Eletrosul 
(COT Norte)
Energizar a LT 525 kV Areia / Curitiba, enviando 
tensão para SE Curitiba.
VARE-525 ≤ 520 kV.
Após solicitação de envio de 
tensão efetuada pelo operador da 
SE Curitiba.
A LT 525 kV Areia / Segredo deve 
estar com fluxo de potência ativa.
Manual de Procedimentos da Operação - Módulo 5 - Submódulo 5.12 
 Instrução de Operação para Procedimentos Sistêmicos da Instalação Código Revisão Item Vigência
Procedimentos Sistêmicos para a Operação da SE Areia IO-OI.S.ARE 39 3.7.5.1. 05/07/2024
Referência: 11 / 18
Passo Executor Procedimentos Condições ou Limites Associados
2.6 CGT Eletrosul 
(COT Norte)
Energizar a LT 230 kV Areia / Guarapuava Oeste 
C1, enviando tensão para SE Guarapuava Oeste. 
Após fluxo de potência ativa na LT 
525 kV Areia / Curitiba.
VARE-230 ≤ 235 kV.
2.7 CGT Eletrosul 
(COT Norte)
Energizar a LT 525 kV Areia / Bateias, enviando 
tensão para a SE Bateias.
VARE-525 ≤ 520 kV.
Após fluxo de potência ativa igual 
ou superior a 300 MW na LT 525 kV 
Areia / Segredo.
2.8 CGT Eletrosul 
(COT Norte)
Energizar um dos circuitos da LT 525 kV Areia / 
Usina Hidrelétrica Gov. Bento Munhoz da Rocha 
Netto, enviando tensão para UHE Gov. Bento 
Munhoz da Rocha Netto.
Após fluxo de potência ativa igual 
ou superior a 550 MW na LT 525 kV 
Areia / Segredo.
2.9 CGT Eletrosul 
(COT Norte)
Energizar o segundo circuito da LT 525 kV Areia 
/ Usina Hidrelétrica Gov. Bento Munhoz da 
Rocha Netto, enviando tensão para a UHE Gov. 
Bento Munhoz da Rocha Netto.
Após fluxo de potência ativa igual 
ou superior a 750 MW na LT 525 kV 
Areia / Segredo.
2.10 CGT Eletrosul 
(COT Norte)
Energizar a LT 525 kV Areia / Ivaiporã (CGT 
Eletrosul), enviando tensão para a SE Ivaiporã 
(CGT Eletrosul).
VARE-525 ≤ 525 kV.
Após fluxo de potência ativa na LT 
525 kV Areia / Segredo e nos dois 
circuitos da LT 525 kV Areia / Usina 
Hidrelétrica Gov. Bento Munhoz 
da Rocha Netto.
2.11 CGT Eletrosul 
(COT Norte)
Energizar a LT 525 kV Areia / Campos Novos, 
enviando tensão para a SE Campos Novos.
VARE-525 ≤ 529 kV.
Após solicitação de envio de 
tensão efetuada pelo operador da 
SE Campos Novos e fluxo de 
potência ativa na LT 525 kV Areia / 
Ivaiporã (CGT Eletrosul), na LT 525 
kV Areia / Segredo e nos dois 
circuitos da LT 525 kV Areia / Usina 
Hidrelétrica Gov. Bento Munhoz 
da Rocha Netto.
2.12 CGT Eletrosul 
(COT Norte)
Energizar um dos circuitos da LT 230 kV Areia / 
Salto Osório, enviando tensão para a SE Salto 
Osório.
VARE-230 ≤ 237 kV.
Após fluxo de potência ativa na LT 
525 kV Areia / Campos Novos.
2.13 CGT Eletrosul 
(COT Norte)
Energizar o segundo circuito da LT 230 kV Areia 
/ Salto Osório, enviando tensão para a SE Salto 
Osório.
VARE-525 ≤ 237 kV.
Após fluxo de potência ativa no 
circuito da LT 230 kV Areia / Salto 
Osório energizado.
Manual de Procedimentos da Operação - Módulo 5 - Submódulo 5.12 
 Instrução de Operação para Procedimentos Sistêmicos da Instalação Código Revisão Item Vigência
Procedimentos Sistêmicos para a Operação da SE Areia IO-OI.S.ARE 39 3.7.5.1. 05/07/2024
Referência: 12 / 18
Os demais equipamentos desta Instalação são restabelecidos sob controle do COSR-S, conforme 
procedimentos contidos nas respectivas Instruções de Preparação para Manobras.
5.3. PROCEDIMENTOS APÓS DESLIGAMENTO TOTAL DA INSTALAÇÃO
5.3.1. PREPARAÇÃO DA INSTALAÇÃO APÓS DESLIGAMENTO TOTAL
Os Agentes Operadores da Instalação devem realizar a preparação conforme Subitem 5.2.1.
5.3.2. RECOMPOSIÇÃO APÓS DESLIGAMENTO TOTAL DA INSTALAÇÃO
Os Agentes Operadores da Instalação devem realizar os procedimentos do Subitem 5.2.2., enquanto não 
houver intervenção do COSR-S no processo de recomposição ou interrupção da autonomia da operação da 
instalação na recomposição. 
Havendo intervenção, a recomposição da Instalação é executada com o controle do COSR-S, conforme 
procedimentos contidos nas respectivas Instruções de Preparação para Manobras. 
5.4. PROCEDIMENTOS APÓS DESLIGAMENTO PARCIAL DA INSTALAÇÃO
5.4.1. PREPARAÇÃO DA INSTALAÇÃO PARA A RECOMPOSIÇÃO APÓS DESLIGAMENTO PARCIAL
5.4.1.1. Caracterizado desligamento parcial da Instalação que seja: 
•ausência de tensão em todos os barramentos,
•ausência de fluxo de potência ativa nas linhas de transmissão, e
•existência de tensão de retorno em pelo menos uma das linhas de transmissão da Instalação, os 
Agentes Operadores devem preparar a Instalação conforme Subitem 5.2.1., sem necessidade de 
autorização do ONS.
5.4.1.2. Caracterizado desligamento parcial da Instalação que seja: 
•ausência de tensão nas barras de 525 kV, e
•ausência de fluxo de potência ativa nas linhas de transmissão de 525 kV, os Agentes Operadores 
devem preparar o setor de 525 kV da Instalação (disjuntores das linhas de transmissão e 
equipamentos) conforme Subitem 5.2.1, sem necessidade de autorização do ONS. 
5.4.1.3. Caracterizado desligamento parcial da Instalação que seja: 
•ausência de tensão nas barras de 230 kV, os Agentes Operadores devem preparar o setor de 230 kV 
da Instalação (disjuntores das linhas de transmissão e equipamentos) conforme Subitem 5.2.1, sem 
necessidade de autorização do ONS. 
5.4.1.4. Para demais desligamentos parciais da Instalação, não há necessidade de preparação da Instalação.
5.4.2. RECOMPOSIÇÃO APÓS DESLIGAMENTO PARCIAL DA INSTALAÇÃO 
5.4.2.1. Caracterizado desligamento parcial da Instalação, conforme Subitem 5.4.1.1., os Agentes 
Operadores devem recompor a Instalação conforme Subitem 5.2.2., sem necessidade de 
Manual de Procedimentos da Operação - Módulo 5 - Submódulo 5.12 
 Instrução de Operação para Procedimentos Sistêmicos da Instalação Código Revisão Item Vigência
Procedimentos Sistêmicos para a Operação da SE Areia IO-OI.S.ARE 39 3.7.5.1. 05/07/2024
Referência: 13 / 18
autorização do ONS.
5.4.2.2. Caracterizado desligamento parcial da Instalação, conforme Subitens 5.4.1.2. e 5.4.1.3., os Agentes 
Operadores devem informar ao COSR-S, para que a recomposição da Instalação seja executada com 
controle do COSR-S.
5.4.2.3. Caracterizado desligamento parcial da Instalação, conforme Subitem 5.4.1.4., os Agentes 
Operadores devem recompor a Instalação conforme Subitem 6.2.2., sem necessidade de 
autorização do ONS.
Quando as condições ou limites associados, constantes no Subitem 6.2.2., não estiverem atendidos, 
os Agentes Operadores devem informar ao COSR-S, para que a recomposição da Instalação seja 
executada com controle do COSR-S.
6. MANOBRAS DE LINHAS DE TRANSMISSÃO E DE EQUIPAMENTOS
6.1. PROCEDIMENTOS GERAIS
6.1.1. Os procedimentos para desenergização programada ou de urgência de linhas de transmissão ou de 
equipamentos, só podem ser efetuados com controle do COSR-S.
6.1.2. Os procedimentos para energização de linhas de transmissão ou de equipamentos, após 
desligamento programado, de urgência ou de emergência, só podem ser efetuados com controle do 
COSR-S.
6.1.3. Os procedimentos para energização e fechamento em anel de linhas de transmissão ou de 
equipamentos, após desligamento automático sem atuação de proteção que impeça o retorno do 
equipamento, só podem ser executados com autonomia pelos Agentes Operadores da Instalação 
quando explicitados e estiverem atendidas as condições do Subitem 6.2.2. desta Instrução de 
Operação.
Quando as condições ou limites associados não estiverem atendidos ou quando não existir 
autonomia, a energização deve ser executada com controle do COSR-S, conforme Instrução de 
Operação de Preparação para Manobras da respectiva área elétrica.
6.1.4. Antes do fechamento de qualquer disjuntor, os Agentes Operadores da Instalação devem verificar se 
existe tensão de retorno e se a condição de fechamento será em anel.
O fechamento em anel só pode ser executado com autonomia pelos Agentes Operadores da 
Instalação quando estiver especificado nesta Instrução de Operação e estiverem atendidas as 
condições do Subitem 6.2.2.
O fechamento de paralelo só pode ser efetuado com controle do COSR-S.
6.1.5. No que se refere ao sentido de energização de linha de transmissão ou de equipamento:
6.1.5.1. A energização em sentido normal ou, quando permitida, em sentido inverso, pode ser feita com 
autonomia pelos Agentes Operadores, conforme procedimentos para manobras que estão 
definidos nesta Instrução de Operação, Subitem 6.2.2. Os procedimentos para energização 
Manual de Procedimentos da Operação - Módulo 5 - Submódulo 5.12 
 Instrução de Operação para Procedimentos Sistêmicos da Instalação Código Revisão Item Vigência
Procedimentos Sistêmicos para a Operação da SE Areia IO-OI.S.ARE 39 3.7.5.1. 05/07/2024
Referência: 14 / 18
controlados pelo COSR-S estão definidos na Instrução de Operação de Preparação para Manobras 
da respectiva área elétrica. 
A energização em sentido inverso deve ser efetuada quando, na energização em sentido normal, 
as condições não estiverem atendidas ou não houver sucesso na energização.
6.1.6. Os procedimentos de segurança a serem adotados na Instalação, durante execução de intervenções, 
são de responsabilidade do Agente. 
6.1.7. Em caso de abertura apenas do terminal / lado pelo qual a linha de transmissão ou transformador é 
energizado, os Agentes Operadores da Instalação devem fechá-lo em anel desde que tenham 
autonomia para tal, adotando as condições para o fechamento constantes no Subitem 6.2.2.
6.1.8. Em caso de abertura manual indevida de qualquer disjuntor da instalação, implicando ou não em 
desligamento de linha de transmissão ou equipamento, o fechamento desse disjuntor deve ser 
realizado com controle do COSR-S. 
6.1.9. Em caso de abertura automática de disjuntor da instalação que não implique em desligamento de 
linha de transmissão ou equipamento, o fechamento desse disjuntor deve ser realizado com controle 
do COSR-S.
6.1.10. Os procedimentos para manobras de linhas de transmissão dotadas de reatores de linha fixo 
consideram esse equipamento conectado; caso contrário, essa informação constará no respectivo 
procedimento para manobra.
6.2. PROCEDIMENTOS ESPECÍFICOS
6.2.1. DESENERGIZAÇÃO DE EQUIPAMENTOS
A desenergização de linhas de transmissão ou de equipamentos, pertencentes à Rede de Operação, é sempre 
controlada pelo COSR-S.
6.2.2. ENERGIZAÇÃO DE LINHAS DE TRANSMISSÃO E DE EQUIPAMENTOS 
6.2.2.1. Quando da atuação de esquema especial de proteção, as ações de restabelecimento dos 
equipamentos e linhas de transmissão, desligados pela atuação do esquema, devem ser adotadas 
após autorização do COSR-S.
6.2.2.2. Os procedimentos listados a seguir devem ser adotados pelos Agentes Operadores da Instalação, 
após desligamento automático de equipamentos ou de linhas de transmissão.
Os Agentes Operadores da Instalação devem identificar os desligamentos automáticos observando 
na Instalação as demais linhas de transmissão e equipamentos em operação, conforme explicitado 
nas condições de energização para a manobra.
Para os demais desligamentos parciais, proceder conforme Subitem 5.4.
Manual de Procedimentos da Operação - Módulo 5 - Submódulo 5.12 
 Instrução de Operação para Procedimentos Sistêmicos da Instalação Código Revisão Item Vigência
Procedimentos Sistêmicos para a Operação da SE Areia IO-OI.S.ARE 39 3.7.5.1. 05/07/2024
Referência: 15 / 18
Linha de Transmissão / 
Equipamento Procedimentos Condições ou Limites Associados
Sentido Normal: SE Areia envia tensão para a SE Bateias
Energizar a LT 525 kV Areia / Bateias. Sistema completo (de LT e TR) ou N-
1 (de LT ou TR) na SE Areia 525 kV
•V ARE-525 ≤ 542 kV.
Sentido Inverso: SE Areia recebe tensão da SE Bateias
LT 525 kV Areia / Bateias
Ligar, em anel, a LT 525 kV Areia / 
Bateias.
Sentido Normal: SE Areia envia tensão para SE Campos Novos
Energizar a LT 525 kV Areia / Campos 
Novos.
Sistema completo (de LT e TR) na SE 
Areia 525 kV
•V ARE-525 ≤ 536 kV. (*)
(*) Com ou sem o RE 1 da SE Campos 
Novos conectado.
Sentido Inverso: SE Areia recebe tensão da SE Campos Novos
LT 525 kV Areia / Campos 
Novos
Ligar, em anel, a LT 525 kV Areia / 
Campos Novos.
Sentido Normal: SE Areia envia tensão para a SE Curitiba
Energizar a LT 525 kV Areia / Curitiba. Sistema completo (de LT e TR) na SE 
Areia 525 kV
•V ARE-525 ≤ 542 kV. (*)
(*) Com ou sem o RE 1 525 kV da SE 
Curitiba conectado.
Sentido Inverso: SE Areia recebe tensão da SE Curitiba
LT 525 kV Areia / Curitiba
Ligar, em anel, a LT 525 kV Areia / 
Curitiba.
•∆δ ≤ 40°.
Sentido Normal: SE Areia envia tensão para a UHE Gov. Bento Munhoz da 
Rocha Netto
Energizar a LT 525 kV Areia / Usina 
Hidrelétrica Gov. Bento Munhoz da 
Rocha Netto C1 (ou C2).
Sistema completo (de LT e TR) ou N-
1 (de LT ou TR) na SE Areia 525 kV 
•V ARE-525 ≤ 550 kV.
Antes de energizar cada LT, verificar 
fluxo de potência ativa no circuito da 
LT 525 kV Areia / Usina Hidrelétrica 
Gov. Bento Munhoz da Rocha Netto 
que já foi energizado.
LT 525 kV Areia / Usina 
Hidrelétrica Gov. Bento 
Munhoz da Rocha Netto C1 
ou C2
Sentido Inverso: SE Areia recebe tensão da UHE Gov. Bento Munhoz da Rocha 
Netto
Manual de Procedimentos da Operação - Módulo 5 - Submódulo 5.12 
 Instrução de Operação para Procedimentos Sistêmicos da Instalação Código Revisão Item Vigência
Procedimentos Sistêmicos para a Operação da SE Areia IO-OI.S.ARE 39 3.7.5.1. 05/07/2024
Referência: 16 / 18
Linha de Transmissão / 
Equipamento Procedimentos Condições ou Limites Associados
Ligar, em anel, a LT 525 kV Areia / Usina 
Hidrelétrica Gov. Bento Munhoz da 
Rocha Netto C1 (ou C2).
Sentido Normal: SE Areia envia tensão para a SE Ivaiporã (CGT Eletrosul)
Energizar a LT 525 kV Areia / Ivaiporã 
(CGT Eletrosul).
Sistema completo (de LT e TR) ou N-
1 (de LT ou TR) na SE Areia 525 kV
•V ARE-525 ≤ 525 kV.
Sentido Inverso: SE Areia recebe tensão da SE Ivaiporã (CGT Eletrosul)
LT 525 kV Areia / Ivaiporã 
(CGT Eletrosul)
Ligar, em anel, a LT 525 kV Areia / 
Ivaiporã (CGT Eletrosul).
Sentido Normal: SE Areia recebe tensão da a SE Segredo
Ligar, em anel, a LT 525 kV Areia / 
Segredo.
•∆δ ≤ 20°.
Sentido Inverso: SE Areia envia tensão para a SE Segredo
LT 525 kV Areia / Segredo 
A energização em sentido inverso é controlada pelo COSR-S, conforme IO-
PM.S.5SU.
Sentido Normal: SE Areia envia tensão para a SE Guarapuava Oeste
Energizar a LT 230 kV Areia / 
Guarapuava Oeste C1 (ou C2).
Sistema completo (de LT e TR) ou N-
1 (de LT ou TR) na SE Areia 230 kV 
• V ARE-230 ≤ 242 kV.
Antes de energizar cada linha de 
transmissão, verificar fluxo de 
potência ativa na LT que já foi 
energizada.
Sentido Inverso: SE Areia recebe tensão da SE Guarapuava Oeste
LT 230 kV Areia / 
Guarapuava Oeste C1 ou C2
Ligar, em anel, a LT 230 kV Areia / 
Guarapuava Oeste C1 (ou C2). 
Sentido Normal: SE Areia envia tensão para a SE União da Vitória Norte
Energizar a LT 230 kV Areia / União da 
Vitória Norte.
Sistema completo (de LT e TR) ou N-
1 (de LT ou TR) na SE Areia 230 kV.
• V ARE-230 ≤ 242 kV.
Sentido Inverso: Areia recebe tensão da SE União da Vitória Norte
LT 230 kV Areia / União da 
Vitória Norte
Ligar, em anel, a LT 230 kV Areia / União 
da Vitória Norte.
LT 230 kV Areia / Salto Sentido Normal: SE Areia envia tensão para SE Salto Osório
Manual de Procedimentos da Operação - Módulo 5 - Submódulo 5.12 
 Instrução de Operação para Procedimentos Sistêmicos da Instalação Código Revisão Item Vigência
Procedimentos Sistêmicos para a Operação da SE Areia IO-OI.S.ARE 39 3.7.5.1. 05/07/2024
Referência: 17 / 18
Linha de Transmissão / 
Equipamento Procedimentos Condições ou Limites Associados
Energizar a LT 230 kV Areia / Salto 
Osório C1 (ou C2).
Sistema completo (de LT e TR) ou N-
1 (de LT ou TR) na SE Areia 230 kV
•V ARE-230 ≤ 237 kV.
Antes de energizar cada linha de 
transmissão, verificar fluxo de 
potência ativa na LT 230 kV Areia / 
Salto Osório que já foi energizada.
Sentido Inverso: SE Areia recebe tensão da SE Salto Osório
Osório C1 ou C2
Ligar, em anel, a LT 230 kV Areia / Salto 
Osório C1 (ou C2).
Sentido Normal: SE Areia envia tensão para a SE São Mateus do Sul
Energizar a LT 230 kV Areia / São 
Mateus do Sul.
Sistema completo (de LT e TR) ou N-
1 (de LT ou TR) na SE Areia 230 kV
•V ARE-230 ≤ 242 kV.
Sentido Inverso: SE Areia recebe tensão da SE São Mateus do Sul
LT 230 kV Areia / São 
Mateus do Sul
Ligar, em anel, a LT 230 kV Areia / São 
Mateus do Sul.
 Sentido Normal: A partir do lado de 525 kV
Energizar, pelo lado de 525 kV, o 
Transformador TF 2 525/230/13,8 kV.
•V ARE-525 ≤ 550 kV, e
•barramento energizado pelo 
menos pela LT 525 kV Areia / 
Segredo.
Ligar, em anel, o lado de 230 kV do 
Transformador TF 2 525/230/13,8 kV.
 Sentido Inverso: A partir do lado de 230 kV
Energizar, pelo lado de 230 kV, o 
Transformador TF 2 525/230/13,8 kV.
Sistema completo (de LT) na SE Areia 
230 kV
•V ARE-230 ≤ 242 kV.
Transformador TF 2 
525/230/13,8 kV
Ligar, em anel, o lado de 525 kV do 
Transformador TF 2 525/230/13,8 kV.
Transformador Sentido Único: A partir do lado de 230 kV
Manual de Procedimentos da Operação - Módulo 5 - Submódulo 5.12 
 Instrução de Operação para Procedimentos Sistêmicos da Instalação Código Revisão Item Vigência
Procedimentos Sistêmicos para a Operação da SE Areia IO-OI.S.ARE 39 3.7.5.1. 05/07/2024
Referência: 18 / 18
Linha de Transmissão / 
Equipamento Procedimentos Condições ou Limites Associados
Energizar, pelo lado de 230 kV, o 
Transformador TF 1 230/138/13,8 kV 
(ou TF 3).
Sistema completo (de LT) ou N-1 (de 
LT) na SE Areia 230 kV
Como primeiro ou segundo 
transformador:
•V ARE-230 ≤ 242 kV; e
•1 ≤ TAP ARE-230/138 ≤ 9.
A energização somente pode ser 
realizada após confirmação da Copel 
GeT para a CGT Eletrosul de que os 
comutadores sob carga dos 
transformadores 230/138/13,8 kV 
estão entre as posições 1 e 9.
Antes de energizar cada 
transformador, verificar fluxo de 
potência ativa no transformador 
230/138/13,8 kV que já foi 
energizado.
Ligar, energizando o barramento de 138 
kV ou interligando esse transformador 
com outro já em operação, o lado de 
138 kV do transformador TF 1 
230/138/13,8 kV (ou TF 3).
Barramento de 138 kV da SE Areia 
desenergizado ou energizado por 
outro transformador 230/138/13,8 
kV.
Ligar, energizando a Barra BA1 13,8 kV, 
o lado de 13,8 kV do transformador TF-
1 230/138/13,8 kV (ou TF 3), estando o 
outro transformador 230/138/13,8 kV 
desligado.
A Barra BA1 13,8 kV deve estar 
desenergizada.
Em caso de abertura apenas do lado de 230 kV: o fechamento do disjuntor 
de 230 kV só pode ser realizado após a confirmação da Copel GeT para a CGT 
Eletrosul, procedendo conforme segue:
TF 1 ou TF 3
230/138/13,8 kV
Ligar, interligando esse transformador 
com outro já em operação, o lado de 
230 kV do transformador TF 1 
230/138/13,8 kV (ou TF 3).
Outro transformador 230/138/13,8 kV 
da SE Areia com fluxo de potência 
ativa.
7. NOTAS IMPORTANTES
7.1. Os disjuntores de interligação de módulos devem ser fechados, em anel, toda vez que forem 
recompostos os dois circuitos do mesmo vão ou quando, num dos lados do vão, for uma barra.
