Manual de Procedimentos da Operação
Referência Técnica
Elaboração de Instruções de Operação em Contingências
Código Revisão Item Vigência
RT-OC.BR 22 7.4. 29/04/2022
.
MOTIVO DA REVISÃO
Alteração do item 2.2 de considerações gerais para contemplar áreas onde constam equipamentos HVDC. 
Melhoria do subitem 2.2 das premissas.
Melhoria dos exemplos destacado procedimentos que consideram a contingência de outros equipamentos 
ou linhas de transmissão, estando o referido equipamento ou linha de transmissão indisponível.
LISTA DE DISTRIBUIÇÃO
CNOS COSR-NCO COSR-NE COSR-S COSR-SE
Manual de Procedimentos da Operação
 Referência Técnica Código Revisão Item Vigência
Elaboração de Instruções de Operação em 
Contingências RT-OC.BR 22 7.4. 29/04/2022
Referência: 2/ 34
ÍNDICE
1. OBJETIVO.........................................................................................................................................3
2. PREMISSAS ......................................................................................................................................3
3. ESTRUTURA DAS INSTRUÇÕES DE OPERAÇÃO ..................................................................................6
3.1. Folha Rosto, com o Motivo da Revisão, Lista de Distribuição e Índice..........................................6
3.2. ITEM 1. OBJETIVO..........................................................................................................................6
3.3. ITEM 2. CONSIDERAÇÕES GERAIS..................................................................................................6
3.4. ITEM 3. CONTINGÊNCIAS SIMPLES DE LINHAS DE TRANSMISSÃO ................................................7
3.5. ITEM 4. CONTINGÊNCIAS DUPLAS DE LINHAS DE TRANSMISSÃO ...............................................14
3.6. ITEM 5. CONTINGÊNCIAS DE TRANSFORMADORES ....................................................................17
3.7. ITEM 6. CONTINGÊNCIAS DE COMPENSADORES SÍNCRONOS.....................................................19
3.8. ITEM 7. CONTINGÊNCIAS DE COMPENSADORES ESTÁTICOS ......................................................23
3.9. ITEM 8. CONTINGÊNCIAS DE REATORES DE BARRA ....................................................................26
3.10. ITEM 9. CONTINGÊNCIAS DE REATORES MANOBRÁVEIS DE LINHA ............................................26
3.11. ITEM 10. CONTINGÊNCIAS DE REATORES LIMITADORES DE CORRENTE.....................................26
3.12. ITEM 11. CONTINGÊNCIAS DE BANCOS DE CAPACITORES ..........................................................29
3.13. ITEM 12. CONTINGÊNCIAS DE BANCOS DE CAPACITORES SÉRIE.................................................30
3.14. ITEM 13. CONTINGÊNCIAS DE DISJUNTORES ..............................................................................32
3.15. ITEM 14. CONTINGÊNCIAS DE UNIDADES GERADORAS ..............................................................33
3.16. ITEM 15. CONTINGÊNCIAS DE POLOS OU BIPOLOS OU CONVERSORAS .....................................33
3.17. ITEM 16. CONTINGÊNCIAS DE ELETRODO DE TERRA ..................................................................33
3.18. ITEM 17. CONTINGÊNCIAS DE FILTROS CA E BANCOS DE CAPACITORES ....................................34
3.19. ITEM 18. CONTINGÊNCIAS DE FILTROS CC ..................................................................................34
3.20. ITEM 19. CONTINGÊNCIAS DE CONTROLE MESTRE.....................................................................34
3.21. ITEM 20. CONTINGÊNCIAS DE COMUNICAÇÃO...........................................................................34
Manual de Procedimentos da Operação
 Referência Técnica Código Revisão Item Vigência
Elaboração de Instruções de Operação em 
Contingências RT-OC.BR 22 7.4. 29/04/2022
Referência: 3/ 34
1. OBJETIVO
Estabelecer a referência para elaboração das Instruções de Operação em Contingências – IO-OC, visando 
a estruturação e padronização dessas instruções, de acordo com os Procedimentos de Rede.
2. PREMISSAS
2.1. Os procedimentos constantes nas IO-OC devem estar de acordo com as responsabilidades, diretrizes e 
critérios gerais definidos nos Procedimentos de Rede.
2.2. Nas IO-OC devem constar procedimentos para adequação do ponto de operação do sistema em 
contingência, ou seja, após desligamento de equipamento ou de linha de transmissão da Rede de 
Operação (contingência).
Cabe destacar que a não existência de consequências/procedimentos à uma contingência simples ou 
dupla, em rede completa, não garante que o sistema seja capaz de suportar uma nova contingência, 
simples ou dupla.
2.3. Podem, ainda, constar procedimentos para operação considerando a contingência de outros 
equipamentos ou linhas de transmissão, estando um deles já indisponível (rede alterada).
2.4. Essa condição deve ser explicitada no respectivo item, fazendo a distinção dos procedimentos para 
adequação do ponto de operação do sistema em contingência, ou seja, após desligamento do 
equipamento ou de linha de transmissão, dos procedimentos  para operação considerando a 
contingência de outros equipamentos ou linhas de transmissão, estando o referido equipamento ou linha 
de transmissão indisponível. Devem constar nas IO-OC itens relativos a todas as linhas de transmissão e 
transformadores pertencentes à Rede de Operação.
2.4.1. Para linhas de transmissão e transformadores, pertencentes à Rede de Operação e que são de uso 
exclusivo da geração ou de funções transmissão de controle de reativos, bem como para os demais 
equipamentos pertencentes à Rede de Operação, só devem constar aqueles para os quais há 
procedimentos específicos.
Os procedimentos para contingência de transformadores de conexão que atendem exclusivamente 
unidades geradoras, compensadores síncronos ou compensadores estáticos devem estar contidos no 
item do equipamento principal.
Quando houver compartilhamento do transformador de conexão, com disjunção no lado de baixa tensão, 
deve ser incluída a contingência dupla do equipamento principal.
2.5. As consequências da contingência relacionadas a tensão, carregamento, confiabilidade e atuação de 
esquemas devem ser mencionadas, na forma de texto, fora da tabela de procedimentos. As 
consequências e procedimentos da contingência devem ser apresentadas conforme exemplos a seguir:
2.5.1. Quando a contingência alterar os procedimentos para operação em regime normal e houver 
consequências:
“Consequência: (incluir texto)”
“Incluir tabela de procedimentos.”
Manual de Procedimentos da Operação
 Referência Técnica Código Revisão Item Vigência
Elaboração de Instruções de Operação em 
Contingências RT-OC.BR 22 7.4. 29/04/2022
Referência: 4/ 34
2.5.2. Quando a contingência alterar os procedimentos para operação em regime normal e não houver 
consequências:
“Consequência: Não há” ou omitir o termo “Consequência”.
“Incluir tabela de procedimentos.”
2.5.3. Quando a contingência não alterar os procedimentos para operação em regime normal e não houver 
consequências:
“Consequência: Não há” ou omitir o termo “Consequência”.
“Não há procedimentos adicionais para essa contingência.” ou
“Não há procedimentos a serem adotados para essa contingência”
Nas áreas elétricas onde constam procedimento para operação considerando a contingência de outros 
equipamentos ou linhas de transmissão, estando um deles já indisponível (rede alterada), deve ser 
incluída uma das observações conforme exemplos a seguir:
a) Rede alterada avaliada:
Obs: Foram consideradas outras contingências estando a(o) (nome do equipamento(s) ou linha(s) de 
transmissão) indisponível(is).”
b) Rede alterada não avaliada:
Obs: Não foram consideradas outras contingências estando a(o) (nome do equipamento(s) ou linha(s) de 
transmissão) indisponível(is).”
2.5.4. Quando a contingência não alterar os procedimentos para operação em regime normal e houver 
consequências.
“Consequência: (incluir texto)”
“Não há procedimentos adicionais para essa contingência.” ou
“Não há procedimentos a serem adotados”
Nas áreas elétricas onde constam procedimento para operação considerando a contingência de outros 
equipamentos ou linhas de transmissão, estando um deles já indisponível (rede alterada), deve ser 
incluída uma das observações conforme exemplos a seguir:
a) Rede alterada avaliada:
Obs: Foram consideradas outras contingências estando a(o) (nome do equipamento(s) ou linha(s) de 
transmissão)  indisponível(is).”
b) Rede alterada não avaliada:
Obs: Não foram consideradas outras contingências estando a(o) (nome do equipamento(s) ou linha(s) de 
transmissão)  indisponível(is).”
2.6. A classificação das contingências duplas deve seguir critérios definidos pelos relatórios e diretrizes do 
planejamento da operação elétrica conforme Procedimentos de Rede.
Manual de Procedimentos da Operação
 Referência Técnica Código Revisão Item Vigência
Elaboração de Instruções de Operação em 
Contingências RT-OC.BR 22 7.4. 29/04/2022
Referência: 5/ 34
Enquadram-se no critério as contingências de um Bipolo e linhas de transmissão que compartilham 
estrutura ou faixa de passagem em sua extensão. Não deve ser considerado o compartilhamento, caso 
esse seja apenas no trecho de chegada das subestações envolvidas.
Casos especiais envolvendo fenômenos climáticos, queimadas e possibilidade de quedas de estruturas 
sobre outra linha de transmissão, são tratados em caráter de excepcionalidade.
2.7.  A citação às contingências duplas segue as premissas definidas nos itens 2.3 e 2.4  anteriores. Nos casos 
em que o desligamento automático da linha de transmissão ou do equipamento possa acarretar atuação 
de esquema especial, deve ser mencionado, na forma de texto fora da tabela de procedimentos, as 
informações acerca da atuação desse esquema e a Instrução de Operação associada ao esquema.
2.8. Nos casos em que a atuação de esquema especial possa levar ao desligamento de linha de transmissão 
ou de equipamento, deve ser mencionado, na forma de texto fora da tabela de procedimentos, as 
informações acerca da atuação desse esquema e a Instrução de Operação associada ao esquema.
2.9. As ações associadas a alteração da condição de operação de esquemas especiais (ligar/desligar/habilitar) 
decorrente das contingências, as medidas operativas para controle de tensão e de carregamento 
decorrentes de atuação de esquema especial, assim como as consequências das atuações, devem constar 
como procedimento nas Instruções de Operação de Contingência.
Alterações de procedimento associados ao ECE ou relacionadas a comunicação entre os Agentes 
envolvidos devem constar nas respectivas Instrução de Operação de Esquemas Especiais.
2.10. Nas IO-OC devem constar procedimentos, aplicáveis especificamente em contingência, para:
controle de tensão;
alteração de faixas de tensão;
controle de carregamento de equipamentos e de linhas de transmissão;
definição de limites de segurança do sistema;
alteração na condição de operação do religamento automático de linhas de transmissão;
atuação ou alteração da condição de operação de esquema especial;
interrupção ou transferência de carga;
utilização de recursos fora da Rede de Operação para problemas na Rede de Operação (*).
(*) A utilização de recursos fora da Rede de Operação para problemas na Rede de Operação deve seguir 
a padronização definida pela RT-MP.BR.02 -– Padronização de Redação e Estilo dos Documentos do MPO.
Deve ser evitada a inclusão de procedimentos acima mencionados já constantes nas instruções de 
operação normal.
2.11. As contingências que acarretam consequências em equipamentos controlados por outro Centro de 
Operação do ONS devem conter os contatos necessários para a adequada coordenação dos 
procedimentos. 
Exemplo: “O Centro de Operação do Sistema X deve informar a contingência da LT A / B ao Centro de 
Manual de Procedimentos da Operação
 Referência Técnica Código Revisão Item Vigência
Elaboração de Instruções de Operação em 
Contingências RT-OC.BR 22 7.4. 29/04/2022
Referência: 6/ 34
Operação do Sistema Y, devendo ser adotados os procedimentos a seguir:”
2.12. Os procedimentos relacionados à Rede de Operação devem ser detalhados, de forma que fiquem claros 
os aspectos relacionados à coordenação e ao controle pelos Centros de Operação do ONS. Nesses casos, 
devem ser preenchidas as colunas “Coordenação” e “Controle”.
2.13. A padronização a ser seguida para inequações e tabelas de fatores de influências para o redespacho está 
descrita na Referência Técnica RT-CT.BR.ON.
2.14. A padronização definida pela Referência Técnica RT-MP.BR.02 – Padronização de Redação e Estilo dos 
Documentos do MPO deve ser aplicada a todas as Instruções de Operação em Contingência.
2.15. Os textos nesta Referência Técnica destacados em cor verde, constantes nos itens da estrutura das 
Instruções de Operação, não devem fazer parte dessas instruções, pois são apenas orientativos para 
elaboração dos respectivos documentos.
2.16. Os exemplos nesta Referência Técnica destacados em itálico, constantes nos itens da estrutura das 
Instruções de Operação, servem como exemplos orientativos para o uso da fraseologia e utilização de 
textos simples e objetivos.
3. ESTRUTURA DAS INSTRUÇÕES DE OPERAÇÃO
As IO-OC devem conter a seguinte itemização:
3.1. FOLHA ROSTO, COM O MOTIVO DA REVISÃO, LISTA DE DISTRIBUIÇÃO E ÍNDICE 
Seguir modelo definido na Referência Técnica RT-MP.BR.02 – Padronização de Redação e Estilo dos Documentos 
do MPO.
3.2. ITEM 1. OBJETIVO
Estabelecer procedimentos para a operação da (nome da área elétrica), em regime de contingência de 
equipamentos ou de linhas de transmissão, a serem seguidos pelos operadores dos Centros de Operação do ONS 
e pela operação dos Agentes envolvidos, de acordo com os Procedimentos de Rede.
3.3. ITEM 2. CONSIDERAÇÕES GERAIS
Neste item devem ser relacionadas considerações de caráter geral, devendo conter assuntos comuns às IO-OC, 
que podem ser complementados em função de particularidades de cada área elétrica. 
Este item não deve conter procedimentos.
Subitens comuns para todas as Instruções de Operação:
2.1. Esta Instrução de Operação apresenta os procedimentos para adequação do ponto de operação do sistema 
em contingência, ou seja, após desligamento de equipamento ou de linha de transmissão da Rede de 
Operação.
Podem, ainda, constar procedimentos para operação considerando a contingência de outro(s) 
equipamento(s), estando um deles já indisponível.
2.2. Constam nesta Instrução de Operação itens relativos a todas as linhas de transmissão e transformadores 
Manual de Procedimentos da Operação
 Referência Técnica Código Revisão Item Vigência
Elaboração de Instruções de Operação em 
Contingências RT-OC.BR 22 7.4. 29/04/2022
Referência: 7/ 34
pertencentes à Rede de Operação.
Para linhas de transmissão e transformadores, pertencentes à Rede de Operação e que são de uso exclusivo 
da geração ou de funções transmissão de controle de reativos, bem como para os demais equipamentos 
pertencentes à Rede de Operação, só constam aqueles para os quais há procedimentos adicionais para a 
respectiva contingência.
Para áreas onde constam equipamentos HVDC, utilizar o texto do item 2.2 a seguir: 
2.2. Constam nesta Instrução de Operação itens relativos a todas as linhas de transmissão, transformadores, 
polos, bipolos e conversoras pertencentes à Rede de Operação.
Para linhas de transmissão e transformadores, pertencentes à Rede de Operação e que são de uso exclusivo 
da geração ou de funções transmissão de controle de reativos, bem como para os demais equipamentos 
pertencentes à Rede de Operação, só constam aqueles para os quais há procedimentos adicionais para a 
respectiva contingência.
2.3. Os procedimentos relacionados a coordenação dos redespachos de geração, quando de contingências em 
equipamentos ou em linhas de transmissão da Rede de Operação, estão definidos na IO-CG.BR.01.
2.4. No caso de ser necessário utilizar recursos fora da Rede de Operação, o ONS deve solicitá-los ao Agente, 
que poderá adotar, após analisadas as implicações de sua execução, os procedimentos solicitados pelo ONS 
ou propor procedimentos alternativos internos à sua rede, de forma a mitigar as violações de critérios que 
levaram à solicitação. 
2.5. Quando se tratar de desligamento programado, os procedimentos contidos nas recomendações oriundas 
das análises do desligamento prevalecem sobre os procedimentos contidos nesta Instrução de Operação.
Os títulos dos itens das Instruções de Operação em Contingências devem seguir as orientações constantes 
na Referência Técnica RT-MP.BR.02 – Padronização de Redação e Estilo dos Documentos do MPO, ou 
orientação diferente, quando indicado nesta Referência Técnica.
3.4. ITEM 3. CONTINGÊNCIAS SIMPLES DE LINHAS DE TRANSMISSÃO
(Subitem) 3.1. LT 500 kV A / B
(Subitem) 3.2. LT 500 kV B / D C1 OU C2
Acima está descrita a itemização a ser seguida nos itens correspondentes a contingências de linhas de 
transmissão. A ordenação dos subitens deve utilizar como primeiro critério o nível de tensão em ordem 
decrescente e, como segundo, a ordem alfabética.
Caso não constem contingências simples, o item deve ser mantido e preenchido com o texto “Não se aplica”.
Exemplo 01:
LT 230 KV A / B
Consequência:
Redução dos níveis de confiabilidade da (nome da área elétrica).
Manual de Procedimentos da Operação
 Referência Técnica Código Revisão Item Vigência
Elaboração de Instruções de Operação em 
Contingências RT-OC.BR 22 7.4. 29/04/2022
Referência: 8/ 34
Passo
Coordenação
Controle
Comando / 
Execução
Procedimentos Objetivo / Item de Controle
1
Centro do ONS
Centro do ONS
Agente
Desativar o religamento automático 
tripolar da LT 230 kV A / C.
2
Centro do ONS
Centro do ONS
---
Limitar o somatório do fluxo nas LTs 230 
kV A / D C1 e C2 conforme segue:
P AD ≤ 185 MW
Adotar o padrão das inequações, 
conforme RT-CT.BR.ON.
- Evitar instabilidade de tensão na (nome 
da área elétrica).
3 Para controle da inequação anterior, adotar os procedimentos a seguir:
3.1 Adotar o padrão das tabelas de redespacho, conforme RT-CT.BR.ON.
4 Para valores de fluxo nas LTs 230 kV A / D C1 e C2 superiores a 100 MW, adotar os seguintes 
procedimentos:
4.1
Centro do ONS
Centro do ONS
Agentes
Manter os valores de tensão nos 
barramentos de 230 kV das SEs A, B e C 
próximos do limite superior da faixa 
operativa.
4.2 Manter os valores de tensão nos barramentos de 230 e 138 kV da SE D conforme segue:
4.2.
1
Centro do ONS
Centro do ONS
Agente
Manter o valor de tensão no 
barramento de 230 kV da SE D em um 
valor igual ou superior a 230 kV.
Manual de Procedimentos da Operação
 Referência Técnica Código Revisão Item Vigência
Elaboração de Instruções de Operação em 
Contingências RT-OC.BR 22 7.4. 29/04/2022
Referência: 9/ 34
Passo
Coordenação
Controle
Comando / 
Execução
Procedimentos Objetivo / Item de Controle
4.2.
2
Centro do ONS
Centro do ONS
Agente
Manter o valor de tensão no 
barramento de 138 kV da SE D no limite 
superior da faixa.  
Exemplo 02:
LT 500 kV A / B
Consequências:
Redução de tensão na SE A e na SE C.
Sobrecarga na transformação 500/345 kV – 3 x 560 MVA da SE A.
Sobrecarga na transformação 345/138 kV – 2 x 225 MVA da SE C quando de geração elevada na UTE A e na UTE 
B.
Passo
Coordenação
Controle
Comando / 
Execução
Procedimentos Objetivo / Item de Controle
1 Para elevação da tensão na SE A e na SE C, adotar os procedimentos a seguir:
1.1
Centro do ONS
Centro do ONS
Agentes
Atuar nos recursos de controle de 
tensão da área.
- Limites de tensão da SE A e da SE C dentro 
da faixa operativa, conforme (código do 
documento).
1.2
Solicitar ao (nome dos agentes operadores) ligar os bancos de capacitores BC 01 e BC 02 13,8 kV / 10 
Mvar da SE C.
2
Para controle de carregamento na transformação 500/345 kV – 3 x 560 MVA da SE A, adotar os 
procedimentos a seguir:
Manual de Procedimentos da Operação
 Referência Técnica Código Revisão Item Vigência
Elaboração de Instruções de Operação em 
Contingências RT-OC.BR 22 7.4. 29/04/2022
Referência: 10/ 34
Passo
Coordenação
Controle
Comando / 
Execução
Procedimentos Objetivo / Item de Controle
2.1
Centro do ONS
Centro do ONS
Agentes de Geração
Adotar o padrão das tabelas de redespacho, conforme RT-CT.BR.ON.
3
Para o controle do carregamento na transformação 345/138 kV – 2 x 225 MVA da SE C, adotar os 
procedimentos a seguir:
3.1
Centro do ONS
Centro do ONS
Agente
Elevar a tensão na SE C 345 kV para o 
limite superior da faixa.
Utilizando os recursos da (nome da área 
elétrica).
Redução do carregamento na 
transformação.
3.2
Centro do ONS
Centro do ONS
Agente
Transferir cargas da SE C para a SE D.
Carregamento nas na transformação 
345/138 kV – 2 x 225 MVA da SE C igual ou 
inferior ao limite definido no (código do 
documento).
3.3
Centro do ONS
Centro do ONS
Agente
Cortar cargas atendidas a partir da SE 
C.
Carregamento nas na transformação 
345/138 kV – 2 x 225 MVA da SE C igual ou 
inferior ao limite definido no (código do 
documento).
Manual de Procedimentos da Operação
 Referência Técnica Código Revisão Item Vigência
Elaboração de Instruções de Operação em 
Contingências RT-OC.BR 22 7.4. 29/04/2022
Referência: 11/ 34
Passo
Coordenação
Controle
Comando / 
Execução
Procedimentos Objetivo / Item de Controle
5
Destaque para procedimentos considerando a contingência de outros equipamentos ou linhas de 
transmissão, estando o referido circuito da linha de transmissão indisponível:
Para que sejam atendidos os critérios de desempenho dinâmico, para o caso da contingência da LT 
500 kV A / C C1 e C2 adotar os procedimentos do passo 5.1 ou 5.2:
ou
Para que sejam atendidos os critérios de desempenho dinâmico em caso de  perda adicional de uma 
outra(s) linha(s) de transmissão, adotar os procedimentos do passo 5.1 ou 5.2:
ou
Na indisponibilidade da LT 500 kV A / B, adotar os procedimentos a seguir para prevenir contingência 
de outra linha de 500 kV da área.
5.1 Condição da região RRR Exportadora de energia, adotar os procedimentos a seguir:
-
Centro do ONS
Centros do ONS
---
Reprogramar intercâmbio de modo a 
atender o limite de X, Y e Z.
- Atendimento dos critérios de desempenho 
dinâmico, para o caso da contingência da 
LT 500 kV A / C C1 e C2.
X  3600 MW
Y  3400 MW
Z  2600 MW
- Carregamento nas LT 500 kV A / C C1 e C2 
igual ou inferior ao limite definido no 
(código do documento).
5.1 Condição da região RRR Importadora de energia, adotar os procedimentos a seguir:
Manual de Procedimentos da Operação
 Referência Técnica Código Revisão Item Vigência
Elaboração de Instruções de Operação em 
Contingências RT-OC.BR 22 7.4. 29/04/2022
Referência: 12/ 34
Passo
Coordenação
Controle
Comando / 
Execução
Procedimentos Objetivo / Item de Controle
-
Centro do ONS
Centros do ONS
---
Reprogramar intercâmbio de modo a 
atender o limite de X, Y e W.
- Atendimento dos critérios de desempenho 
dinâmico, para o caso da contingência da 
LT 500 kV A / C C1 e C2.
X  2800 MW
Y  3600 MW 
W  2000 MW
- Carregamento nas LT 500 kV A / C C1 e C2 
igual ou inferior ao limite definido no 
(código do documento).
Exemplo 03:
LT 345 kV A/B
Consequência:
Sobrecarga na LT 345 kV A / B e queda de tensão na SE B.
Pode haver atuação do esquema (nome de ECE). 
Passo
Coordenação
Controle
Comando / 
Execução
Procedimento Objetivo / Item de Controle
1
Para controle de carregamento na LT 345 kV A / B e a queda de tensão na SE B, adotar os 
procedimentos a seguir:
2
Centro do ONS
Centro do ONS
Agente
Remanejar cargas alimentadas pela 
SE 345/88 kV B para passarem a ser 
alimentadas pela SE 345 kV/88 kV C.
Redução no carregamento da LT 345 kV A / 
B, para um valor igual ou inferior ao limite 
definido no (código do documento).
Carregamento na transformação 345 / 88 
kV da SE C em valor igual ou inferior ao 
limite definido no (código do documento)
Exemplo 04:
Manual de Procedimentos da Operação
 Referência Técnica Código Revisão Item Vigência
Elaboração de Instruções de Operação em 
Contingências RT-OC.BR 22 7.4. 29/04/2022
Referência: 13/ 34
LT 230 kV A / B C1 
Consequência:
Subtensão nas SEs A, C e D, com possível rejeição natural de cargas.
Passo
Coordenação
Controle
Comando e 
execução
Procedimento Objetivo / Item de Controle
1
Centro do ONS
Centro do ONS
Agente
Atuar nos recursos de controle de 
tensão da área.
Exemplo 05:
LT 230 kV A/B
Consequência: Interrupção de carga na SE B.
Não há procedimentos adicionais para essa contingência.
Exemplo 06:
LT 230 kV A/C C1 OU C2
Consequência: Não há
Não há procedimentos adicionais para essa contingência.
Exemplo 07:
LT 230 kV A/C C1 OU C2
Passo
Coordenação
Controle
Comando e 
execução
Procedimento Objetivo/ Item de Controle
1
Centro do ONS
Centro do ONS
Agente
Desativar o religamento automático 
tripolar da LT 230 kV A / C  
remanescente.
Manual de Procedimentos da Operação
 Referência Técnica Código Revisão Item Vigência
Elaboração de Instruções de Operação em 
Contingências RT-OC.BR 22 7.4. 29/04/2022
Referência: 14/ 34
Exemplo 08:
LT 500 kV A/C C1 OU C2
Consequência: Não há.
Não há procedimentos a serem adotados para essa contingência.
Obs: Foram consideradas outras contingências estando LT 500 kV A/C C1 ou C2  desligada.
3.5. ITEM 4. CONTINGÊNCIAS DUPLAS DE LINHAS DE TRANSMISSÃO
(Subitem) 4.1. LT 500 kV A / B C1 E C2
(Subitem) 4.2. LT 500 kV A / B E LT 500 kV A/C
Acima está descrita a itemização a ser seguida nos itens correspondentes a contingências duplas de linhas de 
transmissão. A ordenação dos subitens deve utilizar como primeiro critério o nível de tensão em ordem 
decrescente e, como segundo, a ordem alfabética.
Caso não constem contingências duplas, o item deve ser mantido e preenchido com o texto “Não se aplica”.
Exemplo 01:
4. CONTINGÊNCIAS DUPLAS DE LINHAS DE TRANSMISSÃO
Não se aplica.
Exemplo 02:
LT 440 kV A/B C1 E C2
Consequência:
Sobrecarga na LT 138 kV XXX / ZZZ.
Passo
Coordenação
Controle
Comando / 
Execução
Procedimento Objetivo / Item de Controle
1 Para controle de carregamento na LT 138 kV X / Z, adotar os procedimentos a seguir:
1.1 Adotar o padrão das tabelas de redespacho, conforme RT-CT.BR.ON.
2
Centro do ONS
Centro do ONS
Agente
Ligar o Esquema (nome do ECE). Conforme (código do documento).
Manual de Procedimentos da Operação
 Referência Técnica Código Revisão Item Vigência
Elaboração de Instruções de Operação em 
Contingências RT-OC.BR 22 7.4. 29/04/2022
Referência: 15/ 34
Passo
Coordenação
Controle
Comando / 
Execução
Procedimento Objetivo / Item de Controle
3
Centro do ONS
Centro do ONS
Agente
Desativar o religamento automático da 
LT 230 kV C / D.
Exemplo 03:
LT 440 kV A / B C1 E C2
Consequência:
Sobrecarga nas LT 138 kV B / H C1 e C2, inferior ao limite de emergência.
Nota: essa perda dupla pode ter sido ocasionada pela atuação do Esquema (nome do ECE). Nesse caso, além de 
efetuar o controle das sobrecargas verificadas, utilizar os procedimentos da (código do documento) para retorno 
dos circuitos desligados.
Passo
Coordenação
Controle
Comando / 
Execução
Procedimento Objetivo / Item de Controle
1 Para controle de carregamento na LT 138 kV B / H C1 ou C2, adotar os procedimentos a seguir:
1.1 Adotar o padrão das tabelas de redespacho, conforme RT-CT.BR.ON
Exemplo 04:
LT 440 kV A / B C1 E C2
Consequência: Não há
Não há procedimentos adicionais para essa contingência.
Exemplo 05:
LT 500 kV A / B C1 E C2
Consequências:
Sobrecarga na transformação 500/345 kV – 3 x 560 MVA da SE A.
Manual de Procedimentos da Operação
 Referência Técnica Código Revisão Item Vigência
Elaboração de Instruções de Operação em 
Contingências RT-OC.BR 22 7.4. 29/04/2022
Referência: 16/ 34
Passo
Coordenação
Controle
Comando / 
Execução
Procedimentos Objetivo / Item de Controle
1
Para controle de carregamento na transformação 500/345 kV – 3 x 560 MVA da SE A, adotar os 
procedimentos a seguir:
1.1
Centro do ONS
Centro do ONS
Agentes de Geração
Adotar o padrão das tabelas de redespacho, conforme RT-CT.BR.ON.
2
Destaque para procedimentos considerando a contingência de outros equipamentos ou linhas de 
transmissão, estando os referidos circuitos da linha de transmissão indisponíveis:
Para que sejam atendidos os critérios de desempenho dinâmico, para o caso da contingência do Bipolo 
A ou B adotar os procedimentos a seguir:
ou
Para que sejam atendidos os critérios de desempenho dinâmico em caso de  perda adicional de uma 
outra(s) linha(s) de transmissão, adotar os procedimentos a seguir:
ou
Na indisponibilidade da LT 500 kV A / B C1 ou C2, adotar os procedimentos a seguir para prevenir 
contingência de outra linha de 500 kV da área.
2.1
Centro do ONS
Centros do ONS
---
Reprogramar intercâmbio de modo a 
atender o limite de X, Y e Z.
X  3600 MW
Y  3400 MW
Z  2600 MW
Exemplo 08:
LT 500 kV A/C C1 E C2
Consequência: Não há.
Não há procedimentos a serem adotados para essa contingência.
Manual de Procedimentos da Operação
 Referência Técnica Código Revisão Item Vigência
Elaboração de Instruções de Operação em 
Contingências RT-OC.BR 22 7.4. 29/04/2022
Referência: 17/ 34
Obs: Não foram consideradas outras contingências estando LT 500 kV A/C C1 e C2  desligadas.
3.6. ITEM 5. CONTINGÊNCIAS DE TRANSFORMADORES
(Subitem) 5.1. SE A – Transformador AT01 500/230/13,8 kV – 300 MVA
(Subitem) 5.2. SE B – Transformador TF 1 ou TF 2 500/138/13,8 kV – 150 MVA
(Subitem) 5.3. SE B – Transformador TR 3 ou TR 4 500/138 kV – 200 MVA
Acima está descrita a itemização a ser seguida nos itens correspondentes a contingências de transformadores. A 
ordenação dos subitens deve utilizar como primeiro critério a ordem alfabética das subestações e, como 
segundo, o nível de tensão dos transformadores em ordem decrescente.
Obrigatoriamente deve constar nos subitens o nome da subestação, o código operacional do equipamento e a 
relação de transformação, conforme RT-MP.BR.02.
Observação: Podem existir casos específicos de contingência de mais de um transformador em uma mesma 
instalação.
As contingências de mais de um transformador em uma mesma instalação devem estar no mesmo item, sem se 
fazer distinção entre perdas simples e múltiplas, haja vista que normalmente essas ocorrem devido a 
configurações operativas na instalação, nas quais o desligamento de um transformador implica no desligamento 
de outro.
Caso não constem contingências de transformadores, o item deve ser mantido e preenchido com o texto “Não 
se aplica”.
Exemplo 01:
SE A –TRANSFORMADOR AT01 500/138/13,8 KV – 450 MVA
Consequência:
Elevação do carregamento da transformação 500/230/13,8 kV da SE C.
Redução dos níveis de confiabilidade da área (nome da área elétrica).
Manual de Procedimentos da Operação
 Referência Técnica Código Revisão Item Vigência
Elaboração de Instruções de Operação em 
Contingências RT-OC.BR 22 7.4. 29/04/2022
Referência: 18/ 34
Passo
Coordenação
Controle
Comando / 
Execução
Procedimento Objetivo / Item de Controle
-
Destaque para os procedimentos considerando a contingência de outros equipamentos ou linhas de 
transmissão, estando o referido transformador indisponível:
Para que sejam atendidos os critérios de desempenho dinâmico e limites dos equipamentos, para o 
caso da contingência da transformação 500/230 kV da SE D adotar os procedimentos a seguir:
ou
Para que sejam atendidos os critérios de desempenho dinâmico em caso de  perda adicional de uma 
outra(s) linha(s) de transmissão, adotar os procedimentos a seguir:
ou
Na indisponibilidade do transformador 500/138/13,8 kV – 450 MVA da SE A, adotar os procedimentos 
a seguir para prevenir contingência de outra linha de 500 kV da área.
1
Centro do ONS
Centro do ONS
---
Monitorar a seguinte inequação:
PC + PD ≤ 650 MW
Adotar o padrão das inequações, 
conforme RT-CT.BR.ON.
Evitar sobrecarga inadmissível na 
transformação 500/230 kV da SE C, quando 
da contingência da transformação 
500/230 kV da SE D
Garantir a estabilidade de tensão da rede 
de 230 kV para contingência da 
transformação 500/230 kV da SE D.
1.1 Para controle da inequação anterior, adotar os procedimentos a seguir:
-
Centro do ONS
Centro do ONS
Agentes de Geração
Adotar o padrão das tabelas de redespacho, conforme RT-CT.BR.ON.
Exemplo 02:
SE A - TRANSFORMADOR T1 OU T2 230/138/13,8 kV - 200 MVA OU T3 230/138/13,8 kV - 225 MVA
Consequência:
Sobrecarga na transformação 230/138/13,8 kV da SE A.
Manual de Procedimentos da Operação
 Referência Técnica Código Revisão Item Vigência
Elaboração de Instruções de Operação em 
Contingências RT-OC.BR 22 7.4. 29/04/2022
Referência: 19/ 34
Passo
Coordenação
Controle
Comando / 
Execução
Procedimento Objetivo / Item de Controle
1 Para controle de carregamento nos transformadores 230/138/13,8 kV da SE A, adotar os 
procedimentos a seguir:
1.1 Adotar o padrão das tabelas de redespacho, conforme RT-CT.BR.ON
Exemplo 03:
SE A – TRANSFORMADOR T3 OU T4 OU T5 345/138/13,8 kV –  150 MVA
Consequência:
Sobrecarga na transformação 345/138/13,8 kV da SE A.
Passo
Coordenação
Controle
Comando / 
Execução
Procedimento Objetivo / Item de Controle
1
Para controle de carregamento nos transformadores 345/138/13,8 kV da SE A, adotar os 
procedimentos a seguir:
1.1 Adotar o padrão das tabelas de redespacho, conforme RT-CT.BR.ON 
2
Permanecendo sobrecarga, o COSR-X deve solicitar ao (agente de distribuição) abrir a LT 138 kV A / C 
no terminal da SE 138 kV A.
3
Centro do ONS
Centro do ONS
Agente 
Cortar carga na região de A.
Carregamento na transformação 345 / 138 
kV da SE A em valor igual ou inferior ao 
limite definido no (código do documento)
O corte de carga de 10 MW acarreta uma 
redução de cerca de 7A (lado de 345 kV) nos 
transformadores remanescentes.
3.7. ITEM 6. CONTINGÊNCIAS DE COMPENSADORES SÍNCRONOS
(Subitem) 9.1. SE A – COMPENSADOR CS01 OU CS02 XX kV (-100 / +100 Mvar)
Manual de Procedimentos da Operação
 Referência Técnica Código Revisão Item Vigência
Elaboração de Instruções de Operação em 
Contingências RT-OC.BR 22 7.4. 29/04/2022
Referência: 20/ 34
Acima está descrita a itemização a ser seguida no item de contingências de compensadores síncronos. A 
ordenação dos itens deve utilizar como primeiro critério a ordem alfabética e, como segundo, o nível de tensão 
em ordem decrescente:
Obrigatoriamente deve constar no item a subestação e o código operacional conforme diagrama da instalação.
Caso não constem contingências de compensadores síncronos, o item deve ser suprimido.
Exemplo 01:
SE A - COMPENSADOR SÍNCRONO CS1 13,2 kV (- XXX/+XXX Mvar)
Consequência:
Redução de limites da Interligação Sul / Sudeste. 
Passo
Coordenação
Controle
Comando / 
Execução
Procedimento Objetivo / Item de Controle
1
Centro do ONS
Centro do ONS
--- Adotar os procedimentos da (código do 
documento). .
Exemplo 02: Compensadores Síncronos que compartilham transformador de conexão, com disjunção no lado de 
baixa tensão.
SE B – COMPENSADORES SÍNCRONOS CO 1 OU CO 2 15 KV (- XXX/+XXX Mvar)
Consequência: 
Sobretensão nos barramentos de 525 kV, 230 kV, 138 kV e 69 kV das subestações das subáreas A, B e C.
Passo
Coordenação
Controle
Comando / 
Execução
Procedimento Objetivo / Item de Controle
1 Para elevação da tensão das subestações das subáreas A, B e C, adotar os procedimentos a seguir:
Manual de Procedimentos da Operação
 Referência Técnica Código Revisão Item Vigência
Elaboração de Instruções de Operação em 
Contingências RT-OC.BR 22 7.4. 29/04/2022
Referência: 21/ 34
Passo
Coordenação
Controle
Comando / 
Execução
Procedimento Objetivo / Item de Controle
1.1
Centro do ONS
Centro do ONS
Agentes
Utilizar os recursos para controle de 
tensão das áreas (nome das áreas 
elétricas)
1.2
Centro do ONS
Centro do ONS
Agente
Sincronizar a unidade geradora da UTE 
(nome da usina).
1.3
Centro do ONS
Centro do ONS
Agente
Sincronizar a unidade geradora da UTE 
(nome da usina).
1.4
O COSR-X deve solicitar (nome do Agente Operador) elevar a absorção de potência reativa pela UTE 
(nome da usina) e à (nome do Agente Operador) para elevar a absorção de potência reativa pelos 
equipamentos internos ao consumidor livre (nome Consumirdor).
1.5
Centro do ONS
Centro do ONS
--- Desligar a LT 230 kV A / D Conforme (código do documento)
1.6
Centro do ONS
Centro do ONS
--- Desligar a LT 525 kV E / F. Conforme (código do documento)
Manual de Procedimentos da Operação
 Referência Técnica Código Revisão Item Vigência
Elaboração de Instruções de Operação em 
Contingências RT-OC.BR 22 7.4. 29/04/2022
Referência: 22/ 34
Passo
Coordenação
Controle
Comando / 
Execução
Procedimento Objetivo / Item de Controle
2
Destaque para os procedimentos considerando a contingência de outros equipamentos ou linhas de 
transmissão, estando o referido CS indisponível:
Para que sejam atendidos os critérios de desempenho dinâmico, para o caso da contingência da LT XXX 
kV A / B adotar os procedimentos a seguir:
ou
Para que sejam atendidos os critérios de desempenho dinâmico em caso de  perda adicional de uma 
outra(s) linha(s) de transmissão, adotar os procedimentos a seguir:
ou
Na indisponibilidade do compensador síncrono CO 1 OU CO 2 15 KV (- XXX/+XXX Mvar) da SE A, adotar 
os procedimentos a seguir para prevenir contingência de outra linha de 500 kV da área.
2.1 Caso o Esquema (nome do ECE) esteja operando com a lógica 1 ligada ou com as lógicas 1 e 3 ligadas, 
adotar os procedimentos a seguir:
-
Centro do ONS
Centro do ONS
--- Limitar o fluxo P 500 kV, conforme (código 
do documento).
Evitar a ocorrência de subtensão e 
subsequente corte de carga quando da 
contingência da LT XXX kV A / B.
2.2 Caso o Esquema (nome do ECE) esteja operando com a lógica 2 ligada ou com as lógicas 2 e 4 ligadas, 
adotar os procedimentos a seguir:
2.2
.1
Centro do ONS
Centro do ONS
Agentes
Interromper o intercâmbio de energia 
(importação ou exportação) pela 
Conversora X.
Evitar a ocorrência de subtensão e 
subsequente corte de carga quando da 
contingência da LT XXX kV A / B.
2.2
.2
Centro do ONS
Centro do ONS
Agentes
Manter ligada a Lógica 2 e desligar a 
Lógica 4 do Esquema (nome do ECE).
Manter a tensão no barramento de 525 kV 
da SE Povo Novo igual ou superior a 536 kV.
Manual de Procedimentos da Operação
 Referência Técnica Código Revisão Item Vigência
Elaboração de Instruções de Operação em 
Contingências RT-OC.BR 22 7.4. 29/04/2022
Referência: 23/ 34
Passo
Coordenação
Controle
Comando / 
Execução
Procedimento Objetivo / Item de Controle
2.2
.3
Centro do ONS
Centro do ONS
Agentes
Controlar a tensão da SE A 500 kV SE A 500 kV ≥ 536 kV
3.8. ITEM 7. CONTINGÊNCIAS DE COMPENSADORES ESTÁTICOS
(Subitem) 10.1. SE A – COMPENSADOR CE01 OU CE02 XX kV (-100 / +100 Mvar)
Acima está descrita a itemização a ser seguida no item correspondente a contingências de compensadores 
estáticos. A ordenação deve utilizar como primeiro critério a ordem alfabética e, como segundo, o nível de tensão 
em ordem decrescente.
Obrigatoriamente deve constar nos subitens o nome da subestação e o código operacional conforme diagrama 
da instalação.
Caso não constem contingências de compensadores estáticos, o item deve ser suprimido.
Exemplo 01:
SE A - COMPENSADOR ESTÁTICO CE01AN 230 KV (-50 / +50 Mvar)
Consequência: 
Sobretensão nos barramentos de 230 kV e no 138 kV das subestações nas regiões (nome da região), podendo 
ocorrer a atuação do esquema (nome do ECE).
Passo
Coordenação
Controle
Comando / 
Execução
Procedimento Objetivo / Item de Controle
1 Para redução da tensão das subestações da região (nome da região), adotar os procedimentos a seguir:
2
Centro do ONS
Centro do ONS
Agente
Utilizar os recursos para controle de 
tensão da área (nome da área)
Manual de Procedimentos da Operação
 Referência Técnica Código Revisão Item Vigência
Elaboração de Instruções de Operação em 
Contingências RT-OC.BR 22 7.4. 29/04/2022
Referência: 24/ 34
Passo
Coordenação
Controle
Comando / 
Execução
Procedimento Objetivo / Item de Controle
3
O COSR-X deve solicitar à (nome do Agente Operador):
Desligar ou manter desligados os bancos de capacitores nas regiões (nome das regiões).
Ligar ou manter ligados os reatores na região (nome da região).
4 Após esgotados os recursos anteriores o COSR-X deve solicitar ao COSR-Y:
4.1
Centro do ONS
Centro do ONS
Agentes
Reduzir a tensão no barramento de 
138 kV da SE A e B por meio dos 
comutadores sob carga da 
transformação 440/138/13,8 kV da SE A 
e B.
5
Centro do ONS
Centro do ONS
--- Desligar a LT 230 kV A / C C1 ou C2, 
conforme (código do documento).
Estando em operação a LT 138 kV C / D:
fluxo de potência ativa total nas 
transformações 230/138/13,8 kV da 
C e D igual ou inferior a 30 MW.
Estando fora de operação a LT 138 kV C 
/ D:
fluxo de potência ativa total nas 
transformações 230/138/13,8 kV da 
C e D igual ou inferior a 15 MW.
Exemplo 01:
SE B - COMPENSADOR ESTÁTICO 12 KV (- 20 / + 55 Mvar) 
Consequência: 
Nota: Os Banco de Capacitores de 230 kV / 30 Mvar e o Reator manobrável de 230 kV / 20 Mvar dessa SE ficam 
liberados para serem manobrados para atendimento ao controle de tensão.
Manual de Procedimentos da Operação
 Referência Técnica Código Revisão Item Vigência
Elaboração de Instruções de Operação em 
Contingências RT-OC.BR 22 7.4. 29/04/2022
Referência: 25/ 34
Passo
Coordenação
Controle
Comando / 
Execução
Procedimento Objetivo / Item de Controle
1
Centro do ONS
Centro do ONS
Agentes
Ligar e manter ligado o banco de capacitores 
de 230 KV / 30 Mvar da SE B.
2
Centro do ONS
Centro do ONS
Agentes
Controlar o fluxo de potência reativa (Mvar) 
pela transformação 500/230kV da SE B no 
sentido do 230 kV para o 500 KV e o mais 
próximo possível de zero, por meio do LTC 
dessa transformação.
3
Centro do ONS
Centro do ONS
---
Nos períodos de carga pesada e média, 
manter as tensões dos barramentos de 230 
kV das SEs B, C, D e E o mais próximo possível 
do limite superior da faixa, adotando os 
seguintes procedimentos:
3.1
Centro do ONS
Centro do ONS
Agente
Desligar o reator manobrável de 230 kV / 
20 Mvar da SE B.
3.2
Centro do ONS
Centro do ONS
Agente
Energizar banco(s) de capacitores (13,8 kV / 
3,6 Mvar) da SE C.
3.3
Centro do ONS
Centro do ONS
Agente
Desligar o reator de barra de 230 kV / 20 
Mvar da SE C.
3.4
O COSR-X deve solicitar a (nome do Agente Operador) a possibilidade de explorar todos os recursos de 
controle de tensão existentes na rede de distribuição, para minimizar as quedas de tensão ao longo do 
tronco B - E, inclusive a elevação de geração e de tensão de excitação das PCHs da área.
Manual de Procedimentos da Operação
 Referência Técnica Código Revisão Item Vigência
Elaboração de Instruções de Operação em 
Contingências RT-OC.BR 22 7.4. 29/04/2022
Referência: 26/ 34
3.9. ITEM 8. CONTINGÊNCIAS DE REATORES DE BARRA
(Subitem) 8.1. SE A – REATOR RE-01 500 kV / 150 Mvar
3.10. ITEM 9. CONTINGÊNCIAS DE REATORES MANOBRÁVEIS DE LINHA
(Subitem) 9.1. SE A – REATOR MANOBRÁVEL RE-01 500 kV / 180 Mvar DA LT 500 kV A / B
3.11. ITEM 10. CONTINGÊNCIAS DE REATORES LIMITADORES DE CORRENTE
(Subitem) 10.1. SE A – REATOR LIMITADOR DE CORRENTE RE-01 500 kV
Acima está descrita a itemização a ser seguida no item correspondente a contingências de reatores. A ordenação 
deve utilizar como primeiro critério a ordem alfabética e, como segundo, o nível de tensão em ordem 
decrescente.
Obrigatoriamente deve constar nos subitens o nome da subestação e o código operacional conforme diagrama 
da instalação.
Caso não constem contingências de reatores, o item deve ser suprimido.
Exemplo 01
SE A - REATOR RE-01 OU 02 500 KV / 150 Mvar
Consequência: 
Elevação de tensão na SE A 500 kV.
Passo
Coordenação
Controle
Comando / 
Execução
Procedimentos Objetivo / Item de Controle
1 Esgotados os recursos para controle de tensão da (nome da área elétrica), e ocorrendo violação da 
tensão na barra de 500 kV da SE Ribeiro Gonçalves, adotar o procedimento a seguir:
-
Centro do ONS
Centro do ONS
Agente
Baipassar 01 (um) capacitor série fixo da 
SE A.
Atendidas as condições para a operação 
com um Banco de Capacitor Série da SE A 
indisponível, conforme (código do 
documento).
2
Esgotados os recursos para controle de tensão da (nome da área elétrica), e caso o baipasse de um 
Banco de Capacitor Série da SE A não tenha sido suficiente para o atendimento da faixa de tensão da 
barra de A, adotar o procedimento a seguir:
Manual de Procedimentos da Operação
 Referência Técnica Código Revisão Item Vigência
Elaboração de Instruções de Operação em 
Contingências RT-OC.BR 22 7.4. 29/04/2022
Referência: 27/ 34
Passo
Coordenação
Controle
Comando / 
Execução
Procedimentos Objetivo / Item de Controle
-
Centro do ONS
Centro do ONS
Agente
Baipassar o segundo capacitor série fixo da 
SE A.
Atendidas as condições para a operação 
com dois Banco de Capacitor Série da SE 
A indisponíveis, conforme (código do 
documento).
Exemplo 02
SE B – REATOR S3 – 345kV / 60 Mvar
Consequência:
A UHE (nome da usina) não pode operar somente com uma unidade geradora sincronizada.
Passo
Coordenação
Controle
Comando e 
execução
Procedimento Objetivo/ Item de Controle
1
Centro do ONS
Centro do ONS
Agente
Operar com duas ou três unidades geradoras 
na UHE (nome da usina). Caso não seja 
possível, desligar a UHE (nome da usina).
Exemplo 03
SE A - REATOR MANOBRÁVEL RE-05 500 kV / 180 Mvar DA LT 500 KV A / B C1
Consequência:
O Banco de Capacitor Série da LT 500 kV A / B C1 deve permanecer baipassado durante a indisponibilidade de 
qualquer reator da linha.
Manual de Procedimentos da Operação
 Referência Técnica Código Revisão Item Vigência
Elaboração de Instruções de Operação em 
Contingências RT-OC.BR 22 7.4. 29/04/2022
Referência: 28/ 34
Passo
Coordenação
Controle
Comando / 
Execução
Procedimentos Objetivo / Item de Controle
1
Centro do ONS
Centro do ONS
Agente
Baipassar, na SE A, o Banco de Capacitor 
Série Fixo da LT 500 kV A / B C1.
Exemplo 04
SE A - REATOR MANOBRÁVEL RE-01 345 kV / 80 Mvar DA LT 345 KV A / B
Consequência:
A UHE (nome da usina) não pode operar com uma unidade geradora sincronizada somente.
Passo
Coordenação
Controle
Comando e 
execução
Procedimento Objetivo/ Item de Controle
1
Centro do ONS
Centro do ONS
Agente
Operar com duas ou mais unidades 
geradoras na UHE (nome da usina). Caso não 
seja possível, desligar a UHE (nome da 
usina).
Exemplo 05:
SE A – REATOR LIMITADOR DE CORRENTE RE-01 500 kV
Consequência:
Desinterligação das Barras 02 e 04 da SE A
Manual de Procedimentos da Operação
 Referência Técnica Código Revisão Item Vigência
Elaboração de Instruções de Operação em 
Contingências RT-OC.BR 22 7.4. 29/04/2022
Referência: 29/ 34
Passo
Coordenação
Controle
Comando / 
Execução
Procedimentos Objetivo / Item de Controle
1
Centro do ONS
Centro do ONS
Agente
Interligar as barras 02 e 04 da SE A.
- Número de unidades geradoras 
sincronizadas nas UHEs (nome das 
usinas) conforme definido na (código do 
documento)
- Reator limitador de corrente isolado 
pelas respectivas chaves seccionadoras.
- Disjuntor de baipasse do reator 
limitador de corrente fechado.
3.12. ITEM 11. CONTINGÊNCIAS DE BANCOS DE CAPACITORES
(Subitem) 11.1. SE A – BANCO DE CAPACITORES BC-01 345 kV / 150 Mvar
Acima está descrita a itemização a ser seguida no item correspondente a contingências de bancos de capacitores. 
A ordenação deve utilizar como primeiro critério a ordem alfabética e, como segundo, o nível de tensão em 
ordem decrescente.
Obrigatoriamente deve constar nos subitens o nome da subestação e o código operacional conforme diagrama 
da instalação.
Caso não constem contingências de bancos de capacitores, o item deve ser suprimido.
Exemplo 01:
SE A – BANCO DE CAPACITORES BC-01 345 kV / 150 Mvar
Consequências: Subtensão no barramento de 230 kV da SE A.
Passo
Coordenação
Controle
Comando / 
Execução
Procedimento Objetivo / Item de Controle
1 Na ocorrência de subtensão no barramento de 230 kV da SE A, proceder conforme segue:
1.1
Centro do ONS
Centro do ONS
Agente
Elevar a tensão no barramento de 230 kV da 
SE A, atuando nos comutadores sob carga 
da transformação 525/230/13,8 kV dessa 
subestação.
Manual de Procedimentos da Operação
 Referência Técnica Código Revisão Item Vigência
Elaboração de Instruções de Operação em 
Contingências RT-OC.BR 22 7.4. 29/04/2022
Referência: 30/ 34
Passo
Coordenação
Controle
Comando / 
Execução
Procedimento Objetivo / Item de Controle
1.2
Centro do ONS
Centro do ONS
Agente
Atuar nos comutadores sob carga da 
transformação 230/138/13,8 kV da SE B.
Elevar a tensão no 138 kV da SE B.
3.13. ITEM 12. CONTINGÊNCIAS DE BANCOS DE CAPACITORES SÉRIE
(Subitem) 12.1. SE A – BANCO DE CAPACITORES SÉRIE BC-01 500 kV / 150 Mvar DA LT 500 kV A / B
Acima está descrita a itemização a ser seguida no item correspondente a contingências de bancos de capacitores 
série. A ordenação deve utilizar como primeiro critério a ordem alfabética e, como segundo, o nível de tensão 
em ordem decrescente.
Obrigatoriamente deve constar nos subitens o nome da subestação e o código operacional conforme diagrama 
da instalação.
Caso não constem contingências de bancos de capacitores série, o item deve ser suprimido.
Exemplo 01:
SE A - BANCO DE CAPACITORES SÉRIE BCS-01 500 kV / 150 Mvar DA LT 500 KV A / B C1 OU C2 OU C3
Consequência:
Redução dos níveis de confiabilidade da área (nome da área elétrica).
Passo
Coordenação
Controle
Comando, 
Execução.
Procedimentos Objetivo / Item de Controle
-
Destaque para os procedimentos considerando a contingência de outros equipamentos ou linhas de 
transmissão, estando o referido BCS indisponível:
Para que sejam atendidos os critérios de desempenho dinâmico, para o caso da contingência da LT XXX 
kV A / B adotar os procedimentos a seguir:
ou
Para que sejam atendidos os critérios de desempenho dinâmico em caso de perda adicional de uma 
Manual de Procedimentos da Operação
 Referência Técnica Código Revisão Item Vigência
Elaboração de Instruções de Operação em 
Contingências RT-OC.BR 22 7.4. 29/04/2022
Referência: 31/ 34
Passo
Coordenação
Controle
Comando, 
Execução.
Procedimentos Objetivo / Item de Controle
outra(s) linha(s) de transmissão, adotar os procedimentos a seguir:
ou
Na indisponibilidade do Banco de Capacitores Série BCS-01 500 kV / 150 Mvar da LT 500 kV A / B C1 ou 
C2 ou C3, adotar os procedimentos a seguir para prevenir contingência de outra linha de 500 kV da área.
1
Centros do ONS
Centros do ONS
--- Reduzir 200 MW nos limites de XXXX.
Atendimento dos critérios de 
desempenho dinâmico, para o caso da 
contingência de um dos circuitos da LT 
500 kV A / B.
Exemplo 02:
SE A - BANCO DE CAPACITORES SÉRIE BS-02 500 kV / 200 Mvar DA LT 500 KV A / B C1 OU C2 OU C3
Consequência:
Redução dos níveis de confiabilidade da área (nome da área elétrica).
Passo
Coordenação
Controle
Comando, 
Execução.
Procedimentos Objetivo / Item de Controle
-
Destaque para os procedimentos considerando a contingência de outros equipamentos ou linhas de 
transmissão, estando o referido BCS indisponível:
Para que sejam atendidos os critérios de desempenho dinâmico, para o caso da contingência da LT 
XXX kV A / B adotar os procedimentos a seguir:
ou
Para que sejam atendidos os critérios de desempenho dinâmico em caso de  perda adicional de uma 
outra(s) linha(s) de transmissão, adotar os procedimentos a seguir:
ou
Na indisponibilidade do Banco de Capacitores Série BCS-02 500 kV / 200 Mvar da LT 500 kV A / B C1 
ou C2 ou C3, adotar os procedimentos a seguir para prevenir contingência de outra linha de 500 kV da 
Manual de Procedimentos da Operação
 Referência Técnica Código Revisão Item Vigência
Elaboração de Instruções de Operação em 
Contingências RT-OC.BR 22 7.4. 29/04/2022
Referência: 32/ 34
Passo
Coordenação
Controle
Comando, 
Execução.
Procedimentos Objetivo / Item de Controle
área.
1
Centros do ONS
Centros do ONS
---
Limitar o somatório dos fluxos nas LTs 500 kV 
A / B C1, C2 e C3 em 3200 MW.
Evitar sobrecarga inadmissível no 
capacitor série remanescentes 
quando da contingência de um dos 
circuitos da LT 500 kV A / B.
3.14. ITEM 13. CONTINGÊNCIAS DE DISJUNTORES
(Subitem) 16.1. SE A – DISJUNTOR DJ-01 XX kV
Acima está descrita a itemização a ser seguida no item correspondente a contingências de disjuntores. A 
ordenação deve utilizar como primeiro critério a ordem alfabética e, como segundo, o nível de tensão em ordem 
decrescente.
Obrigatoriamente deve constar nos subitens o nome da subestação e o código operacional conforme diagrama 
da instalação.
Caso não constem contingências de disjuntores, o item deve ser suprimido.
Exemplo 01:
SE E – DISJUNTOR 906 OU 916 500 kV
Consequência:
Caso a corrente no disjuntor remanescente seja igual ou superior a 4000 A controle do Bipolo comanda ação de 
Run Back de valor correspondente.
Manual de Procedimentos da Operação
 Referência Técnica Código Revisão Item Vigência
Elaboração de Instruções de Operação em 
Contingências RT-OC.BR 22 7.4. 29/04/2022
Referência: 33/ 34
Passo
Coordenação
Controle
Comando/ 
Execução
Procedimento Item de Controle / Objetivo
1
Centro do ONS
Centro do ONS
Agente
Limitar a potência do Bipolo em função do 
limite de corrente do disjuntor 906 ou 916.
Evitar sobrecarga no disjuntor 
remanescente (906 ou 916).
3.15. ITEM 14. CONTINGÊNCIAS DE UNIDADES GERADORAS
(Subitem) 14.1. UHE A – UMA UNIDADE GERADORA (UG-01 A UG-05) 250 MW
Acima está descrita a itemização a ser seguida no item correspondente a contingências de unidades geradoras. 
A ordenação deve utilizar como critério a ordem alfabética.
Obrigatoriamente deve constar nos subitens o nome da usina e o código operacional conforme diagrama da 
instalação.
Caso não constem contingências de unidades geradoras, o item deve ser suprimido.
Os itens a seguir são aplicáveis apenas às áreas elétricas que contêm funções transmissão conversoras.
3.16. ITEM 15. CONTINGÊNCIAS DE POLOS OU BIPOLOS OU CONVERSORAS
(Subitem) 15.1. – UM POLO (Especificar os Bipolos ou Polos envolvidos) 
(Subitem) 15.2. – UM BIPOLO (Especificar os Bipolos envolvidos)
(Subitem) 15.3. – DOIS POLOS (Especificar os Bipolos ou Polos envolvidos)
(Subitem) 15.4. SE A – BACK TO BACK 1 OU 2 
(Subitem) 15.5. SE A – UMA CONVERSORA
(Subitem) 15.6. SE A – DUAS CONVERSORAS
(Subitem) 15.7. SE A – ATÉ TRÊS CONVERSORAS
Acima está descrita a itemização a ser seguida no item correspondente a contingências de polos, bipolos e 
conversores. 
3.17. ITEM 16. CONTINGÊNCIAS DE ELETRODO DE TERRA
(Subitem) 16.1. SE A
Acima está descrita a itemização a ser seguida no item correspondente a contingências de eletrodo de terra. A 
ordenação deve utilizar como critério a ordem alfabética.
Manual de Procedimentos da Operação
 Referência Técnica Código Revisão Item Vigência
Elaboração de Instruções de Operação em 
Contingências RT-OC.BR 22 7.4. 29/04/2022
Referência: 34/ 34
Obrigatoriamente deve constar nos subitens o nome da usina e o código operacional conforme diagrama da 
instalação.
3.18. ITEM 17. CONTINGÊNCIAS DE FILTROS CA E BANCOS DE CAPACITORES
(Subitem) 17.1. SE A - FILTROS CA E BANCOS DE CAPACITORES DO BIPOLO A
(Subitem) 17.2. SE B - FILTROS CA E BANCOS DE CAPACITORES DO BIPOLO A
Acima está descrita a itemização a ser seguida no item correspondente a contingências de Filtros CA e Bancos de 
Capacitores. A ordenação deve utilizar como critério a ordem alfabética.
Obrigatoriamente deve constar nos subitens o nome da usina e o código operacional conforme diagrama da 
instalação.
3.19. ITEM 18. CONTINGÊNCIAS DE FILTROS CC
(Subitem) 18.1. SE A – FILTROS CC DO BIPOLO A 
(Subitem) 18.2. SE B  – FILTROS CC DO BIPOLO A 
Acima está descrita a itemização a ser seguida no item correspondente a contingências de Filtros CC. A ordenação 
deve utilizar como critério a ordem alfabética.
Obrigatoriamente deve constar nos subitens o nome da usina e o código operacional conforme diagrama da 
instalação.
3.20. ITEM 19. CONTINGÊNCIAS DE CONTROLE MESTRE
(Subitem) 19.1. SE A
Acima está descrita a itemização a ser seguida no item correspondente a contingências de Controle Mestre. 
3.21. ITEM 20. CONTINGÊNCIAS DE COMUNICAÇÃO
(Subitem) 20.1. ENTRE A SE A E SE B
(Subitem) 20.1. ENTRE BIPOLO A E CONTROLE MESTRE
Acima está descrita a itemização a ser seguida no item correspondente a contingências de comunicação. 
